<?xml version="1.0" encoding="UTF-8" standalone="no"?>
<svg
   id="svg2"
   version="1.1"
   inkscape:version="1.2.1 (9c6d41e410, 2022-07-14)"
   width="2481"
   height="3503"
   sodipodi:docname="E33P07.svg"
   xmlns:inkscape="http://www.inkscape.org/namespaces/inkscape"
   xmlns:sodipodi="http://sodipodi.sourceforge.net/DTD/sodipodi-0.dtd"
   xmlns:xlink="http://www.w3.org/1999/xlink"
   xmlns="http://www.w3.org/2000/svg"
   xmlns:svg="http://www.w3.org/2000/svg"
   xmlns:rdf="http://www.w3.org/1999/02/22-rdf-syntax-ns#"
   xmlns:cc="http://creativecommons.org/ns#"
   xmlns:dc="http://purl.org/dc/elements/1.1/">
  <metadata
     id="metadata8">
    <rdf:RDF>
      <cc:Work
         rdf:about="">
        <dc:format>image/svg+xml</dc:format>
        <dc:type
           rdf:resource="http://purl.org/dc/dcmitype/StillImage" />
        <dc:title />
      </cc:Work>
    </rdf:RDF>
  </metadata>
  <defs
     id="defs6">
    <filter
       x="-0.012981614"
       width="1.0190166"
       height="1.12777"
       inkscape:label="magic-numbers_orange"
       id="filter4375-4-1-1-1-9-5-8-8-3-3-3-6-1-6"
       style="color-interpolation-filters:sRGB"
       y="-0.0079385424">
      <feFlood
         radius="5.0999999999999996"
         result="flood"
         flood-color="rgb(216,88,33)"
         flood-opacity="1"
         id="feFlood4377-7-9-0-8-1-7-3-1-6-61-6-2-0-2" />
      <feComposite
         baseFrequency="0.053999999999999999 0.053999999999999999"
         result="composite1"
         operator="in"
         in="flood"
         in2="SourceGraphic"
         id="feComposite4379-3-8-8-2-77-4-1-0-7-2-7-6-6-6" />
      <feMorphology
         result="result3"
         radius="0.96959439099754563"
         operator="dilate"
         id="feMorphology4393-1-0-49-8-9-3-0-1-5-9-5-1-3-1" />
      <feComposite
         numOctaves="4"
         result="fbSourceGraphic"
         operator="over"
         in="SourceGraphic"
         in2="result3"
         id="feComposite4385-9-5-7-0-8-8-7-5-3-3-3-8-2-8" />
      <feColorMatrix
         id="feColorMatrix4544-9-5-1-5-7-0-7"
         values="0 0 0 -1 0 0 0 0 -1 0 0 0 0 -1 0 0 0 0 1 0"
         in="fbSourceGraphic"
         result="fbSourceGraphicAlpha" />
      <feTurbulence
         result="turbulence"
         baseFrequency="0.062 0.054054054054054057"
         seed="172"
         numOctaves="4.4123222748815163"
         type="fractalNoise"
         id="feTurbulence4546-3-6-9-6-9-6-9" />
      <feDisplacementMap
         result="fbSourceGraphic"
         xChannelSelector="R"
         yChannelSelector="G"
         scale="11.642079"
         in="fbSourceGraphic"
         in2="turbulence"
         id="feDisplacementMap4548-8-2-4-2-2-1-20" />
      <feColorMatrix
         scale="10.800000000000001"
         id="feColorMatrix4670-7-9-7-9-0-5-2"
         values="0 0 0 -1 0 0 0 0 -1 0 0 0 0 -1 0 0 0 0 1 0"
         in="fbSourceGraphic"
         result="fbSourceGraphicAlpha" />
      <feComposite
         result="composite1"
         operator="in"
         in="flood"
         in2="fbSourceGraphic"
         id="feComposite4674-8-2-4-1-2-5-3" />
      <feGaussianBlur
         result="blur"
         stdDeviation="0.01"
         in="composite1"
         id="feGaussianBlur4676-3-7-50-2-3-4-7" />
      <feOffset
         result="offset"
         dy="5.2374444725016502"
         dx="-0.42771311737301687"
         id="feOffset4678-6-0-3-7-7-7-5" />
      <feComposite
         result="composite2"
         operator="over"
         in="fbSourceGraphic"
         in2="offset"
         id="feComposite4680-4-9-6-0-5-6-9" />
      <feGaussianBlur
         stdDeviation="0.01"
         id="feGaussianBlur58-9-9-5-2" />
      <feOffset
         dx="0"
         dy="0"
         id="feOffset60-3-2-6-2" />
    </filter>
    <filter
       style="color-interpolation-filters:sRGB"
       id="filter4375-4-1-1-1-9-5-8-8-3-3-7-4-1"
       inkscape:label="magic-numbers_cyan"
       height="1.269618"
       width="1.2339602"
       x="-0.12231759"
       y="-0.085030163">
      <feFlood
         id="feFlood4377-7-9-0-8-1-7-3-1-6-61-3-5-4"
         flood-opacity="1"
         flood-color="rgb(15,126,119)"
         result="flood"
         radius="5.0999999999999996" />
      <feComposite
         id="feComposite4379-3-8-8-2-77-4-1-0-7-2-6-2-9"
         in2="SourceGraphic"
         in="flood"
         operator="in"
         result="composite1"
         baseFrequency="0.053999999999999999 0.053999999999999999" />
      <feMorphology
         id="feMorphology4393-1-0-49-8-9-3-0-1-5-9-1-5-2"
         operator="dilate"
         radius="0.96959439099754563"
         result="result3" />
      <feComposite
         id="feComposite4385-9-5-7-0-8-8-7-5-3-3-2-4-0"
         in2="result3"
         in="SourceGraphic"
         operator="over"
         result="fbSourceGraphic"
         numOctaves="4" />
      <feColorMatrix
         result="fbSourceGraphicAlpha"
         in="fbSourceGraphic"
         values="0 0 0 -1 0 0 0 0 -1 0 0 0 0 -1 0 0 0 0 1 0"
         id="feColorMatrix4544-9-5-1-9-7-6" />
      <feTurbulence
         id="feTurbulence4546-3-6-9-3-4-8"
         type="fractalNoise"
         numOctaves="4.4123222748815163"
         seed="172"
         baseFrequency="0.062 0.054054054054054057"
         result="turbulence" />
      <feDisplacementMap
         id="feDisplacementMap4548-8-2-4-1-4-9"
         in2="turbulence"
         in="fbSourceGraphic"
         scale="11.642079"
         yChannelSelector="G"
         xChannelSelector="R"
         result="fbSourceGraphic" />
      <feColorMatrix
         result="fbSourceGraphicAlpha"
         in="fbSourceGraphic"
         values="0 0 0 -1 0 0 0 0 -1 0 0 0 0 -1 0 0 0 0 1 0"
         id="feColorMatrix4670-7-9-7-9-3-2"
         scale="10.800000000000001" />
      <feComposite
         id="feComposite4674-8-2-4-4-0-6"
         in2="fbSourceGraphic"
         in="flood"
         operator="in"
         result="composite1" />
      <feGaussianBlur
         id="feGaussianBlur4676-3-7-50-7-7-6"
         in="composite1"
         stdDeviation="1.5865199271065846"
         result="blur" />
      <feOffset
         id="feOffset4678-6-0-3-8-8-4"
         dx="-0.42771311737301687"
         dy="5.2374444725016502"
         result="offset" />
      <feComposite
         id="feComposite4680-4-9-6-4-6-9"
         in2="offset"
         in="fbSourceGraphic"
         operator="over"
         result="composite2" />
      <feGaussianBlur
         id="feGaussianBlur58-5-8-5"
         stdDeviation="0.01" />
      <feOffset
         id="feOffset60-0-8-0"
         dy="0"
         dx="0" />
    </filter>
  </defs>
  <sodipodi:namedview
     pagecolor="#ffffff"
     bordercolor="#666666"
     borderopacity="1"
     objecttolerance="10"
     gridtolerance="10"
     guidetolerance="10"
     inkscape:pageopacity="0"
     inkscape:pageshadow="2"
     inkscape:window-width="1261"
     inkscape:window-height="1388"
     id="namedview4"
     showgrid="false"
     inkscape:zoom="0.4665165"
     inkscape:cx="1261.4774"
     inkscape:cy="2620.4861"
     inkscape:window-x="1283"
     inkscape:window-y="36"
     inkscape:window-maximized="1"
     inkscape:current-layer="layer1"
     inkscape:document-rotation="0"
     inkscape:snap-global="false"
     inkscape:showpageshadow="2"
     inkscape:pagecheckerboard="0"
     inkscape:deskcolor="#d1d1d1" />
  <g
     inkscape:groupmode="layer"
     id="layer2"
     inkscape:label="artwork"
     sodipodi:insensitive="true">
    <image
       xlink:href="../gfx_Pepper-and-Carrot_by-David-Revoy_E33P07.png"
       y="0"
       x="0"
       id="image10"
       height="3503"
       width="2481" />
  </g>
  <g
     inkscape:groupmode="layer"
     id="layer3"
     inkscape:label="speechbubbles">
    <path
       sodipodi:nodetypes="ccssssssc"
       inkscape:connector-curvature="0"
       id="path3278-1"
       d="m 955.50058,1402.1797 c -57.14689,-0.6806 -114.40377,-4.4952 -170.80295,-14.7444 -22.91025,-4.9403 -45.79012,-14.4968 -62.75933,-32.2751 -17.57198,-18.0127 -28.33226,-42.6421 -32.86451,-68.0533 -8.31242,-37.3997 -9.62026,-77.3102 0.74442,-114.4094 12.20496,-45.2666 38.6462,-86.5023 75.2686,-112.8442 24.12339,-16.4765 51.44653,-26.3895 78.65501,-35.187 26.89645,-7.8275 54.90543,-9.1213 82.61042,-10.0702 30.73339,-1.374 61.60151,-2.1549 92.25046,1.254 32.8932,3.2512 65.5966,8.3414 98.434,12.1405 25.322,3.4763 51.1327,8.091 74.0171,20.8792 26.4222,15.0729 46.6557,40.7736 59.1864,69.6599 12.0124,26.7045 20.6969,55.3873 23.3099,85.0091 2.5413,27.2198 2.0169,54.8064 -1.8044,81.8588 -3.3048,21.3299 -10.8967,42.457 -24.702,58.53 -21.1243,25.4523 -51.8312,40.893 -83.3346,43.7519 -43.2416,6.4645 -86.7696,10.7137 -130.3769,12.9359 -25.9273,1.2115 -51.88124,1.6363 -77.83162,1.5643 z"
       style="opacity:1;fill:#ffffff;stroke:none;stroke-width:1.06386" />
    <path
       sodipodi:nodetypes="cccsscc"
       inkscape:connector-curvature="0"
       id="path3970-36-4-2-3"
       d="m 1843.0346,2629.2442 c -21.7116,1.2348 -43.3777,3.536 -65.0093,6.0025 -36.1948,4.5105 -72.7706,8.7029 -107.6701,21.2176 -15.3688,5.3139 -29.3043,15.665 -40.4221,28.8658 -10.4244,12.6172 -18.4414,28.5612 -20.0111,46.0853 -3.2779,30.2844 8.1887,62.1502 29.4912,80.5762 24.102,23.2908 55.1586,33.8173 85.5171,40.8397 36.8436,8.5675 74.3714,12.683 111.8815,14.8348 43.4506,1.4663 87.7287,-1.8042 129.1645,-17.8996 22.6344,-9.3396 44.5966,-25.049 56.835,-49.4915 14.427,-28.7562 14.0339,-66.9161 -2.3969,-94.5081 -14.6025,-25.9617 -38.4534,-43.1983 -63.396,-53.5497 -27.6455,-11.5431 -56.8471,-17.1206 -85.9411,-21.2887 -9.3158,-1.0989 -18.6758,-1.7321 -28.0427,-1.6843 z"
       style="color:#000000;display:inline;overflow:visible;visibility:visible;fill:#ffffff;fill-opacity:1;fill-rule:nonzero;stroke:none;stroke-width:1.15269px;marker:none;enable-background:accumulate" />
    <path
       sodipodi:nodetypes="ccscc"
       inkscape:connector-curvature="0"
       id="path4440-3"
       d="m 1628.7471,2767.6346 c -108.6283,-52.869 -136.7629,50.9509 -219.7865,3.3934 64.8225,28.9401 124.6197,-90.8503 208.5357,-36.2563 33.5739,21.8425 26.7527,-34.846 26.7527,-34.846 z"
       style="color:#000000;display:inline;overflow:visible;visibility:visible;fill:#ffffff;fill-opacity:1;fill-rule:nonzero;stroke:none;stroke-width:1px;marker:none;enable-background:accumulate" />
    <path
       inkscape:connector-curvature="0"
       id="path1355"
       d="m 1814.4771,1704.6495 c 0.4448,-11.7403 5.7803,-33.2638 13.7838,-37.1773 8.0034,-3.9133 30.2352,-3.9133 34.6816,-1.9563 4.4462,1.9563 11.5605,16.3054 13.3391,22.1757 1.7786,5.87 6.6694,26.741 -1.334,35.2202 -8.0034,8.4791 -16.0069,15.0013 -24.4549,14.349 -8.4482,-0.6523 -25.3444,-5.2181 -29.346,-13.0443 -4.0019,-7.8268 -6.6696,-19.567 -6.6696,-19.567 z"
       style="fill:#ffffff;fill-rule:evenodd;stroke:none;stroke-width:1px;stroke-linecap:butt;stroke-linejoin:miter;stroke-opacity:1" />
    <path
       sodipodi:nodetypes="zssssz"
       inkscape:connector-curvature="0"
       id="path4040-4-5-3-6"
       d="m 196.77794,1891.0092 c 21.83883,-13.457 177.60883,-26.3446 221.82336,8.2519 36.90526,28.8772 34.53726,85.4493 0.73733,106.7119 -34.43464,21.6607 -165.66009,14.0102 -216.37918,3.6371 -47.76138,-9.7679 -46.89722,-33.3786 -45.59448,-74.5334 0.5317,-16.7961 17.57425,-30.6115 39.41297,-44.0675 z"
       style="color:#000000;display:inline;overflow:visible;visibility:visible;fill:#ffffff;fill-opacity:1;fill-rule:nonzero;stroke:none;stroke-width:1.05546px;marker:none;enable-background:accumulate" />
    <path
       sodipodi:nodetypes="ccscc"
       inkscape:connector-curvature="0"
       id="path4248"
       d="m 2188.3092,1563.8723 c 34.6776,75.0182 -2.1391,152.7694 -20.7926,179.1784 15.7673,-13.367 86.6043,-98.9813 59.3653,-176.0012 -19.1833,-54.242 -28.9658,-19.1371 -28.9658,-19.1371 z"
       style="fill:#ffffff;fill-rule:evenodd;stroke:none;stroke-width:0.999999px;stroke-linecap:butt;stroke-linejoin:miter;stroke-opacity:1" />
    <path
       sodipodi:nodetypes="zssssz"
       inkscape:connector-curvature="0"
       id="path4040-4-5-3"
       d="m 456.80078,1991.75 c -42.41514,0.4303 -85.2813,2.1946 -126.53711,12.8906 -16.00036,4.5215 -28.76661,15.66 -42.41538,24.5932 -8.87296,5.7349 -17.75486,11.8474 -24.30775,20.275 -5.16519,6.2581 -8.21981,13.9137 -10.12675,21.7282 -4.71156,18.4744 -2.75976,39.2745 8.12013,55.2849 10.08081,14.9844 26.30166,25.0269 43.55109,29.6966 25.53882,7.93 52.34259,10.0195 78.75768,13.1926 55.34978,5.5491 111.3713,7.2396 166.6953,0.4919 16.69847,-2.422 33.88978,-5.8712 48.18078,-15.3349 16.68173,-11.7606 26.58376,-31.3797 29.16501,-51.3429 2.94028,-21.1035 -2.97982,-43.4524 -16.77145,-59.8128 -13.93712,-17.4575 -33.70521,-29.463 -54.6416,-36.6949 -14.85647,-5.2355 -30.24642,-8.8851 -45.75417,-11.5706 -17.82216,-2.7773 -35.89782,-3.5695 -53.91578,-3.3969 z"
       style="color:#000000;display:inline;overflow:visible;visibility:visible;fill:#ffffff;fill-opacity:1;fill-rule:nonzero;stroke:none;stroke-width:1px;marker:none;enable-background:accumulate" />
    <path
       sodipodi:nodetypes="ccszc"
       inkscape:connector-curvature="0"
       id="path4064-3"
       d="m 350.69972,1902.0737 c 41.26622,-10.6222 105.42769,-33.765 58.36397,-103.5756 17.39224,9.6109 81.79336,86.4471 -32.06947,127.1196 -33.03955,11.8021 -26.40006,-1.4387 -31.37798,-6.8202 -4.97793,-5.3817 5.08348,-16.7238 5.08348,-16.7238 z"
       style="color:#000000;display:inline;overflow:visible;visibility:visible;opacity:1;fill:#ffffff;fill-opacity:1;fill-rule:nonzero;stroke:none;stroke-width:0.999997px;marker:none;enable-background:accumulate" />
    <path
       sodipodi:nodetypes="ccccccsscc"
       inkscape:connector-curvature="0"
       id="path1081"
       d="m 952.73132,1335.0928 c -35.82187,19.2298 -42.44405,25.0497 -51.67218,35.2517 -9.22809,10.2021 -10.71719,34.223 0.007,47.9588 10.72379,13.7357 7.97474,36.1368 -5.93755,41.9385 -13.91228,5.8017 -68.6801,26.3291 -30.10548,69.6789 -31.80797,-48.4001 27.22562,-50.2412 37.26612,-53.8355 20.96554,-7.326 32.38767,-21.6624 25.23114,-50.6365 -7.15657,-28.9741 -13.26827,-47.0437 37.16901,-61.4862 50.43712,-14.4425 -11.9577,-28.8697 -11.9577,-28.8697 z"
       style="fill:#ffffff;fill-rule:evenodd;stroke:none;stroke-width:0.999996px;stroke-linecap:butt;stroke-linejoin:miter;stroke-opacity:1" />
    <path
       sodipodi:nodetypes="ccscscc"
       inkscape:connector-curvature="0"
       id="path3992-0"
       d="M 1943.0254 988.71484 C 1896.3452 988.87909 1849.2964 987.67005 1803.1187 995.71784 C 1784.2102 998.64232 1765.2501 1005.4906 1751.1215 1018.7986 C 1705.6011 1058.9336 1688.3414 1127.7544 1709.4154 1184.6481 C 1717.1612 1206.0457 1732.3575 1224.6097 1751.7947 1236.4452 C 1777.0812 1252.4011 1806.0467 1261.5811 1835.2601 1267.1293 C 1865.1803 1272.5453 1895.6984 1271.9278 1925.9694 1272.8701 C 1972.699 1273.6403 2019.4331 1272.6597 2066.165 1272.8445 C 2095.8706 1272.8195 2125.6031 1272.82 2155.2558 1270.8135 C 2193.0352 1268.4707 2230.7144 1264.7881 2268.4527 1261.9036 C 2287.4525 1260.0841 2306.1946 1253.3736 2321.1359 1241.3273 C 2337.1797 1228.476 2348.7933 1210.8049 2356.8155 1192.0405 C 2370.3388 1159.5867 2373.8263 1122.9175 2366.1833 1088.5652 C 2363.0843 1075.1096 2358.4674 1061.8814 2351.5215 1049.9102 C 2340.2384 1031.1851 2322.275 1016.5666 2301.5309 1009.5891 C 2282.0124 1002.4513 2261.0583 1001.2002 2240.4957 1000.1047 C 2169.6595 995.03355 2098.7975 988.88458 2027.7229 988.96816 C 1999.4915 988.65846 1971.2579 988.72353 1943.0254 988.71484 z "
       style="color:#000000;display:inline;overflow:visible;visibility:visible;opacity:1;vector-effect:none;fill:#ffffff;fill-opacity:1;fill-rule:nonzero;stroke:none;stroke-width:1.1352;stroke-linecap:butt;stroke-linejoin:miter;stroke-miterlimit:4;stroke-dasharray:none;stroke-dashoffset:0;stroke-opacity:1;marker:none;paint-order:stroke fill markers;enable-background:accumulate" />
    <path
       sodipodi:nodetypes="csssc"
       inkscape:connector-curvature="0"
       id="path3280-8-0-3"
       d="M 2147.1719 1218.2012 C 2050.9451 1221.6694 1954.804 1227.6649 1858.9063 1236.3325 C 1835.8353 1240.3601 1815.8798 1255.9582 1803.8329 1275.7024 C 1788.4617 1301.2861 1783.0203 1332.7633 1789.2265 1361.9809 C 1793.4558 1381.1555 1803.2888 1398.9675 1817.0131 1412.9837 C 1840.1592 1437.5391 1871.1063 1453.7993 1903.5332 1462.3301 C 1933.9107 1470.2374 1965.4081 1471.984 1996.6124 1473.7977 C 2028.2202 1475.2991 2059.9157 1475.4121 2091.5132 1473.6576 C 2126.4193 1470.2516 2160.0518 1459.2951 2194.8571 1455.2585 C 2221.0679 1453.3632 2247.417 1459.875 2273.5039 1455.2168 C 2293.5793 1451.59 2312.4635 1440.8738 2325.1504 1424.7929 C 2342.7919 1404.4039 2351.4266 1377.6639 2353.8852 1351.1482 C 2356.1832 1324.4676 2349.2773 1296.4699 2332.3033 1275.4343 C 2321.3687 1262.1443 2307.2165 1251.7816 2292.1114 1243.6947 C 2264.7267 1229.2255 2233.8888 1222.7163 2203.2535 1219.9414 C 2184.9817 1218.3445 2166.6151 1217.8593 2148.2811 1218.1675 C 2147.9114 1218.1787 2147.5416 1218.19 2147.1719 1218.2012 z "
       style="fill:#ffffff;stroke:none;stroke-width:1.02124" />
    <path
       sodipodi:nodetypes="csssc"
       inkscape:connector-curvature="0"
       id="path3280-8-3"
       d="m 2014.6953,1507.0507 c -1.3355,-18.2238 22.6083,-63.845 139.4052,-60.4134 116.797,3.4316 153.3526,23.4764 156.7753,55.8693 5.4146,51.2441 -56.0324,64.9381 -144.2643,68.7339 -90.9576,3.9126 -153.3279,-31.2628 -151.9162,-64.1898 z"
       style="display:inline;fill:#ffffff;stroke:none;stroke-width:1.14575" />
    <path
       sodipodi:nodetypes="zssssz"
       inkscape:connector-curvature="0"
       id="path4040-4-5-3-6-9"
       d="m 664.73755,2329.3536 c -39.68342,0.9431 -79.95317,1.5109 -118.47306,10.3341 -29.06941,7.1679 -53.10634,25.3367 -67.04863,47.3319 -7.76642,11.9579 -8.9218,25.8654 -8.52253,39.1769 0.67466,13.7749 1.36514,27.823 7.02873,40.9385 5.74248,14.2715 17.47799,26.8064 32.86488,34.8673 13.74813,7.4581 29.66481,11.6091 45.70519,14.1637 17.62473,3.2772 35.36108,6.2219 53.32111,7.9352 23.63669,2.2578 47.4133,3.5869 71.20208,3.9787 37.35548,0.4141 75.63965,-2.6635 110.19354,-15.1439 22.81078,-8.2595 44.24234,-20.4276 58.73287,-37.4043 11.03906,-13.3898 16.46425,-30.0129 14.06847,-46.1595 -2.01583,-18.6675 -10.54415,-36.5982 -22.6793,-52.3222 -17.04038,-20.1644 -44.22336,-33.7923 -73.28591,-38.4851 -30.90323,-6.207 -62.75154,-8.6849 -94.4949,-9.2211 -2.87076,-0.033 -5.74167,0.01 -8.61254,0.01 z"
       style="color:#000000;display:inline;overflow:visible;visibility:visible;fill:#ffffff;fill-opacity:1;fill-rule:nonzero;stroke:none;stroke-width:1.098px;marker:none;enable-background:accumulate" />
    <path
       inkscape:transform-center-y="-44.934884"
       inkscape:transform-center-x="2.8585098"
       inkscape:connector-curvature="0"
       id="path4496-9"
       d="m 703.25853,2604.1619 c 5.74791,-18.2394 15.11069,-23.7603 -2.63313,-35.0414 -23.03586,-18.9893 -49.6494,-13.1342 -53.36056,-71.625 3.60381,-16.905 6.37301,-34.8451 22.50989,-40.1615 10.4995,-2.3974 21.75171,4.8293 22.24702,16.1202 0.34778,5.946 -3.23944,11.606 -7.58281,15.6001 -6.82528,8.7682 -8.75807,20.6527 -5.8829,30.4945 7.45665,22.1143 23.5538,29.0237 41.10442,37.1506 9.41557,9.8401 11.78207,17.5562 5.80293,30.6148 -26.3563,44.5568 16.67184,58.2897 35.27406,70.5123 -19.70092,-4.8478 -67.11382,-28.0517 -57.47892,-53.6646 z"
       style="color:#000000;display:inline;overflow:visible;visibility:visible;fill:#ffffff;fill-opacity:1;fill-rule:nonzero;stroke:none;stroke-width:1px;marker:none;enable-background:accumulate"
       sodipodi:nodetypes="ccccccccccc" />
    <path
       sodipodi:nodetypes="cccsscc"
       inkscape:connector-curvature="0"
       id="path3970-36-4"
       d="m 1462.0297,2511.2556 c -102.435,-1.4482 -145.6962,-18.5233 -170.9598,-44.0236 -25.2636,-25.5011 -4.2801,-66.671 40.1051,-81.2488 44.3852,-14.578 104.4368,-16.0552 173.948,-14.1261 125.6027,3.4884 212.5996,14.4781 222.4342,54.0223 9.7651,39.2626 1.9267,60.0931 -90.4011,78.7911 -86.9156,10.7602 -175.1264,6.5851 -175.1264,6.5851 z"
       style="color:#000000;display:inline;overflow:visible;visibility:visible;fill:#ffffff;fill-opacity:1;fill-rule:nonzero;stroke:none;stroke-width:1.23743px;marker:none;enable-background:accumulate" />
    <path
       style="color:#000000;display:inline;overflow:visible;visibility:visible;fill:#ffffff;fill-opacity:1;fill-rule:nonzero;stroke:none;stroke-width:1.16486px;marker:none;enable-background:accumulate"
       d="m 1665.0081,2487.4355 c -28.4629,1.5587 -56.9314,3.1642 -85.3622,5.4893 -23.6691,1.9074 -47.2849,4.61 -70.9106,7.1272 -13.6584,1.3592 -27.1275,5.0454 -39.8961,10.5992 -12.166,5.4448 -23.7784,12.8415 -33.346,22.7701 -13.6155,15.1683 -18.8837,38.4727 -13.4733,58.5676 2.9635,10.2587 8.3627,19.5568 14.9667,27.4699 10.2445,12.1489 23.7988,20.531 38.1511,25.6748 23.3583,9.0355 47.848,13.9542 71.9896,19.9544 28.0247,6.1498 56.8395,7.0992 85.4227,5.8035 22.9554,-0.7745 45.9132,-2.1782 68.7883,-4.6679 27.3094,-3.3271 54.6174,-8.7129 80.6063,-18.8875 17.2999,-6.9877 34.1634,-16.5632 47.4181,-30.8141 10.0299,-11.8332 14.0659,-28.2397 14.3249,-43.9072 0.182,-14.3088 -4.0373,-28.852 -12.9299,-39.4589 -11.3671,-14.1125 -27.3322,-22.7482 -43.57,-28.4628 -24.228,-8.3717 -49.7875,-10.534 -74.938,-13.9279 -15.6648,-1.9973 -31.4169,-3.7736 -47.2416,-3.3297 z"
       id="path3970-36-4-2"
       inkscape:connector-curvature="0"
       sodipodi:nodetypes="cccsscc" />
    <path
       inkscape:connector-curvature="0"
       id="path3072-5-5"
       d="m 1869.3292,1763.0277 c -14.8181,-0.6595 -18.7264,-9.2129 -18.2181,-35.4706 0.5083,-26.2571 -6.2661,-24.362 -6.2661,-24.362 l -6.9729,16.6564 c 0,0 1.6221,55.3263 31.4571,43.1762 z"
       style="color:#000000;display:inline;overflow:visible;visibility:visible;fill:#ffffff;fill-opacity:1;fill-rule:nonzero;stroke:none;stroke-width:1px;marker:none;enable-background:accumulate"
       sodipodi:nodetypes="csccc" />
    <path
       sodipodi:nodetypes="cscsc"
       inkscape:connector-curvature="0"
       id="path912"
       d="m 908.19707,140.73428 c -23.27565,0.55056 -46.99555,0.87351 -69.41715,7.88874 -23.4538,7.34338 -44.8221,22.73166 -57.32193,44.11788 -13.00868,23.28208 -9.52548,54.15162 7.28144,74.63258 14.5161,17.54579 35.34829,29.06129 57.2524,34.58214 22.01365,5.74466 44.6452,9.69907 67.45675,9.61655 13.92648,0.043 27.83179,-1.54052 41.43298,-4.50964 17.72195,-3.50772 35.43285,-7.30564 52.68184,-12.72464 16.3677,-5.48131 32.4562,-13.56643 44.1239,-26.59384 11.079,-12.60043 16.2795,-30.23087 13.3196,-46.7977 -1.8137,-12.38081 -7.702,-24.45207 -17.5791,-32.36276 -25.7954,-23.48509 -58.75009,-38.45485 -92.95511,-44.58852 -15.25272,-2.7632 -30.8032,-3.399 -46.27562,-3.26079 z"
       style="fill:#ffffff;fill-rule:evenodd;stroke:none;stroke-width:0.977214px;stroke-linecap:butt;stroke-linejoin:miter;stroke-opacity:1" />
    <path
       d="m 796.38806,253.26629 c 0.0845,2.25192 3.22337,4.74593 5.59632,5.05268 0,0 2.54222,0.45596 4.60197,-0.0294 0.37769,0.0596 6.63382,-1.0982 6.49266,-8.21406 l -1.65193,-8.61638 c 0.8799,-0.15078 3.72125,-1.41287 4.59537,-1.88482 2.3984,-1.29588 3.40148,-3.09481 4.30471,-4.43007 0.99554,-1.99533 1.57431,-3.35461 1.49404,-5.49299 -0.20284,-5.40684 -5.56053,-9.6374 -11.96606,-9.44893 -0.92327,0.027 -1.81711,0.14337 -2.67218,0.34364 l -1.40556,-6.91288 c 4.18255,-4.19405 8.3894,-9.32211 9.69316,-13.94593 1.21966,-6.09324 0.37438,-10.16016 -3.52844,-11.79857 -3.5483,-0.58638 -7.67202,3.59985 -9.96921,9.539 -1.51792,3.17978 0.78995,9.10039 1.81806,11.52923 -6.68582,5.78015 -13.39541,9.98158 -13.74544,19.66914 0.28405,7.56986 7.78449,13.49206 16.75142,13.22833 0.85685,-0.0249 2.27271,-0.0503 3.87625,-0.27383 l 1.08192,8.62187 c 0,0 0.52789,6.31387 -5.14256,7.33829 -2.25047,0.4063 -4.41852,0.8642 -3.83799,-0.41876 1.73468,-0.82673 3.74257,-2.12294 3.66654,-4.15005 -0.0947,-2.52304 -2.4222,-4.50235 -5.1974,-4.42088 -2.7763,0.0816 -4.95043,2.1931 -4.85567,4.71688 z m 8.74333,-38.9876 1.31155,6.45899 c -4.6851,1.37342 -7.98364,5.19713 -7.81852,9.59637 0.1868,4.97811 7.3278,7.09238 7.09231,5.9165 -2.7876,-0.92016 -3.84883,-2.01554 -3.94967,-4.70289 -0.11403,-3.03841 2.25091,-5.66275 5.55369,-6.48738 l 3.11976,15.37696 c -0.56636,0.14694 -1.17858,0.27596 -1.84324,0.38361 -9.67167,0.12035 -14.37777,-4.08648 -14.66181,-11.65558 -0.15887,-4.2402 5.57542,-9.30577 11.19542,-14.88578 z m 6.04423,25.9464 -3.11013,-15.31735 c 0.3857,-0.0614 0.7833,-0.1022 1.18863,-0.11285 4.26961,-0.12605 7.84143,2.69482 7.97671,6.29862 0.0233,2.90225 0.0216,7.22552 -6.05512,9.13233 z m -6.60186,-32.24768 c -1.92855,-4.90906 -0.4462,-7.42733 0.50502,-9.35807 2.24834,-4.55803 4.3132,-6.25199 6.42367,-7.77212 2.8504,0.84884 1.829,7.52972 1.40618,7.54153 -1.1787,3.9583 -5.81842,7.21394 -8.33494,9.58867 z"
       inkscape:connector-curvature="0"
       style="clip-rule:evenodd;display:inline;fill:#000000;fill-rule:evenodd;stroke:none;stroke-width:0.138542"
       id="path11-7" />
    <path
       d="m 867.44282,251.78696 -1.0588,-0.0939 -2.7066,30.53809 c -0.6054,-0.3952 -1.6456,-0.70076 -2.6197,-0.78713 -3.4733,-0.30785 -7.57906,2.18835 -7.84556,5.19554 -0.1838,2.07546 1.71276,3.31074 3.66126,3.48342 4.0237,0.35663 7.9989,-2.10847 8.3891,-6.51344 l 1.8846,-21.26227 c 4.3186,1.36458 7.3192,5.55784 6.8838,10.47105 -0.3003,3.3884 -2.3527,6.79216 -3.4567,8.6581 l 1.1012,0.0975 c 2.3222,-3.08121 4.1586,-6.46151 4.4738,-10.01936 0.3529,-3.98136 -2.2343,-7.54033 -4.6193,-10.01419 -2.3846,-2.47374 -4.4475,-5.68748 -4.0872,-9.75356 z"
       style="font-style:normal;font-variant:normal;font-weight:normal;font-stretch:normal;font-size:45px;line-height:1.2;font-family:Lavi;-inkscape-font-specification:Lavi;text-align:center;letter-spacing:0px;word-spacing:0px;text-anchor:middle;fill:#000000;fill-opacity:1;stroke:#000000;stroke-width:0.5;stroke-miterlimit:4;stroke-dasharray:none;stroke-opacity:1"
       id="path44-7-5-6" />
    <path
       id="path46-3-5"
       style="font-style:normal;font-variant:normal;font-weight:normal;font-stretch:normal;font-size:45px;line-height:1.2;font-family:Lavi;-inkscape-font-specification:Lavi;text-align:center;letter-spacing:0px;word-spacing:0px;text-anchor:middle;fill:#000000;fill-opacity:1;stroke:#000000;stroke-width:0.5;stroke-miterlimit:4;stroke-dasharray:none;stroke-opacity:1"
       d="m 944.83322,290.08712 1.43255,-25.29947 -20.61273,2.21295 -1.36752,24.14772 c -0.50308,-0.39137 -1.36039,-0.71262 -2.15949,-0.8255 -2.84902,-0.40241 -6.16135,1.81205 -6.32103,4.63193 -0.11014,1.94614 1.46659,3.16967 3.06469,3.3954 3.30066,0.46622 6.50653,-1.72324 6.74039,-5.85377 l 1.12471,-19.85835 17.79266,-1.89059 -1.01879,17.9916 c -0.50316,-0.39133 -1.36039,-0.71261 -2.15964,-0.82546 -2.84887,-0.40241 -6.16129,1.81204 -6.32089,4.63191 -0.11014,1.94611 1.46643,3.16969 3.06463,3.39544 3.30058,0.46619 6.50642,-1.72325 6.74046,-5.85381 z" />
    <path
       d="m 863.25007,180.81942 1.43255,-25.29947 -20.61273,2.21295 -1.36752,24.14772 c -0.50308,-0.39137 -1.36039,-0.71262 -2.15949,-0.8255 -2.84902,-0.40241 -6.16135,1.81205 -6.32103,4.63193 -0.11014,1.94614 1.46659,3.16967 3.06469,3.3954 3.30066,0.46622 6.50653,-1.72324 6.74039,-5.85377 l 1.12471,-19.85835 17.79266,-1.89059 -1.01879,17.9916 c -0.50316,-0.39133 -1.36039,-0.71261 -2.15964,-0.82546 -2.84887,-0.40241 -6.16129,1.81204 -6.32089,4.63191 -0.11014,1.94611 1.46643,3.16969 3.06463,3.39544 3.30058,0.46619 6.50642,-1.72325 6.74046,-5.85381 z"
       style="font-style:normal;font-variant:normal;font-weight:normal;font-stretch:normal;font-size:45px;line-height:1.2;font-family:Lavi;-inkscape-font-specification:Lavi;text-align:center;letter-spacing:0px;word-spacing:0px;text-anchor:middle;fill:#000000;fill-opacity:1;stroke:#000000;stroke-width:0.5;stroke-miterlimit:4;stroke-dasharray:none;stroke-opacity:1"
       id="path46-3" />
    <path
       id="path44-7-5"
       style="font-style:normal;font-variant:normal;font-weight:normal;font-stretch:normal;font-size:45px;line-height:1.2;font-family:Lavi;-inkscape-font-specification:Lavi;text-align:center;letter-spacing:0px;word-spacing:0px;text-anchor:middle;fill:#000000;fill-opacity:1;stroke:#000000;stroke-width:0.5;stroke-miterlimit:4;stroke-dasharray:none;stroke-opacity:1"
       d="m 977.69881,154.87962 -1.0588,-0.0939 -2.7066,30.53809 c -0.6054,-0.3952 -1.6456,-0.70076 -2.6197,-0.78713 -3.4733,-0.30785 -7.5791,2.18835 -7.8456,5.19554 -0.1838,2.07546 1.7128,3.31074 3.6613,3.48342 4.0237,0.35663 7.9989,-2.10847 8.3891,-6.51344 l 1.8846,-21.26227 c 4.3186,1.36458 7.3192,5.55784 6.8838,10.47105 -0.3003,3.3884 -2.3527,6.79216 -3.4567,8.6581 l 1.1012,0.0975 c 2.3222,-3.08121 4.1586,-6.46151 4.4738,-10.01936 0.3529,-3.98136 -2.2343,-7.54033 -4.6193,-10.01419 -2.3846,-2.47374 -4.4475,-5.68748 -4.0872,-9.75356 z" />
    <path
       id="path46"
       style="font-style:normal;font-variant:normal;font-weight:normal;font-stretch:normal;font-size:45px;line-height:1.2;font-family:Lavi;-inkscape-font-specification:Lavi;text-align:center;letter-spacing:0px;word-spacing:0px;text-anchor:middle;fill:#000000;fill-opacity:1;stroke:#000000;stroke-width:0.5;stroke-miterlimit:4;stroke-dasharray:none;stroke-opacity:1"
       d="m 1043.226,240.93061 6.7692,-26.06469 -21.9412,-1.99287 -6.4611,24.87807 c -0.4426,-0.51273 -1.269,-1.02631 -2.0782,-1.31058 -2.8849,-1.0135 -6.7984,0.60328 -7.5529,3.50845 -0.5207,2.00499 0.8673,3.60883 2.4855,4.17736 3.3423,1.17417 7.1395,-0.43876 8.2447,-4.69422 l 5.3135,-20.45896 18.9353,1.74064 -4.8139,18.53579 c -0.4427,-0.51274 -1.269,-1.0263 -2.0783,-1.31058 -2.8847,-1.01349 -6.7983,0.60328 -7.5527,3.50845 -0.5207,2.00499 0.867,3.60883 2.4854,4.17738 3.3421,1.17415 7.1394,-0.43878 8.2447,-4.69424 z" />
    <path
       id="path44"
       style="font-style:normal;font-variant:normal;font-weight:normal;font-stretch:normal;font-size:45px;line-height:1.2;font-family:Lavi;-inkscape-font-specification:Lavi;text-align:center;letter-spacing:0px;word-spacing:0px;text-anchor:middle;fill:#000000;fill-opacity:1;stroke:#000000;stroke-width:0.5;stroke-miterlimit:4;stroke-dasharray:none;stroke-opacity:1"
       d="m 913.37793,149.3325 -1.12498,0.006 0.18516,32.44447 c -0.67705,-0.35614 -1.80332,-0.57472 -2.83829,-0.56881 -3.68994,0.0211 -7.76768,3.05937 -7.74944,6.25432 0.0126,2.20497 2.13396,3.31788 4.20394,3.30606 4.27493,-0.0244 8.21791,-3.01694 8.1912,-7.69687 l -0.12891,-22.5892 c 4.68583,1.00828 8.2644,5.12792 8.29419,10.34784 0.0205,3.59994 -1.80286,7.39041 -2.78103,9.46603 l 1.16998,-0.007 c 2.14019,-3.47727 3.73886,-7.22145 3.71728,-11.00139 -0.0241,-4.22992 -3.10412,-7.72241 -5.86268,-10.09171 -2.75858,-2.36929 -5.25176,-5.55012 -5.27642,-9.87005 z" />
    <path
       sodipodi:nodetypes="cscsscsccc"
       inkscape:connector-curvature="0"
       id="path4394-0"
       d="m 1113.2744,299.96481 c 0,0 3.063,-27.90595 -7.6203,-31.63419 -10.683,-3.7287 -32.8407,17.06726 -32.8407,17.06726 0,0 -4.2328,-35.76702 -33.0758,-39.94975 -28.8426,-4.18265 -50.06515,23.26878 -30.3165,23.73344 19.7488,0.46469 56.2297,-14.41714 53.5208,44.24271 30.2691,-35.37 30.9702,-30.37823 35.0639,-28.35596 4.0941,2.02189 7.6203,31.63418 8.1122,40.77952 20.8668,-26.16134 35.3887,-43.19442 63.4331,2.60979 -8.928,-28.53739 -32.8004,-52.752 -56.2767,-28.49282 z"
       style="display:inline;fill:#ffffff;fill-rule:evenodd;stroke:none;stroke-width:0.999994px;stroke-linecap:butt;stroke-linejoin:miter;stroke-opacity:1" />
  </g>
  <g
     inkscape:groupmode="layer"
     id="layer1"
     inkscape:label="txt">
    <text
       inkscape:label="pepperA"
       id="text4246-3-5-0"
       y="238.8701"
       x="909.37677"
       style="font-style:normal;font-variant:normal;font-weight:normal;font-stretch:normal;line-height:0%;font-family:Lavi;-inkscape-font-specification:Lavi;text-align:center;letter-spacing:0px;word-spacing:0px;text-anchor:middle;fill:#000000;fill-opacity:1;stroke:none"
       xml:space="preserve"><tspan
         id="tspan854"
         y="238.8701"
         x="916.40802"
         style="font-size:45px;line-height:1.2"
         sodipodi:role="line"> Tadaaa! </tspan></text>
    <text
       inkscape:label="pepperB"
       xml:space="preserve"
       style="font-style:normal;font-variant:normal;font-weight:normal;font-stretch:normal;font-size:18.2163px;line-height:0%;font-family:Lavi;-inkscape-font-specification:Lavi;text-align:center;letter-spacing:0px;word-spacing:0px;text-anchor:middle;fill:#000000;fill-opacity:1;stroke:none;stroke-width:1"
       x="299.1268"
       y="1969.3291"
       id="text4178-1"><tspan
         id="tspan4239-3"
         sodipodi:role="line"
         style="font-size:61.7484px;line-height:1.25;stroke-width:1"
         x="299.1268"
         y="1969.3291">&quot;Dit&quot;</tspan></text>
    <text
       inkscape:label="pepperC"
       xml:space="preserve"
       style="font-style:normal;font-variant:normal;font-weight:normal;font-stretch:normal;font-size:47.4952px;line-height:0%;font-family:Lavi;-inkscape-font-specification:Lavi;text-align:center;letter-spacing:0px;word-spacing:0px;text-anchor:middle;fill:#000000;fill-opacity:1;stroke:none;stroke-width:1"
       x="447.29425"
       y="2064.4534"
       id="text4178"><tspan
         sodipodi:role="line"
         style="font-size:47.4952px;line-height:1.25;stroke-width:1"
         x="447.29425"
         y="2064.4534"
         id="tspan109">...is mijn</tspan><tspan
         sodipodi:role="line"
         style="font-size:47.4952px;line-height:1.25;stroke-width:1"
         x="447.29425"
         y="2123.8223"
         id="tspan370">meesterwerk!</tspan></text>
    <text
       inkscape:label="pepperD"
       id="text4246-3-2"
       y="1096.4353"
       x="981.28918"
       style="font-style:normal;font-variant:normal;font-weight:normal;font-stretch:normal;line-height:0%;font-family:Lavi;-inkscape-font-specification:Lavi;text-align:center;letter-spacing:0px;word-spacing:0px;text-anchor:middle;fill:#000000;fill-opacity:1;stroke:none"
       xml:space="preserve"><tspan
         y="1096.4353"
         x="981.28918"
         style="font-size:45px;line-height:1.25"
         sodipodi:role="line"
         id="tspan141">	Het is een complexe</tspan><tspan
         y="1152.6853"
         x="981.28918"
         style="font-size:45px;line-height:1.25"
         sodipodi:role="line"
         id="tspan480">bezwering die de realiteit</tspan><tspan
         y="1208.9353"
         x="981.28918"
         style="font-size:45px;line-height:1.25"
         sodipodi:role="line"
         id="tspan486">verandert en het aantal </tspan><tspan
         y="1265.1853"
         x="981.28918"
         style="font-size:45px;line-height:1.25"
         sodipodi:role="line"
         id="tspan488">overgebleven levenspunten</tspan><tspan
         y="1321.4353"
         x="981.28918"
         style="font-size:45px;line-height:1.25"
         sodipodi:role="line"
         id="tspan176">van je tegenstander</tspan><tspan
         y="1377.6853"
         x="981.28918"
         style="font-size:45px;line-height:1.25"
         sodipodi:role="line"
         id="tspan498">laat zien.</tspan></text>
    <text
       inkscape:label="scoreA"
       xml:space="preserve"
       style="font-style:normal;font-variant:normal;font-weight:normal;font-stretch:normal;line-height:0%;font-family:Lavi;-inkscape-font-specification:Lavi;letter-spacing:3.03024px;word-spacing:0px;opacity:0.801401;fill:#fff4b7;fill-opacity:1;stroke:#aa7640;stroke-width:0.647169;stroke-miterlimit:4;stroke-dasharray:none;stroke-opacity:1;filter:url(#filter4375-4-1-1-1-9-5-8-8-3-3-3-6-1-6)"
       x="787.65729"
       y="1584.5073"
       id="text4580-6-0-0-3-3-8"
       transform="matrix(2.0001217,0.03992834,-0.03002348,1.9644063,-221.92656,-1785.196)"><tspan
         sodipodi:role="line"
         id="tspan4582-1-1-0-6-9-9"
         x="787.65729"
         y="1584.5073"
         style="font-style:normal;font-variant:normal;font-weight:bold;font-stretch:normal;font-size:64.9472px;line-height:1.25;font-family:Drukah;-inkscape-font-specification:'Drukah Bold';fill:#fff4b7;fill-opacity:1;stroke:#aa7640;stroke-width:0.647169;stroke-miterlimit:4;stroke-dasharray:none;stroke-opacity:1">33</tspan></text>
    <text
       inkscape:label="pepperE"
       xml:space="preserve"
       style="font-style:normal;font-variant:normal;font-weight:normal;font-stretch:normal;line-height:0%;font-family:Lavi;-inkscape-font-specification:Lavi;text-align:center;letter-spacing:0px;word-spacing:0px;text-anchor:middle;fill:#000000;fill-opacity:1;stroke:none"
       x="2040.4858"
       y="1074.1573"
       id="text4246-3-2-2"><tspan
         sodipodi:role="line"
         style="font-size:45px;line-height:1.25"
         x="2040.4858"
         y="1074.1573"
         id="tspan187">Wanneer je levenspunten op</tspan><tspan
         sodipodi:role="line"
         style="font-size:45px;line-height:1.25"
         x="2040.4858"
         y="1130.4073"
         id="tspan191">zijn, moet je het slagveld</tspan><tspan
         sodipodi:role="line"
         style="font-size:45px;line-height:1.25"
         x="2040.4858"
         y="1186.6573"
         id="tspan620">verlaten tot het einde van</tspan><tspan
         sodipodi:role="line"
         style="font-size:45px;line-height:1.25"
         x="2040.4858"
         y="1242.9073"
         id="tspan622">het gevecht.</tspan></text>
    <text
       inkscape:label="pepperF"
       id="text4246-3-2-2-9"
       y="1316.8668"
       x="2076.2854"
       style="font-style:normal;font-variant:normal;font-weight:normal;font-stretch:normal;line-height:0%;font-family:Lavi;-inkscape-font-specification:Lavi;text-align:center;letter-spacing:0px;word-spacing:0px;text-anchor:middle;fill:#000000;fill-opacity:1;stroke:none"
       xml:space="preserve"><tspan
         y="1316.8668"
         x="2076.2854"
         style="font-size:45px;line-height:1.25"
         sodipodi:role="line"
         id="tspan634">Het eerste leger dat alle</tspan><tspan
         y="1373.1168"
         x="2076.2854"
         style="font-size:45px;line-height:1.25"
         sodipodi:role="line"
         id="tspan852">tegenstanders van het</tspan><tspan
         y="1429.3668"
         x="2076.2854"
         style="font-size:45px;line-height:1.25"
         sodipodi:role="line"
         id="tspan861">veld verwijdert, wint!</tspan></text>
    <text
       inkscape:label="pepperG"
       xml:space="preserve"
       style="font-style:normal;font-variant:normal;font-weight:normal;font-stretch:normal;line-height:0%;font-family:Lavi;-inkscape-font-specification:Lavi;text-align:center;letter-spacing:0px;word-spacing:0px;text-anchor:middle;fill:#000000;fill-opacity:1;stroke:none"
       x="2169.76"
       y="1524.4752"
       id="text4246-3-2-2-9-6"><tspan
         id="tspan371-1"
         sodipodi:role="line"
         style="font-size:45px;line-height:1.25"
         x="2169.76"
         y="1524.4752">Doodsimpel.</tspan></text>
    <text
       inkscape:label="scoreB"
       xml:space="preserve"
       style="font-style:normal;font-variant:normal;font-weight:normal;font-stretch:normal;line-height:0%;font-family:Lavi;-inkscape-font-specification:Lavi;letter-spacing:2.67495px;word-spacing:0px;fill:#b5ffe1;fill-opacity:1;stroke:#316983;stroke-width:1.28309;stroke-miterlimit:4;stroke-dasharray:none;stroke-opacity:1;filter:url(#filter4375-4-1-1-1-9-5-8-8-3-3-7-4-1)"
       x="787.65729"
       y="1584.5073"
       id="text4580-6-0-0-3-36-4-4"
       transform="matrix(0.95527462,-0.04371269,-0.01433947,1.0473354,1179.3925,26.934268)"><tspan
         sodipodi:role="line"
         id="tspan4582-1-1-0-6-1-3-8"
         x="787.65729"
         y="1584.5073"
         style="font-style:normal;font-variant:normal;font-weight:bold;font-stretch:normal;font-size:69.5991px;line-height:1.25;font-family:Lavi;-inkscape-font-specification:'Lavi Bold';fill:#b5ffe1;fill-opacity:1;stroke:#316983;stroke-width:1.28309;stroke-miterlimit:4;stroke-dasharray:none;stroke-opacity:1">0</tspan></text>
    <text
       inkscape:label="warrior"
       id="text4246-3-7-7-6-7-2-9-6-1-4"
       y="1747.6428"
       x="1813.559"
       style="font-style:normal;font-variant:normal;font-weight:normal;font-stretch:normal;font-size:11.2438px;line-height:0%;font-family:Lavi;-inkscape-font-specification:Lavi;text-align:center;letter-spacing:0px;word-spacing:0px;text-anchor:middle;fill:#000000;fill-opacity:1;stroke:none;stroke-width:0.999999"
       xml:space="preserve"
       transform="scale(1.0185461,0.98179161)"><tspan
         id="tspan1183-0"
         y="1747.6428"
         x="1813.559"
         style="font-style:normal;font-variant:normal;font-weight:normal;font-stretch:normal;font-size:42.1643px;line-height:1.2;font-family:Lavi;-inkscape-font-specification:Lavi;stroke-width:0.999999"
         sodipodi:role="line">?</tspan></text>
    <text
       inkscape:label="pepperH"
       id="text4178-1-8"
       y="2407.7642"
       x="665.65906"
       style="font-style:normal;font-variant:normal;font-weight:normal;font-stretch:normal;font-size:53.3333px;line-height:0%;font-family:Lavi;-inkscape-font-specification:Lavi;text-align:center;letter-spacing:0px;word-spacing:0px;text-anchor:middle;fill:#000000;fill-opacity:1;stroke:none;stroke-width:1"
       xml:space="preserve"><tspan
         y="2407.7642"
         x="665.65906"
         style="font-size:53.3333px;line-height:1.25;stroke-width:1"
         sodipodi:role="line"
         id="tspan208">Geweldig</tspan><tspan
         y="2474.4309"
         x="665.65906"
         style="font-size:53.3333px;line-height:1.25;stroke-width:1"
         sodipodi:role="line"
         id="tspan1079">toch, of niet?</tspan></text>
    <text
       inkscape:label="pepperI"
       id="text4246-7-6-1-7-6-3-5-6-4"
       y="2452.9026"
       x="1503.0603"
       style="font-style:normal;font-variant:normal;font-weight:normal;font-stretch:normal;line-height:0%;font-family:Lavi;-inkscape-font-specification:Lavi;text-align:center;letter-spacing:0px;word-spacing:0px;text-anchor:middle;display:inline;fill:#000000;fill-opacity:1;stroke:none"
       xml:space="preserve"><tspan
         id="tspan990"
         y="2452.9026"
         x="1503.0603"
         style="font-size:45px;line-height:1.25"
         sodipodi:role="line">Geen doden meer!</tspan></text>
    <text
       inkscape:label="pepperJ"
       xml:space="preserve"
       style="font-style:normal;font-variant:normal;font-weight:normal;font-stretch:normal;line-height:0%;font-family:Lavi;-inkscape-font-specification:Lavi;text-align:center;letter-spacing:0px;word-spacing:0px;text-anchor:middle;display:inline;fill:#000000;fill-opacity:1;stroke:none"
       x="1636.9469"
       y="2564.9153"
       id="text4246-7-6-1-7-6-3-5-6-4-2"><tspan
         sodipodi:role="line"
         style="font-size:45px;line-height:1.25"
         x="1636.9469"
         y="2564.9153"
         id="tspan212">Geen gewonde</tspan><tspan
         sodipodi:role="line"
         style="font-size:45px;line-height:1.25"
         x="1636.9469"
         y="2621.1653"
         id="tspan1083">soldaten meer!</tspan></text>
    <text
       inkscape:label="pepperK"
       id="text4246-7-6-1-7-6-3-5-6-4-2-7"
       y="2703.0037"
       x="1830.4188"
       style="font-style:normal;font-variant:normal;font-weight:normal;font-stretch:normal;line-height:0%;font-family:Lavi;-inkscape-font-specification:Lavi;text-align:center;letter-spacing:0px;word-spacing:0px;text-anchor:middle;display:inline;fill:#000000;fill-opacity:1;stroke:none"
       xml:space="preserve"><tspan
         y="2703.0037"
         x="1830.4188"
         style="font-style:normal;font-variant:normal;font-weight:normal;font-stretch:normal;font-size:45px;line-height:1.25;font-family:Lavi;-inkscape-font-specification:Lavi"
         sodipodi:role="line"
         id="tspan225">Dit gaat</tspan><tspan
         y="2759.2537"
         x="1830.4188"
         style="font-style:normal;font-variant:normal;font-weight:normal;font-stretch:normal;font-size:45px;line-height:1.25;font-family:Lavi;-inkscape-font-specification:Lavi"
         sodipodi:role="line"
         id="tspan1090">oorlogsvoering</tspan><tspan
         y="2815.5037"
         x="1830.4188"
         style="font-style:normal;font-variant:normal;font-weight:normal;font-stretch:normal;font-size:45px;line-height:1.25;font-family:Lavi;-inkscape-font-specification:Lavi"
         sodipodi:role="line"
         id="tspan1092">revolutioneren!</tspan></text>
  </g>
</svg>
