<?xml version="1.0" encoding="UTF-8" standalone="no"?>
<svg
   xmlns:dc="http://purl.org/dc/elements/1.1/"
   xmlns:cc="http://creativecommons.org/ns#"
   xmlns:rdf="http://www.w3.org/1999/02/22-rdf-syntax-ns#"
   xmlns:svg="http://www.w3.org/2000/svg"
   xmlns="http://www.w3.org/2000/svg"
   xmlns:xlink="http://www.w3.org/1999/xlink"
   xmlns:sodipodi="http://sodipodi.sourceforge.net/DTD/sodipodi-0.dtd"
   xmlns:inkscape="http://www.inkscape.org/namespaces/inkscape"
   id="svg2"
   version="1.1"
   inkscape:version="1.0.2-2 (e86c870879, 2021-01-15)"
   width="2481"
   height="3503"
   sodipodi:docname="E34P06.svg">
  <metadata
     id="metadata8">
    <rdf:RDF>
      <cc:Work
         rdf:about="">
        <dc:format>image/svg+xml</dc:format>
        <dc:type
           rdf:resource="http://purl.org/dc/dcmitype/StillImage" />
        <dc:title />
      </cc:Work>
    </rdf:RDF>
  </metadata>
  <defs
     id="defs6">
    <filter
       style="color-interpolation-filters:sRGB"
       id="filter4375-4-1-1-1-9-5-8-8-5-5-3-3"
       inkscape:label="soundFX1">
      <feFlood
         id="feFlood4377-7-9-0-8-1-7-3-1-2-7-6-6"
         flood-opacity="1"
         flood-color="rgb(52,52,52)"
         result="flood" />
      <feComposite
         id="feComposite4379-3-8-8-2-77-4-1-0-6-4-7-7"
         in2="SourceGraphic"
         in="flood"
         operator="in"
         result="composite1"
         baseFrequency="0.053999999999999999 0.053999999999999999" />
      <feMorphology
         id="feMorphology4393-1-0-49-8-9-3-0-1-9-9-5-5"
         operator="dilate"
         radius="4.366144675354084"
         result="result3" />
      <feComposite
         id="feComposite4385-9-5-7-0-8-8-7-5-4-9-3-3"
         in2="result3"
         in="SourceGraphic"
         operator="over"
         result="fbSourceGraphic" />
      <feColorMatrix
         result="fbSourceGraphicAlpha"
         in="fbSourceGraphic"
         values="0 0 0 -1 0 0 0 0 -1 0 0 0 0 -1 0 0 0 0 1 0"
         id="feColorMatrix4544-9-4-4-5-5" />
      <feTurbulence
         id="feTurbulence4546-3-6-5-6-6"
         type="fractalNoise"
         numOctaves="4"
         seed="147"
         baseFrequency="0.053999999999999999 0.054054054054054057"
         result="turbulence" />
      <feDisplacementMap
         id="feDisplacementMap4548-8-0-9-2-2"
         in2="turbulence"
         in="fbSourceGraphic"
         scale="10.561763"
         yChannelSelector="G"
         xChannelSelector="R"
         result="fbSourceGraphic" />
      <feColorMatrix
         result="fbSourceGraphicAlpha"
         in="fbSourceGraphic"
         values="0 0 0 -1 0 0 0 0 -1 0 0 0 0 -1 0 0 0 0 1 0"
         id="feColorMatrix4670-7-7-3-9-9" />
      <feFlood
         id="feFlood4672-4-4-5-1-1"
         flood-opacity="1"
         flood-color="rgb(28,28,28)"
         result="flood"
         in="fbSourceGraphic" />
      <feComposite
         id="feComposite4674-8-3-7-2-2"
         in2="fbSourceGraphic"
         in="flood"
         operator="in"
         result="composite1" />
      <feGaussianBlur
         id="feGaussianBlur4676-3-7-08-7-7"
         in="composite1"
         stdDeviation="0"
         result="blur" />
      <feOffset
         id="feOffset4678-6-9-1-0-0"
         dx="-10.48377497279229"
         dy="0.39217365321829334"
         result="offset" />
      <feComposite
         id="feComposite4680-4-0-9-9-9"
         in2="offset"
         in="fbSourceGraphic"
         operator="over"
         result="composite2" />
    </filter>
    <filter
       style="color-interpolation-filters:sRGB"
       id="filter4375-4-1-1-1-9-5-8-8-5-5-3-3-3"
       inkscape:label="soundFX1">
      <feFlood
         id="feFlood4377-7-9-0-8-1-7-3-1-2-7-6-6-5"
         flood-opacity="1"
         flood-color="rgb(52,52,52)"
         result="flood" />
      <feComposite
         id="feComposite4379-3-8-8-2-77-4-1-0-6-4-7-7-6"
         in2="SourceGraphic"
         in="flood"
         operator="in"
         result="composite1"
         baseFrequency="0.053999999999999999 0.053999999999999999" />
      <feMorphology
         id="feMorphology4393-1-0-49-8-9-3-0-1-9-9-5-5-2"
         operator="dilate"
         radius="4.0330969769021738"
         result="result3" />
      <feComposite
         id="feComposite4385-9-5-7-0-8-8-7-5-4-9-3-3-9"
         in2="result3"
         in="SourceGraphic"
         operator="over"
         result="fbSourceGraphic" />
      <feColorMatrix
         result="fbSourceGraphicAlpha"
         in="fbSourceGraphic"
         values="0 0 0 -1 0 0 0 0 -1 0 0 0 0 -1 0 0 0 0 1 0"
         id="feColorMatrix4544-9-4-4-5-5-1" />
      <feTurbulence
         id="feTurbulence4546-3-6-5-6-6-2"
         type="fractalNoise"
         numOctaves="4"
         seed="147"
         baseFrequency="0.046080819231719368"
         result="turbulence" />
      <feDisplacementMap
         id="feDisplacementMap4548-8-0-9-2-2-7"
         in2="turbulence"
         in="fbSourceGraphic"
         scale="13.203259801572088"
         yChannelSelector="G"
         xChannelSelector="R"
         result="fbSourceGraphic" />
      <feColorMatrix
         result="fbSourceGraphicAlpha"
         in="fbSourceGraphic"
         values="0 0 0 -1 0 0 0 0 -1 0 0 0 0 -1 0 0 0 0 1 0"
         id="feColorMatrix4670-7-7-3-9-9-0" />
      <feFlood
         id="feFlood4672-4-4-5-1-1-9"
         flood-opacity="1"
         flood-color="rgb(28,28,28)"
         result="flood"
         in="fbSourceGraphic" />
      <feComposite
         id="feComposite4674-8-3-7-2-2-3"
         in2="fbSourceGraphic"
         in="flood"
         operator="in"
         result="composite1" />
      <feGaussianBlur
         id="feGaussianBlur4676-3-7-08-7-7-6"
         in="composite1"
         stdDeviation="0"
         result="blur" />
      <feOffset
         id="feOffset4678-6-9-1-0-0-0"
         dx="-10.48377497279229"
         dy="0.39217365321829334"
         result="offset" />
      <feComposite
         id="feComposite4680-4-0-9-9-9-6"
         in2="offset"
         in="fbSourceGraphic"
         operator="over"
         result="composite2" />
    </filter>
    <filter
       style="color-interpolation-filters:sRGB"
       id="filter4375-4-1-1-1-9-5-8-8-5-5-3-3-3-7"
       inkscape:label="soundFX1">
      <feFlood
         id="feFlood4377-7-9-0-8-1-7-3-1-2-7-6-6-5-9"
         flood-opacity="1"
         flood-color="rgb(52,52,52)"
         result="flood" />
      <feComposite
         id="feComposite4379-3-8-8-2-77-4-1-0-6-4-7-7-6-2"
         in2="SourceGraphic"
         in="flood"
         operator="in"
         result="composite1"
         baseFrequency="0.053999999999999999 0.053999999999999999" />
      <feMorphology
         id="feMorphology4393-1-0-49-8-9-3-0-1-9-9-5-5-2-0"
         operator="dilate"
         radius="4.0330969769021738"
         result="result3" />
      <feComposite
         id="feComposite4385-9-5-7-0-8-8-7-5-4-9-3-3-9-2"
         in2="result3"
         in="SourceGraphic"
         operator="over"
         result="fbSourceGraphic" />
      <feColorMatrix
         result="fbSourceGraphicAlpha"
         in="fbSourceGraphic"
         values="0 0 0 -1 0 0 0 0 -1 0 0 0 0 -1 0 0 0 0 1 0"
         id="feColorMatrix4544-9-4-4-5-5-1-3" />
      <feTurbulence
         id="feTurbulence4546-3-6-5-6-6-2-7"
         type="fractalNoise"
         numOctaves="4"
         seed="147"
         baseFrequency="0.053999999999999999 0.054054054054054057"
         result="turbulence" />
      <feDisplacementMap
         id="feDisplacementMap4548-8-0-9-2-2-7-5"
         in2="turbulence"
         in="fbSourceGraphic"
         scale="10.561763"
         yChannelSelector="G"
         xChannelSelector="R"
         result="fbSourceGraphic" />
      <feColorMatrix
         result="fbSourceGraphicAlpha"
         in="fbSourceGraphic"
         values="0 0 0 -1 0 0 0 0 -1 0 0 0 0 -1 0 0 0 0 1 0"
         id="feColorMatrix4670-7-7-3-9-9-0-9" />
      <feFlood
         id="feFlood4672-4-4-5-1-1-9-2"
         flood-opacity="1"
         flood-color="rgb(28,28,28)"
         result="flood"
         in="fbSourceGraphic" />
      <feComposite
         id="feComposite4674-8-3-7-2-2-3-2"
         in2="fbSourceGraphic"
         in="flood"
         operator="in"
         result="composite1" />
      <feGaussianBlur
         id="feGaussianBlur4676-3-7-08-7-7-6-8"
         in="composite1"
         stdDeviation="0"
         result="blur" />
      <feOffset
         id="feOffset4678-6-9-1-0-0-0-9"
         dx="-10.48377497279229"
         dy="0.39217365321829334"
         result="offset" />
      <feComposite
         id="feComposite4680-4-0-9-9-9-6-7"
         in2="offset"
         in="fbSourceGraphic"
         operator="over"
         result="composite2" />
    </filter>
    <filter
       style="color-interpolation-filters:sRGB"
       id="filter4375-4-1-1-1-9-5-8-8-5-5-3-3-3-4"
       inkscape:label="soundFX1">
      <feFlood
         id="feFlood4377-7-9-0-8-1-7-3-1-2-7-6-6-5-5"
         flood-opacity="1"
         flood-color="rgb(52,52,52)"
         result="flood" />
      <feComposite
         id="feComposite4379-3-8-8-2-77-4-1-0-6-4-7-7-6-0"
         in2="SourceGraphic"
         in="flood"
         operator="in"
         result="composite1"
         baseFrequency="0.053999999999999999 0.053999999999999999" />
      <feMorphology
         id="feMorphology4393-1-0-49-8-9-3-0-1-9-9-5-5-2-3"
         operator="dilate"
         radius="1.8999624943387681"
         result="result3" />
      <feComposite
         id="feComposite4385-9-5-7-0-8-8-7-5-4-9-3-3-9-6"
         in2="result3"
         in="SourceGraphic"
         operator="over"
         result="fbSourceGraphic" />
      <feColorMatrix
         result="fbSourceGraphicAlpha"
         in="fbSourceGraphic"
         values="0 0 0 -1 0 0 0 0 -1 0 0 0 0 -1 0 0 0 0 1 0"
         id="feColorMatrix4544-9-4-4-5-5-1-1" />
      <feTurbulence
         id="feTurbulence4546-3-6-5-6-6-2-0"
         type="fractalNoise"
         numOctaves="3"
         seed="88"
         baseFrequency="0.03818384303719944"
         result="turbulence" />
      <feDisplacementMap
         id="feDisplacementMap4548-8-0-9-2-2-7-6"
         in2="turbulence"
         in="fbSourceGraphic"
         scale="9.636552494727761"
         yChannelSelector="G"
         xChannelSelector="R"
         result="fbSourceGraphic" />
      <feColorMatrix
         result="fbSourceGraphicAlpha"
         in="fbSourceGraphic"
         values="0 0 0 -1 0 0 0 0 -1 0 0 0 0 -1 0 0 0 0 1 0"
         id="feColorMatrix4670-7-7-3-9-9-0-3" />
      <feFlood
         id="feFlood4672-4-4-5-1-1-9-20"
         flood-opacity="1"
         flood-color="rgb(28,28,28)"
         result="flood"
         in="fbSourceGraphic" />
      <feComposite
         id="feComposite4674-8-3-7-2-2-3-6"
         in2="fbSourceGraphic"
         in="flood"
         operator="in"
         result="composite1" />
      <feGaussianBlur
         id="feGaussianBlur4676-3-7-08-7-7-6-1"
         in="composite1"
         stdDeviation="0"
         result="blur" />
      <feOffset
         id="feOffset4678-6-9-1-0-0-0-5"
         dx="-5.6583689219916096"
         dy="0.39217365321829334"
         result="offset" />
      <feComposite
         id="feComposite4680-4-0-9-9-9-6-5"
         in2="offset"
         in="fbSourceGraphic"
         operator="over"
         result="composite2" />
    </filter>
    <filter
       style="color-interpolation-filters:sRGB"
       id="filter4375-4-1-1-1-9-5-8-8-5-5-3-3-3-4-9"
       inkscape:label="soundFX1">
      <feFlood
         id="feFlood4377-7-9-0-8-1-7-3-1-2-7-6-6-5-5-3"
         flood-opacity="1"
         flood-color="rgb(52,52,52)"
         result="flood" />
      <feComposite
         id="feComposite4379-3-8-8-2-77-4-1-0-6-4-7-7-6-0-7"
         in2="SourceGraphic"
         in="flood"
         operator="in"
         result="composite1"
         baseFrequency="0.053999999999999999 0.053999999999999999" />
      <feMorphology
         id="feMorphology4393-1-0-49-8-9-3-0-1-9-9-5-5-2-3-4"
         operator="dilate"
         radius="1.8999624943387681"
         result="result3" />
      <feComposite
         id="feComposite4385-9-5-7-0-8-8-7-5-4-9-3-3-9-6-5"
         in2="result3"
         in="SourceGraphic"
         operator="over"
         result="fbSourceGraphic" />
      <feColorMatrix
         result="fbSourceGraphicAlpha"
         in="fbSourceGraphic"
         values="0 0 0 -1 0 0 0 0 -1 0 0 0 0 -1 0 0 0 0 1 0"
         id="feColorMatrix4544-9-4-4-5-5-1-1-2" />
      <feTurbulence
         id="feTurbulence4546-3-6-5-6-6-2-0-5"
         type="fractalNoise"
         numOctaves="3"
         seed="88"
         baseFrequency="0.03818384303719944"
         result="turbulence" />
      <feDisplacementMap
         id="feDisplacementMap4548-8-0-9-2-2-7-6-4"
         in2="turbulence"
         in="fbSourceGraphic"
         scale="9.6365525"
         yChannelSelector="G"
         xChannelSelector="R"
         result="fbSourceGraphic" />
      <feColorMatrix
         result="fbSourceGraphicAlpha"
         in="fbSourceGraphic"
         values="0 0 0 -1 0 0 0 0 -1 0 0 0 0 -1 0 0 0 0 1 0"
         id="feColorMatrix4670-7-7-3-9-9-0-3-7" />
      <feFlood
         id="feFlood4672-4-4-5-1-1-9-20-4"
         flood-opacity="1"
         flood-color="rgb(28,28,28)"
         result="flood"
         in="fbSourceGraphic" />
      <feComposite
         id="feComposite4674-8-3-7-2-2-3-6-4"
         in2="fbSourceGraphic"
         in="flood"
         operator="in"
         result="composite1" />
      <feGaussianBlur
         id="feGaussianBlur4676-3-7-08-7-7-6-1-3"
         in="composite1"
         stdDeviation="0"
         result="blur" />
      <feOffset
         id="feOffset4678-6-9-1-0-0-0-5-0"
         dx="-5.6583689219916096"
         dy="0.39217365321829334"
         result="offset" />
      <feComposite
         id="feComposite4680-4-0-9-9-9-6-5-7"
         in2="offset"
         in="fbSourceGraphic"
         operator="over"
         result="composite2" />
    </filter>
    <filter
       style="color-interpolation-filters:sRGB"
       id="filter4375-4-1-1-1-9-5-8-8-5-5-3-3-3-4-9-6"
       inkscape:label="soundFX1">
      <feFlood
         id="feFlood4377-7-9-0-8-1-7-3-1-2-7-6-6-5-5-3-8"
         flood-opacity="1"
         flood-color="rgb(52,52,52)"
         result="flood" />
      <feComposite
         id="feComposite4379-3-8-8-2-77-4-1-0-6-4-7-7-6-0-7-8"
         in2="SourceGraphic"
         in="flood"
         operator="in"
         result="composite1"
         baseFrequency="0.053999999999999999 0.053999999999999999" />
      <feMorphology
         id="feMorphology4393-1-0-49-8-9-3-0-1-9-9-5-5-2-3-4-4"
         operator="dilate"
         radius="1.8999624943387681"
         result="result3" />
      <feComposite
         id="feComposite4385-9-5-7-0-8-8-7-5-4-9-3-3-9-6-5-3"
         in2="result3"
         in="SourceGraphic"
         operator="over"
         result="fbSourceGraphic" />
      <feColorMatrix
         result="fbSourceGraphicAlpha"
         in="fbSourceGraphic"
         values="0 0 0 -1 0 0 0 0 -1 0 0 0 0 -1 0 0 0 0 1 0"
         id="feColorMatrix4544-9-4-4-5-5-1-1-2-1" />
      <feTurbulence
         id="feTurbulence4546-3-6-5-6-6-2-0-5-4"
         type="fractalNoise"
         numOctaves="3"
         seed="88"
         baseFrequency="0.03818384303719944"
         result="turbulence" />
      <feDisplacementMap
         id="feDisplacementMap4548-8-0-9-2-2-7-6-4-9"
         in2="turbulence"
         in="fbSourceGraphic"
         scale="9.6365525"
         yChannelSelector="G"
         xChannelSelector="R"
         result="fbSourceGraphic" />
      <feColorMatrix
         result="fbSourceGraphicAlpha"
         in="fbSourceGraphic"
         values="0 0 0 -1 0 0 0 0 -1 0 0 0 0 -1 0 0 0 0 1 0"
         id="feColorMatrix4670-7-7-3-9-9-0-3-7-2" />
      <feFlood
         id="feFlood4672-4-4-5-1-1-9-20-4-0"
         flood-opacity="1"
         flood-color="rgb(28,28,28)"
         result="flood"
         in="fbSourceGraphic" />
      <feComposite
         id="feComposite4674-8-3-7-2-2-3-6-4-6"
         in2="fbSourceGraphic"
         in="flood"
         operator="in"
         result="composite1" />
      <feGaussianBlur
         id="feGaussianBlur4676-3-7-08-7-7-6-1-3-8"
         in="composite1"
         stdDeviation="0"
         result="blur" />
      <feOffset
         id="feOffset4678-6-9-1-0-0-0-5-0-9"
         dx="-5.6583689219916096"
         dy="0.39217365321829334"
         result="offset" />
      <feComposite
         id="feComposite4680-4-0-9-9-9-6-5-7-2"
         in2="offset"
         in="fbSourceGraphic"
         operator="over"
         result="composite2" />
    </filter>
    <filter
       style="color-interpolation-filters:sRGB"
       id="filter4375-4-1-1-1-9-5-8-8-5-5-3-3-3-4-9-64"
       inkscape:label="soundFX1">
      <feFlood
         id="feFlood4377-7-9-0-8-1-7-3-1-2-7-6-6-5-5-3-9"
         flood-opacity="1"
         flood-color="rgb(52,52,52)"
         result="flood" />
      <feComposite
         id="feComposite4379-3-8-8-2-77-4-1-0-6-4-7-7-6-0-7-5"
         in2="SourceGraphic"
         in="flood"
         operator="in"
         result="composite1"
         baseFrequency="0.053999999999999999 0.053999999999999999" />
      <feMorphology
         id="feMorphology4393-1-0-49-8-9-3-0-1-9-9-5-5-2-3-4-0"
         operator="dilate"
         radius="1.8999624943387681"
         result="result3" />
      <feComposite
         id="feComposite4385-9-5-7-0-8-8-7-5-4-9-3-3-9-6-5-4"
         in2="result3"
         in="SourceGraphic"
         operator="over"
         result="fbSourceGraphic" />
      <feColorMatrix
         result="fbSourceGraphicAlpha"
         in="fbSourceGraphic"
         values="0 0 0 -1 0 0 0 0 -1 0 0 0 0 -1 0 0 0 0 1 0"
         id="feColorMatrix4544-9-4-4-5-5-1-1-2-8" />
      <feTurbulence
         id="feTurbulence4546-3-6-5-6-6-2-0-5-7"
         type="fractalNoise"
         numOctaves="3"
         seed="88"
         baseFrequency="0.03818384303719944"
         result="turbulence" />
      <feDisplacementMap
         id="feDisplacementMap4548-8-0-9-2-2-7-6-4-1"
         in2="turbulence"
         in="fbSourceGraphic"
         scale="9.6365525"
         yChannelSelector="G"
         xChannelSelector="R"
         result="fbSourceGraphic" />
      <feColorMatrix
         result="fbSourceGraphicAlpha"
         in="fbSourceGraphic"
         values="0 0 0 -1 0 0 0 0 -1 0 0 0 0 -1 0 0 0 0 1 0"
         id="feColorMatrix4670-7-7-3-9-9-0-3-7-7" />
      <feFlood
         id="feFlood4672-4-4-5-1-1-9-20-4-2"
         flood-opacity="1"
         flood-color="rgb(28,28,28)"
         result="flood"
         in="fbSourceGraphic" />
      <feComposite
         id="feComposite4674-8-3-7-2-2-3-6-4-7"
         in2="fbSourceGraphic"
         in="flood"
         operator="in"
         result="composite1" />
      <feGaussianBlur
         id="feGaussianBlur4676-3-7-08-7-7-6-1-3-2"
         in="composite1"
         stdDeviation="0"
         result="blur" />
      <feOffset
         id="feOffset4678-6-9-1-0-0-0-5-0-2"
         dx="-5.6583689219916096"
         dy="0.39217365321829334"
         result="offset" />
      <feComposite
         id="feComposite4680-4-0-9-9-9-6-5-7-6"
         in2="offset"
         in="fbSourceGraphic"
         operator="over"
         result="composite2" />
    </filter>
    <filter
       style="color-interpolation-filters:sRGB"
       id="filter4375-4-1-1-1-9-5-8-8-5-5-3-3-3-0"
       inkscape:label="soundFX1">
      <feFlood
         id="feFlood4377-7-9-0-8-1-7-3-1-2-7-6-6-5-96"
         flood-opacity="1"
         flood-color="rgb(52,52,52)"
         result="flood" />
      <feComposite
         id="feComposite4379-3-8-8-2-77-4-1-0-6-4-7-7-6-3"
         in2="SourceGraphic"
         in="flood"
         operator="in"
         result="composite1"
         baseFrequency="0.053999999999999999 0.053999999999999999" />
      <feMorphology
         id="feMorphology4393-1-0-49-8-9-3-0-1-9-9-5-5-2-8"
         operator="dilate"
         radius="2.5856550817276021"
         result="result3" />
      <feComposite
         id="feComposite4385-9-5-7-0-8-8-7-5-4-9-3-3-9-5"
         in2="result3"
         in="SourceGraphic"
         operator="over"
         result="fbSourceGraphic" />
      <feColorMatrix
         result="fbSourceGraphicAlpha"
         in="fbSourceGraphic"
         values="0 0 0 -1 0 0 0 0 -1 0 0 0 0 -1 0 0 0 0 1 0"
         id="feColorMatrix4544-9-4-4-5-5-1-6" />
      <feTurbulence
         id="feTurbulence4546-3-6-5-6-6-2-1"
         type="fractalNoise"
         numOctaves="4"
         seed="147"
         baseFrequency="0.046080819231719368"
         result="turbulence" />
      <feDisplacementMap
         id="feDisplacementMap4548-8-0-9-2-2-7-1"
         in2="turbulence"
         in="fbSourceGraphic"
         scale="13.20326"
         yChannelSelector="G"
         xChannelSelector="R"
         result="fbSourceGraphic" />
      <feColorMatrix
         result="fbSourceGraphicAlpha"
         in="fbSourceGraphic"
         values="0 0 0 -1 0 0 0 0 -1 0 0 0 0 -1 0 0 0 0 1 0"
         id="feColorMatrix4670-7-7-3-9-9-0-5" />
      <feFlood
         id="feFlood4672-4-4-5-1-1-9-9"
         flood-opacity="1"
         flood-color="rgb(28,28,28)"
         result="flood"
         in="fbSourceGraphic" />
      <feComposite
         id="feComposite4674-8-3-7-2-2-3-8"
         in2="fbSourceGraphic"
         in="flood"
         operator="in"
         result="composite1" />
      <feGaussianBlur
         id="feGaussianBlur4676-3-7-08-7-7-6-4"
         in="composite1"
         stdDeviation="0"
         result="blur" />
      <feOffset
         id="feOffset4678-6-9-1-0-0-0-8"
         dx="-8.3919392296330813"
         dy="1.5526614972014983"
         result="offset" />
      <feComposite
         id="feComposite4680-4-0-9-9-9-6-1"
         in2="offset"
         in="fbSourceGraphic"
         operator="over"
         result="composite2" />
    </filter>
  </defs>
  <sodipodi:namedview
     pagecolor="#ffffff"
     bordercolor="#666666"
     borderopacity="1"
     objecttolerance="10"
     gridtolerance="10"
     guidetolerance="10"
     inkscape:pageopacity="0"
     inkscape:pageshadow="2"
     inkscape:window-width="1366"
     inkscape:window-height="745"
     id="namedview4"
     showgrid="false"
     inkscape:zoom="0.43016843"
     inkscape:cx="1563.8811"
     inkscape:cy="3143.1384"
     inkscape:window-x="-8"
     inkscape:window-y="-8"
     inkscape:window-maximized="1"
     inkscape:current-layer="layer1"
     inkscape:document-rotation="0"
     inkscape:snap-global="false"
     borderlayer="true" />
  <g
     inkscape:groupmode="layer"
     id="layer2"
     inkscape:label="artwork"
     sodipodi:insensitive="true">
    <image
       sodipodi:absref="C:\Users\quentinlipeck\Downloads\webcomics-master-ec7d62e6553c2c63bb1cf2e799ee31f9cb9ce5e2\webcomics-master-ec7d62e6553c2c63bb1cf2e799ee31f9cb9ce5e2\ep34_The-Knighting-of-Shichimi\lang\gfx_Pepper-and-Carrot_by-David-Revoy_E34P06.png"
       xlink:href="../gfx_Pepper-and-Carrot_by-David-Revoy_E34P06.png"
       width="2481"
       height="3503"
       id="image10"
       x="0"
       y="0" />
  </g>
  <g
     inkscape:groupmode="layer"
     id="layer3"
     inkscape:label="speechbubbles"
     style="display:inline">
    <path
       style="fill:#ffffff;fill-rule:evenodd;stroke:none;stroke-width:0.899411px;stroke-linecap:butt;stroke-linejoin:miter;stroke-opacity:1"
       d="M 1774.549,328.95397 C 1692.5239,277.18712 1590.5635,208.8837 1566.9348,205.55728 l 56.4745,-7.22201 c 42.4559,21.927 100.5568,86.52553 151.1397,130.6187 z"
       id="path1850"
       sodipodi:nodetypes="cccc" />
    <path
       style="fill:#ffffff;fill-rule:evenodd;stroke:none;stroke-width:1px;stroke-linecap:butt;stroke-linejoin:miter;stroke-opacity:1"
       d="m 1208.6571,373.31112 c 49.2583,-39.41021 79.5827,-88.63993 56.7328,11.30305 43.5899,-53.16195 74.9624,-79.96469 53.6466,6.90924 21.0485,-34.68204 40.9389,-50.17029 58.6798,-30.03589 13.8889,-41.69188 27.7779,-23.30306 41.6668,-22.75955 9.0195,-57.38393 24.9916,-25.34862 40.233,-2.71166 10.04,-40.60661 19.7002,-83.14603 52.339,-8.73776 8.9038,-54.35637 21.7662,-71.42177 39.8843,-38.97549 6.5704,-45.27682 21.7225,-42.0923 39.948,-21.55204 -6.8593,-31.9811 -0.6362,-42.75291 14.3963,-39.24298 -0.6494,-9.83447 -5.2827,-31.50661 36.497,-1.46579 -11.4648,-18.23482 -11.7074,-28.12277 37.0688,-1.5511 -5.0613,-17.97129 -6.6232,-33.5816 32.1668,-21.96776 -0.8245,-9.51745 -10.8612,-25.96844 32.0277,-2.58493 -13.5325,-18.87138 -28.996,-38.20897 13.0416,-43.66447 -21.3754,-14.12459 -15.7779,-33.9611 29.6581,-62.233995 -100.3754,18.857585 -88.1145,-32.60424 -83.6548,-58.605799 l -412.4389,20.916798 2.0938,39.699792 c 28.0429,49.282364 1.4803,39.805324 -23.4228,12.019114 27.1622,43.61495 14.143,37.80231 -35.8941,18.85704 40.6065,65.68161 6.663,51.17259 -23.0445,55.5494 73.8121,36.39964 26.0245,51.10118 7.4079,60.79237 82.0515,-2.67503 34.8642,21.33521 1.969,45.3434 52.7746,-15.93514 45.1137,-4.71021 -11.0022,84.69901 z"
       id="path1848"
       sodipodi:nodetypes="ccccccccccccccccccccccccc" />
    <path
       style="display:inline;fill:#ffffff;fill-rule:evenodd;stroke:none;stroke-width:0.79001px;stroke-linecap:butt;stroke-linejoin:miter;stroke-opacity:1"
       d="m 252.04848,352.03135 c 0,0 -30.47195,-8.96799 -30.36473,-21.57651 0.10659,-12.60804 19.47778,-31.53529 19.47778,-31.53529 0,0 -27.19912,-7.93017 -20.96854,-41.08551 6.23063,-33.15529 48.41779,-53.27632 41.72857,-30.9357 -6.68916,22.34068 -34.94236,61.24183 25.28223,67.01061 -46.69326,28.81415 -37.08762,29.19956 -36.52905,34.12009 0.55795,4.92111 23.67543,11.36179 32.73328,13.29229 -35.24944,26.26432 -32.25349,41.2194 -23.98301,65.37595 -15.29097,-15.1862 -27.68266,-29.20986 -7.37653,-54.66593 z"
       id="path4394-0"
       inkscape:connector-curvature="0"
       sodipodi:nodetypes="cscsscsccc" />
    <path
       style="display:inline;fill:#ffffff;stroke:none;stroke-width:1.03879"
       d="m 245.94509,82.380859 c -38.01478,-0.275006 -75.25927,14.977314 -101.60156,39.310201 -18.04681,16.68247 -32.68809,37.36368 -37.10665,60.57714 -4.56799,25.85889 1.6467,52.83735 15.56921,75.70252 13.6172,21.69677 36.44923,38.78795 63.12269,45.95986 16.99344,4.83986 34.67235,7.48872 52.35541,9.27753 30.06059,2.54093 60.28694,0.71255 90.33923,-0.96236 22.22796,-1.57235 44.39421,-5.57739 64.93669,-13.52226 18.12068,-6.76278 35.55086,-15.92895 49.01231,-28.9113 12.93754,-14.03417 17.33153,-32.94098 16.23233,-50.79415 -0.19893,-23.32686 -3.94478,-47.39364 -16.88114,-67.9883 C 425.08847,124.07484 394.80969,105.3267 362.11383,96.850893 324.48355,86.884856 285.19323,81.817526 245.94509,82.380859 Z"
       id="path3280-5-9"
       inkscape:connector-curvature="0"
       sodipodi:nodetypes="csssc" />
    <path
       style="fill:#ffffff;fill-rule:evenodd;stroke:none;stroke-width:0.888009px;stroke-linecap:butt;stroke-linejoin:miter;stroke-opacity:1"
       d="m 1242.7901,1591.969 c -9.3238,-96.0029 -16.1288,-211.0629 -37.9472,-212.5388 l 27.7377,-22.3318 c 17.3035,11.4648 12.8237,161.6834 10.2095,234.8706 z"
       id="path1881"
       sodipodi:nodetypes="cccc" />
    <path
       style="display:inline;fill:#ffffff;fill-rule:evenodd;stroke:none;stroke-width:0.873423px;stroke-linecap:butt;stroke-linejoin:miter;stroke-opacity:1"
       d="m 1342.6555,1243.5756 c -26.4758,21.6922 -25.2286,30.0875 4.9268,24.6181 -28.0707,15.1067 -20.8183,17.5597 -5.3274,17.0604 -30.595,45.327 -15.3892,63.7715 0.8939,81.5836 -42.6274,2.2943 -40.2228,21.6774 -47.6802,37.3186 -14.4787,-22.4049 -15.4056,-4.9758 -12.5511,23.568 -16.3023,-29.6628 -23.2367,-30.3253 -21.6307,-4.5425 -13.2241,-17.8921 -26.2312,-22.3805 -38.9876,-11.4623 -31.0907,-11.0373 -35.4056,18.1812 -48.3747,34.3886 -11.3587,-19.4535 -23.7763,-16.4119 -36.5312,-6.1973 -8.8996,-6.9999 -17.1903,-18.5819 -30.296,6.0849 -8.4424,-16.3422 -14.3614,-1.205 -21.0561,4.2584 6.663,-12.6966 -9.8793,-10.7598 -53.1147,8.0079 15.9478,-10.3768 12.893,-16.8429 -12.5904,-18.6936 23.6372,-17.0076 20.6746,-27.7675 3.7384,-35.2454 25.275,-26.3258 -8.5941,-34.2476 -27.70539,-46.7613 32.09049,-0.9276 57.83619,-0.8575 56.81739,-28.1441 40.1557,12.477 39.3503,-10.0419 32.535,-18.2749 34.3959,15.6183 27.4055,-5.0467 32.7393,-14.9071 85.1976,6.4838 74.6991,-22.99 86.5882,-44.0517 15.2398,32.8159 28.1801,14.6063 41.1111,-3.814 6.8884,29.5113 9.663,17.5561 17.3725,6.9653 4.4784,12.2882 19.9974,13.6516 38.7729,-0.9071 -12.2897,14.7697 -2.6041,13.8415 40.35,-10.8525 z"
       id="path4289-9-3"
       inkscape:connector-curvature="0"
       sodipodi:nodetypes="cccccccccccccccccccccccc" />
    <path
       style="display:inline;fill:#ffffff;fill-rule:evenodd;stroke:none;stroke-width:1.00123px;stroke-linecap:butt;stroke-linejoin:miter;stroke-opacity:1"
       d="m 844.51405,1199.689 c 38.97797,10.9127 41.84791,20.1218 7.06695,27.5552 37.38173,3.4213 30.90025,9.0999 14.18757,15.3039 55.16719,33.5288 48.22458,59.1685 39.82119,84.6226 46.44921,-16.1217 51.96099,1.8339 51.72532,19.3872 13.37162,-24.832 30.03838,-11.4934 28.84939,10.1039 13.84023,-25.0164 33.09943,-37.8515 34.58273,-12.8649 17.2666,-20.1053 16.6927,-28.4464 35.7061,-22.7069 27.5261,-24.8824 46.7136,3.4141 68.596,14.5225 2.3499,-25.0127 17.0669,-27.2587 35.7268,-22.2449 5.9601,-11.0876 8.9831,-26.6424 35.2382,-6.8588 0.8053,-20.5354 14.6606,-7.4738 24.5058,-4.7368 -13.4263,-10.219 5.1222,-15.3948 60.4499,-14.7715 -22.1344,-3.7963 -35.1462,-23.0474 3.9492,-42.0915 -53.8612,11.9744 -35.7596,-2.3728 -21.4976,-17.4401 -40.0175,-16.2178 -7.9818,-39.0884 6.0752,-60.2987 -34.5679,12.9621 -63.7337,15.722 -76.2873,-12.8931 -50.6991,28.5488 -44.999,15.1809 -41.8704,3.724 -28.7491,31.0459 -31.6473,6.6771 -42.2437,-1.1901 -87.3042,43.6508 -90.8763,8.6652 -114.037,-7.9237 0.20349,40.4929 -22.64908,27.3046 -45.59708,13.8949 7.42745,33.4583 -6.50535,24.9904 -19.99156,17.3994 1.38173,14.6302 -9.42045,20.0975 -36.64995,13.2098 20.4422,9.9188 9.68496,13.1619 -48.30576,6.2976 z"
       id="path4289-9"
       inkscape:connector-curvature="0"
       sodipodi:nodetypes="cccccccccccccccccccccccc" />
    <path
       style="color:#000000;display:inline;overflow:visible;visibility:visible;fill:#ffffff;fill-opacity:1;fill-rule:nonzero;stroke:none;stroke-width:1.2407px;marker:none;enable-background:accumulate"
       d="m 1979.2312,1252.5744 c 20.5975,39.6636 -7.8825,70.3911 -59.5656,43.5327 30.348,25.4616 29.29,41.2818 -11.914,43.7371 69.0999,45.8896 12.6323,38.9454 1.4946,50.5808 54.2561,15.8148 36.2729,39.7837 1.4473,50.8016 62.3622,0.673 47.2652,16.825 23.6549,40.0679 27.6115,-15.2172 70.2048,-26.1597 71.7162,13.6266 40.0066,-34.7567 60.6482,-34.0797 75.1154,5.2227 12.0845,-33.8906 53.2332,-40.413 68.9677,-3.8634 13.5541,-49.4649 61.917,-42.5009 90.7056,-18.528 -16.1607,-16.9189 -5.1405,-44.7777 49.9567,-39.1438 -4.4348,-15.5094 2.5394,-35.0846 30.3629,-32.4997 -32.0492,-9.3678 -37.9557,-19.0317 21.5525,-29.4309 -45.2823,-1.0048 -87.5083,-3.0661 -34.3824,-38.5302 -16.667,-0.8581 -51.8489,20.8301 -33.4119,-65.7701 -48.8142,25.5356 -93.2178,31.0965 -90.6942,-22.5425 -18.1478,29.013 -77.6047,51.5336 -64.947,6.3843 -43.3729,22.1493 -76.3589,-15.0196 -90.7017,-36.4094 -11.7858,22.9296 -15.4543,64.0515 -49.357,32.7643 z"
       id="path3549-3-7-8"
       inkscape:connector-curvature="0"
       sodipodi:nodetypes="ccccccccccccccccccc" />
    <path
       style="color:#000000;display:inline;overflow:visible;visibility:visible;fill:#ffffff;fill-opacity:1;fill-rule:nonzero;stroke:none;stroke-width:1.3701px;marker:none;enable-background:accumulate"
       d="m 1954.9496,1295.8772 c 5.3865,-7.3631 29.602,-29.7745 28.1983,-4.8001 39.2537,-32.5067 70.0607,-20.7651 101.3476,-11.5389 9.5476,-9.8141 4.6465,-18.4047 31.6967,-14.844 -2.7885,-9.7374 14.7304,-22.9124 36.0812,-26.8672 -27.1588,-5.9059 -31.6006,-11.9767 20.7238,-18.4567 -39.2072,-0.6663 -64.5998,-1.4446 -16.1009,-24.7384 -14.3978,-0.5512 -56.7166,11.1564 -39.9312,-35.829 -34.1741,25.9741 -54.3064,26.9588 -83.6046,-9.5251 -11.787,14.3845 -32.1406,33.5207 -65.5984,8.7849 14.9093,25.9401 -33.2488,11.0699 -45.9915,8.1541 24.5854,16.0066 22.602,25.9326 -13.3043,27.4417 56.8036,28.8595 8.2978,24.4721 -2.1566,31.7665 45.9803,9.969 23.5839,22.288 13.8687,34.5781 54.0443,0.4714 34.1981,20.1717 34.7712,35.8741 z"
       id="path3549-3-3"
       inkscape:connector-curvature="0"
       sodipodi:nodetypes="ccccccccccccccc" />
    <path
       style="color:#000000;display:inline;overflow:visible;visibility:visible;fill:#ffffff;fill-opacity:1;fill-rule:nonzero;stroke:none;stroke-width:1.13059px;marker:none;enable-background:accumulate"
       d="m 2012.8502,1556.8314 c 33.1432,-3.0765 49.5177,-14.1302 63.502,-25.1622 -3.323,-3.6585 -10.9443,-10.8992 -10.9443,-10.8992 8.4132,3.9856 33.6455,-29.1076 31.128,-43.087 -2.0588,-11.4328 -17.8962,-22.9534 -17.8962,-22.9534 7.496,5.5512 -16.0011,59.4398 -34.2248,60.7508 9.5209,9.7065 5.5967,8.6357 10.4496,10.8775 -2.4355,8.428 -25.6395,23.8921 -42.0143,30.4735 z"
       id="path4456-8"
       inkscape:connector-curvature="0"
       sodipodi:nodetypes="cccscccc" />
    <path
       style="color:#000000;display:inline;overflow:visible;visibility:visible;fill:#ffffff;fill-opacity:1;fill-rule:nonzero;stroke:none;stroke-width:0.596963px;marker:none;enable-background:accumulate"
       d="m 1768.0708,2692.063 c -24.1124,0.4606 -47.4229,12.645 -56.9911,30.4657 -6.7295,10.1882 -7.1807,22.3918 -3.5587,33.3812 3.6867,13.7323 14.0598,26.6826 29.6555,33.5235 16.8388,7.8901 36.7339,9.9629 55.9317,10.1766 22.1369,0.5188 44.522,0.1032 66.2338,-3.6889 17.4814,-3.8819 33.0423,-13.9029 40.1511,-27.413 10.2713,-18.0619 5.8474,-40.8982 -11.2715,-55.3416 -10.1608,-8.6862 -24.8248,-13.0089 -39.3115,-14.4372 -19.9681,-2.7512 -40.1346,-4.4502 -60.2803,-6.1048 -6.8391,-0.4195 -13.6995,-0.6315 -20.559,-0.5615 z"
       id="path4546-6-9"
       inkscape:connector-curvature="0"
       sodipodi:nodetypes="cssssc" />
    <path
       style="color:#000000;display:inline;overflow:visible;visibility:visible;fill:#ffffff;fill-opacity:1;fill-rule:nonzero;stroke:none;stroke-width:0.831571px;marker:none;enable-background:accumulate"
       d="m 1882.8059,2633.5176 c -37.8791,-2.1495 -48.7859,13.5857 -57.5579,23.9044 1.7547,4.1191 3.7627,12.1857 3.7627,12.1857 0,0 -18.6852,18.3302 -24.0116,28.1718 -5.3264,9.8414 3.6574,18.2697 3.6574,18.2697 0,0 37.0115,-34.5243 46.6498,-39.0836 -5.179,-11.0415 -6.5739,-17.2965 -9.745,-20.2713 3.4665,-7.8768 23.822,-23.4035 37.2446,-23.1767 z"
       id="path4456-3"
       inkscape:connector-curvature="0" />
    <path
       style="fill:#ffffff;fill-rule:evenodd;stroke:none;stroke-width:1px;stroke-linecap:butt;stroke-linejoin:miter;stroke-opacity:1"
       d="m 631.53381,3261.5261 c -58.9868,-9.4133 -80.78839,-18.6204 -93.41016,-25.1553 25.55708,-9.175 30.6775,-11.6456 27.58924,-18.0461 -3.08825,-6.4005 -197.64668,-94.0082 -197.64668,-94.0082 l 45.28017,47.5817 c 0,0 69.61686,26.446 87.95416,33.3793 18.33743,6.9334 39.02055,15.9874 39.02055,15.9874 0,0 -18.8787,3.4283 -22.43255,7.5102 -3.55385,4.082 -7.0453,26.282 113.64527,32.751 z"
       id="path891"
       inkscape:connector-curvature="0"
       sodipodi:nodetypes="ccsccscsc" />
    <path
       style="display:inline;fill:#ffffff;fill-rule:evenodd;stroke:none;stroke-width:1.30527px;stroke-linecap:butt;stroke-linejoin:miter;stroke-opacity:1"
       d="m 236.5625,2979.209 c -3.66096,0.079 -7.28577,0.641 -10.92969,0.9492 4.22266,0.8574 8.44532,1.7148 12.66797,2.5723 -2.23485,0.7632 -3.47332,3.8914 -1.91601,5.8144 1.29698,-0.2071 0.86673,2.2424 -0.29493,1.6973 -12.96279,2.501 -25.70799,9.0012 -33.39868,20.0243 -13.86104,18.5092 -22.85031,40.0615 -30.52195,61.7211 -1.60377,4.0589 -4.04036,8.4682 -2.55479,12.927 1.90405,4.4764 6.68615,7.6372 6.87777,12.8198 0.11946,7.8795 -3.54636,15.1497 -4.27101,22.9235 -1.21117,8.3836 -2.89599,16.6874 -4.30832,25.0357 -0.5095,2.9917 -0.44335,6.0442 0.0542,9.0263 0.21091,3.3063 -1.51978,6.6229 -4.48442,8.1675 -3.22212,2.1011 -7.1307,2.9539 -10.16815,5.3665 -0.36659,3.0073 3.14833,4.7888 5.7461,4.5762 1.74541,-0.199 4.2008,-0.1743 4.77796,1.9039 1.06621,2.6263 -0.98854,5.7858 -3.74998,6.1056 -4.96786,2.3791 -10.3459,3.6868 -15.48892,5.6116 -0.078,3.4002 3.66991,5.4787 6.72675,5.099 18.45068,3.427 37.08975,6.0558 55.22052,11.0064 -13.77523,3.3432 -28.00039,4.3263 -41.94727,6.5118 4.17163,1.0505 8.50796,1.7466 12.7308,2.7144 39.20325,8.307 78.12304,18.5629 118.04178,22.9294 33.69878,1.159 67.18661,-4.6549 99.83289,-12.5149 5.46535,-2.9844 8.01265,-9.1225 12.88594,-12.8039 6.11472,-6.6742 10.43609,-15.041 17.91993,-20.4037 5.98037,-4.988 11.7056,-10.5786 15.21775,-17.631 7.84028,-12.9198 13.45417,-27.7941 12.8531,-43.1043 -0.64981,-10.213 -5.91916,-19.4734 -6.7062,-29.6534 -0.20838,-7.3973 3.30594,-14.3362 7.87911,-19.9455 7.4425,-10.1649 16.54202,-18.9572 24.44071,-28.7457 1.29465,-0.9595 1.76713,-2.7521 0.85382,-4.1295 -1.7235,-4.2192 -6.5181,-6.2436 -10.8484,-6.0898 -6.58737,-0.9663 -13.2013,-1.9172 -19.62467,-3.7139 11.6805,-5.9012 25.18893,-6.8428 36.76758,-12.9922 1.53612,0.1634 1.33446,-2.5951 -0.16624,-2.3188 -5.38318,-2.0978 -10.73375,-4.2777 -16.09157,-6.439 2.82226,-4.1518 7.63187,-6.104 11.58789,-8.9317 1.58431,-0.01 1.13892,-2.8039 -0.34766,-2.457 -9.98063,-3.8649 -21.32217,-3.5576 -30.68359,-9.125 -1.58156,-1.7733 0.21301,-4.3771 2.18661,-4.8378 1.7815,-1.0375 3.7956,-1.6499 5.46573,-2.8829 -4.27688,-1.1505 -8.7623,-0.7919 -13.12731,-1.3147 -43.93258,-2.5378 -87.67243,4.2941 -131.57458,4.3877 -16.6423,-0.034 -33.30454,-2.0921 -49.36214,-6.5062 -9.25315,-2.0002 -18.67642,-3.4692 -28.16839,-3.35 z"
       id="path4197-1"
       inkscape:connector-curvature="0"
       sodipodi:nodetypes="ccccccccccccccccccccccccccccccccccccccccccccc" />
    <path
       style="display:inline;fill:#ffffff;fill-rule:evenodd;stroke:none;stroke-width:0.9862px;stroke-linecap:butt;stroke-linejoin:miter;stroke-opacity:1"
       d="m 376.45418,2860.0205 c -28.26931,3.0725 -57.00392,5.3763 -84.05499,14.4748 -4.5074,1.5783 -9.00856,3.1731 -13.50427,4.7823 -2.94987,7.4509 -10.43116,12.2462 -13.04485,19.8759 -1.45319,3.0672 -4.37367,5.0419 -7.07338,6.9847 -9.5579,8.5412 -14.44586,26.783 -16.35374,33.1197 -1.42233,6.1704 1.60216,12.5685 -2.44576,18.5775 -3.76907,6.1135 -12.09793,11.1835 -16.32464,17.1949 -0.83456,1.049 -1.17527,2.3751 0.64627,3.2271 2.38,1.4163 6.21503,1.8838 9.27651,2.618 1.68908,0.5715 1.64837,1.9527 -0.7108,2.2039 -4.06447,0.8523 -9.26083,0.7853 -12.41558,2.3474 -2.32367,0.9029 -4.07967,2.6502 -1.55522,3.766 1.7001,0.6989 4.67717,1.3488 4.07232,2.5452 -0.40356,0.589 -1.52176,1.0743 -2.88619,1.2688 12.09075,1.6406 24.66339,2.4871 37.12371,3.441 18.42563,1.2502 37.30486,1.4067 55.76259,0.1806 18.53293,-0.9 37.03305,-1.9319 55.45215,-3.1885 -3.07937,-0.4405 -6.15875,-0.881 -9.23812,-1.3214 0.69102,-0.7905 1.38201,-1.581 2.07303,-2.3713 -1.28168,-0.2967 -2.56336,-0.5933 -3.84504,-0.8899 12.43591,-2.8038 25.6589,-5.0034 34.98875,-10.4698 9.74608,-6.2325 18.14542,-12.9631 25.90829,-19.8521 2.27348,-0.8497 4.59112,-1.6799 6.63476,-2.6704 -4.23215,-2.408 -5.90879,-6.1065 -2.82995,-9.0311 4.1757,-6.2643 4.83896,-17.945 4.37994,-30.5788 0.33228,-3.3166 3.88653,-5.8108 3.26243,-9.2574 -0.99834,-2.5686 -4.46638,-4.3643 -3.56845,-7.4702 0.47214,-3.9429 6.08196,-5.0494 6.0555,-9.1496 -0.0321,-2.8273 -2.91685,-4.3236 -5.02492,-5.7357 -3.84916,-2.1967 -8.21131,-3.398 -12.12336,-5.4547 -1.10063,-0.054 -1.25026,-1.1866 -0.33132,-1.6206 3.65562,-4.0808 9.12797,-5.7834 13.86032,-8.3563 0.85285,-1.6219 -1.30004,-2.6341 -2.67145,-2.6518 -7.76219,-2.6138 -16.07759,-2.8392 -24.05297,-4.5561 -8.41751,-1.2244 -16.91849,-2.1026 -25.44157,-1.9821 z"
       id="path4197"
       inkscape:connector-curvature="0"
       sodipodi:nodetypes="cccccccccccccccccccccccccccccccccccc" />
    <path
       style="fill:#ffffff;fill-rule:evenodd;stroke:none;stroke-width:1.27631px;stroke-linecap:butt;stroke-linejoin:miter;stroke-opacity:1"
       d="m 830.02977,2128.3429 c 234.02993,0.5219 486.77903,5.6959 653.22813,2.8279 -33.112,0.7912 -28.4736,27.4401 30.4477,9.6506 -32.0143,33.5203 -5.6261,35.2074 89.3998,39.5445 -75.8696,9.4282 -114.3292,41.436 -36.3833,55.3708 -42.0826,9.3677 -85.942,20.7875 -29.9116,37.0506 -84.4157,-17.0449 -81.8366,2.6489 -63.697,20.7372 -13.8895,0.8624 -39.1452,-14.0416 -34.9802,11.8642 -38.8777,-14.9009 -76.5167,-35.9494 -47.6194,20.672 -65.5248,-48.844 -65.7698,-22.8898 -69.7538,-8.3691 -72.707,-45.8997 -58.0949,-25.6909 -50.6604,-2.2896 -21.2086,-17.2035 -57.3261,-21.7192 -52.6348,-2.0109 -20.4777,-20.2745 -38.5122,-27.6924 -50.2845,-2.1572 -12.7532,-11.0952 -25.5066,-27.024 -38.2599,-2.1571 -17.4398,-12.6096 -35.4222,-17.1897 -55.7501,12.9428 -10.0708,-17.3298 -36.3767,-35.1939 -93.65198,-17.7889 20.0714,-25.4453 -0.16364,-30.1796 -48.23145,-7.7719 19.47378,-16.8637 26.27943,-42.2408 -28.57615,-5.1491 27.47451,-25.3176 2.52839,-23.0297 -31.22586,-17.8832 33.1904,-38.0185 13.00742,-28.9377 -31.7489,-26.0834 58.60758,-25.3119 25.3445,-29.33 -31.10586,-26.7082 37.6113,-26.8471 37.15857,-28.8366 8.74519,-37.7496 28.10744,-10.3526 76.3927,-9.725 -3.27946,-21.5712 91.8075,-6.7094 27.33128,-21.4118 15.93384,-32.9712 z"
       id="path4656"
       inkscape:connector-curvature="0"
       sodipodi:nodetypes="cccccccccccccccccccccccc" />
    <path
       style="color:#000000;display:inline;overflow:visible;visibility:visible;fill:#ffffff;fill-opacity:1;fill-rule:nonzero;stroke:none;stroke-width:0.937697px;marker:none;enable-background:accumulate"
       d="m 967.89989,2272.9045 c -21.93532,9.6253 -54.38701,29.5889 -58.62353,35.4743 7.65037,3.4334 13.95567,8.1772 18.92328,11.7669 -8.6586,10.0195 -66.94384,33.9255 -80.07482,33.1337 32.085,3.8238 91.45067,-12.2157 104.5459,-30.0725 -5.9168,-6.1766 -10.12106,-8.9291 -13.17409,-12.2766 6.16567,-9.3462 41.71559,-19.3924 41.71559,-19.3924 z"
       id="path5066-9"
       inkscape:connector-curvature="0"
       sodipodi:nodetypes="cccccccc" />
    <path
       style="fill:#ffffff;stroke:none;stroke-width:0.677622"
       d="m 1355.8022,2522.4576 c -0.9059,-19.9758 15.3381,-69.9827 94.5763,-66.2216 79.2384,3.7612 104.0386,25.734 106.3608,61.2407 3.6732,56.171 -38.014,71.1822 -97.873,75.3425 -61.7081,4.2891 -104.0218,-34.2683 -103.0641,-70.3616 z"
       id="path3280-8-90"
       inkscape:connector-curvature="0"
       sodipodi:nodetypes="csssc" />
    <path
       style="color:#000000;display:inline;overflow:visible;visibility:visible;fill:#ffffff;fill-opacity:1;fill-rule:nonzero;stroke:none;stroke-width:1px;marker:none;enable-background:accumulate"
       d="m 1327.707,2590.6993 c 51.9208,7.0854 82.4162,-5.7476 93.871,-59.3544 10.0989,-47.2601 31.6187,-39.1416 31.6187,-39.1416 l 8.3834,32.7178 c 0,0 -40.4124,109.7129 -133.8731,65.7782 z"
       id="path3072-5-5"
       inkscape:connector-curvature="0"
       sodipodi:nodetypes="csccc" />
  </g>
  <g
     inkscape:groupmode="layer"
     id="layer1"
     inkscape:label="txt"
     style="display:inline">
    <text
       xml:space="preserve"
       style="font-style:normal;font-variant:normal;font-weight:normal;font-stretch:normal;font-size:131.375px;line-height:1.25;font-family:Lavi;-inkscape-font-specification:Lavi;letter-spacing:0px;word-spacing:0px;fill:#ffffff;fill-opacity:1;stroke:#ffffff;stroke-width:0.668774;stroke-miterlimit:4;stroke-dasharray:none;stroke-opacity:1;filter:url(#filter4375-4-1-1-1-9-5-8-8-5-5-3-3-3-4-9-6)"
       id="text4580-6-0-0-0-9-3-3-2-4-8-6"
       transform="matrix(0.45061052,-0.08588961,-0.18791098,0.54548663,2283.9528,764.65175)"
       x="-607.91235"
       y="1245.0809">POKA!</text>
    <text
       xml:space="preserve"
       style="font-style:normal;font-variant:normal;font-weight:normal;font-stretch:normal;font-size:45px;line-height:1.25;font-family:Lavi;-inkscape-font-specification:Lavi;text-align:center;letter-spacing:0px;word-spacing:0px;text-anchor:middle;fill:#000000;fill-opacity:1;stroke:none"
       x="289.4985"
       y="174.20363"
       id="text4246-3-2-2-6-3-7-9-3"><tspan
         style="font-size:45px"
         sodipodi:role="line"
         x="289.4985"
         y="174.20363"
         id="tspan852">jan Sisimi o, </tspan><tspan
         style="font-size:45px"
         sodipodi:role="line"
         x="289.4985"
         y="230.45363"
         id="tspan194">awen lon </tspan><tspan
         style="font-size:45px"
         sodipodi:role="line"
         x="289.4985"
         y="286.70361"
         id="tspan198">te...</tspan></text>
    <text
       xml:space="preserve"
       style="font-style:normal;font-variant:normal;font-weight:normal;font-stretch:normal;font-size:179.149px;line-height:1.25;font-family:Lavi;-inkscape-font-specification:Lavi;letter-spacing:0px;word-spacing:0px;fill:#ffffff;fill-opacity:1;stroke:#ffffff;stroke-width:0.741719;stroke-miterlimit:4;stroke-dasharray:none;stroke-opacity:1;filter:url(#filter4375-4-1-1-1-9-5-8-8-5-5-3-3)"
       id="text4580-6-0-0-0-9-3-3"
       transform="matrix(0.81079821,-0.712007,0.28741856,1.0365543,1066.0427,-12.598858)"
       x="181.50571"
       y="435.11505"><textPath
         xlink:href="#path974"
         id="textPath2837"
         style="font-size:179.149px;stroke-width:0.741719"><tspan
   style="font-size:228.21px"
   id="tspan936">K</tspan>ALaMa!</textPath></text>
    <text
       xml:space="preserve"
       style="font-style:normal;font-variant:normal;font-weight:normal;font-stretch:normal;font-size:75.7782px;line-height:1.25;font-family:Lavi;-inkscape-font-specification:Lavi;text-align:center;letter-spacing:0px;word-spacing:0px;text-anchor:middle;fill:#000000;fill-opacity:1;stroke:none;stroke-width:1.22222"
       x="1744.2867"
       y="565.77344"
       id="text4246-3-2-2-6-3-7-9-3-3-56-9-3-20-2-3-1-9"
       transform="matrix(0.86584417,-0.24971873,-0.07331608,1.1760874,0,0)"><tspan
         style="font-style:normal;font-variant:normal;font-weight:bold;font-stretch:normal;font-size:75.7782px;font-family:Lavi;-inkscape-font-specification:'Lavi Bold';stroke-width:1.22222"
         sodipodi:role="line"
         x="1744.2867"
         y="565.77344"
         id="tspan1348">O WEKA!!!</tspan></text>
    <path
       style="fill:none;fill-rule:evenodd;stroke:none;stroke-width:1.13654px;stroke-linecap:butt;stroke-linejoin:miter;stroke-opacity:1"
       d="M -686.67373,0.90523332 C -568.76657,-0.73394668 -204.63364,132.58339 -16.133022,353.49759"
       id="path974"
       sodipodi:nodetypes="cc" />
    <text
       xml:space="preserve"
       style="font-style:normal;font-variant:normal;font-weight:normal;font-stretch:normal;font-size:58.1184px;line-height:1.25;font-family:Lavi;-inkscape-font-specification:Lavi;text-align:center;letter-spacing:0px;word-spacing:0px;text-anchor:middle;fill:#000000;fill-opacity:1;stroke:none;stroke-width:0.937388"
       x="1347.8438"
       y="1263.5707"
       id="text4246-3-2-2-6-3-7-9-3-3-56-9-3-20-2-3-1-9-3"
       transform="matrix(0.86635975,-0.14936714,-0.07335974,1.1669027,0,0)"><tspan
         style="font-style:normal;font-variant:normal;font-weight:bold;font-stretch:normal;font-size:58.1184px;font-family:Lavi;-inkscape-font-specification:'Lavi Bold';stroke-width:0.937388"
         sodipodi:role="line"
         x="1347.8438"
         y="1263.5707"
         id="tspan1348-6">O WEKA!!!</tspan></text>
    <text
       xml:space="preserve"
       style="font-style:normal;font-variant:normal;font-weight:normal;font-stretch:normal;font-size:50.4579px;line-height:1.25;font-family:Lavi;-inkscape-font-specification:Lavi;text-align:center;letter-spacing:0px;word-spacing:0px;text-anchor:middle;fill:#000000;fill-opacity:1;stroke:none;stroke-width:0.813831"
       x="1462.5415"
       y="1381.1226"
       id="text4246-3-2-2-6-3-7-9-3-3-56-9-3-20-2-3-1-9-3-7"
       transform="matrix(0.87716024,-0.14752798,-0.07427428,1.1525346,0,0)"><tspan
         style="font-style:normal;font-variant:normal;font-weight:bold;font-stretch:normal;font-size:50.4579px;font-family:Lavi;-inkscape-font-specification:'Lavi Bold';stroke-width:0.813831"
         sodipodi:role="line"
         x="1462.5415"
         y="1381.1226"
         id="tspan1348-6-5">O WEKA!!!</tspan></text>
    <text
       xml:space="preserve"
       style="font-style:normal;font-variant:normal;font-weight:normal;font-stretch:normal;font-size:80px;line-height:1.25;font-family:Lavi;-inkscape-font-specification:Lavi;letter-spacing:0px;word-spacing:0px;fill:#ffffff;fill-opacity:1;stroke:#ffffff;stroke-width:0.668774;stroke-miterlimit:4;stroke-dasharray:none;stroke-opacity:1;filter:url(#filter4375-4-1-1-1-9-5-8-8-5-5-3-3-3)"
       id="text4580-6-0-0-0-9-3-3-2"
       transform="matrix(0.98036614,-0.39223296,-0.53756803,0.90481848,1667.7584,648.06357)"
       x="-607.91235"
       y="1245.0809"><tspan
         style="font-size:110px"
         id="tspan1073">S</tspan><tspan
         id="tspan1510"
         style="font-size:99.052px">S</tspan><tspan
         id="tspan1514"
         style="font-size:88.104px">S</tspan><tspan
         id="tspan1518"
         style="font-size:77.156px">U</tspan><tspan
         id="tspan1522"
         style="font-size:66.208px">P</tspan><tspan
         id="tspan1526"
         style="font-size:55.26px">AA</tspan><tspan
         id="tspan1530"
         style="font-size:44.312px">!</tspan><tspan
         id="tspan1534"
         style="font-size:61.3371px">!!</tspan></text>
    <text
       xml:space="preserve"
       style="font-style:normal;font-variant:normal;font-weight:normal;font-stretch:normal;font-size:56.9751px;line-height:1.25;font-family:Lavi;-inkscape-font-specification:Lavi;text-align:center;letter-spacing:0px;word-spacing:0px;text-anchor:middle;fill:#000000;fill-opacity:1;stroke:none;stroke-width:1.26611"
       x="2114.8765"
       y="1192.864"
       id="text4246-3-2-2-6-3-7-9-3-3"
       transform="scale(0.96063492,1.0409782)"><tspan
         style="font-size:56.9751px;stroke-width:1.26611"
         sodipodi:role="line"
         x="2114.8765"
         y="1192.864"
         id="tspan861-4">aaa!</tspan></text>
    <text
       xml:space="preserve"
       style="font-style:normal;font-variant:normal;font-weight:normal;font-stretch:normal;font-size:45px;line-height:1.25;font-family:Lavi;-inkscape-font-specification:Lavi;text-align:center;letter-spacing:0px;word-spacing:0px;text-anchor:middle;fill:#000000;fill-opacity:1;stroke:none;stroke-width:0.965425"
       x="2422.3325"
       y="1291.8102"
       id="text4246-3-2-2-6-3-7-9-3-3-7"
       transform="matrix(0.96542494,0,-0.15822218,1.0358133,0,0)"><tspan
         style="font-size:45px;stroke-width:0.965425"
         sodipodi:role="line"
         x="2422.3325"
         y="1291.8102"
         id="tspan861-4-8">o kute! ni li...</tspan><tspan
         style="font-size:45px;stroke-width:0.965425"
         sodipodi:role="line"
         x="2422.3325"
         y="1348.0602"
         id="tspan1234">p-pona... aaaa...</tspan><tspan
         style="font-size:45px;stroke-width:0.965425"
         sodipodi:role="line"
         x="2422.3325"
         y="1404.3102"
         id="tspan1236">ALA!</tspan></text>
    <text
       xml:space="preserve"
       style="font-style:normal;font-variant:normal;font-weight:normal;font-stretch:normal;font-size:131.375px;line-height:1.25;font-family:Lavi;-inkscape-font-specification:Lavi;letter-spacing:0px;word-spacing:0px;fill:#ffffff;fill-opacity:1;stroke:#ffffff;stroke-width:0.668774;stroke-miterlimit:4;stroke-dasharray:none;stroke-opacity:1;filter:url(#filter4375-4-1-1-1-9-5-8-8-5-5-3-3-3-4)"
       id="text4580-6-0-0-0-9-3-3-2-4"
       transform="matrix(0.52711832,-0.15981063,-0.17435696,0.64729748,2672.6758,794.5647)"
       x="-607.91235"
       y="1245.0809">POKA!</text>
    <text
       xml:space="preserve"
       style="font-style:normal;font-variant:normal;font-weight:normal;font-stretch:normal;font-size:131.375px;line-height:1.25;font-family:Lavi;-inkscape-font-specification:Lavi;letter-spacing:0px;word-spacing:0px;fill:#ffffff;fill-opacity:1;stroke:#ffffff;stroke-width:0.668774;stroke-miterlimit:4;stroke-dasharray:none;stroke-opacity:1;filter:url(#filter4375-4-1-1-1-9-5-8-8-5-5-3-3-3-4-9)"
       id="text4580-6-0-0-0-9-3-3-2-4-8"
       transform="matrix(0.53051157,-0.11435771,-0.18857697,0.63128406,1994.6316,826.53325)"
       x="-607.91235"
       y="1245.0809">POKA!</text>
    <text
       xml:space="preserve"
       style="font-style:normal;font-variant:normal;font-weight:normal;font-stretch:normal;font-size:131.375px;line-height:1.25;font-family:Lavi;-inkscape-font-specification:Lavi;letter-spacing:0px;word-spacing:0px;fill:#ffffff;fill-opacity:1;stroke:#ffffff;stroke-width:0.668774;stroke-miterlimit:4;stroke-dasharray:none;stroke-opacity:1;filter:url(#filter4375-4-1-1-1-9-5-8-8-5-5-3-3-3-4-9-64)"
       id="text4580-6-0-0-0-9-3-3-2-4-8-1"
       transform="matrix(0.55959564,-0.12001132,-0.19891527,0.6787384,2053.839,1100.5323)"
       x="-607.91235"
       y="1245.0809">POKA!</text>
    <text
       xml:space="preserve"
       style="font-style:normal;font-variant:normal;font-weight:normal;font-stretch:normal;font-size:44.5368px;line-height:1.25;font-family:Lavi;-inkscape-font-specification:Lavi;text-align:center;letter-spacing:0px;word-spacing:0px;text-anchor:middle;fill:#000000;fill-opacity:1;stroke:none;stroke-width:0.989704"
       x="1463.2692"
       y="2214.0793"
       id="text4246-3-2-2-6-3-7-9-3-3-56-9-3-20-3-3"
       transform="skewX(-7.1285625)"><tspan
         style="font-style:normal;font-variant:normal;font-weight:bold;font-stretch:normal;font-size:44.5368px;font-family:Lavi;-inkscape-font-specification:'Lavi Bold';stroke-width:0.989704"
         sodipodi:role="line"
         x="1463.2692"
         y="2214.0793"
         id="tspan1341">JAN SISIMI EN JAN PEPA O!</tspan><tspan
         style="font-style:normal;font-variant:normal;font-weight:bold;font-stretch:normal;font-size:44.5368px;font-family:Lavi;-inkscape-font-specification:'Lavi Bold';stroke-width:0.989704"
         sodipodi:role="line"
         x="1463.2692"
         y="2269.7502"
         id="tspan1024">O PINI!</tspan></text>
    <text
       xml:space="preserve"
       style="font-style:normal;font-variant:normal;font-weight:normal;font-stretch:normal;font-size:45px;line-height:1.25;font-family:Lavi;-inkscape-font-specification:Lavi;text-align:center;letter-spacing:0px;word-spacing:0px;text-anchor:middle;fill:#000000;fill-opacity:1;stroke:none"
       x="1454.755"
       y="2537.0627"
       id="text4246-3-2-2-6-3-7-9-3-3-56-9-3-20-3-36"><tspan
         style="font-size:45px"
         sodipodi:role="line"
         x="1454.755"
         y="2537.0627"
         id="tspan1032">o awen.</tspan></text>
    <text
       xml:space="preserve"
       style="font-style:normal;font-variant:normal;font-weight:normal;font-stretch:normal;font-size:45px;line-height:1.25;font-family:Lavi;-inkscape-font-specification:Lavi;text-align:center;letter-spacing:0px;word-spacing:0px;text-anchor:middle;fill:#000000;fill-opacity:1;stroke:none;stroke-width:0.965425"
       x="2300.9597"
       y="2665.2209"
       id="text4246-3-2-2-6-3-7-9-3-3-7-0"
       transform="matrix(0.96542494,0,-0.15822218,1.0358133,0,0)"><tspan
         style="font-size:45px;stroke-width:0.965425"
         sodipodi:role="line"
         x="2300.9597"
         y="2665.2209"
         id="tspan1573">Hmm!</tspan></text>
    <text
       xml:space="preserve"
       style="font-style:normal;font-variant:normal;font-weight:normal;font-stretch:normal;font-size:45px;line-height:1.25;font-family:Lavi;-inkscape-font-specification:Lavi;text-align:center;letter-spacing:0px;word-spacing:0px;text-anchor:middle;fill:#000000;fill-opacity:1;stroke:none"
       x="339.71271"
       y="2946.7305"
       id="text4246-3-2-2-6-3-7-9-3-9"><tspan
         style="font-size:45px"
         sodipodi:role="line"
         x="339.71271"
         y="2946.7305"
         id="tspan1611">ike a!</tspan></text>
    <text
       xml:space="preserve"
       style="font-style:normal;font-variant:normal;font-weight:normal;font-stretch:normal;font-size:49.6053px;line-height:1.25;font-family:Lavi;-inkscape-font-specification:Lavi;text-align:center;letter-spacing:0px;word-spacing:0px;text-anchor:middle;fill:#000000;fill-opacity:1;stroke:none;stroke-width:1.10234"
       x="315.70981"
       y="3060.019"
       id="text4246-3-2-2-6-3-7-9-3-9-9"><tspan
         style="font-size:49.6053px;stroke-width:1.10234"
         sodipodi:role="line"
         x="315.70981"
         y="3060.019"
         id="tspan1641">sina la, </tspan><tspan
         style="font-size:49.6053px;stroke-width:1.10234"
         sodipodi:role="line"
         x="315.70981"
         y="3122.0256"
         id="tspan1031">mi pali </tspan><tspan
         style="font-size:49.6053px;stroke-width:1.10234"
         sodipodi:role="line"
         x="315.70981"
         y="3184.0322"
         id="tspan202">e ni!</tspan></text>
    <text
       xml:space="preserve"
       style="font-style:normal;font-variant:normal;font-weight:normal;font-stretch:normal;font-size:80px;line-height:1.25;font-family:Lavi;-inkscape-font-specification:Lavi;letter-spacing:0px;word-spacing:0px;fill:#ffffff;fill-opacity:1;stroke:#ffffff;stroke-width:0.668774;stroke-miterlimit:4;stroke-dasharray:none;stroke-opacity:1;filter:url(#filter4375-4-1-1-1-9-5-8-8-5-5-3-3-3-0)"
       id="text4580-6-0-0-0-9-3-3-2-0"
       transform="matrix(1.4640851,-0.3812188,-0.80280752,2.6992234,3645.3529,-405.18199)"
       x="-607.91235"
       y="1245.0809"><tspan
         id="tspan1534-6"
         style="font-size:61.3371px"><tspan
   id="tspan195"
   style="font-size:82.2859px">L</tspan><tspan
   id="tspan197"
   style="font-size:71.8115px">L</tspan><tspan
   style="font-size:66.5743px"
   id="tspan1814">O</tspan>JE!!</tspan></text>
  </g>
</svg>
