<?xml version="1.0" encoding="UTF-8" standalone="no"?>
<svg
   xmlns:dc="http://purl.org/dc/elements/1.1/"
   xmlns:cc="http://creativecommons.org/ns#"
   xmlns:rdf="http://www.w3.org/1999/02/22-rdf-syntax-ns#"
   xmlns:svg="http://www.w3.org/2000/svg"
   xmlns="http://www.w3.org/2000/svg"
   xmlns:xlink="http://www.w3.org/1999/xlink"
   xmlns:sodipodi="http://sodipodi.sourceforge.net/DTD/sodipodi-0.dtd"
   xmlns:inkscape="http://www.inkscape.org/namespaces/inkscape"
   id="svg2"
   version="1.1"
   inkscape:version="1.0.2-2 (e86c870879, 2021-01-15)"
   width="2481"
   height="3503"
   sodipodi:docname="E33P08.svg">
  <metadata
     id="metadata8">
    <rdf:RDF>
      <cc:Work
         rdf:about="">
        <dc:format>image/svg+xml</dc:format>
        <dc:type
           rdf:resource="http://purl.org/dc/dcmitype/StillImage" />
        <dc:title />
      </cc:Work>
    </rdf:RDF>
  </metadata>
  <defs
     id="defs6">
    <filter
       style="color-interpolation-filters:sRGB"
       id="filter4375-4-1-1-1-9-5-8-8-3-3-3-6-1-6"
       inkscape:label="magic-numbers_orange"
       height="1.38"
       width="1.22"
       x="-0.14">
      <feFlood
         id="feFlood4377-7-9-0-8-1-7-3-1-6-61-6-2-0-2"
         flood-opacity="1"
         flood-color="rgb(216,88,33)"
         result="flood"
         radius="5.0999999999999996" />
      <feComposite
         id="feComposite4379-3-8-8-2-77-4-1-0-7-2-7-6-6-6"
         in2="SourceGraphic"
         in="flood"
         operator="in"
         result="composite1"
         baseFrequency="0.053999999999999999 0.053999999999999999" />
      <feMorphology
         id="feMorphology4393-1-0-49-8-9-3-0-1-5-9-5-1-3-1"
         operator="dilate"
         radius="0.96959439099754563"
         result="result3" />
      <feComposite
         id="feComposite4385-9-5-7-0-8-8-7-5-3-3-3-8-2-8"
         in2="result3"
         in="SourceGraphic"
         operator="over"
         result="fbSourceGraphic"
         numOctaves="4" />
      <feColorMatrix
         result="fbSourceGraphicAlpha"
         in="fbSourceGraphic"
         values="0 0 0 -1 0 0 0 0 -1 0 0 0 0 -1 0 0 0 0 1 0"
         id="feColorMatrix4544-9-5-1-5-7-0-7" />
      <feTurbulence
         id="feTurbulence4546-3-6-9-6-9-6-9"
         type="fractalNoise"
         numOctaves="4.4123222748815163"
         seed="172"
         baseFrequency="0.062 0.054054054054054057"
         result="turbulence" />
      <feDisplacementMap
         id="feDisplacementMap4548-8-2-4-2-2-1-20"
         in2="turbulence"
         in="fbSourceGraphic"
         scale="11.642079"
         yChannelSelector="G"
         xChannelSelector="R"
         result="fbSourceGraphic" />
      <feColorMatrix
         result="fbSourceGraphicAlpha"
         in="fbSourceGraphic"
         values="0 0 0 -1 0 0 0 0 -1 0 0 0 0 -1 0 0 0 0 1 0"
         id="feColorMatrix4670-7-9-7-9-0-5-2"
         scale="10.800000000000001" />
      <feComposite
         id="feComposite4674-8-2-4-1-2-5-3"
         in2="fbSourceGraphic"
         in="flood"
         operator="in"
         result="composite1" />
      <feGaussianBlur
         id="feGaussianBlur4676-3-7-50-2-3-4-7"
         in="composite1"
         stdDeviation="0.01"
         result="blur" />
      <feOffset
         id="feOffset4678-6-0-3-7-7-7-5"
         dx="-0.42771311737301687"
         dy="5.2374444725016502"
         result="offset" />
      <feComposite
         id="feComposite4680-4-9-6-0-5-6-9"
         in2="offset"
         in="fbSourceGraphic"
         operator="over"
         result="composite2" />
      <feGaussianBlur
         id="feGaussianBlur58-9-9-5-2"
         stdDeviation="0.01" />
      <feOffset
         id="feOffset60-3-2-6-2"
         dy="0"
         dx="0" />
    </filter>
    <filter
       x="-0.14"
       width="1.22"
       height="1.38"
       inkscape:label="magic-numbers_cyan"
       id="filter4375-4-1-1-1-9-5-8-8-3-3-7-4-1"
       style="color-interpolation-filters:sRGB">
      <feFlood
         radius="5.0999999999999996"
         result="flood"
         flood-color="rgb(15,126,119)"
         flood-opacity="1"
         id="feFlood4377-7-9-0-8-1-7-3-1-6-61-3-5-4" />
      <feComposite
         baseFrequency="0.053999999999999999 0.053999999999999999"
         result="composite1"
         operator="in"
         in="flood"
         in2="SourceGraphic"
         id="feComposite4379-3-8-8-2-77-4-1-0-7-2-6-2-9" />
      <feMorphology
         result="result3"
         radius="0.96959439099754563"
         operator="dilate"
         id="feMorphology4393-1-0-49-8-9-3-0-1-5-9-1-5-2" />
      <feComposite
         numOctaves="4"
         result="fbSourceGraphic"
         operator="over"
         in="SourceGraphic"
         in2="result3"
         id="feComposite4385-9-5-7-0-8-8-7-5-3-3-2-4-0" />
      <feColorMatrix
         id="feColorMatrix4544-9-5-1-9-7-6"
         values="0 0 0 -1 0 0 0 0 -1 0 0 0 0 -1 0 0 0 0 1 0"
         in="fbSourceGraphic"
         result="fbSourceGraphicAlpha" />
      <feTurbulence
         result="turbulence"
         baseFrequency="0.062 0.054054054054054057"
         seed="172"
         numOctaves="4.4123222748815163"
         type="fractalNoise"
         id="feTurbulence4546-3-6-9-3-4-8" />
      <feDisplacementMap
         result="fbSourceGraphic"
         xChannelSelector="R"
         yChannelSelector="G"
         scale="11.642079"
         in="fbSourceGraphic"
         in2="turbulence"
         id="feDisplacementMap4548-8-2-4-1-4-9" />
      <feColorMatrix
         scale="10.800000000000001"
         id="feColorMatrix4670-7-9-7-9-3-2"
         values="0 0 0 -1 0 0 0 0 -1 0 0 0 0 -1 0 0 0 0 1 0"
         in="fbSourceGraphic"
         result="fbSourceGraphicAlpha" />
      <feComposite
         result="composite1"
         operator="in"
         in="flood"
         in2="fbSourceGraphic"
         id="feComposite4674-8-2-4-4-0-6" />
      <feGaussianBlur
         result="blur"
         stdDeviation="1.5865199271065846"
         in="composite1"
         id="feGaussianBlur4676-3-7-50-7-7-6" />
      <feOffset
         result="offset"
         dy="5.2374444725016502"
         dx="-0.42771311737301687"
         id="feOffset4678-6-0-3-8-8-4" />
      <feComposite
         result="composite2"
         operator="over"
         in="fbSourceGraphic"
         in2="offset"
         id="feComposite4680-4-9-6-4-6-9" />
      <feGaussianBlur
         stdDeviation="0.01"
         id="feGaussianBlur58-5-8-5" />
      <feOffset
         dx="0"
         dy="0"
         id="feOffset60-0-8-0" />
    </filter>
    <filter
       height="1.0014846"
       y="-0.00074229879"
       x="-0.00024075457"
       inkscape:label="soundFX-background"
       id="filter4375-4-1-1-1-9-5-8-6-4"
       style="color-interpolation-filters:sRGB"
       width="1.0004815">
      <feFlood
         result="flood"
         flood-color="rgb(46,52,54)"
         flood-opacity="1"
         id="feFlood4377-7-9-0-8-1-7-3-7-8" />
      <feComposite
         result="composite1"
         operator="in"
         in="flood"
         in2="SourceGraphic"
         id="feComposite4379-3-8-8-2-77-4-1-5-1" />
      <feMorphology
         result="result3"
         radius="6.2000000000000002"
         operator="dilate"
         id="feMorphology4393-1-0-49-8-9-3-0-3-2" />
      <feComposite
         result="fbSourceGraphic"
         operator="over"
         in="SourceGraphic"
         in2="result3"
         id="feComposite4385-9-5-7-0-8-8-7-56-9" />
      <feColorMatrix
         id="feColorMatrix4544-2-3"
         values="0 0 0 -1 0 0 0 0 -1 0 0 0 0 -1 0 0 0 0 1 0"
         in="fbSourceGraphic"
         result="fbSourceGraphicAlpha" />
      <feTurbulence
         result="turbulence"
         baseFrequency="0.129 0.0050000000000000001"
         seed="37"
         numOctaves="3"
         type="fractalNoise"
         id="feTurbulence4546-9-9" />
      <feDisplacementMap
         result="fbSourceGraphic"
         xChannelSelector="B"
         yChannelSelector="A"
         scale="10"
         in="fbSourceGraphic"
         in2="turbulence"
         id="feDisplacementMap4548-1-0" />
      <feColorMatrix
         id="feColorMatrix4670-2-8"
         values="0 0 0 -1 0 0 0 0 -1 0 0 0 0 -1 0 0 0 0 1 0"
         in="fbSourceGraphic"
         result="fbSourceGraphicAlpha" />
      <feFlood
         in="fbSourceGraphic"
         result="flood"
         flood-color="rgb(17,52,65)"
         flood-opacity="1"
         id="feFlood4672-7-8" />
      <feComposite
         result="composite1"
         operator="in"
         in="flood"
         in2="fbSourceGraphic"
         id="feComposite4674-0-5" />
      <feComposite
         result="composite2"
         operator="over"
         in="fbSourceGraphic"
         in2="composite1"
         id="feComposite4680-6-0" />
      <feGaussianBlur
         id="feGaussianBlur1513"
         stdDeviation="0.027533236" />
    </filter>
  </defs>
  <sodipodi:namedview
     pagecolor="#ffffff"
     bordercolor="#666666"
     borderopacity="1"
     objecttolerance="10"
     gridtolerance="10"
     guidetolerance="10"
     inkscape:pageopacity="0"
     inkscape:pageshadow="2"
     inkscape:window-width="1366"
     inkscape:window-height="745"
     id="namedview4"
     showgrid="false"
     inkscape:zoom="0.37405949"
     inkscape:cx="986.34318"
     inkscape:cy="2919.747"
     inkscape:window-x="-8"
     inkscape:window-y="-8"
     inkscape:window-maximized="1"
     inkscape:current-layer="layer1"
     inkscape:document-rotation="0"
     inkscape:snap-global="false" />
  <g
     inkscape:groupmode="layer"
     id="layer2"
     inkscape:label="artwork"
     sodipodi:insensitive="true">
    <image
       sodipodi:absref="C:\Users\quentinlipeck\Downloads\webcomics-master-ec7d62e6553c2c63bb1cf2e799ee31f9cb9ce5e2\webcomics-master-ec7d62e6553c2c63bb1cf2e799ee31f9cb9ce5e2\ep33_Spell-of-War\lang\gfx_Pepper-and-Carrot_by-David-Revoy_E33P08.png"
       xlink:href="../gfx_Pepper-and-Carrot_by-David-Revoy_E33P08.png"
       width="2481"
       height="3503"
       id="image10"
       x="0"
       y="0" />
  </g>
  <g
     inkscape:groupmode="layer"
     id="layer3"
     inkscape:label="speechbubbles">
    <path
       inkscape:connector-curvature="0"
       id="path3278-12"
       d="m 2076.3132,2126.7461 c -35.2174,1.3827 -70.4168,3.2847 -105.6259,4.9029 -15.2644,0.837 -30.9331,2.9903 -44.7203,10.9561 -13.9953,8.2398 -25.3047,21.4304 -34.0041,36.1681 -6.9832,11.9506 -12.8954,24.9526 -15.5638,39.053 -2.6687,13.2594 -2.5552,27.2216 0.4968,40.386 6.8315,30.8511 28.1257,57.347 55.0471,66.9097 39.4653,15.803 81.5637,21.9641 123.3065,21.5737 37.9194,-0.558 75.8446,-6.5147 112.2721,-18.5367 11.5957,-4.3549 23.2051,-10.6286 31.1547,-21.4748 11.3275,-15.5492 19.2175,-34.8957 20.0743,-55.2087 0.05,-13.859 -1.1009,-27.8223 -4.3281,-41.2251 -5.4049,-22.8458 -18.6376,-42.7023 -35.354,-56.6108 -14.3808,-12.1301 -31.6747,-19.5781 -49.4518,-21.9669 -17.471,-3.0186 -35.1442,-4.2358 -52.7915,-4.9271 -0.1706,2e-4 -0.3413,4e-4 -0.512,6e-4 z"
       style="display:inline;fill:#ffffff;stroke:none;stroke-width:0.939879" />
    <path
       sodipodi:nodetypes="cccccccccccccccccccc"
       inkscape:connector-curvature="0"
       id="path3549-3-7-9-6"
       d="m 1849.5023,1962.412 c 15.7391,59.1235 -57.2033,29.4296 -78.2516,22.1728 38.7395,24.3827 37.9443,40.2134 -13.4229,44.0752 73.8641,17.5091 45.8997,37.1399 3.5469,50.4478 64.516,4.9031 70.3654,25.3001 27.205,54.3051 78.6882,-17.8626 61.0764,-0.5174 31.9935,24.136 57.6165,-17.5317 84.4258,-25.2718 62.7694,3.8604 -0.1075,-7.5143 51.429,-52.439 129.592,6.0095 -2.8769,-31.1206 22.9626,-38.2434 49.1343,4.1425 -9.8187,-46.388 78.3812,-35.3027 125.3473,-21.9477 -24.4262,-27.596 24.347,-32.4894 64.0286,-27.9465 -73.0794,-27.1986 -21.0121,-37.1947 24.7964,-40.991 -40.3289,-8.2565 -48.025,-17.7023 25.9336,-30.1205 -56.5745,0.5453 -111.8271,-18.2964 -44.2116,-37.293 -45.2224,2.6942 -80.5052,-4.7901 -49.0892,-56.482 -34.8646,28.6608 -111.3247,45.2831 -122.3477,-11.6861 -32.573,42.5189 -60.5218,44.9985 -78.8251,9.285 -5.6321,15.5921 -30.9222,22.0925 -52.5322,23.3881 -8.5697,-5.8974 -17.4746,-13.9831 -26.8415,-24.6395 -13.9543,23.2975 -35.4534,39.3614 -78.8252,9.2839 z"
       style="color:#000000;display:inline;overflow:visible;visibility:visible;fill:#ffffff;fill-opacity:1;fill-rule:nonzero;stroke:none;stroke-width:1.13659px;marker:none;enable-background:accumulate" />
    <path
       sodipodi:nodetypes="cccccccc"
       inkscape:connector-curvature="0"
       id="path1111-3"
       d="m 1898.8813,2451.7612 c 42.1845,-19.5414 70.0418,-49.0032 96.7552,-81.9101 -13.1979,1.1047 -25.5175,2.2354 -38.607,4.1405 43.281,-46.672 75.3438,-81.9823 86.1468,-97.7689 20.0156,-39.712 -8.5318,-31.4429 -30.6261,0.5558 -15.3856,23.3313 -64.2407,81.9966 -95.3964,117.5241 l 38.8332,-3.5957 c -11.3666,17.29 -37.7387,44.1736 -57.1057,61.0543 z"
       style="fill:#ffffff;fill-rule:evenodd;stroke:none;stroke-width:1px;stroke-linecap:butt;stroke-linejoin:miter;stroke-opacity:1" />
    <path
       sodipodi:nodetypes="ccsccc"
       inkscape:connector-curvature="0"
       id="path4440-3"
       d="m 799.91121,1322.9095 c 12.09998,40.2931 0.7359,97.4999 -82.41882,127.139 67.88362,-35.9777 55.50716,-89.1882 53.98696,-117.9025 C 758.78158,1092.3042 423.05815,974.65211 346.8056,1011.7822 l 4.83646,-35.57511 c 346.83972,1.96835 465.22644,318.36431 448.26915,346.70241 z"
       style="color:#000000;display:inline;overflow:visible;visibility:visible;fill:#ffffff;fill-opacity:1;fill-rule:nonzero;stroke:none;stroke-width:0.999998px;marker:none;enable-background:accumulate" />
    <path
       sodipodi:nodetypes="cssssc"
       inkscape:connector-curvature="0"
       id="path3238-0"
       d="m 371.66232,887.53641 c -42.43703,0.22239 -85.74591,5.70733 -123.3849,20.6914 -41.26149,17.33277 -66.62282,52.19638 -65.74348,86.90851 -1.3128,32.39608 -5.30182,65.21368 3.35035,97.27148 6.28038,22.8195 17.52561,45.6487 38.66549,63.3821 17.4864,12.9768 42.35384,18.8581 66.58785,20.5946 39.0656,4.1961 78.2074,8.3308 117.62266,10.2542 53.05277,1.6891 106.01692,-2.0662 158.9344,-4.2602 29.09166,-1.7747 58.6387,-4.2633 85.93509,-12.3008 25.88386,-9.0354 44.1497,-27.249 52.7196,-47.0172 12.03863,-25.5087 10.81329,-52.9177 9.96647,-79.5202 -0.66251,-23.3576 -2.74224,-47.35098 -15.48086,-69.07933 -13.44786,-24.25611 -38.4863,-44.8762 -69.75943,-57.434 -19.10052,-8.11917 -40.82596,-11.75539 -62.13606,-15.29072 -59.40209,-10.41666 -120.65477,-13.72379 -181.57736,-14.17139 -5.23307,-0.037 -10.46655,-0.0359 -15.69982,-0.0285 z"
       style="display:inline;fill:#ffffff;fill-opacity:1;stroke:none;stroke-width:0.966833" />
    <path
       sodipodi:nodetypes="csssssc"
       inkscape:connector-curvature="0"
       id="path3365-74"
       d="m 729.64793,1176.4567 c -30.1799,0.8597 -60.51289,17.9578 -80.05527,48.7673 -10.89638,19.0963 -12.72263,45.0303 -8.15308,67.6652 4.81718,26.0716 20.25376,48.1317 39.54202,56.6035 23.53745,12.0754 48.69341,16.9442 73.56073,21.5964 41.03961,6.2992 83.81694,-1.4376 120.89363,-26.1115 13.70219,-9.8669 23.43378,-28.0862 26.76591,-48.097 6.19938,-30.6587 -1.43714,-65.9407 -20.05464,-86.3938 -12.87576,-13.5155 -29.10996,-19.4339 -44.86201,-24.2472 -28.94494,-8.2194 -58.68529,-8.9223 -88.16798,-9.6678 -6.48933,-0.1164 -12.97948,-0.1253 -19.46931,-0.1164 z"
       style="color:#000000;display:inline;overflow:visible;visibility:visible;fill:#ffffff;fill-opacity:1;fill-rule:nonzero;stroke:none;stroke-width:1.08432px;marker:none;enable-background:accumulate" />
  </g>
  <g
     id="layer1"
     inkscape:label="txt"
     inkscape:groupmode="layer">
    <text
       id="text4246-3-2-2"
       y="964.68097"
       x="-236.69489"
       style="font-style:normal;font-variant:normal;font-weight:normal;font-stretch:normal;line-height:0%;font-family:Lavi;-inkscape-font-specification:Lavi;text-align:center;letter-spacing:0px;word-spacing:0px;text-anchor:middle;fill:#000000;fill-opacity:1;stroke:none"
       xml:space="preserve"
       inkscape:label="pepperA"><tspan
         id="tspan949"
         y="964.68097"
         x="-236.69489"
         style="font-size:45px;line-height:1.25"
         sodipodi:role="line" /></text>
    <text
       id="text4246-3-2-9-6"
       y="968.37909"
       x="454.85455"
       style="font-style:normal;font-variant:normal;font-weight:normal;font-stretch:normal;line-height:0%;font-family:Lavi;-inkscape-font-specification:Lavi;text-align:center;letter-spacing:0px;word-spacing:0px;text-anchor:middle;fill:#000000;fill-opacity:1;stroke:none"
       xml:space="preserve"
       inkscape:label="pepperB"><tspan
         y="968.37909"
         x="454.85455"
         style="font-size:45px;line-height:1.25"
         sodipodi:role="line"
         id="tspan127">sina sona e nasin </tspan><tspan
         y="1024.6292"
         x="454.85455"
         style="font-size:45px;line-height:1.25"
         sodipodi:role="line"
         id="tspan134">lon tenpo ni la, <tspan
   style="font-size:45px;line-height:1.25"
   id="tspan129">mi ken </tspan></tspan><tspan
         y="1080.8792"
         x="454.85455"
         style="font-size:45px;line-height:1.25"
         sodipodi:role="line"
         id="tspan137"><tspan
           style="font-size:45px;line-height:1.25"
           id="tspan140">sin e nanpa tawa </tspan></tspan><tspan
         y="1137.1292"
         x="454.85455"
         style="font-size:45px;line-height:1.25"
         sodipodi:role="line"
         id="tspan142"><tspan
   dy="0 0 0 0 0 0 0 0 0 0 0 0 0 0"
   style="font-size:45px;line-height:1.25"
   id="tspan144">utala open sin</tspan>!</tspan></text>
    <text
       id="text4246-3-2-9"
       y="1239.8757"
       x="779.69745"
       style="font-style:normal;font-variant:normal;font-weight:normal;font-stretch:normal;font-size:10.9475px;line-height:0%;font-family:Lavi;-inkscape-font-specification:Lavi;text-align:center;letter-spacing:0px;word-spacing:0px;text-anchor:middle;fill:#000000;fill-opacity:1;stroke:none;stroke-width:0.999998"
       xml:space="preserve"
       inkscape:label="pepperC"><tspan
         y="1239.8757"
         x="779.69745"
         style="font-size:41.0531px;line-height:1.25;stroke-width:0.999998"
         sodipodi:role="line"
         id="tspan130">ni li nasin </tspan><tspan
         y="1291.1921"
         x="779.69745"
         style="font-size:41.0531px;line-height:1.25;stroke-width:0.999998"
         sodipodi:role="line"
         id="tspan119">pona </tspan><tspan
         y="1342.5085"
         x="779.69745"
         style="font-size:41.0531px;line-height:1.25;stroke-width:0.999998"
         sodipodi:role="line"
         id="tspan135">tawa ale.</tspan></text>
    <text
       xml:space="preserve"
       style="font-style:normal;font-variant:normal;font-weight:normal;font-stretch:normal;line-height:0%;font-family:Lavi;-inkscape-font-specification:Lavi;letter-spacing:3.03024px;word-spacing:0px;opacity:0.414404;fill:#fff4b7;fill-opacity:1;stroke:#aa7640;stroke-width:1.71056;stroke-miterlimit:4;stroke-dasharray:none;stroke-opacity:1;filter:url(#filter4375-4-1-1-1-9-5-8-8-3-3-3-6-1-6)"
       x="787.65729"
       y="1584.5073"
       id="text4580-6-0-0-3-3-8-1"
       transform="matrix(0.58085508,0.0196807,-0.00871911,0.96825701,795.76505,769.46879)"
       inkscape:label="scoreP1"><tspan
         sodipodi:role="line"
         id="tspan4582-1-1-0-6-9-9-4"
         x="787.65729"
         y="1584.5073"
         style="font-style:normal;font-variant:normal;font-weight:bold;font-stretch:normal;font-size:64.9472px;line-height:1.25;font-family:Drukah;-inkscape-font-specification:'Drukah Bold';fill:#fff4b7;fill-opacity:1;stroke:#aa7640;stroke-width:1.71056;stroke-miterlimit:4;stroke-dasharray:none;stroke-opacity:1">64</tspan></text>
    <text
       xml:space="preserve"
       style="font-style:normal;font-variant:normal;font-weight:normal;font-stretch:normal;line-height:0%;font-family:Lavi;-inkscape-font-specification:Lavi;letter-spacing:1.14398px;word-spacing:0px;opacity:0.526676;fill:#b5ffe1;fill-opacity:1;stroke:#316983;stroke-width:1.49852;stroke-miterlimit:4;stroke-dasharray:none;stroke-opacity:1;filter:url(#filter4375-4-1-1-1-9-5-8-8-3-3-7-4-1)"
       x="787.65729"
       y="1584.5073"
       id="text4580-6-0-0-3-36-7"
       transform="matrix(0.64289671,-0.04761937,-0.00965042,1.1409372,796.71425,531.51997)"
       inkscape:label="scoreP2"><tspan
         sodipodi:role="line"
         id="tspan4582-1-1-0-6-1-4"
         x="787.65729"
         y="1584.5073"
         style="font-style:normal;font-variant:normal;font-weight:bold;font-stretch:normal;font-size:69.5991px;line-height:1.25;font-family:Drukah;-inkscape-font-specification:'Drukah Bold';fill:#b5ffe1;fill-opacity:1;stroke:#316983;stroke-width:1.49852;stroke-miterlimit:4;stroke-dasharray:none;stroke-opacity:1">45</tspan></text>
    <text
       transform="matrix(0.76490014,0.02494015,-0.01148179,1.2270126,757.96076,313.10087)"
       id="text4580-6-0-0-3-3-8"
       y="1584.5073"
       x="787.65729"
       style="font-style:normal;font-variant:normal;font-weight:normal;font-stretch:normal;line-height:0%;font-family:Lavi;-inkscape-font-specification:Lavi;letter-spacing:3.03024px;word-spacing:0px;opacity:0.504709;fill:#fff4b7;fill-opacity:1;stroke:#aa7640;stroke-width:1.32415;stroke-miterlimit:4;stroke-dasharray:none;stroke-opacity:1;filter:url(#filter4375-4-1-1-1-9-5-8-8-3-3-3-6-1-6)"
       xml:space="preserve"
       inkscape:label="scoreP3"><tspan
         style="font-style:normal;font-variant:normal;font-weight:bold;font-stretch:normal;font-size:64.9472px;line-height:1.25;font-family:Drukah;-inkscape-font-specification:'Drukah Bold';fill:#fff4b7;fill-opacity:1;stroke:#aa7640;stroke-width:1.32415;stroke-miterlimit:4;stroke-dasharray:none;stroke-opacity:1"
         y="1584.5073"
         x="787.65729"
         id="tspan4582-1-1-0-6-9-9"
         sodipodi:role="line">6</tspan></text>
    <text
       transform="matrix(0.79148797,-0.04842097,-0.01188089,1.1601433,778.60793,463.05385)"
       id="text4580-6-0-0-3-36"
       y="1584.5073"
       x="787.65729"
       style="font-style:normal;font-variant:normal;font-weight:normal;font-stretch:normal;line-height:0%;font-family:Lavi;-inkscape-font-specification:Lavi;letter-spacing:2.67495px;word-spacing:0px;opacity:0.615798;fill:#b5ffe1;fill-opacity:1;stroke:#316983;stroke-width:1.33932;stroke-miterlimit:4;stroke-dasharray:none;stroke-opacity:1;filter:url(#filter4375-4-1-1-1-9-5-8-8-3-3-7-4-1)"
       xml:space="preserve"
       inkscape:label="scoreP4"><tspan
         style="font-style:normal;font-variant:normal;font-weight:bold;font-stretch:normal;font-size:69.5991px;line-height:1.25;font-family:Drukah;-inkscape-font-specification:'Drukah Bold';fill:#b5ffe1;fill-opacity:1;stroke:#316983;stroke-width:1.33932;stroke-miterlimit:4;stroke-dasharray:none;stroke-opacity:1"
         y="1584.5073"
         x="787.65729"
         id="tspan4582-1-1-0-6-1"
         sodipodi:role="line">2</tspan></text>
    <text
       transform="matrix(0.72200038,0.02127932,-0.01083782,1.0469063,876.7455,580.14461)"
       id="text4580-6-0-0-3-3-8-3-1"
       y="1584.5073"
       x="787.65729"
       style="font-style:normal;font-variant:normal;font-weight:normal;font-stretch:normal;line-height:0%;font-family:Lavi;-inkscape-font-specification:Lavi;letter-spacing:3.03024px;word-spacing:0px;opacity:0.67509;fill:#fff4b7;fill-opacity:1;stroke:#aa7640;stroke-width:1.47551;stroke-miterlimit:4;stroke-dasharray:none;stroke-opacity:1;filter:url(#filter4375-4-1-1-1-9-5-8-8-3-3-3-6-1-6)"
       xml:space="preserve"
       inkscape:label="scoreP5"><tspan
         style="font-style:normal;font-variant:normal;font-weight:bold;font-stretch:normal;font-size:64.9472px;line-height:1.25;font-family:Lavi;-inkscape-font-specification:'Lavi Bold';fill:#fff4b7;fill-opacity:1;stroke:#aa7640;stroke-width:1.47551;stroke-miterlimit:4;stroke-dasharray:none;stroke-opacity:1"
         y="1584.5073"
         x="787.65729"
         id="tspan4582-1-1-0-6-9-9-7-0"
         sodipodi:role="line">0</tspan></text>
    <text
       transform="matrix(0.74585099,-0.04732194,-0.01119584,1.1338115,921.63161,494.98929)"
       id="text4580-6-0-0-3-36-4-4"
       y="1584.5073"
       x="787.65729"
       style="font-style:normal;font-variant:normal;font-weight:normal;font-stretch:normal;line-height:0%;font-family:Lavi;-inkscape-font-specification:Lavi;letter-spacing:2.67495px;word-spacing:0px;fill:#b5ffe1;fill-opacity:1;stroke:#316983;stroke-width:1.39562;stroke-miterlimit:4;stroke-dasharray:none;stroke-opacity:1;filter:url(#filter4375-4-1-1-1-9-5-8-8-3-3-7-4-1)"
       xml:space="preserve"
       inkscape:label="scoreP6"><tspan
         style="font-style:normal;font-variant:normal;font-weight:bold;font-stretch:normal;font-size:69.5991px;line-height:1.25;font-family:Lavi;-inkscape-font-specification:'Lavi Bold';fill:#b5ffe1;fill-opacity:1;stroke:#316983;stroke-width:1.39562;stroke-miterlimit:4;stroke-dasharray:none;stroke-opacity:1"
         y="1584.5073"
         x="787.65729"
         id="tspan4582-1-1-0-6-1-3-8"
         sodipodi:role="line">0</tspan></text>
    <text
       xml:space="preserve"
       style="font-style:normal;font-variant:normal;font-weight:normal;font-stretch:normal;line-height:0%;font-family:Lavi;-inkscape-font-specification:Lavi;letter-spacing:3.03024px;word-spacing:0px;fill:#fff4b7;fill-opacity:1;stroke:#aa7640;stroke-width:0.960021;stroke-miterlimit:4;stroke-dasharray:none;stroke-opacity:1;filter:url(#filter4375-4-1-1-1-9-5-8-8-3-3-3-6-1-6)"
       x="787.65729"
       y="1584.5073"
       id="text4580-6-0-0-3-3-8-3"
       transform="matrix(1.1433172,0.03174263,-0.01716214,1.5616829,712.82242,-239.84599)"
       inkscape:label="scoreP7"><tspan
         sodipodi:role="line"
         id="tspan4582-1-1-0-6-9-9-7"
         x="787.65729"
         y="1584.5073"
         style="font-style:normal;font-variant:normal;font-weight:bold;font-stretch:normal;font-size:64.9472px;line-height:1.25;font-family:Lavi;-inkscape-font-specification:'Lavi Bold';fill:#fff4b7;fill-opacity:1;stroke:#aa7640;stroke-width:0.960021;stroke-miterlimit:4;stroke-dasharray:none;stroke-opacity:1">0</tspan></text>
    <text
       xml:space="preserve"
       style="font-style:normal;font-variant:normal;font-weight:normal;font-stretch:normal;line-height:0%;font-family:Lavi;-inkscape-font-specification:Lavi;letter-spacing:2.67495px;word-spacing:0px;fill:#b5ffe1;fill-opacity:1;stroke:#316983;stroke-width:0.807391;stroke-miterlimit:4;stroke-dasharray:none;stroke-opacity:1;filter:url(#filter4375-4-1-1-1-9-5-8-8-3-3-7-4-1)"
       x="787.65729"
       y="1584.5073"
       id="text4580-6-0-0-3-36-4-4-6"
       transform="matrix(1.3732529,-0.07679437,-0.02061366,1.8399568,668.51631,-563.0911)"
       inkscape:label="scoreP8"><tspan
         sodipodi:role="line"
         id="tspan4582-1-1-0-6-1-3-8-2"
         x="787.65729"
         y="1584.5073"
         style="font-style:normal;font-variant:normal;font-weight:bold;font-stretch:normal;font-size:69.5991px;line-height:1.25;font-family:Lavi;-inkscape-font-specification:'Lavi Bold';fill:#b5ffe1;fill-opacity:1;stroke:#316983;stroke-width:0.807391;stroke-miterlimit:4;stroke-dasharray:none;stroke-opacity:1">0</tspan></text>
    <text
       xml:space="preserve"
       style="font-style:normal;font-variant:normal;font-weight:normal;font-stretch:normal;line-height:0%;font-family:Lavi;-inkscape-font-specification:Lavi;letter-spacing:3.03024px;word-spacing:0px;opacity:0.39945;fill:#fff4b7;fill-opacity:1;stroke:#aa7640;stroke-width:1.5234;stroke-miterlimit:4;stroke-dasharray:none;stroke-opacity:1;filter:url(#filter4375-4-1-1-1-9-5-8-8-3-3-3-6-1-6)"
       x="787.65729"
       y="1584.5073"
       id="text4580-6-0-0-3-3-8-8"
       transform="matrix(0.7183239,0.04312147,-0.01078263,0.98679735,571.61175,959.64749)"
       inkscape:label="scoreC1"><tspan
         sodipodi:role="line"
         id="tspan4582-1-1-0-6-9-9-1"
         x="787.65729"
         y="1584.5073"
         style="font-style:normal;font-variant:normal;font-weight:bold;font-stretch:normal;font-size:64.9472px;line-height:1.25;font-family:Drukah;-inkscape-font-specification:'Drukah Bold';fill:#fff4b7;fill-opacity:1;stroke:#aa7640;stroke-width:1.5234;stroke-miterlimit:4;stroke-dasharray:none;stroke-opacity:1">9</tspan></text>
    <text
       xml:space="preserve"
       style="font-style:normal;font-variant:normal;font-weight:normal;font-stretch:normal;line-height:0%;font-family:Lavi;-inkscape-font-specification:Lavi;letter-spacing:2.67495px;word-spacing:0px;opacity:0.600398;fill:#b5ffe1;fill-opacity:1;stroke:#316983;stroke-width:1.61255;stroke-miterlimit:4;stroke-dasharray:none;stroke-opacity:1;filter:url(#filter4375-4-1-1-1-9-5-8-8-3-3-7-4-1)"
       x="787.65729"
       y="1584.5073"
       id="text4580-6-0-0-3-36-1"
       transform="matrix(0.66279197,-0.29884292,-0.00994906,0.95956644,654.27727,1292.5405)"
       inkscape:label="scoreC2"><tspan
         sodipodi:role="line"
         id="tspan4582-1-1-0-6-1-9"
         x="787.65729"
         y="1584.5073"
         style="font-style:normal;font-variant:normal;font-weight:bold;font-stretch:normal;font-size:69.5991px;line-height:1.25;font-family:Drukah;-inkscape-font-specification:'Drukah Bold';fill:#b5ffe1;fill-opacity:1;stroke:#316983;stroke-width:1.61255;stroke-miterlimit:4;stroke-dasharray:none;stroke-opacity:1">5</tspan></text>
    <text
       xml:space="preserve"
       style="font-style:normal;font-variant:normal;font-weight:normal;font-stretch:normal;line-height:0%;font-family:Lavi;-inkscape-font-specification:Lavi;letter-spacing:3.03024px;word-spacing:0px;fill:#fff4b7;fill-opacity:1;stroke:#aa7640;stroke-width:1.55416;stroke-miterlimit:4;stroke-dasharray:none;stroke-opacity:1;filter:url(#filter4375-4-1-1-1-9-5-8-8-3-3-3-6-1-6)"
       x="787.65729"
       y="1584.5073"
       id="text4580-6-0-0-3-3-8-3-1-3"
       transform="matrix(0.63993057,0.10211521,-0.00960589,1.0634303,721.841,832.98518)"
       inkscape:label="scoreC3"><tspan
         sodipodi:role="line"
         id="tspan4582-1-1-0-6-9-9-7-0-9"
         x="787.65729"
         y="1584.5073"
         style="font-style:normal;font-variant:normal;font-weight:bold;font-stretch:normal;font-size:64.9472px;line-height:1.25;font-family:Lavi;-inkscape-font-specification:'Lavi Bold';fill:#fff4b7;fill-opacity:1;stroke:#aa7640;stroke-width:1.55416;stroke-miterlimit:4;stroke-dasharray:none;stroke-opacity:1">0</tspan></text>
    <text
       xml:space="preserve"
       style="font-style:normal;font-variant:normal;font-weight:normal;font-stretch:normal;line-height:0%;font-family:Lavi;-inkscape-font-specification:Lavi;letter-spacing:2.67495px;word-spacing:0px;fill:#b5ffe1;fill-opacity:1;stroke:#316983;stroke-width:1.55131;stroke-miterlimit:4;stroke-dasharray:none;stroke-opacity:1;filter:url(#filter4375-4-1-1-1-9-5-8-8-3-3-7-4-1)"
       x="787.65729"
       y="1584.5073"
       id="text4580-6-0-0-3-36-4-4-3"
       transform="matrix(0.62043393,0.0078806,-0.00931322,1.1023271,815.30942,907.10667)"
       inkscape:label="scoreC4"><tspan
         sodipodi:role="line"
         id="tspan4582-1-1-0-6-1-3-8-1"
         x="787.65729"
         y="1584.5073"
         style="font-style:normal;font-variant:normal;font-weight:bold;font-stretch:normal;font-size:69.5991px;line-height:1.25;font-family:Lavi;-inkscape-font-specification:'Lavi Bold';fill:#b5ffe1;fill-opacity:1;stroke:#316983;stroke-width:1.55131;stroke-miterlimit:4;stroke-dasharray:none;stroke-opacity:1">0</tspan></text>
    <text
       transform="matrix(0.99320406,0.12366577,-0.01490882,1.7228446,613.7137,-57.733034)"
       id="text4580-6-0-0-3-3-8-3-10"
       y="1584.5073"
       x="787.65729"
       style="font-style:normal;font-variant:normal;font-weight:normal;font-stretch:normal;line-height:0%;font-family:Lavi;-inkscape-font-specification:Lavi;letter-spacing:3.03024px;word-spacing:0px;fill:#fff4b7;fill-opacity:1;stroke:#aa7640;stroke-width:0.980281;stroke-miterlimit:4;stroke-dasharray:none;stroke-opacity:1;filter:url(#filter4375-4-1-1-1-9-5-8-8-3-3-3-6-1-6)"
       xml:space="preserve"
       inkscape:label="scoreC5"><tspan
         style="font-style:normal;font-variant:normal;font-weight:bold;font-stretch:normal;font-size:64.9472px;line-height:1.25;font-family:Lavi;-inkscape-font-specification:'Lavi Bold';fill:#fff4b7;fill-opacity:1;stroke:#aa7640;stroke-width:0.980281;stroke-miterlimit:4;stroke-dasharray:none;stroke-opacity:1"
         y="1584.5073"
         x="787.65729"
         id="tspan4582-1-1-0-6-9-9-7-3"
         sodipodi:role="line">0</tspan></text>
    <text
       transform="matrix(0.51552495,0.09969835,-0.36461778,0.72279881,2190.7581,1253.6202)"
       id="text4580-6-0-06-9-3-7"
       y="1584.5073"
       x="787.65729"
       style="font-style:normal;font-variant:normal;font-weight:normal;font-stretch:normal;line-height:0%;font-family:Lavi;-inkscape-font-specification:Lavi;letter-spacing:0px;word-spacing:0px;opacity:1;mix-blend-mode:normal;fill:#ffffff;fill-opacity:1;stroke:#98b9ca;stroke-width:1.27857;stroke-miterlimit:4;stroke-dasharray:none;stroke-opacity:1;filter:url(#filter4375-4-1-1-1-9-5-8-6-4)"
       xml:space="preserve"
       inkscape:label="weaponFXA"><tspan
         style="font-size:70px;line-height:1.25;fill:#ffffff;fill-opacity:1;stroke:#98b9ca;stroke-width:1.27857;stroke-opacity:1"
         y="1584.5073"
         x="787.65729"
         id="tspan4582-1-1-2-63-0-5"
         sodipodi:role="line"><tspan
           id="tspan4315-8-6-8-9-4"
           style="font-size:93.1495px;fill:#ffffff;fill-opacity:1;stroke:#98b9ca;stroke-width:1.27857;stroke-opacity:1">Sssike!</tspan></tspan></text>
    <text
       xml:space="preserve"
       style="font-style:normal;font-variant:normal;font-weight:normal;font-stretch:normal;line-height:0%;font-family:Lavi;-inkscape-font-specification:Lavi;letter-spacing:0px;word-spacing:0px;opacity:1;mix-blend-mode:normal;fill:#ffffff;fill-opacity:1;stroke:#98b9ca;stroke-width:1.23972;stroke-miterlimit:4;stroke-dasharray:none;stroke-opacity:1;filter:url(#filter4375-4-1-1-1-9-5-8-6-4)"
       x="787.65729"
       y="1584.5073"
       id="text4580-6-0-06-9-3-7-4"
       transform="matrix(0.4023734,0.40258973,-0.70109371,0.37963743,2672.7552,1828.2703)"
       inkscape:label="weaponFXB"><tspan
         sodipodi:role="line"
         id="tspan4582-1-1-2-63-0-5-8"
         x="787.65729"
         y="1584.5073"
         style="font-size:70px;line-height:1.25;fill:#ffffff;fill-opacity:1;stroke:#98b9ca;stroke-width:1.23972;stroke-opacity:1"><tspan
           style="font-size:93.1495px;fill:#ffffff;fill-opacity:1;stroke:#98b9ca;stroke-width:1.23972;stroke-opacity:1"
           id="tspan4315-8-6-8-9-4-7">Tawaa!</tspan></tspan></text>
    <text
       transform="matrix(0.3827755,-0.26874723,0.21370456,0.59515549,1555.9951,2398.5686)"
       id="text4580-6-0-06-9-3-7-4-4"
       y="1584.5073"
       x="787.65729"
       style="font-style:normal;font-variant:normal;font-weight:normal;font-stretch:normal;line-height:0%;font-family:Lavi;-inkscape-font-specification:Lavi;letter-spacing:0px;word-spacing:0px;opacity:1;mix-blend-mode:normal;fill:#ffffff;fill-opacity:1;stroke:#98b9ca;stroke-width:1.53096;stroke-miterlimit:4;stroke-dasharray:none;stroke-opacity:1;filter:url(#filter4375-4-1-1-1-9-5-8-6-4)"
       xml:space="preserve"
       inkscape:label="weaponFXC"><tspan
         style="font-size:70px;line-height:1.25;fill:#ffffff;fill-opacity:1;stroke:#98b9ca;stroke-width:1.53096;stroke-opacity:1"
         y="1584.5073"
         x="787.65729"
         id="tspan4582-1-1-2-63-0-5-8-9"
         sodipodi:role="line"><tspan
           id="tspan4315-8-6-8-9-4-7-0"
           style="font-size:93.1495px;fill:#ffffff;fill-opacity:1;stroke:#98b9ca;stroke-width:1.53096;stroke-opacity:1">Poki!</tspan></tspan></text>
    <text
       xml:space="preserve"
       style="font-style:normal;font-variant:normal;font-weight:normal;font-stretch:normal;line-height:0%;font-family:Lavi;-inkscape-font-specification:Lavi;letter-spacing:0px;word-spacing:0px;opacity:1;mix-blend-mode:normal;fill:#ffffff;fill-opacity:1;stroke:#98b9ca;stroke-width:1.58161;stroke-miterlimit:4;stroke-dasharray:none;stroke-opacity:1;filter:url(#filter4375-4-1-1-1-9-5-8-6-4)"
       x="787.65729"
       y="1584.5073"
       id="text4580-6-0-06-9-3-7-4-4-6"
       transform="matrix(0.39417058,-0.24452937,0.22006646,0.54152369,989.12821,2486.0635)"
       inkscape:label="weaponFXD"><tspan
         sodipodi:role="line"
         id="tspan4582-1-1-2-63-0-5-8-9-5"
         x="787.65729"
         y="1584.5073"
         style="font-size:70px;line-height:1.25;fill:#ffffff;fill-opacity:1;stroke:#98b9ca;stroke-width:1.58161;stroke-opacity:1"><tspan
           style="font-size:93.1495px;fill:#ffffff;fill-opacity:1;stroke:#98b9ca;stroke-width:1.58161;stroke-opacity:1"
           id="tspan4315-8-6-8-9-4-7-0-6">Poki!</tspan></tspan></text>
    <text
       id="text4246-3-2-9-6-6-0"
       y="2043.4531"
       x="2014.4553"
       style="font-style:normal;font-variant:normal;font-weight:normal;font-stretch:normal;font-size:13.6968px;line-height:0%;font-family:Lavi;-inkscape-font-specification:Lavi;text-align:center;letter-spacing:0px;word-spacing:0px;text-anchor:middle;fill:#000000;fill-opacity:1;stroke:none;stroke-width:1"
       xml:space="preserve"
       inkscape:label="pepperE"><tspan
         y="2043.4531"
         x="2014.4553"
         style="font-style:normal;font-variant:normal;font-weight:bold;font-stretch:normal;font-size:51.3627px;line-height:1.25;font-family:Lavi;-inkscape-font-specification:'Lavi Bold';stroke-width:1"
         sodipodi:role="line"
         id="tspan114">o tawa wawa, </tspan><tspan
         y="2107.6565"
         x="2014.4553"
         style="font-style:normal;font-variant:normal;font-weight:bold;font-stretch:normal;font-size:51.3627px;line-height:1.25;font-family:Lavi;-inkscape-font-specification:'Lavi Bold';stroke-width:1"
         sodipodi:role="line"
         id="tspan148">soweli Kawa o!</tspan></text>
    <text
       id="text4246-3-2-9-6-6-0-3"
       y="2192.8535"
       x="2050.5525"
       style="font-style:normal;font-variant:normal;font-weight:normal;font-stretch:normal;line-height:0%;font-family:Lavi;-inkscape-font-specification:Lavi;text-align:center;letter-spacing:0px;word-spacing:0px;text-anchor:middle;fill:#000000;fill-opacity:1;stroke:none"
       xml:space="preserve"
       inkscape:label="pepperF"><tspan
         y="2192.8535"
         x="2050.5525"
         style="font-size:45px;line-height:1.25"
         sodipodi:role="line"
         id="tspan141">wawa ni li </tspan><tspan
         y="2249.1035"
         x="2050.5525"
         style="font-size:45px;line-height:1.25"
         sodipodi:role="line"
         id="tspan157">awen ala </tspan><tspan
         y="2305.3535"
         x="2050.5525"
         style="font-size:45px;line-height:1.25"
         sodipodi:role="line"
         id="tspan155">lon tenpo!</tspan></text>
    <text
       transform="matrix(0.85852879,0,-0.29243083,1.1647833,0,0)"
       id="text4213-7"
       y="2985.2324"
       x="2454.97"
       style="font-style:normal;font-variant:normal;font-weight:normal;font-stretch:normal;font-size:10.7631px;line-height:0%;font-family:Lavi;-inkscape-font-specification:Lavi;text-align:center;letter-spacing:0px;word-spacing:0px;text-anchor:middle;display:inline;opacity:1;fill:#241c1c;fill-opacity:1;stroke:#000000;stroke-width:0;stroke-miterlimit:4;stroke-dasharray:none;stroke-opacity:1"
       xml:space="preserve"
       inkscape:label="fin"><tspan
         style="font-style:normal;font-variant:normal;font-weight:bold;font-stretch:normal;font-size:64.7408px;line-height:1.25;font-family:Lavi;-inkscape-font-specification:'Lavi Bold';fill:#000000;fill-opacity:1;stroke:none;stroke-width:0;stroke-miterlimit:4;stroke-dasharray:none"
         y="2985.2324"
         x="2454.97"
         id="tspan3562-5"
         sodipodi:role="line">- PINI -</tspan></text>
  </g>
</svg>
