<?xml version="1.0" encoding="UTF-8" standalone="no"?>
<!-- Created with Inkscape (http://www.inkscape.org/) -->

<svg
   xmlns:dc="http://purl.org/dc/elements/1.1/"
   xmlns:cc="http://creativecommons.org/ns#"
   xmlns:rdf="http://www.w3.org/1999/02/22-rdf-syntax-ns#"
   xmlns:svg="http://www.w3.org/2000/svg"
   xmlns="http://www.w3.org/2000/svg"
   xmlns:xlink="http://www.w3.org/1999/xlink"
   xmlns:sodipodi="http://sodipodi.sourceforge.net/DTD/sodipodi-0.dtd"
   xmlns:inkscape="http://www.inkscape.org/namespaces/inkscape"
   id="svg2"
   version="1.1"
   inkscape:version="0.92.3 (2405546, 2018-03-11)"
   width="2481"
   height="3503"
   sodipodi:docname="E08P05.svg">
  <sodipodi:namedview
     pagecolor="#ffffff"
     bordercolor="#666666"
     inkscape:pageopacity="0"
     inkscape:pageshadow="2"
     inkscape:window-width="1920"
     inkscape:window-height="1022"
     id="namedview70"
     showgrid="false"
     inkscape:zoom="0.4574026"
     inkscape:cx="1674.1707"
     inkscape:cy="2821.8899"
     inkscape:current-layer="layer3"
     inkscape:window-x="0"
     inkscape:window-y="0"
     inkscape:window-maximized="1" />
  <metadata
     id="metadata8">
    <rdf:RDF>
      <cc:Work
         rdf:about="">
        <dc:format>image/svg+xml</dc:format>
        <dc:type
           rdf:resource="http://purl.org/dc/dcmitype/StillImage" />
        <dc:title />
      </cc:Work>
    </rdf:RDF>
  </metadata>
  <defs
     id="defs6">
    <filter
       color-interpolation-filters="sRGB"
       id="filter4375-4-1-1-15-1-3"
       inkscape:label="deevad outline effect">
      <feFlood
         id="feFlood4377-7-9-0-4-4-4"
         flood-opacity="0.90476190476190477"
         flood-color="rgb(250,62,62)"
         result="flood" />
      <feComposite
         id="feComposite4379-3-8-8-6-0-7"
         in2="SourceGraphic"
         in="flood"
         operator="in"
         result="composite1" />
      <feMorphology
         id="feMorphology4393-1-0-49-8-2-7"
         operator="dilate"
         radius="0.59999999999999998"
         result="result3" />
      <feComposite
         id="feComposite4385-9-5-7-2-1-2"
         in2="result3"
         in="SourceGraphic"
         operator="over"
         result="composite2" />
    </filter>
    <filter
       color-interpolation-filters="sRGB"
       id="filter4005"
       inkscape:label="deevad outline effect">
      <feFlood
         id="feFlood4007"
         flood-opacity="1"
         flood-color="rgb(0,0,0)"
         result="flood" />
      <feComposite
         id="feComposite4009"
         in2="SourceGraphic"
         in="flood"
         operator="in"
         result="composite1" />
      <feMorphology
         id="feMorphology4011"
         operator="dilate"
         radius="0.59999999999999998"
         result="result3" />
      <feComposite
         id="feComposite4013"
         in2="result3"
         in="SourceGraphic"
         operator="over"
         result="composite2" />
    </filter>
    <filter
       color-interpolation-filters="sRGB"
       id="filter4015"
       inkscape:label="deevad outline effect">
      <feFlood
         id="feFlood4017"
         flood-opacity="1"
         flood-color="rgb(0,0,0)"
         result="flood" />
      <feComposite
         id="feComposite4019"
         in2="SourceGraphic"
         in="flood"
         operator="in"
         result="composite1" />
      <feMorphology
         id="feMorphology4021"
         operator="dilate"
         radius="0.59999999999999998"
         result="result3" />
      <feComposite
         id="feComposite4023"
         in2="result3"
         in="SourceGraphic"
         operator="over"
         result="composite2" />
    </filter>
    <filter
       color-interpolation-filters="sRGB"
       id="filter4025"
       inkscape:label="deevad outline effect">
      <feFlood
         id="feFlood4027"
         flood-opacity="1"
         flood-color="rgb(0,0,0)"
         result="flood" />
      <feComposite
         id="feComposite4029"
         in2="SourceGraphic"
         in="flood"
         operator="in"
         result="composite1" />
      <feMorphology
         id="feMorphology4031"
         operator="dilate"
         radius="0.59999999999999998"
         result="result3" />
      <feComposite
         id="feComposite4033"
         in2="result3"
         in="SourceGraphic"
         operator="over"
         result="composite2" />
    </filter>
    <filter
       color-interpolation-filters="sRGB"
       id="filter4035"
       inkscape:label="deevad outline effect">
      <feFlood
         id="feFlood4037"
         flood-opacity="1"
         flood-color="rgb(0,0,0)"
         result="flood" />
      <feComposite
         id="feComposite4039"
         in2="SourceGraphic"
         in="flood"
         operator="in"
         result="composite1" />
      <feMorphology
         id="feMorphology4041"
         operator="dilate"
         radius="0.59999999999999998"
         result="result3" />
      <feComposite
         id="feComposite4043"
         in2="result3"
         in="SourceGraphic"
         operator="over"
         result="composite2" />
    </filter>
    <filter
       color-interpolation-filters="sRGB"
       id="filter4045"
       inkscape:label="deevad outline effect">
      <feFlood
         id="feFlood4047"
         flood-opacity="1"
         flood-color="rgb(0,0,0)"
         result="flood" />
      <feComposite
         id="feComposite4049"
         in2="SourceGraphic"
         in="flood"
         operator="in"
         result="composite1" />
      <feMorphology
         id="feMorphology4051"
         operator="dilate"
         radius="0.59999999999999998"
         result="result3" />
      <feComposite
         id="feComposite4053"
         in2="result3"
         in="SourceGraphic"
         operator="over"
         result="composite2" />
    </filter>
    <filter
       color-interpolation-filters="sRGB"
       id="filter4055"
       inkscape:label="deevad outline effect">
      <feFlood
         id="feFlood4057"
         flood-opacity="1"
         flood-color="rgb(0,0,0)"
         result="flood" />
      <feComposite
         id="feComposite4059"
         in2="SourceGraphic"
         in="flood"
         operator="in"
         result="composite1" />
      <feMorphology
         id="feMorphology4061"
         operator="dilate"
         radius="0.59999999999999998"
         result="result3" />
      <feComposite
         id="feComposite4063"
         in2="result3"
         in="SourceGraphic"
         operator="over"
         result="composite2" />
    </filter>
    <filter
       color-interpolation-filters="sRGB"
       id="filter4065"
       inkscape:label="deevad outline effect">
      <feFlood
         id="feFlood4067"
         flood-opacity="1"
         flood-color="rgb(0,0,0)"
         result="flood" />
      <feComposite
         id="feComposite4069"
         in2="SourceGraphic"
         in="flood"
         operator="in"
         result="composite1" />
      <feMorphology
         id="feMorphology4071"
         operator="dilate"
         radius="0.59999999999999998"
         result="result3" />
      <feComposite
         id="feComposite4073"
         in2="result3"
         in="SourceGraphic"
         operator="over"
         result="composite2" />
    </filter>
    <filter
       id="filter3068"
       inkscape:label="Diffuse light"
       inkscape:menu="ABCs"
       inkscape:menu-tooltip="Basic diffuse bevel to use for building textures"
       color-interpolation-filters="sRGB">
      <feGaussianBlur
         id="feGaussianBlur3070"
         stdDeviation="6"
         in="SourceGraphic"
         result="result0" />
      <feDiffuseLighting
         id="feDiffuseLighting3072"
         diffuseConstant="1"
         surfaceScale="10"
         result="result5">
        <feDistantLight
           id="feDistantLight3074"
           elevation="25"
           azimuth="235" />
      </feDiffuseLighting>
      <feComposite
         id="feComposite3076"
         in2="SourceGraphic"
         k1="1"
         in="result5"
         result="result4"
         operator="arithmetic"
         k2="0"
         k3="0.6" />
    </filter>
  </defs>
  <sodipodi:namedview
     pagecolor="#ffffff"
     bordercolor="#666666"
     borderopacity="1"
     objecttolerance="10"
     gridtolerance="10"
     guidetolerance="10"
     inkscape:pageopacity="0"
     inkscape:pageshadow="2"
     inkscape:window-width="1920"
     inkscape:window-height="1025"
     id="namedview4"
     showgrid="false"
     inkscape:zoom="0.526013"
     inkscape:cx="1557.507"
     inkscape:cy="2812.0641"
     inkscape:window-x="0"
     inkscape:window-y="26"
     inkscape:window-maximized="1"
     inkscape:current-layer="layer3"
     showguides="true"
     inkscape:guide-bbox="true">
    <sodipodi:guide
       orientation="1,0"
       position="102.49375,3567.4437"
       id="guide3066"
       inkscape:locked="false" />
    <sodipodi:guide
       orientation="0,1"
       position="438.07811,3402.1312"
       id="guide3068"
       inkscape:locked="false" />
  </sodipodi:namedview>
  <g
     inkscape:groupmode="layer"
     id="layer2"
     inkscape:label="artwork"
     sodipodi:insensitive="true">
    <image
       xlink:href="../gfx_Pepper-and-Carrot_by-David-Revoy_E08P05.png"
       y="0"
       x="0"
       id="image10"
       height="3503"
       width="2481" />
  </g>
  <g
     inkscape:groupmode="layer"
     id="layer3"
     inkscape:label="speechbubbles">
    <path
       style="color:#000000;fill:#ffffff;fill-opacity:1;fill-rule:nonzero;stroke:none;stroke-width:1px;marker:none;visibility:visible;display:inline;overflow:visible;enable-background:accumulate"
       d="m 1889.0397,1689.3949 c -18.4523,28.3798 -51.1226,88.4968 -53.6964,103.6923 24.9455,9.8716 63.3606,38.7994 61.4454,43.4826 -1.9154,4.6832 -64.3114,57.1793 -62.1183,64.6368 2.1932,7.4574 17.4097,29.1871 26.1857,34.615 -23.9099,-18.6352 -40.7903,-34.5159 -40.9424,-46.0736 -0.5159,-7.819 48.671,-48.3166 52.2072,-50.9091 -18.4319,-14.9363 -59.2654,-41.5126 -63.9461,-49.6536 1.5251,-11.9193 7.4437,-57.7273 34.6061,-108.1162 27.1625,-50.3889 46.2588,8.3258 46.2588,8.3258 z"
       id="path5901"
       inkscape:connector-curvature="0"
       sodipodi:nodetypes="ccccccccsc" />
    <path
       style="color:#000000;fill:#ffffff;fill-opacity:1;fill-rule:nonzero;stroke:none;stroke-width:1px;marker:none;visibility:visible;display:inline;overflow:visible;enable-background:accumulate"
       d="M 750.05428,530.36217 C 700.59655,469.80917 642.22347,418.26218 603.12416,347.24545 l -2.35887,68.85263 c -23.8951,-45.67033 -14.97277,-22.74002 -32.13583,-60.6902 l -20.2888,59.56502 C 532.31217,313.18701 518.95517,255.35532 511.7478,185.45489 L 393.99614,336.25283 c 53.91831,42.85658 113.68895,74.20676 161.02432,130.00583 l 18.17046,-37.70422 c 18.79567,16.32487 28.17649,24.0466 43.83446,45.69113 l 10.41812,-50.72454 z"
       id="path4032"
       inkscape:connector-curvature="0"
       sodipodi:nodetypes="cccccccccccc" />
    <path
       style="color:#000000;display:inline;overflow:visible;visibility:visible;fill:#ffffff;fill-opacity:1;fill-rule:nonzero;stroke:none;stroke-width:1.02984405px;marker:none;enable-background:accumulate"
       d="M 113.49221,81.268649 96.344966,78.650207 100.37963,103.08894 C 73.247733,104.41503 59.11145,96.744774 39.860458,92.615219 l 30.259523,31.421031 -5.043231,8.72813 c 4.912763,5.10336 12.325662,8.58408 14.121126,15.71059 -13.706052,4.44102 -23.560413,4.43807 -34.895318,6.14331 10.665379,5.902 19.544864,12.73108 25.817423,20.91372 l -36.31145,13.96486 33.283281,12.21739 c -25.034647,20.09013 -56.499971,32.76061 -85.733273,48.0065 l 103.891274,-6.98257 -16.138388,15.71057 c 10.383849,8.17692 9.466204,4.12945 14.121126,6.10973 2.266871,5.88455 -35.714882,30.35178 -32.276925,27.92988 4.034675,-0.87286 38.328862,-4.36415 38.328862,-4.36415 0,0 -30.259675,24.43872 -26.225,24.43872 4.034525,0 37.320142,-6.1097 37.320142,-6.1097 l -11.095142,23.56587 -21.689132,9.61607 -29.808548,26.57679 c 11.28431,-1.7238 16.622859,1.30775 12.611,11.49648 -27.150468,36.27938 9.893995,67.8904 16.553676,80.24169 64.099546,-67.82824 64.345306,-73.37239 86.966656,-88.34837 21.3212,15.16219 22.12179,14.17501 37.24035,38.09725 10.91452,-15.49522 23.51775,-21.7038 40.34613,-30.54831 5.25231,9.14413 5.28749,11.26291 7.06064,20.94743 5.48748,-7.29412 7.92095,-13.636 30.25951,-26.18429 0.78443,11.45703 0.69057,11.04814 0,27.05716 22.88091,-19.38145 22.57128,-19.30883 39.33758,-31.42118 4.40837,49.82709 7.68782,68.56497 8.78997,113.20231 19.33667,-30.04935 31.14234,-53.36001 59.7984,-97.49172 5.75057,15.09443 6.30837,18.5336 3.94221,36.86599 8.86981,-14.89719 9.46162,-19.21894 19.25697,-34.24756 6.57256,8.26907 6.20204,17.83705 3.02596,27.92988 6.18957,-13.01294 10.76498,-26.27754 28.24227,-37.53074 17.78744,8.83803 18.45647,21.67917 21.18176,34.03946 -0.86226,-15.79604 5.37418,-26.61202 20.17305,-31.42103 33.61436,24.90864 77.53271,26.54674 93.95441,59.23456 -6.36946,-34.38705 -36.54317,-38.97049 -24.35731,-69.70828 11.4314,-2.76747 22.86279,2.76785 34.2942,10.47372 l -0.82183,-35.07239 42.36352,14.88867 -24.39462,-24.32959 c 17.60273,-2.5946 43.79429,4.87851 66.57128,8.72814 l -12.10387,-23.56586 c 10.26928,0.88082 27.77066,10.11991 44.3808,18.32901 -20.4099,-22.5426 -37.57853,-37.43738 -36.3116,-58.47819 l 46.39807,4.36402 c -18.18185,-15.6887 -41.02536,-27.34353 -53.74581,-47.75793 l 40.63337,-1.99212 -38.32886,-26.1843 30.25951,-14.83772 -24.20756,-3.49129 40.34611,-31.42103 -53.45869,-2.61842 64.55385,-56.732607 -69.482,-4.533267 0.89348,-24.269334 L 598.6547,99.597658 640.00939,-3.3937051 C 606.59696,33.445424 580.85219,62.946636 535.54608,89.493796 l -14.56472,-10.342503 -16.13147,5.356122 4.03451,-29.422947 -59.51047,35.785041 6.05192,-16.583299 -18.15579,15.710578 4.03453,-21.820285 -31.26823,26.184292 2.87887,-22.814314 -14.98274,14.95902 -4.61359,-14.334731 -17.57674,9.097879 C 370.45345,43.446954 379.54091,5.6252601 385.82862,-32.196432 365.19241,11.100505 338.98519,50.265463 304.12767,83.014349 L 293.03249,66.436909 279.1985,81.765792 265.22444,61.95147 244.18519,85.628836 c -16.63773,-18.038068 -26.3278,-29.089731 -32.85366,-47.127791 3.21838,16.905432 5.55834,28.261927 0.86385,46.879092 C 150.77691,56.876764 152.61561,54.33495 129.6306,38.501045 123.33231,58.852839 117.05591,65.629086 113.49221,81.268649 Z"
       id="path4024"
       inkscape:connector-curvature="0"
       sodipodi:nodetypes="cccccccccccccccccsccccccccccccccccccccccccccccccccccccccccccccccccccccccccccccccccccc" />
    <flowRoot
       xml:space="preserve"
       id="flowRoot2987-4-9-3"
       style="font-style:normal;font-variant:normal;font-weight:normal;font-stretch:normal;line-height:0.01%;font-family:Lavi;-inkscape-font-specification:Lavi;text-align:center;letter-spacing:0px;word-spacing:0px;text-anchor:middle;fill:#000000;fill-opacity:1;stroke:none"
       transform="translate(-53.025188,-112.88729)"><flowRegion
         id="flowRegion2989-5-4-5"><rect
           id="rect2991-7-9-6"
           width="602.40173"
           height="310.73996"
           x="120.55251"
           y="265.53046"
           style="font-style:normal;font-variant:normal;font-weight:normal;font-stretch:normal;font-family:Lavi;-inkscape-font-specification:Lavi;text-align:center;text-anchor:middle" /></flowRegion><flowPara
         style="font-size:48px;line-height:1.25;text-align:center;text-anchor:middle"
         id="flowPara3011">Am bu chòir dhaibh sin a dhèanamh dhomh ??!!</flowPara></flowRoot>    <flowRoot
       xml:space="preserve"
       id="flowRoot2987-4-9-3-0"
       style="font-style:normal;font-variant:normal;font-weight:normal;font-stretch:normal;line-height:0.01%;font-family:Lavi;-inkscape-font-specification:Lavi;text-align:center;letter-spacing:0px;word-spacing:0px;text-anchor:middle;fill:#000000;fill-opacity:1;stroke:none"
       transform="matrix(1.2147869,0,0,1.2147869,-150.95955,-45.063793)"><flowRegion
         id="flowRegion2989-5-4-5-1"><rect
           id="rect2991-7-9-6-4"
           width="602.40173"
           height="310.73996"
           x="120.55251"
           y="265.53046"
           style="font-style:normal;font-variant:normal;font-weight:normal;font-stretch:normal;font-family:Lavi;-inkscape-font-specification:Lavi;text-align:center;text-anchor:middle" /></flowRegion><flowPara
         style="font-style:italic;font-weight:bold;font-size:48px;line-height:1.25;-inkscape-font-specification:'Lavi Bold Italic';text-align:center;letter-spacing:1.5px;text-anchor:middle;stroke:#000000;stroke-width:3.15775537;stroke-miterlimit:4;stroke-dasharray:none;stroke-opacity:1"
         id="flowPara3030-8-7">Dhomhsa !!!</flowPara></flowRoot>    <flowRoot
       xml:space="preserve"
       id="flowRoot3805"
       style="font-style:normal;font-variant:normal;font-weight:normal;font-stretch:normal;line-height:0.01%;font-family:Arial;-inkscape-font-specification:Arial;letter-spacing:0px;word-spacing:0px;fill:#000000;fill-opacity:1;stroke:none"><flowRegion
         id="flowRegion3807"><rect
           id="rect3809"
           width="371.73911"
           height="402.17389"
           x="1565.2173"
           y="587.78271" /></flowRegion><flowPara
         id="flowPara3811"
         style="font-size:12px;line-height:1.25"> </flowPara></flowRoot>    <flowRoot
       xml:space="preserve"
       id="flowRoot2987-4-9-3-8"
       style="font-style:normal;font-variant:normal;font-weight:normal;font-stretch:normal;line-height:0.01%;font-family:Lavi;-inkscape-font-specification:Lavi;text-align:center;letter-spacing:0px;word-spacing:0px;text-anchor:middle;opacity:0.6465116;fill:#bf987f;fill-opacity:1;stroke:none;filter:url(#filter3068)"
       transform="matrix(0.76243122,-0.21499102,0.23823243,0.79946175,1455.5389,32.140636)"><flowRegion
         id="flowRegion2989-5-4-5-4"><rect
           id="rect2991-7-9-6-3"
           width="602.40173"
           height="310.73996"
           x="120.55251"
           y="265.53046"
           style="font-style:normal;font-variant:normal;font-weight:normal;font-stretch:normal;font-family:Lavi;-inkscape-font-specification:Lavi;text-align:center;text-anchor:middle;fill:#bf987f;fill-opacity:1" /></flowRegion><flowPara
         style="font-style:normal;font-variant:normal;font-weight:normal;font-stretch:normal;font-size:48px;line-height:1.25;font-family:Fondamento;-inkscape-font-specification:Fondamento;text-align:center;text-anchor:middle;fill:#bf987f;fill-opacity:1"
         id="flowPara3830">Orthachan</flowPara><flowPara
         style="font-style:normal;font-variant:normal;font-weight:normal;font-stretch:normal;font-size:39.36684418px;line-height:1.25;font-family:Fondamento;-inkscape-font-specification:Fondamento;text-align:center;text-anchor:middle;fill:#bf987f;fill-opacity:1"
         id="flowPara112">Deamhan na Dubh-</flowPara><flowPara
         style="font-style:normal;font-variant:normal;font-weight:normal;font-stretch:normal;font-size:36.08627319px;line-height:1.25;font-family:Fondamento;-inkscape-font-specification:Fondamento;text-align:center;text-anchor:middle;fill:#bf987f;fill-opacity:1"
         id="flowPara114">ChOIMEASGACHD</flowPara><flowPara
         style="font-style:normal;font-variant:normal;font-weight:normal;font-stretch:normal;font-size:48px;line-height:1.25;font-family:Fondamento;-inkscape-font-specification:Fondamento;text-align:center;text-anchor:middle;fill:#bf987f;fill-opacity:1"
         id="flowPara116">Leabhar 1</flowPara></flowRoot>    <path
       style="fill:#ffffff;fill-opacity:1;stroke:none;stroke-width:1.01768494"
       d="m 1554.5062,1603.9485 c 29.296,6.4777 -4.3325,40.6716 -9.5909,44.3732 12.0187,1.8508 61.4219,21.7921 50.1543,30.5832 -0.7513,0.9256 -6.0094,3.7017 -3.7559,4.1644 2.2534,0.4626 15.7746,-0.9253 18.0281,0.9254 2.2536,1.8508 -20.2816,28.2244 -17.277,29.1497 3.0048,0.9254 72.1127,-16.657 81.8778,-12.4927 9.7654,4.1643 4.5072,14.8062 7.5118,15.269 3.0047,0.4626 30.7983,-2.3135 34.5543,-1.8509 3.7556,0.4628 13.4618,11.0929 14.2718,14.8062 3.3055,-2.5174 21.033,-6.0149 24.0377,-5.5522 3.0048,0.4627 5.0791,9.7952 5.2582,12.4926 2.9144,-2.5847 20.2817,-9.7164 22.5353,-9.2539 2.2533,0.4628 11.9892,18.9249 14.2722,24.9855 3.5455,-3.894 27.7933,-25.448 30.047,-25.9108 2.2535,-0.4627 16.5257,31.4632 19.5305,31.926 3.0047,0.4627 18.0281,-21.7468 20.2816,-21.2841 2.2535,0.4627 16.5259,13.4183 19.5304,14.3436 3.0048,0.9253 22.5355,-28.687 25.5398,-28.687 3.005,0 28.5448,12.4927 30.7985,14.8061 2.2535,2.3135 4.5067,-12.0301 7.5116,-12.0301 3.0046,0 37.5586,8.3286 38.3097,7.8659 0.7512,-0.4627 -5.2581,-9.2538 -3.0045,-9.2538 38.1276,5.1423 85.4726,12.31 120.9386,18.9704 -14.6983,-11.6279 -33.8027,-37.9409 -30.0471,-40.717 3.756,-2.7763 17.2774,0.4626 18.0286,-0.9255 0.751,-1.388 -8.2629,-7.403 -6.0096,-9.2539 2.2536,-1.8507 30.047,-11.5673 30.047,-11.5673 0,0 -11.2675,-8.3286 -8.263,-9.7167 3.0048,-1.3881 32.0086,-11.1331 48.0753,-12.4927 -6.2106,-2.075 -22.5352,-13.418 -19.5306,-16.657 3.0047,-3.2388 4.5381,-4.15 10.5163,-6.9404 -2.8397,-1.3597 42.9738,-6.4315 43.7252,-8.745 0.7512,-2.3135 -49.7345,-12.539 -47.481,-14.3897 2.2537,-1.8508 -0.4708,-0.9254 -0.4708,-2.7762 0,-1.8508 -1.1806,-17.5936 62.0933,-45.9453 -84.3074,14.5795 -130.7275,3.2987 -155.5159,-0.4028 -24.7892,-3.7016 -10.1408,-14.7601 -3.7589,-26.2949 -14.4659,6.6425 -32.3477,9.6238 -35.3054,4.6269 -3.7557,-3.2388 -3.9388,-2.0196 -8.2628,-9.2539 -15.1153,9.8474 -20.2818,12.9554 -24.0374,12.4928 -3.756,-0.4627 -32.6564,-7.3837 -44.3194,-21.284 -14.8653,9.6841 -25.5399,7.8659 -30.047,8.3285 -4.507,0.4627 -7.1955,-3.426 -12.0186,-10.1792 -3.7561,0.9253 -27.7934,9.2539 -31.5492,8.3284 -3.7559,-0.9253 -3.5582,0.8579 -9.7656,-3.7014 -3.0044,0.9253 -16.5255,4.6269 -16.5255,4.6269 0,0 -8.5546,1.993 -14.2724,-2.7762 -12.5785,10.7828 -31.471,14.0247 -39.0609,16.1943 -6.9845,-3.0146 -36.0562,-35.1648 -33.8027,-37.941 2.2535,-2.7762 -33.803,38.4037 -39.0611,39.7918 -5.2583,1.388 -15.6957,1.6116 -22.5352,-1.3881 -1.5026,1.3881 -6.0094,8.7911 -10.5166,9.2539 -4.5069,0.4626 -15.0234,2.3133 -15.0234,2.3133 l 1.5023,2.7763 c 0,0 -31.5492,-7.4031 -35.3052,-10.1793 -3.7558,-2.7761 2.2536,12.03 4.5072,15.7316 -13.521,-3.7016 -53.3333,-11.5674 -56.3378,-13.8809 -3.0048,-2.3134 5.2579,8.3286 9.765,11.5674 -6.0093,-1.3881 -11.2676,-1.8507 -11.2676,-1.8507 l 17.2771,11.1046 -5.2582,0.9255 c 0,0 11.2675,5.0896 11.2675,7.4031 0,2.3135 -29.2958,5.0896 -29.2958,5.0896 0,0 12.019,4.1642 9.0142,6.4777 -3.0048,2.3135 -10.5164,3.7015 -10.5164,3.7015 l -1.5023,6.0151 z"
       id="path5888"
       inkscape:connector-curvature="0"
       sodipodi:nodetypes="ccccccscccscccccscscsccccscccccccsscscccccccccccccccccccccccccsccccc" />
    <flowRoot
       xml:space="preserve"
       id="flowRoot2987-4-9-3-7"
       style="font-style:normal;font-variant:normal;font-weight:normal;font-stretch:normal;line-height:0.01%;font-family:Lavi;-inkscape-font-specification:Lavi;text-align:center;letter-spacing:0px;word-spacing:0px;text-anchor:middle;fill:#000000;fill-opacity:1;stroke:none"
       transform="translate(1431.9912,1313.5271)"><flowRegion
         id="flowRegion2989-5-4-5-6"><rect
           id="rect2991-7-9-6-7"
           width="602.40173"
           height="310.73996"
           x="120.55251"
           y="265.53046"
           style="font-style:normal;font-variant:normal;font-weight:normal;font-stretch:normal;font-family:Lavi;-inkscape-font-specification:Lavi;text-align:center;text-anchor:middle" /></flowRegion><flowPara
         style="font-size:48px;line-height:1.25;text-align:center;text-anchor:middle"
         id="flowPara3366">... seachd neo-ar-thaing dhaibh ...</flowPara></flowRoot>    <flowRoot
       xml:space="preserve"
       id="flowRoot4133-6-9-4-8-5"
       style="color:#000000;font-style:normal;font-variant:normal;font-weight:normal;font-stretch:normal;line-height:0.01%;font-family:Arial;-inkscape-font-specification:Arial;letter-spacing:0.00204969px;word-spacing:0px;display:inline;overflow:visible;visibility:visible;fill:#ffffff;fill-opacity:1;fill-rule:nonzero;stroke:#ffffff;stroke-width:0.0836072;stroke-linecap:butt;stroke-linejoin:miter;stroke-miterlimit:4;stroke-dasharray:none;stroke-dashoffset:0;stroke-opacity:1;marker:none;filter:url(#filter4375-4-1-1-15-1-3);enable-background:accumulate"
       transform="matrix(9.6622866,-1.0950423,-11.69163,19.156076,2034.2171,-16380.766)"><flowRegion
         id="flowRegion4135-2-9-3-5-2"
         style="stroke-width:0.86646658"><rect
           id="rect4137-1-7-1-2-1"
           width="92.489304"
           height="30.687002"
           x="1125.3193"
           y="1078.5308"
           style="color:#000000;letter-spacing:0.00204969px;display:inline;overflow:visible;visibility:visible;fill:#ffffff;fill-opacity:1;fill-rule:nonzero;stroke:#ffffff;stroke-width:0.0836072;stroke-linecap:butt;stroke-linejoin:miter;stroke-miterlimit:4;stroke-dasharray:none;stroke-dashoffset:0;stroke-opacity:1;marker:none;enable-background:accumulate" /></flowRegion><flowPara
         id="flowPara4139-2-8-6-8-6"
         style="color:#000000;font-style:normal;font-variant:normal;font-weight:normal;font-stretch:normal;font-size:12px;line-height:125%;font-family:Lavi;-inkscape-font-specification:Lavi;letter-spacing:0.00204969px;word-spacing:0.00204969px;display:inline;overflow:visible;visibility:visible;fill:#ffffff;fill-opacity:1;fill-rule:nonzero;stroke:#ffffff;stroke-width:0.0836072;stroke-linecap:butt;stroke-linejoin:miter;stroke-miterlimit:4;stroke-dasharray:none;stroke-dashoffset:0;stroke-opacity:1;marker:none;enable-background:accumulate"><flowSpan
   id="flowSpan4821"
   style="color:#000000;font-size:7.13246202px;display:inline;overflow:visible;visibility:visible;fill:#ffffff;fill-opacity:1;fill-rule:nonzero;stroke:#ffffff;stroke-width:0.0836072;stroke-linecap:butt;stroke-linejoin:miter;stroke-miterlimit:4;stroke-dasharray:none;stroke-dashoffset:0;stroke-opacity:1;marker:none;enable-background:accumulate">D</flowSpan><flowSpan
   id="flowSpan4823"
   style="color:#000000;font-size:8.55645752px;display:inline;overflow:visible;visibility:visible;fill:#ffffff;fill-opacity:1;fill-rule:nonzero;stroke:#ffffff;stroke-width:0.0836072;stroke-linecap:butt;stroke-linejoin:miter;stroke-miterlimit:4;stroke-dasharray:none;stroke-dashoffset:0;stroke-opacity:1;marker:none;enable-background:accumulate">iù</flowSpan><flowSpan
   style="color:#000000;font-size:9.90925312px;display:inline;overflow:visible;visibility:visible;fill:#ffffff;fill-opacity:1;fill-rule:nonzero;stroke:#ffffff;stroke-width:0.0836072;stroke-linecap:butt;stroke-linejoin:miter;stroke-miterlimit:4;stroke-dasharray:none;stroke-dashoffset:0;stroke-opacity:1;marker:none;enable-background:accumulate"
   id="flowSpan4271-5">Ù</flowSpan>Ù<flowSpan
   id="flowSpan4277-2"
   style="color:#000000;font-size:17.85409164px;display:inline;overflow:visible;visibility:visible;fill:#ffffff;fill-opacity:1;fill-rule:nonzero;stroke:#ffffff;stroke-width:0.0836072;stroke-linecap:butt;stroke-linejoin:miter;stroke-miterlimit:4;stroke-dasharray:none;stroke-dashoffset:0;stroke-opacity:1;marker:none;enable-background:accumulate">Ù<flowSpan
   style="font-size:20.70208168px"
   id="flowSpan4005">Ù</flowSpan></flowSpan></flowPara></flowRoot>    <text
       xml:space="preserve"
       style="font-style:normal;font-weight:normal;line-height:0%;font-family:sans-serif;letter-spacing:0px;word-spacing:0px;fill:#000000;fill-opacity:1;stroke:none"
       x="472.33951"
       y="266.25055"
       id="text3358"><tspan
         sodipodi:role="line"
         id="tspan3360"
         x="472.33951"
         y="266.25055"
         style="font-size:40px;line-height:1.25;font-family:sans-serif"> </tspan></text>
    <text
       xml:space="preserve"
       style="font-style:normal;font-weight:normal;font-size:40px;line-height:1.25;font-family:sans-serif;letter-spacing:0px;word-spacing:0px;fill:#000000;fill-opacity:1;stroke:none"
       x="1985.1221"
       y="1611.887"
       id="text122"><tspan
         sodipodi:role="line"
         id="tspan120"
         x="1985.1221"
         y="1647.2776" /></text>
  </g>
  <g
     inkscape:groupmode="layer"
     id="layer1"
     inkscape:label="txt" />
</svg>
