<?xml version="1.0" encoding="UTF-8" standalone="no"?>
<svg
   xmlns:dc="http://purl.org/dc/elements/1.1/"
   xmlns:cc="http://creativecommons.org/ns#"
   xmlns:rdf="http://www.w3.org/1999/02/22-rdf-syntax-ns#"
   xmlns:svg="http://www.w3.org/2000/svg"
   xmlns="http://www.w3.org/2000/svg"
   xmlns:xlink="http://www.w3.org/1999/xlink"
   xmlns:sodipodi="http://sodipodi.sourceforge.net/DTD/sodipodi-0.dtd"
   xmlns:inkscape="http://www.inkscape.org/namespaces/inkscape"
   sodipodi:docname="E33P01.svg"
   height="3503"
   width="2481"
   inkscape:version="1.0 (4035a4f, 2020-05-01)"
   version="1.1"
   id="svg2">
  <metadata
     id="metadata8">
    <rdf:RDF>
      <cc:Work
         rdf:about="">
        <dc:format>image/svg+xml</dc:format>
        <dc:type
           rdf:resource="http://purl.org/dc/dcmitype/StillImage" />
        <dc:title />
      </cc:Work>
    </rdf:RDF>
  </metadata>
  <defs
     id="defs6">
    <filter
       style="color-interpolation-filters:sRGB"
       id="filter4375-4-1-1-1-9-5-8"
       inkscape:label="horn-FX"
       width="1.2"
       height="1.3900000000000001">
      <feFlood
         id="feFlood4377-7-9-0-8-1-7-3"
         flood-opacity="1"
         flood-color="rgb(46,52,54)"
         result="flood" />
      <feComposite
         id="feComposite4379-3-8-8-2-77-4-1"
         in2="SourceGraphic"
         operator="in"
         result="composite1" />
      <feMorphology
         id="feMorphology4393-1-0-49-8-9-3-0"
         operator="dilate"
         radius="4.4217631697438895"
         result="result3" />
      <feComposite
         id="feComposite4385-9-5-7-0-8-8-7"
         in2="result3"
         in="SourceGraphic"
         operator="over"
         result="fbSourceGraphic" />
      <feColorMatrix
         result="fbSourceGraphicAlpha"
         in="fbSourceGraphic"
         values="0 0 0 -1 0 0 0 0 -1 0 0 0 0 -1 0 0 0 0 1 0"
         id="feColorMatrix4544" />
      <feTurbulence
         id="feTurbulence4546"
         type="fractalNoise"
         numOctaves="3"
         seed="37"
         baseFrequency="0.129 0.0050000000000000001"
         result="turbulence" />
      <feDisplacementMap
         id="feDisplacementMap4548"
         in2="turbulence"
         in="fbSourceGraphic"
         scale="12.600000000000001"
         yChannelSelector="G"
         xChannelSelector="R"
         result="fbSourceGraphic" />
      <feColorMatrix
         result="fbSourceGraphicAlpha"
         in="fbSourceGraphic"
         values="0 0 0 -1 0 0 0 0 -1 0 0 0 0 -1 0 0 0 0 1 0"
         id="feColorMatrix4670" />
      <feComposite
         id="feComposite4674"
         in2="fbSourceGraphic"
         in="flood"
         operator="in"
         result="composite1" />
      <feMorphology
         in="composite1"
         result="result4"
         radius="5"
         operator="dilate"
         id="feMorphology854" />
      <feComposite
         id="feComposite4680"
         in2="result4"
         in="fbSourceGraphic"
         operator="over"
         result="composite2" />
    </filter>
    <filter
       inkscape:collect="always"
       style="color-interpolation-filters:sRGB"
       id="filter1058"
       x="-0.0084350925"
       width="1.0168702"
       y="-0.01927926"
       height="1.0385585"
       inkscape:label="army-sound-background">
      <feGaussianBlur
         inkscape:collect="always"
         stdDeviation="0.67074246"
         id="feGaussianBlur1060" />
    </filter>
    <filter
       inkscape:label="army-sound-background"
       height="1.0385585"
       y="-0.01927926"
       width="1.0168701"
       x="-0.0084350929"
       id="filter1058-3"
       style="color-interpolation-filters:sRGB"
       inkscape:collect="always">
      <feGaussianBlur
         id="feGaussianBlur1060-6"
         stdDeviation="0.67074246"
         inkscape:collect="always" />
    </filter>
    <filter
       inkscape:label="army-sound-background"
       height="1.0385585"
       y="-0.01927926"
       width="1.0168701"
       x="-0.0084350929"
       id="filter1058-35"
       style="color-interpolation-filters:sRGB"
       inkscape:collect="always">
      <feGaussianBlur
         id="feGaussianBlur1060-62"
         stdDeviation="0.67074246"
         inkscape:collect="always" />
    </filter>
    <filter
       inkscape:collect="always"
       style="color-interpolation-filters:sRGB"
       id="filter1058-3-2"
       x="-0.0084350929"
       width="1.0168701"
       y="-0.01927926"
       height="1.0385585"
       inkscape:label="army-sound-background">
      <feGaussianBlur
         inkscape:collect="always"
         stdDeviation="0.67074246"
         id="feGaussianBlur1060-6-7" />
    </filter>
  </defs>
  <sodipodi:namedview
     inkscape:document-rotation="0"
     inkscape:current-layer="layer1"
     inkscape:window-maximized="1"
     inkscape:window-y="23"
     inkscape:window-x="0"
     inkscape:cy="2219.8244"
     inkscape:cx="1597.4899"
     inkscape:zoom="0.3478261"
     showgrid="false"
     id="namedview4"
     inkscape:window-height="1130"
     inkscape:window-width="1920"
     inkscape:pageshadow="2"
     inkscape:pageopacity="0"
     guidetolerance="10"
     gridtolerance="10"
     objecttolerance="10"
     borderopacity="1"
     bordercolor="#666666"
     pagecolor="#ffffff" />
  <g
     sodipodi:insensitive="true"
     inkscape:label="artwork"
     id="layer2"
     inkscape:groupmode="layer">
    <image
       sodipodi:absref="/Users/gand/Documents/Pepper&amp;Carrot/ep33_Spell-of-War/lang/gfx_Pepper-and-Carrot_by-David-Revoy_E33P01.png"
       xlink:href="../gfx_Pepper-and-Carrot_by-David-Revoy_E33P01.png"
       y="0"
       x="0"
       id="image10"
       height="3503"
       width="2481"
       inkscape:label="image10" />
  </g>
  <g
     inkscape:label="speechbubbles"
     id="layer3"
     inkscape:groupmode="layer" />
  <g
     inkscape:groupmode="layer"
     style="display:inline"
     inkscape:label="txt"
     id="layer1">
    <text
       inkscape:label="horn"
       transform="matrix(0.76013515,0.00555481,-0.19609628,0.88794393,834.80437,206.60306)"
       xml:space="preserve"
       style="font-style:normal;font-variant:normal;font-weight:normal;font-stretch:normal;font-size:85.3333px;line-height:0%;font-family:Lavi;-inkscape-font-specification:Lavi;letter-spacing:4.62069px;word-spacing:0px;fill:#ffffff;fill-opacity:1;stroke:#98b9ca;stroke-width:1.20695;stroke-miterlimit:4;stroke-dasharray:none;stroke-opacity:1;filter:url(#filter4375-4-1-1-1-9-5-8)"
       id="text4580-6-0"
       x="128.4707"
       y="1608.6935"><tspan
         style="font-style:normal;font-variant:normal;font-weight:normal;font-stretch:normal;font-size:106.667px;font-family:Drukah;-inkscape-font-specification:Drukah;stroke-width:1.20695"
         id="tspan884">huUUOOOOOOOOOOO</tspan><tspan
         style="font-style:normal;font-variant:normal;font-weight:normal;font-stretch:normal;font-size:134.669px;font-family:Drukah;-inkscape-font-specification:Drukah;stroke-width:1.20695"
         id="tspan892">!</tspan></text>
    <text
       inkscape:label="warrior"
       xml:space="preserve"
       style="font-style:normal;font-variant:normal;font-weight:normal;font-stretch:normal;font-size:8.2448px;line-height:0%;font-family:Lavi;-inkscape-font-specification:Lavi;letter-spacing:0px;word-spacing:0px;display:inline;opacity:0.849729;fill:#b3cfde;fill-opacity:1;stroke:#31393b;stroke-width:7.02304;stroke-miterlimit:4;stroke-dasharray:none;stroke-opacity:1;paint-order:stroke fill markers;filter:url(#filter1058)"
       x="1302.3322"
       y="1954.6715"
       id="use4516-8"
       transform="matrix(0.77685119,-0.35275549,-0.14341819,1.2719131,58.600458,69.989773)"><tspan
         sodipodi:role="line"
         id="tspan4370-3"
         x="1302.3322"
         y="1954.6715"
         style="font-style:normal;font-variant:normal;font-weight:normal;font-stretch:normal;font-size:48.0947px;line-height:1.25;font-family:Drukah;-inkscape-font-specification:Drukah;fill:#b3cfde;fill-opacity:1;stroke:#31393b;stroke-width:7.02304;stroke-miterlimit:4;stroke-dasharray:none;stroke-opacity:1;paint-order:stroke fill markers">Rawwwr!</tspan></text>
    <text
       inkscape:label="warrior"
       transform="matrix(0.82864511,-0.29063368,-0.15298011,1.2604445,1382.5711,0.27961273)"
       id="use4516-8-9"
       y="1954.6715"
       x="1302.3322"
       style="font-style:normal;font-variant:normal;font-weight:normal;font-stretch:normal;font-size:8.2448px;line-height:0%;font-family:Lavi;-inkscape-font-specification:Lavi;letter-spacing:0px;word-spacing:0px;display:inline;opacity:0.849729;fill:#b3cfde;fill-opacity:1;stroke:#31393b;stroke-width:6.80001;stroke-miterlimit:4;stroke-dasharray:none;stroke-opacity:1;paint-order:stroke fill markers;filter:url(#filter1058-35)"
       xml:space="preserve"><tspan
         style="font-style:normal;font-variant:normal;font-weight:normal;font-stretch:normal;font-size:48.0947px;line-height:1.25;font-family:Drukah;-inkscape-font-specification:Drukah;fill:#b3cfde;fill-opacity:1;stroke:#31393b;stroke-width:6.80001;stroke-miterlimit:4;stroke-dasharray:none;stroke-opacity:1;paint-order:stroke fill markers"
         y="1954.6715"
         x="1302.3322"
         id="tspan4370-3-1"
         sodipodi:role="line">Grrawwr!</tspan></text>
    <text
       inkscape:label="warrior"
       xml:space="preserve"
       style="font-style:normal;font-variant:normal;font-weight:normal;font-stretch:normal;font-size:8.2448px;line-height:0%;font-family:Lavi;-inkscape-font-specification:Lavi;letter-spacing:0px;word-spacing:0px;display:inline;opacity:0.625989;fill:#b3cfde;fill-opacity:1;stroke:#31393b;stroke-width:8.11403;stroke-miterlimit:4;stroke-dasharray:none;stroke-opacity:1;paint-order:stroke fill markers;filter:url(#filter1058-3-2)"
       x="1302.3322"
       y="1954.6715"
       id="use4516-8-7-0"
       transform="matrix(0.73346352,-0.36387732,-0.00614451,0.96061258,184.39784,729.51562)"><tspan
         sodipodi:role="line"
         id="tspan4370-3-5-9"
         x="1302.3322"
         y="1954.6715"
         style="font-style:normal;font-variant:normal;font-weight:normal;font-stretch:normal;font-size:48.0947px;line-height:1.25;font-family:Drukah;-inkscape-font-specification:Drukah;fill:#b3cfde;fill-opacity:1;stroke:#31393b;stroke-width:8.11403;stroke-miterlimit:4;stroke-dasharray:none;stroke-opacity:1;paint-order:stroke fill markers">Grrrr!</tspan></text>
    <text
       inkscape:label="warrior"
       transform="matrix(0.55740185,-0.26873377,-0.00466957,0.95525148,-73.952849,695.3032)"
       id="use4516-8-7"
       y="1954.6715"
       x="1302.3322"
       style="font-style:normal;font-variant:normal;font-weight:normal;font-stretch:normal;font-size:8.2448px;line-height:0%;font-family:Lavi;-inkscape-font-specification:Lavi;letter-spacing:0px;word-spacing:0px;display:inline;opacity:0.625989;fill:#b3cfde;fill-opacity:1;stroke:#31393b;stroke-width:9.32994;stroke-miterlimit:4;stroke-dasharray:none;stroke-opacity:1;paint-order:stroke fill markers;filter:url(#filter1058-3)"
       xml:space="preserve"><tspan
         style="font-style:normal;font-variant:normal;font-weight:normal;font-stretch:normal;font-size:48.0947px;line-height:1.25;font-family:Drukah;-inkscape-font-specification:Drukah;fill:#b3cfde;fill-opacity:1;stroke:#31393b;stroke-width:9.32994;stroke-miterlimit:4;stroke-dasharray:none;stroke-opacity:1;paint-order:stroke fill markers"
         y="1954.6715"
         x="1302.3322"
         id="tspan4370-3-5"
         sodipodi:role="line">Yuurrr!</tspan></text>
  </g>
</svg>
