<?xml version="1.0" encoding="UTF-8" standalone="no"?>
<svg
   xmlns:dc="http://purl.org/dc/elements/1.1/"
   xmlns:cc="http://creativecommons.org/ns#"
   xmlns:rdf="http://www.w3.org/1999/02/22-rdf-syntax-ns#"
   xmlns:svg="http://www.w3.org/2000/svg"
   xmlns="http://www.w3.org/2000/svg"
   xmlns:xlink="http://www.w3.org/1999/xlink"
   xmlns:sodipodi="http://sodipodi.sourceforge.net/DTD/sodipodi-0.dtd"
   xmlns:inkscape="http://www.inkscape.org/namespaces/inkscape"
   sodipodi:docname="E35P08.svg"
   height="3503"
   width="2481"
   inkscape:version="1.0.1 (3bc2e813f5, 2020-09-07)"
   version="1.1"
   id="svg2">
  <metadata
     id="metadata8">
    <rdf:RDF>
      <cc:Work
         rdf:about="">
        <dc:format>image/svg+xml</dc:format>
        <dc:type
           rdf:resource="http://purl.org/dc/dcmitype/StillImage" />
        <dc:title />
      </cc:Work>
    </rdf:RDF>
  </metadata>
  <defs
     id="defs6">
    <rect
       x="904.28036"
       y="365.47441"
       width="1.615874"
       height="47.309687"
       id="rect37" />
  </defs>
  <sodipodi:namedview
     inkscape:pagecheckerboard="0"
     inkscape:snap-global="false"
     inkscape:document-rotation="0"
     inkscape:current-layer="layer1"
     inkscape:window-maximized="1"
     inkscape:window-y="27"
     inkscape:window-x="72"
     inkscape:cy="2838.3742"
     inkscape:cx="1331.758"
     inkscape:zoom="0.52900001"
     showgrid="false"
     id="namedview4"
     inkscape:window-height="1016"
     inkscape:window-width="1848"
     inkscape:pageshadow="2"
     inkscape:pageopacity="0"
     guidetolerance="10"
     gridtolerance="10"
     objecttolerance="10"
     borderopacity="1"
     bordercolor="#666666"
     pagecolor="#ffffff" />
  <g
     sodipodi:insensitive="true"
     inkscape:label="artwork"
     id="layer2"
     inkscape:groupmode="layer">
    <image
       sodipodi:absref="/home/emmiline/Documents/git/webcomics/ep35_The-Reflection/lang/gfx_Pepper-and-Carrot_by-David-Revoy_E35P08.png"
       xlink:href="../gfx_Pepper-and-Carrot_by-David-Revoy_E35P08.png"
       width="2481"
       height="3503"
       id="image10"
       x="0"
       y="0" />
  </g>
  <g
     inkscape:label="speechbubbles"
     id="layer3"
     inkscape:groupmode="layer">
    <path
       inkscape:connector-curvature="0"
       id="path3525-27"
       d="m 894.97223,310.77652 c -39.19135,0.36443 -77.21707,12.20508 -104.12977,30.79728 -21.49322,14.22768 -34.69266,33.31626 -39.32601,53.04492 -8.3429,27.20464 -7.36425,56.15092 7.53305,82.31757 12.61851,20.14604 38.57614,35.97646 68.88251,44.30972 42.74031,11.95762 91.1591,16.36431 136.7244,9.47612 24.51651,-3.77891 46.86169,-12.98916 63.20669,-25.57569 22.5279,-16.76873 35.013,-38.60176 38.8213,-60.68153 4.744,-23.95501 2.5576,-48.92865 -10.689,-71.62301 -10.0295,-16.49161 -27.6606,-31.02622 -50.4792,-40.57707 -32.34575,-14.40829 -71.53964,-21.91674 -110.54397,-21.48831 z"
       style="color:#000000;display:inline;overflow:visible;visibility:visible;fill:#ffffff;fill-opacity:1;fill-rule:nonzero;stroke:none;stroke-width:0.955393px;marker:none;enable-background:accumulate" />
    <path
       sodipodi:nodetypes="zssssz"
       inkscape:connector-curvature="0"
       id="path4040-4-5-3-4"
       d="m 1581.1798,439.92913 c -47.8312,0.39313 -95.526,6.60591 -128.5815,17.69562 -38.9535,12.61051 -61.3538,30.0229 -63.1236,47.62676 -2.7302,17.77375 9.3064,36.09751 39.938,51.16767 16.2465,8.03962 39.1313,14.80234 66.5276,18.84836 36.839,5.65623 79.4049,6.95004 119.4581,4.66087 30.7204,-1.43292 62.6125,-2.96073 89.4799,-8.24135 45.8516,-9.27939 75.7073,-26.12962 75.9423,-43.42173 0.3762,-6.79014 -1.2226,-13.57237 -2.36,-20.34847 -2.5809,-10.85006 -6.6673,-21.8082 -18.2095,-32.11209 -13.8857,-12.04842 -40.5257,-22.89624 -76.811,-28.84037 -31.3044,-5.18285 -67.1557,-7.25505 -102.2603,-7.03527 z"
       style="color:#000000;display:inline;overflow:visible;visibility:visible;fill:#ffffff;fill-opacity:1;fill-rule:nonzero;stroke:none;stroke-width:0.835599px;marker:none;enable-background:accumulate" />
    <path
       sodipodi:nodetypes="ccccc"
       inkscape:connector-curvature="0"
       id="path1085"
       d="m 1570.0144,465.67649 c 3.0987,30.83741 11.5856,59.47611 3.7889,66.37874 -5.2069,29.42714 10.8845,84.76829 -27.9726,97.2687 63.0766,-0.64746 49.4439,-89.40053 58.0802,-122.83664 -1.084,-48.93169 -33.8965,-40.8108 -33.8965,-40.8108 z"
       style="fill:#ffffff;fill-rule:evenodd;stroke:none;stroke-width:1.14277px;stroke-linecap:butt;stroke-linejoin:miter;stroke-opacity:1" />
    <path
       inkscape:connector-curvature="0"
       id="path1299"
       d="m 1543.0742,1344.4833 c -28.6066,1.8069 -56.2568,22.3731 -71.7037,53.7713 -6.1311,17.3661 -4.1602,36.9437 -6.2084,55.3743 -2.7201,45.952 -2.3402,93.0297 7.505,137.6342 3.3367,12.3277 10.9456,21.8105 19.5255,28.1602 19.4973,16.5176 43.8932,21.0951 66.6317,16.4596 23.4593,-3.1076 47.4596,-12.1404 65.5164,-32.688 12.1465,-13.5661 18.0941,-35.0643 16.8392,-55.6222 -0.1827,-26.7261 -2.7811,-53.3202 -2.8285,-80.0534 -0.8427,-27.0139 -4.3975,-55.4817 -17.385,-77.4738 -12.1128,-20.1151 -30.4491,-31.825 -48.7748,-39.5374 -9.4011,-3.8106 -19.2304,-6.4079 -29.1174,-6.0248 z"
       style="fill:#ffffff;fill-rule:evenodd;stroke:none;stroke-width:0.885786px;stroke-linecap:butt;stroke-linejoin:miter;stroke-opacity:1" />
    <path
       sodipodi:nodetypes="cscsssscccsccscccc"
       inkscape:connector-curvature="0"
       id="path5058-2"
       d="m 1531.0092,1596.1183 c -0.6222,20.1649 6.6736,27.0756 10.0721,30.442 3.3984,3.3662 14.9068,8.9022 18.2764,13.791 2.7667,4.0585 10.3483,14.2867 6.9395,16.8185 -3.4088,2.5318 -39.8279,13.4508 -39.569,27.0665 0.2595,13.6163 7.8094,22.062 17.8671,25.0419 10.0575,2.9799 23.1527,7.0659 24.2613,17.1932 1.1078,10.1267 -6.514,17.5302 -11.286,19.742 -27.1053,5.2092 -47.6616,41.4987 -47.6616,41.4987 45.0114,-39.4077 48.8502,-21.7092 63.1997,-38.3236 5.2367,-6.2965 13.2746,-11.5246 11.2311,-22.2221 -2.0434,-10.6976 -1.7938,-21.9409 -17.0229,-26.5544 -9.8097,-4.0323 -14.2999,-6.9835 -14.1441,-10.1193 0.1565,-3.135 5.2164,-10.9397 15.2416,-10.5769 10.0258,0.3634 16.1869,-6.8408 20.9047,-21.0372 5.8565,-14.2808 -11.3944,-28.3269 -12.3251,-34.3003 -5.9525,-9.4188 -20.1936,-48.378 -11.3283,-51.0106 z"
       style="color:#000000;display:inline;overflow:visible;visibility:visible;fill:#ffffff;fill-opacity:1;fill-rule:nonzero;stroke:none;stroke-width:0.926478px;marker:none;enable-background:accumulate" />
    <path
       inkscape:connector-curvature="0"
       id="path4667-2"
       d="m 877.968,2870.1388 -20.1414,-103.137 -20.06484,17.4342 -15.86649,-70.2389 -20.49195,11.5133 26.36659,82.3695 23.57881,-19.15 z"
       style="display:inline;fill:#ffffff;fill-rule:evenodd;stroke:none;stroke-width:0.7824px;stroke-linecap:butt;stroke-linejoin:miter;stroke-opacity:1" />
    <path
       sodipodi:nodetypes="cccccccccccc"
       inkscape:connector-curvature="0"
       id="path4584-9"
       d="m 682.33117,2721.47 c 17.58658,-9.7562 33.39725,-42.5286 -3.6892,-77.162 42.20071,11.8434 59.77352,-10.1068 73.68241,-92.6185 34.06991,72.3546 48.80253,51.3106 58.048,24.8341 -2.5869,49.2768 33.04814,42.2858 48.31129,16.0446 -4.9577,76.3831 20.63384,79.0172 43.5994,87.989 -39.26404,11.119 -16.2116,33.6361 -11.28843,52.8383 -46.88903,-15.0176 -61.9634,9.436 -59.2279,55.9848 -18.13836,-12.0405 -41.31769,-48.333 -39.71646,34.5863 -16.29453,-59.6942 -27.92724,-42.7914 -37.92314,1.0069 -5.63912,-20.2619 2.06382,-64.0489 -33.29199,-31.9099 14.15398,-34.8193 6.97849,-60.982 -38.50398,-71.5936 z"
       style="display:inline;fill:#ffffff;fill-rule:evenodd;stroke:none;stroke-width:0.800756px;stroke-linecap:butt;stroke-linejoin:miter;stroke-opacity:1" />
    <path
       sodipodi:nodetypes="ccscc"
       inkscape:connector-curvature="0"
       id="path4440-3"
       d="m 915.25633,477.71228 c -4.04952,48.32505 20.65484,106.85492 115.89287,109.89183 -80.33867,-15.35995 -92.0301,-64.16762 -83.52693,-109.83472 7.34037,-39.42391 8.64622,-57.69856 8.64622,-57.69856 z"
       style="color:#000000;display:inline;overflow:visible;visibility:visible;fill:#ffffff;fill-opacity:1;fill-rule:nonzero;stroke:none;stroke-width:1.01599px;marker:none;enable-background:accumulate" />
  </g>
  <g
     inkscape:label="txt"
     id="layer1"
     inkscape:groupmode="layer">
    <text
       id="text4246-3-2-2-3"
       y="400.98013"
       x="903.59351"
       style="font-style:normal;font-variant:normal;font-weight:normal;font-stretch:normal;font-size:45px;line-height:1.25;font-family:Lavi;-inkscape-font-specification:Lavi;text-align:center;letter-spacing:0px;word-spacing:0px;text-anchor:middle;fill:#000000;fill-opacity:1;stroke:none"
       xml:space="preserve"><tspan
         id="tspan866"
         y="400.98013"
         x="903.59351"
         sodipodi:role="line"
         style="font-size:45px">Hvad er jeg</tspan><tspan
         y="457.23013"
         x="903.59351"
         sodipodi:role="line"
         style="font-size:45px"
         id="tspan40">dog blevet til?</tspan></text>
    <text
       id="text4246-3-2-2-3-3"
       y="527.047"
       x="1592.5607"
       style="font-style:normal;font-variant:normal;font-weight:normal;font-stretch:normal;font-size:56px;line-height:1.25;font-family:Lavi;-inkscape-font-specification:Lavi;text-align:center;letter-spacing:0px;word-spacing:0px;text-anchor:middle;fill:#000000;fill-opacity:1;stroke:none"
       xml:space="preserve"><tspan
         id="tspan870"
         style="font-style:normal;font-variant:normal;font-weight:bold;font-stretch:normal;font-size:56px;font-family:Lavi;-inkscape-font-specification:'Lavi Bold'"
         y="527.047"
         x="1592.5607"
         sodipodi:role="line">En morder?</tspan></text>
    <text
       id="text4246-3-2-2-3-9"
       y="1439.3575"
       x="1562.5575"
       style="font-style:normal;font-variant:normal;font-weight:normal;font-stretch:normal;font-size:53.3405px;line-height:1.25;font-family:Lavi;-inkscape-font-specification:Lavi;text-align:center;letter-spacing:0px;word-spacing:0px;text-anchor:middle;fill:#000000;fill-opacity:1;stroke:none;stroke-width:1.18534"
       xml:space="preserve"><tspan
         id="tspan998"
         y="1439.3575"
         x="1562.5575"
         sodipodi:role="line"
         style="font-size:53.3405px;stroke-width:1.18534">En </tspan><tspan
         id="tspan877"
         y="1506.0332"
         x="1562.5575"
         sodipodi:role="line"
         style="font-size:53.3405px;stroke-width:1.18534"><tspan
   style="font-weight:bold"
   id="tspan44">ond</tspan> </tspan><tspan
         id="tspan879"
         y="1572.7087"
         x="1562.5575"
         sodipodi:role="line"
         style="font-size:53.3405px;stroke-width:1.18534">heks?</tspan></text>
    <text
       transform="matrix(0.90421598,-0.22651773,-0.12390474,1.1369702,0,0)"
       id="text4246-3-2-2-3-9-0"
       y="2652.8953"
       x="1226.4388"
       style="font-style:normal;font-variant:normal;font-weight:normal;font-stretch:normal;font-size:104.682px;line-height:1.25;font-family:Lavi;-inkscape-font-specification:Lavi;text-align:center;letter-spacing:0px;word-spacing:0px;text-anchor:middle;fill:#000000;fill-opacity:1;stroke:none;stroke-width:1.18634"
       xml:space="preserve"><tspan
         id="tspan998-6"
         y="2652.8953"
         x="1226.4388"
         sodipodi:role="line"
         style="font-style:normal;font-variant:normal;font-weight:bold;font-stretch:normal;font-size:104.682px;font-family:Lavi;-inkscape-font-specification:'Lavi Bold';stroke-width:1.18634"><tspan
   id="tspan1037"
   style="font-size:79.44px;stroke-width:1.18634">!</tspan><tspan
   style="font-size:91.8525px;stroke-width:1.18634"
   id="tspan1045">!</tspan>!</tspan></text>
    <text
       xml:space="preserve"
       id="text35"
       style="fill:black;fill-opacity:1;stroke:none;font-family:sans-serif;font-style:normal;font-weight:normal;font-size:40px;line-height:1.25;letter-spacing:0px;word-spacing:0px;white-space:pre;shape-inside:url(#rect37);" />
  </g>
</svg>
