<?xml version="1.0" encoding="UTF-8" standalone="no"?>
<!-- Created with Inkscape (http://www.inkscape.org/) -->

<svg
   xmlns:dc="http://purl.org/dc/elements/1.1/"
   xmlns:cc="http://creativecommons.org/ns#"
   xmlns:rdf="http://www.w3.org/1999/02/22-rdf-syntax-ns#"
   xmlns:svg="http://www.w3.org/2000/svg"
   xmlns="http://www.w3.org/2000/svg"
   xmlns:xlink="http://www.w3.org/1999/xlink"
   xmlns:sodipodi="http://sodipodi.sourceforge.net/DTD/sodipodi-0.dtd"
   xmlns:inkscape="http://www.inkscape.org/namespaces/inkscape"
   id="svg2"
   version="1.1"
   inkscape:version="0.92.4 5da689c313, 2019-01-14"
   width="2481"
   height="3503"
   sodipodi:docname="E09P01.svg">
  <metadata
     id="metadata8">
    <rdf:RDF>
      <cc:Work
         rdf:about="">
        <dc:format>image/svg+xml</dc:format>
        <dc:type
           rdf:resource="http://purl.org/dc/dcmitype/StillImage" />
        <dc:title />
      </cc:Work>
    </rdf:RDF>
  </metadata>
  <defs
     id="defs6">
    <filter
       style="color-interpolation-filters:sRGB;"
       inkscape:label="Rough Paper"
       id="filter4348"
       y="-0.15"
       height="1.3"
       x="-0.15"
       width="1.3"
       inkscape:menu-tooltip="Aquarelle paper effect which can be used for pictures as for objects"
       inkscape:menu="Textures">
      <feFlood
         flood-opacity="0.34999999999999998"
         flood-color="rgb(70,103,83)"
         result="flood"
         id="feFlood4350" />
      <feComposite
         in="flood"
         in2="SourceGraphic"
         operator="in"
         result="composite1"
         id="feComposite4352" />
      <feGaussianBlur
         in="composite1"
         stdDeviation="3"
         result="blur"
         id="feGaussianBlur4354" />
      <feOffset
         dx="6"
         dy="6"
         result="offset"
         id="feOffset4356" />
      <feComposite
         in="SourceGraphic"
         in2="offset"
         operator="over"
         result="fbSourceGraphic"
         id="feComposite4358" />
      <feColorMatrix
         result="fbSourceGraphicAlpha"
         in="fbSourceGraphic"
         values="0 0 0 -1 0 0 0 0 -1 0 0 0 0 -1 0 0 0 0 1 0"
         id="feColorMatrix4223" />
      <feTurbulence
         id="feTurbulence4225"
         type="fractalNoise"
         baseFrequency="0.04"
         numOctaves="5.057873485868102"
         seed="0"
         result="result4"
         in="fbSourceGraphic" />
      <feDisplacementMap
         id="feDisplacementMap4227"
         in2="result4"
         in="fbSourceGraphic"
         yChannelSelector="G"
         xChannelSelector="R"
         scale="0"
         result="result3" />
      <feDiffuseLighting
         id="feDiffuseLighting4229"
         lighting-color="rgb(233,230,215)"
         diffuseConstant="1"
         surfaceScale="2"
         result="result1"
         in="result4">
        <feDistantLight
           id="feDistantLight4231"
           azimuth="235"
           elevation="47" />
      </feDiffuseLighting>
      <feComposite
         id="feComposite4233"
         in2="result1"
         operator="in"
         in="result3"
         result="result2"
         numOctaves="5" />
      <feComposite
         id="feComposite4235"
         in2="result1"
         result="result5"
         operator="arithmetic"
         k1="1.7" />
      <feBlend
         id="feBlend4237"
         in2="result3"
         in="result5"
         mode="normal" />
    </filter>
    <filter
       style="color-interpolation-filters:sRGB"
       inkscape:label="Rough Paper"
       id="filter4348-4"
       y="-0.15000001"
       height="1.3"
       x="-0.15000001"
       width="1.3"
       inkscape:menu-tooltip="Aquarelle paper effect which can be used for pictures as for objects"
       inkscape:menu="Textures">
      <feFlood
         flood-opacity="0.34999999999999998"
         flood-color="rgb(70,103,83)"
         result="flood"
         id="feFlood4350-7" />
      <feComposite
         in="flood"
         in2="SourceGraphic"
         operator="in"
         result="composite1"
         id="feComposite4352-3" />
      <feGaussianBlur
         in="composite1"
         stdDeviation="3"
         result="blur"
         id="feGaussianBlur4354-3" />
      <feOffset
         dx="6"
         dy="6"
         result="offset"
         id="feOffset4356-0" />
      <feComposite
         in="SourceGraphic"
         in2="offset"
         operator="over"
         result="fbSourceGraphic"
         id="feComposite4358-4" />
      <feColorMatrix
         result="fbSourceGraphicAlpha"
         in="fbSourceGraphic"
         values="0 0 0 -1 0 0 0 0 -1 0 0 0 0 -1 0 0 0 0 1 0"
         id="feColorMatrix4223-4" />
      <feTurbulence
         id="feTurbulence4225-8"
         type="fractalNoise"
         baseFrequency="0.04"
         numOctaves="5.057873485868102"
         seed="0"
         result="result4" />
      <feDisplacementMap
         id="feDisplacementMap4227-2"
         in2="result4"
         in="fbSourceGraphic"
         yChannelSelector="G"
         xChannelSelector="R"
         scale="0"
         result="result3" />
      <feDiffuseLighting
         id="feDiffuseLighting4229-4"
         lighting-color="#e9e6d7"
         diffuseConstant="1"
         surfaceScale="2"
         result="result1"
         in="result4">
        <feDistantLight
           id="feDistantLight4231-0"
           azimuth="235"
           elevation="47" />
      </feDiffuseLighting>
      <feComposite
         id="feComposite4233-7"
         in2="result1"
         operator="in"
         in="result3"
         result="result2"
         numOctaves="5" />
      <feComposite
         k4="0"
         k3="0"
         k2="0"
         id="feComposite4235-0"
         in2="result1"
         result="result5"
         operator="arithmetic"
         k1="1.7" />
      <feBlend
         id="feBlend4237-1"
         in2="result3"
         in="result5"
         mode="normal" />
    </filter>
  </defs>
  <sodipodi:namedview
     pagecolor="#ffffff"
     bordercolor="#666666"
     borderopacity="1"
     objecttolerance="10"
     gridtolerance="10"
     guidetolerance="10"
     inkscape:pageopacity="0"
     inkscape:pageshadow="2"
     inkscape:window-width="1920"
     inkscape:window-height="1001"
     id="namedview4"
     showgrid="false"
     inkscape:zoom="0.60491496"
     inkscape:cx="1736.9513"
     inkscape:cy="2080.0782"
     inkscape:window-x="0"
     inkscape:window-y="45"
     inkscape:window-maximized="1"
     inkscape:current-layer="layer1" />
  <g
     inkscape:groupmode="layer"
     id="layer2"
     inkscape:label="artwork"
     sodipodi:insensitive="true">
    <image
       sodipodi:absref="/home/ambernite/peppercarrot/webcomics/ep09_The-Remedy/lang/kr/../gfx_Pepper-and-Carrot_by-David-Revoy_E09P01.png"
       xlink:href="../gfx_Pepper-and-Carrot_by-David-Revoy_E09P01.png"
       y="0"
       x="0"
       id="image10"
       height="3503"
       width="2481" />
  </g>
  <g
     inkscape:groupmode="layer"
     id="layer3"
     inkscape:label="speechbubbles" />
  <g
     inkscape:groupmode="layer"
     id="layer1"
     inkscape:label="txt">
    <flowRoot
       xml:space="preserve"
       id="flowRoot2987-4-9-3"
       style="font-style:normal;font-variant:normal;font-weight:normal;font-stretch:normal;line-height:0.01%;font-family:Lavi;-inkscape-font-specification:Lavi;text-align:center;letter-spacing:0px;word-spacing:0px;text-anchor:middle;fill:#ffffff;fill-opacity:1;stroke:none"
       transform="matrix(1.3808955,0,0,1.3808955,-111.61883,-267.1395)"><flowRegion
         id="flowRegion2989-5-4-5"><rect
           id="rect2991-7-9-6"
           width="581.36182"
           height="166.77658"
           x="180.92751"
           y="248.28046"
           style="font-style:normal;font-variant:normal;font-weight:normal;font-stretch:normal;line-height:100%;font-family:Lavi;-inkscape-font-specification:Lavi;text-align:center;text-anchor:middle;fill:#ffffff;fill-opacity:1" /></flowRegion><flowPara
         style="font-style:normal;font-variant:normal;font-weight:normal;font-stretch:normal;font-size:48px;line-height:100%;font-family:'Nanum Pen Script OTF';-inkscape-font-specification:'Nanum Pen Script OTF';text-align:start;text-anchor:start;fill:#000000;fill-opacity:1"
         id="flowPara3437">후추의 생일잔치*</flowPara><flowPara
         style="font-style:normal;font-variant:normal;font-weight:normal;font-stretch:normal;font-size:48px;line-height:100%;font-family:'Nanum Pen Script OTF';-inkscape-font-specification:'Nanum Pen Script OTF';text-align:start;text-anchor:start;fill:#000000;fill-opacity:1"
         id="flowPara3394">               다음날 ...</flowPara></flowRoot>    <path
       style="opacity:1;fill:#ffffff;fill-opacity:1;stroke:none"
       d="m 333.76023,2065.4425 c -6.37703,-109.4722 44.39545,-126.5629 77.9373,-148.7347 36.47903,-24.1133 330.00825,-10.9241 378.30627,30.5335 47.73775,40.9767 78.09714,179.634 -24.74347,227.5695 -102.84068,47.9353 -295.26521,31.7523 -323.9249,21.1379 -27.08523,-10.0313 -97.8598,-44.3648 -107.5752,-130.5062 z"
       id="path3659"
       inkscape:connector-curvature="0"
       sodipodi:nodetypes="cssssc" />
    <path
       style="fill:#ffffff;fill-opacity:1;stroke:none"
       d="m 553.48797,2237.5221 c -4.50753,-56.3576 31.38039,-65.1562 55.08902,-76.5704 25.78475,-12.4139 233.26225,-5.6239 267.40109,15.719 33.74289,21.0953 55.20201,92.4779 -17.4896,117.1557 -72.69167,24.6777 -208.70456,16.3465 -228.9623,10.8821 -19.14486,-5.1642 -69.17099,-22.8396 -76.03821,-67.1864 z"
       id="path3659-2"
       inkscape:connector-curvature="0"
       sodipodi:nodetypes="cssssc" />
    <path
       style="fill:#ffffff;fill-rule:evenodd;stroke:none;stroke-width:1px;stroke-linecap:butt;stroke-linejoin:miter;stroke-opacity:1;fill-opacity:1"
       d="m 871.30221,2202.8829 c 19.88706,-38.5312 45.96683,-62.6419 68.36179,-63.3901 37.20404,-1.2429 67.6666,59.6051 82.5819,57.1192 14.9153,-2.4859 28.0399,-8.6444 33.0117,-48.4186 1.2429,69.6048 -44.7161,67.5912 -61.52914,53.4185 -17.61577,-14.8494 -41.97438,-47.6348 -55.31442,-35.4063 -14.25138,13.0639 -48.46771,72.7226 -48.46771,72.7226 z"
       id="path4437"
       inkscape:connector-curvature="0"
       sodipodi:nodetypes="csscsscc" />
    <flowRoot
       xml:space="preserve"
       id="flowRoot2987-4-9-3-3"
       style="font-style:normal;font-variant:normal;font-weight:normal;font-stretch:normal;line-height:0.01%;font-family:'Nanum Pen Script OTF';-inkscape-font-specification:'Nanum Pen Script OTF';text-align:center;letter-spacing:0px;word-spacing:0px;text-anchor:middle;fill:#000000;fill-opacity:1;stroke:none"
       transform="matrix(1.4987258,0,0,1.4987258,-52.388922,1551.4604)"><flowRegion
         id="flowRegion2989-5-4-5-4"><rect
           id="rect2991-7-9-6-6"
           width="602.40173"
           height="310.73996"
           x="120.55251"
           y="265.53046"
           style="font-style:normal;font-variant:normal;font-weight:normal;font-stretch:normal;line-height:100%;font-family:'Nanum Pen Script OTF';-inkscape-font-specification:'Nanum Pen Script OTF';text-align:center;text-anchor:middle" /></flowRegion><flowPara
         style="font-style:normal;font-variant:normal;font-weight:normal;font-stretch:normal;font-size:48px;line-height:100%;font-family:'Nanum Pen Script OTF';-inkscape-font-specification:'Nanum Pen Script OTF';text-align:center;text-anchor:middle"
         id="flowPara3030-8-0">음?</flowPara><flowPara
         style="font-style:normal;font-variant:normal;font-weight:normal;font-stretch:normal;font-size:48px;line-height:100%;font-family:'Nanum Pen Script OTF';-inkscape-font-specification:'Nanum Pen Script OTF';text-align:center;text-anchor:middle"
         id="flowPara4455">산이랑, 숲이랑,</flowPara><flowPara
         style="font-style:normal;font-variant:normal;font-weight:normal;font-stretch:normal;font-size:48px;line-height:100%;font-family:'Nanum Pen Script OTF';-inkscape-font-specification:'Nanum Pen Script OTF';text-align:center;text-anchor:middle"
         id="flowPara3447">구름의 표징들이네?</flowPara></flowRoot>    <flowRoot
       xml:space="preserve"
       id="flowRoot2987-4-9-3-3-3"
       style="font-style:normal;font-variant:normal;font-weight:normal;font-stretch:normal;line-height:0.01%;font-family:'Nanum Pen Script OTF';-inkscape-font-specification:'Nanum Pen Script OTF';text-align:center;letter-spacing:0px;word-spacing:0px;text-anchor:middle;fill:#000000;fill-opacity:1;stroke:none"
       transform="matrix(1.4657247,0,0,1.4657247,117.92817,1801.8471)"><flowRegion
         id="flowRegion2989-5-4-5-4-4"><rect
           id="rect2991-7-9-6-6-7"
           width="602.40173"
           height="310.73996"
           x="120.55251"
           y="265.53046"
           style="font-style:normal;font-variant:normal;font-weight:normal;font-stretch:normal;font-family:'Nanum Pen Script OTF';-inkscape-font-specification:'Nanum Pen Script OTF';text-align:center;text-anchor:middle" /></flowRegion><flowPara
         style="font-style:normal;font-variant:normal;font-weight:normal;font-stretch:normal;font-size:48px;line-height:1.25;font-family:'Nanum Pen Script OTF';-inkscape-font-specification:'Nanum Pen Script OTF';text-align:center;text-anchor:middle"
         id="flowPara4455-8">뭐지?</flowPara></flowRoot>    <path
       style="fill:#ffffff;fill-rule:evenodd;stroke:none;stroke-width:1px;stroke-linecap:butt;stroke-linejoin:miter;stroke-opacity:1"
       d="m 429.9546,3149.5017 3.49823,-1.219 -2.49874,-5.2821 14.49262,-71.106 4.49771,1.219 -0.24988,-5.2822 5.99696,1.6253 2.49871,3.6569 4.74759,-6.9075 11.24428,-1.2189 23.7379,-24.3792 5.49721,-11.377 14.24274,-5.2821 4.49771,0.4063 -0.49975,-6.0948 8.99542,0.8126 15.4921,5.2822 33.48296,10.158 9.9949,1.6253 13.24326,0.4063 -1.24936,5.2821 12.99338,0.8127 0,-6.0948 13.49312,11.3769 5.99694,6.0948 28.98525,19.5034 -1.49924,3.2505 3.74809,12.1896 -3.74809,8.5328 4.49771,21.1286 1.49923,27.6297 -0.99949,10.158 -1.74911,-6.0948 -6.24681,7.7201 -3.24835,16.2528 -4.99746,2.8443 -1.49923,-3.2506 -14.24275,12.5959 -24.7374,12.5959 -7.74605,2.0316 0.99948,-2.0316 -8.74554,3.6569 -18.99032,3.2506 -11.49415,-3.2506 c 0,0 -7.99592,0.8126 -8.99542,0.8126 -0.99949,0 -36.48141,-4.0632 -36.48141,-4.0632 l -19.49008,-0.8126 -14.24275,-3.2505 -13.49312,-4.8759 -21.73893,-16.2528 -13.24326,-13.8149 z"
       id="path4499"
       inkscape:connector-curvature="0" />
    <path
       style="fill:#ffffff;fill-rule:evenodd;stroke:none;stroke-width:1px;stroke-linecap:butt;stroke-linejoin:miter;stroke-opacity:1"
       d="m 655.39397,3099.118 13.00223,3.2506 c 0,0 3.65688,-0.8126 9.75168,-1.6253 6.0948,-0.8126 50.78999,-0.8126 56.88478,0.4063 1.62528,-2.0316 0.40632,-5.6884 0.40632,-5.6884 l 5.68848,2.0316 -1.21896,-5.6885 4.46952,2.4379 1.21896,-13.0022 4.0632,1.2189 0.81264,-3.6569 10.56432,2.438 c 0,0 -16.65912,-14.2212 -21.12864,-15.0339 -4.46952,-0.8126 26.00448,-2.4379 56.07215,5.6885 30.06767,8.1264 52.41526,13.0022 57.69742,16.2528 5.28216,3.2506 66.23014,30.8803 87.35877,71.106 -35.75615,-32.0993 -86.95245,-59.3227 -98.32941,-62.167 -11.37695,-2.8442 -63.3859,-10.158 -78.41973,-6.0948 12.59591,9.3454 11.53275,9.1896 13.97067,13.2528 -8.53272,-5.2822 -16.75993,-2.7801 -16.75993,-2.7801 l 6.03981,3.3422 -8.92989,1.7842 c 0,0 2.20581,5.0164 1.79949,7.8606 -0.40632,2.8442 0.51019,6.6936 -6.80356,6.2873 -7.31376,-0.4063 -13.69579,-1.7109 -19.38427,-2.1172 -5.68847,-0.4063 -56.47846,5.2822 -59.3227,7.3138 -2.84424,2.0316 -23.56655,16.6591 -23.56655,16.6591 l -6.50112,-30.0677 z"
       id="path4501"
       inkscape:connector-curvature="0"
       sodipodi:nodetypes="cccccccccccccsscscccccssssccc" />
    <flowRoot
       xml:space="preserve"
       id="flowRoot2987-4-9-3-0"
       style="font-style:normal;font-variant:normal;font-weight:normal;font-stretch:normal;line-height:0.01%;font-family:'Nanum Pen Script OTF';-inkscape-font-specification:'Nanum Pen Script OTF';text-align:center;letter-spacing:0px;word-spacing:0px;text-anchor:middle;fill:#000000;fill-opacity:1;stroke:none"
       transform="matrix(2.4362982,0,0,2.4362982,-472.99969,2404.9153)"><flowRegion
         id="flowRegion2989-5-4-5-1"><rect
           id="rect2991-7-9-6-4"
           width="602.40173"
           height="310.73996"
           x="120.55251"
           y="265.53046"
           style="font-style:normal;font-variant:normal;font-weight:normal;font-stretch:normal;font-family:'Nanum Pen Script OTF';-inkscape-font-specification:'Nanum Pen Script OTF';text-align:center;text-anchor:middle" /></flowRegion><flowPara
         style="font-style:normal;font-variant:normal;font-weight:normal;font-stretch:normal;font-size:48px;line-height:1.25;font-family:'Nanum Pen Script OTF';-inkscape-font-specification:'Nanum Pen Script OTF';text-align:center;letter-spacing:1.5px;text-anchor:middle;stroke:#000000;stroke-width:1.10000002;stroke-miterlimit:4;stroke-dasharray:none;stroke-opacity:1"
         id="flowPara3030-8-7">어!</flowPara></flowRoot>    <flowRoot
       xml:space="preserve"
       id="flowRoot3425"
       style="font-style:normal;font-variant:normal;font-weight:normal;font-stretch:normal;line-height:0.01%;font-family:'Nanum Pen Script OTF';-inkscape-font-specification:'Nanum Pen Script OTF';letter-spacing:0px;word-spacing:0px;fill:#000000;fill-opacity:1;stroke:none"
       transform="matrix(1.3987008,0,0,1.3987008,-953.2083,-711.04267)"><flowRegion
         id="flowRegion3427"><rect
           id="rect3429"
           width="1190.2501"
           height="60.374878"
           x="1184.4999"
           y="1798.1251"
           style="font-style:normal;font-variant:normal;font-weight:normal;font-stretch:normal;line-height:125%;font-family:'Nanum Pen Script OTF';-inkscape-font-specification:'Nanum Pen Script OTF'" /></flowRegion><flowPara
         id="flowPara3431"
         style="font-style:normal;font-variant:normal;font-weight:normal;font-stretch:normal;font-size:37.5px;line-height:125%;font-family:'Nanum Pen Script OTF';-inkscape-font-specification:'Nanum Pen Script OTF';text-align:end;text-anchor:end;fill:#7f7f7f;fill-opacity:1">* 제 8화 : 후추의 생일잔치 참고</flowPara></flowRoot>  </g>
</svg>
