<?xml version="1.0" encoding="UTF-8" standalone="no"?>
<!-- Created with Inkscape (http://www.inkscape.org/) -->

<svg
   xmlns:dc="http://purl.org/dc/elements/1.1/"
   xmlns:cc="http://creativecommons.org/ns#"
   xmlns:rdf="http://www.w3.org/1999/02/22-rdf-syntax-ns#"
   xmlns:svg="http://www.w3.org/2000/svg"
   xmlns="http://www.w3.org/2000/svg"
   xmlns:xlink="http://www.w3.org/1999/xlink"
   xmlns:sodipodi="http://sodipodi.sourceforge.net/DTD/sodipodi-0.dtd"
   xmlns:inkscape="http://www.inkscape.org/namespaces/inkscape"
   id="svg2"
   version="1.1"
   inkscape:version="0.92.3 (2405546, 2018-03-11)"
   width="2481"
   height="3503"
   sodipodi:docname="E28P05.svg">
  <metadata
     id="metadata8">
    <rdf:RDF>
      <cc:Work
         rdf:about="">
        <dc:format>image/svg+xml</dc:format>
        <dc:type
           rdf:resource="http://purl.org/dc/dcmitype/StillImage" />
        <dc:title />
      </cc:Work>
    </rdf:RDF>
  </metadata>
  <defs
     id="defs6" />
  <sodipodi:namedview
     pagecolor="#ffffff"
     bordercolor="#666666"
     borderopacity="1"
     objecttolerance="10"
     gridtolerance="10"
     guidetolerance="10"
     inkscape:pageopacity="0"
     inkscape:pageshadow="2"
     inkscape:window-width="1856"
     inkscape:window-height="1151"
     id="namedview4"
     showgrid="false"
     inkscape:zoom="0.36415091"
     inkscape:cx="1666.3329"
     inkscape:cy="1312.5088"
     inkscape:window-x="64"
     inkscape:window-y="0"
     inkscape:window-maximized="1"
     inkscape:current-layer="layer3" />
  <g
     inkscape:groupmode="layer"
     id="layer2"
     inkscape:label="artwork"
     sodipodi:insensitive="true">
    <image
       sodipodi:absref="/home/fici/Desktop/P&amp;C/all/sl/../gfx_Pepper-and-Carrot_by-David-Revoy_E28P05.png"
       xlink:href="../gfx_Pepper-and-Carrot_by-David-Revoy_E28P05.png"
       y="0"
       x="0"
       id="image10"
       height="3503"
       width="2481" />
  </g>
  <g
     inkscape:groupmode="layer"
     id="layer3"
     inkscape:label="speechbubbles">
    <path
       style="fill:#ffffff;fill-rule:evenodd;stroke:none;stroke-width:0.83706939px;stroke-linecap:butt;stroke-linejoin:miter;stroke-opacity:1"
       d="m 160.42359,183.80942 c 25.97392,-17.12675 64.60386,-25.86487 102.2903,-31.427 35.26234,-5.29908 72.00402,-5.4256 108.17773,-4.27524 45.87218,1.51744 92.33514,3.38575 136.57392,10.89209 13.52553,2.19486 26.26105,6.20163 34.67112,12.74254 35.61378,22.1488 61.40937,50.9886 60.53894,81.51768 -3.58293,44.86512 -5.37531,89.78681 -10.47004,134.60978 -1.54654,14.75945 -7.58529,30.32427 -26.59416,41.17305 -21.8293,13.03823 -50.77252,21.83727 -81.61508,25.74359 -49.072,6.60032 -99.80615,8.92974 -150.15969,8.42686 -19.68046,-1.20942 -39.35136,-2.82253 -58.97429,-4.42972 -42.04766,-4.10552 -87.20502,-10.41847 -117.35944,-28.84355 -23.94205,-14.69056 -37.19997,-34.51371 -39.66216,-54.31836 0.18627,-41.64835 5.11271,-83.23694 8.36478,-124.83257 1.15951,-11.22827 0.25058,-22.70234 7.30133,-33.43211 6.42031,-11.74814 14.75568,-23.31137 26.91674,-33.54704 z"
       id="path1006"
       inkscape:connector-curvature="0" />
    <path
       style="fill:#ffffff;fill-rule:evenodd;stroke:none;stroke-width:1px;stroke-linecap:butt;stroke-linejoin:miter;stroke-opacity:1"
       d="M 333.27358,346.17986 C 395.90659,299.25879 684.65819,123.37673 1012.4941,266.75583 759.55842,143.42811 491.69794,181.66189 330.00219,300.24071 Z"
       id="path1008"
       inkscape:connector-curvature="0"
       sodipodi:nodetypes="cccc" />
    <path
       style="fill:#ffffff;fill-rule:evenodd;stroke:none;stroke-width:1px;stroke-linecap:butt;stroke-linejoin:miter;stroke-opacity:1"
       d="m 1819.6761,521.16397 c 116.7092,-13.15033 182.4608,-4.93138 226.8431,52.60129 44.3824,57.53267 34.5196,90.40848 23.0131,80.54574 -11.5065,-9.86274 -23.0131,-151.22873 -249.8562,-133.14703 z"
       id="path1011"
       inkscape:connector-curvature="0" />
    <path
       style="fill:#ffffff;fill-rule:evenodd;stroke:none;stroke-width:1px;stroke-linecap:butt;stroke-linejoin:miter;stroke-opacity:1"
       d="m 2110.627,552.39599 c 87.1209,1.64379 133.1471,13.15032 151.2288,29.58823 18.0817,16.4379 42.7385,60.82025 34.5196,87.12089 -8.219,26.30065 -39.451,69.03921 -129.8595,65.75163 -90.4085,-3.28759 -156.1601,-19.72549 -177.5294,-52.6013 -21.3692,-32.87581 8.219,-101.91501 42.7386,-113.42155 34.5196,-11.50653 39.451,-14.79411 78.9019,-16.4379 z"
       id="path1013"
       inkscape:connector-curvature="0" />
    <path
       style="fill:#ffffff;fill-rule:evenodd;stroke:none;stroke-width:1.0418613px;stroke-linecap:butt;stroke-linejoin:miter;stroke-opacity:1"
       d="m 1975.5096,734.97104 c 66.247,-50.10698 146.7002,-46.76651 168.2304,-43.42605 21.5302,3.34048 75.5173,8.43262 115.8322,11.69163 18.6413,1.50696 86.9862,33.50604 91.8882,88.52231 2.9692,33.32234 0,66.80931 -46.3727,80.17117 -46.3727,13.36185 -114.5754,13.36185 -172.5415,11.69163 -57.9659,-1.67023 -123.9132,0 -158.6928,-30.06419 -34.7795,-30.06419 -44.7166,-71.81999 1.6562,-118.5865 z"
       id="path1015"
       inkscape:connector-curvature="0"
       sodipodi:nodetypes="cssssssc" />
    <path
       style="fill:#ffffff;fill-rule:evenodd;stroke:none;stroke-width:0.96798301px;stroke-linecap:butt;stroke-linejoin:miter;stroke-opacity:1"
       d="m 304.7634,1071.6194 c 84.37711,1.4294 151.34307,1.4294 170.09353,15.7232 18.75047,14.2939 54.9121,47.1697 56.25141,78.6161 1.33933,31.4464 -1.33931,77.1867 -26.78638,98.6274 -25.44706,21.4408 -70.98391,38.5934 -116.52077,45.7403 -45.53685,7.1469 -136.61056,7.1469 -167.4149,0 -30.80433,-7.1469 -84.37711,-31.4464 -91.0737,-55.7459 -6.6966,-24.2996 -9.37524,-84.3336 -1.33932,-108.6332 8.03591,-24.2995 46.87618,-54.3165 85.71642,-62.8928 38.84025,-8.5763 91.07371,-11.4351 91.07371,-11.4351 z"
       id="path1017"
       inkscape:connector-curvature="0" />
    <path
       style="fill:#ffffff;fill-rule:evenodd;stroke:none;stroke-width:1px;stroke-linecap:butt;stroke-linejoin:miter;stroke-opacity:1"
       d="m 464.5495,1496.1462 c 57.17532,-75.7573 57.17532,-148.6559 4.28815,-244.4245 -52.88717,-95.7687 -80.04545,-97.1981 -80.04545,-97.1981 l -4.28815,52.8872 c 0,0 168.6672,128.6445 80.04545,288.7354 z"
       id="path1019"
       inkscape:connector-curvature="0" />
    <path
       style="fill:#ffffff;fill-rule:evenodd;stroke:none;stroke-width:1.00006592px;stroke-linecap:butt;stroke-linejoin:miter;stroke-opacity:1"
       d="m 1928.7492,1181.6164 c -3.3611,-54.1268 84.0514,-99.5753 198.8715,-99.9637 114.8199,-0.3882 214.6634,22.2488 214.0332,78.152 -0.6302,55.9032 -20.2592,103.0846 -167.8989,103.3563 -147.6398,0.2718 -238.8088,-14.7742 -245.0058,-81.5446 z"
       id="path1021"
       inkscape:connector-curvature="0" />
    <path
       style="fill:#ffffff;fill-rule:evenodd;stroke:none;stroke-width:1px;stroke-linecap:butt;stroke-linejoin:miter;stroke-opacity:1"
       d="m 2223.4008,1243.0202 c 9.6724,22.1135 -3.7615,81.471 -16.6581,91.9459 -8.9785,11.3235 4.9225,16.0942 9.6724,15.1304 4.2989,-2.9097 37.6151,-18.04 42.9887,-9.3111 5.3736,8.7291 -48.8996,51.2105 -42.9887,57.0298 5.911,5.8194 27.9427,-8.1471 30.6294,-3.4916 2.6868,4.6554 -4.2988,17.4581 -16.6581,25.6052 20.957,-6.9833 30.0921,-18.6219 25.7932,-26.769 -4.2988,-8.1471 -12.3592,-6.9833 -17.7328,-5.8194 10.2098,-8.7291 49.9875,-38.2659 39.7777,-53.9782 -10.2098,-15.7122 -36.0426,-12.0787 -41.9536,-9.169 14.5087,-12.8026 28.0737,-53.8649 21.6254,-85.8713 -6.4483,-32.0065 -34.4955,4.6983 -34.4955,4.6983 z"
       id="path1023"
       inkscape:connector-curvature="0"
       sodipodi:nodetypes="ccccsccccccsc" />
    <path
       style="fill:#ffffff;fill-rule:evenodd;stroke:none;stroke-width:0.94744766px;stroke-linecap:butt;stroke-linejoin:miter;stroke-opacity:1"
       d="m 834.27424,2344.762 c 8.78347,-40.2573 46.7801,-55.2416 76.05833,-52.849 29.27822,2.3928 72.9353,23.5682 68.38091,56.2586 -4.55438,32.6904 -39.36294,50.2768 -63.89158,51.6227 -24.52866,1.3458 -80.02716,-3.9181 -80.54766,-55.0323 z"
       id="path1025"
       inkscape:connector-curvature="0" />
    <path
       style="fill:#ffffff;fill-rule:evenodd;stroke:none;stroke-width:1px;stroke-linecap:butt;stroke-linejoin:miter;stroke-opacity:1"
       d="m 891.05439,2384.5928 c 8.97846,20.1058 2.08504,29.2013 -7.53169,42.2988 -9.61674,13.0974 -3.91478,26.6928 6.89341,31.8628 10.80819,5.1701 22.50997,25.1418 21.87169,42.5477 -2.42546,-50.8389 -20.08451,-46.2816 -21.10575,-59.2259 -1.02125,-12.9442 20.21215,-24.3759 22.42485,-32.7054 2.2127,-8.3295 0.51063,-29.1055 -5.14877,-40.9009 -5.65941,-11.7954 -17.40374,16.1229 -17.40374,16.1229 z"
       id="path1027"
       inkscape:connector-curvature="0"
       sodipodi:nodetypes="cccccssc" />
  </g>
  <g
     inkscape:groupmode="layer"
     id="layer1"
     inkscape:label="txt">
    <text
       xml:space="preserve"
       style="font-style:normal;font-variant:normal;font-weight:normal;font-stretch:normal;line-height:0%;font-family:Lavi;-inkscape-font-specification:Lavi;text-align:center;letter-spacing:0px;word-spacing:0px;text-anchor:middle;fill:#000000;fill-opacity:1;stroke:none"
       x="362.38495"
       y="242.60982"
       id="text4246"><tspan
         sodipodi:role="line"
         style="font-size:45px;line-height:1.20000005"
         x="362.38495"
         y="242.60982"
         id="tspan4252">Vse moje prijateljice</tspan><tspan
         sodipodi:role="line"
         style="font-size:45px;line-height:1.20000005"
         x="362.38495"
         y="296.60983"
         id="tspan47">so uspešne in včasih si</tspan><tspan
         sodipodi:role="line"
         style="font-size:45px;line-height:1.20000005"
         x="362.38495"
         y="350.60983"
         id="tspan49">želim da bi imela vsaj</tspan><tspan
         sodipodi:role="line"
         style="font-size:45px;line-height:1.20000005"
         x="362.38495"
         y="404.60983"
         id="tspan833">delec tega kar imajo.</tspan></text>
    <text
       xml:space="preserve"
       style="font-style:normal;font-variant:normal;font-weight:normal;font-stretch:normal;line-height:0%;font-family:Lavi;-inkscape-font-specification:Lavi;text-align:center;letter-spacing:0px;word-spacing:0px;text-anchor:middle;fill:#000000;fill-opacity:1;stroke:none"
       x="2143.3313"
       y="630.23462"
       id="text4246-3"><tspan
         sodipodi:role="line"
         style="font-size:45px;line-height:1.20000005"
         x="2143.3313"
         y="630.23462"
         id="tspan833-2">Coriander</tspan><tspan
         sodipodi:role="line"
         style="font-size:45px;line-height:1.20000005"
         x="2143.3313"
         y="684.23462"
         id="tspan898">je kraljica.</tspan></text>
    <text
       xml:space="preserve"
       style="font-style:normal;font-variant:normal;font-weight:normal;font-stretch:normal;line-height:0%;font-family:Lavi;-inkscape-font-specification:Lavi;text-align:center;letter-spacing:0px;word-spacing:0px;text-anchor:middle;fill:#000000;fill-opacity:1;stroke:none"
       x="2149.2319"
       y="792.5921"
       id="text4246-3-9"><tspan
         sodipodi:role="line"
         style="font-size:45px;line-height:1.20000005"
         x="2149.2319"
         y="792.5921"
         id="tspan87">Saffron je bogata</tspan><tspan
         sodipodi:role="line"
         style="font-size:45px;line-height:1.20000005"
         x="2149.2319"
         y="846.5921"
         id="tspan91">superzvezda.</tspan></text>
    <text
       xml:space="preserve"
       style="font-style:normal;font-variant:normal;font-weight:normal;font-stretch:normal;line-height:0%;font-family:Lavi;-inkscape-font-specification:Lavi;text-align:center;letter-spacing:0px;word-spacing:0px;text-anchor:middle;fill:#000000;fill-opacity:1;stroke:none"
       x="327.58185"
       y="1151.152"
       id="text4246-3-9-7"><tspan
         sodipodi:role="line"
         style="font-size:45px;line-height:1.20000005"
         x="327.58185"
         y="1151.152"
         id="tspan923-9">Celo Shichimi</tspan><tspan
         sodipodi:role="line"
         style="font-size:45px;line-height:1.20000005"
         x="327.58185"
         y="1205.152"
         id="tspan948">izgleda perfekno</tspan><tspan
         sodipodi:role="line"
         style="font-size:45px;line-height:1.20000005"
         x="327.58185"
         y="1259.152"
         id="tspan950">ob svoji šoli.</tspan></text>
    <text
       xml:space="preserve"
       style="font-style:normal;font-variant:normal;font-weight:normal;font-stretch:normal;line-height:0%;font-family:Lavi;-inkscape-font-specification:Lavi;text-align:center;letter-spacing:0px;word-spacing:0px;text-anchor:middle;fill:#000000;fill-opacity:1;stroke:none"
       x="2139.1538"
       y="1151.3032"
       id="text4246-3-9-7-3"><tspan
         sodipodi:role="line"
         style="font-size:45px;line-height:1.20000005"
         x="2139.1538"
         y="1151.3032"
         id="tspan950-6">In jaz?</tspan><tspan
         sodipodi:role="line"
         style="font-size:45px;line-height:1.20000005"
         x="2139.1538"
         y="1205.3032"
         id="tspan981">Kaj imam pa jaz?</tspan></text>
    <text
       xml:space="preserve"
       style="font-style:normal;font-variant:normal;font-weight:normal;font-stretch:normal;line-height:0%;font-family:Lavi;-inkscape-font-specification:Lavi;text-align:center;letter-spacing:0px;word-spacing:0px;text-anchor:middle;fill:#000000;fill-opacity:1;stroke:none"
       x="910.00488"
       y="2360.6299"
       id="text4246-3-9-7-3-2"><tspan
         sodipodi:role="line"
         style="font-size:45px;line-height:1.20000005"
         x="910.00488"
         y="2360.6299"
         id="tspan981-1">To.</tspan></text>
  </g>
</svg>
