<?xml version="1.0" encoding="UTF-8" standalone="no"?>
<!-- Created with Inkscape (http://www.inkscape.org/) -->

<svg
   xmlns:dc="http://purl.org/dc/elements/1.1/"
   xmlns:cc="http://creativecommons.org/ns#"
   xmlns:rdf="http://www.w3.org/1999/02/22-rdf-syntax-ns#"
   xmlns:svg="http://www.w3.org/2000/svg"
   xmlns="http://www.w3.org/2000/svg"
   xmlns:xlink="http://www.w3.org/1999/xlink"
   xmlns:sodipodi="http://sodipodi.sourceforge.net/DTD/sodipodi-0.dtd"
   xmlns:inkscape="http://www.inkscape.org/namespaces/inkscape"
   id="svg2"
   version="1.1"
   inkscape:version="0.92.3 (2405546, 2018-03-11)"
   width="2481"
   height="3503"
   sodipodi:docname="E06P07.svg">
  <metadata
     id="metadata8">
    <rdf:RDF>
      <cc:Work
         rdf:about="">
        <dc:format>image/svg+xml</dc:format>
        <dc:type
           rdf:resource="http://purl.org/dc/dcmitype/StillImage" />
        <dc:title />
      </cc:Work>
    </rdf:RDF>
  </metadata>
  <defs
     id="defs6">
    <filter
       color-interpolation-filters="sRGB"
       id="filter4375-4-1-1-15-1-3"
       inkscape:label="deevad outline effect">
      <feFlood
         id="feFlood4377-7-9-0-4-4-4"
         flood-opacity="1"
         flood-color="rgb(0,0,0)"
         result="flood" />
      <feComposite
         id="feComposite4379-3-8-8-6-0-7"
         in2="SourceGraphic"
         in="flood"
         operator="in"
         result="composite1" />
      <feMorphology
         id="feMorphology4393-1-0-49-8-2-7"
         operator="dilate"
         radius="0.69999999999999996"
         result="result3" />
      <feComposite
         id="feComposite4385-9-5-7-2-1-2"
         in2="result3"
         in="SourceGraphic"
         operator="over"
         result="composite2" />
    </filter>
    <filter
       color-interpolation-filters="sRGB"
       id="filter6713"
       inkscape:label="deevad outline effect">
      <feFlood
         id="feFlood6715"
         flood-opacity="1"
         flood-color="rgb(0,0,0)"
         result="flood" />
      <feComposite
         id="feComposite6717"
         in2="SourceGraphic"
         in="flood"
         operator="in"
         result="composite1" />
      <feMorphology
         id="feMorphology6719"
         operator="dilate"
         radius="0.321"
         result="result3" />
      <feComposite
         id="feComposite6721"
         in2="result3"
         in="SourceGraphic"
         operator="over"
         result="composite2" />
    </filter>
    <filter
       color-interpolation-filters="sRGB"
       id="filter6723"
       inkscape:label="deevad outline effect">
      <feFlood
         id="feFlood6725"
         flood-opacity="1"
         flood-color="rgb(0,0,0)"
         result="flood" />
      <feComposite
         id="feComposite6727"
         in2="SourceGraphic"
         in="flood"
         operator="in"
         result="composite1" />
      <feMorphology
         id="feMorphology6729"
         operator="dilate"
         radius="0.321"
         result="result3" />
      <feComposite
         id="feComposite6731"
         in2="result3"
         in="SourceGraphic"
         operator="over"
         result="composite2" />
    </filter>
    <filter
       color-interpolation-filters="sRGB"
       id="filter6733"
       inkscape:label="deevad outline effect">
      <feFlood
         id="feFlood6735"
         flood-opacity="1"
         flood-color="rgb(0,0,0)"
         result="flood" />
      <feComposite
         id="feComposite6737"
         in2="SourceGraphic"
         in="flood"
         operator="in"
         result="composite1" />
      <feMorphology
         id="feMorphology6739"
         operator="dilate"
         radius="0.321"
         result="result3" />
      <feComposite
         id="feComposite6741"
         in2="result3"
         in="SourceGraphic"
         operator="over"
         result="composite2" />
    </filter>
    <filter
       color-interpolation-filters="sRGB"
       id="filter6743"
       inkscape:label="deevad outline effect">
      <feFlood
         id="feFlood6745"
         flood-opacity="1"
         flood-color="rgb(0,0,0)"
         result="flood" />
      <feComposite
         id="feComposite6747"
         in2="SourceGraphic"
         in="flood"
         operator="in"
         result="composite1" />
      <feMorphology
         id="feMorphology6749"
         operator="dilate"
         radius="0.321"
         result="result3" />
      <feComposite
         id="feComposite6751"
         in2="result3"
         in="SourceGraphic"
         operator="over"
         result="composite2" />
    </filter>
    <filter
       color-interpolation-filters="sRGB"
       id="filter6753"
       inkscape:label="deevad outline effect">
      <feFlood
         id="feFlood6755"
         flood-opacity="1"
         flood-color="rgb(0,0,0)"
         result="flood" />
      <feComposite
         id="feComposite6757"
         in2="SourceGraphic"
         in="flood"
         operator="in"
         result="composite1" />
      <feMorphology
         id="feMorphology6759"
         operator="dilate"
         radius="0.321"
         result="result3" />
      <feComposite
         id="feComposite6761"
         in2="result3"
         in="SourceGraphic"
         operator="over"
         result="composite2" />
    </filter>
    <filter
       color-interpolation-filters="sRGB"
       id="filter6763"
       inkscape:label="deevad outline effect">
      <feFlood
         id="feFlood6765"
         flood-opacity="1"
         flood-color="rgb(0,0,0)"
         result="flood" />
      <feComposite
         id="feComposite6767"
         in2="SourceGraphic"
         in="flood"
         operator="in"
         result="composite1" />
      <feMorphology
         id="feMorphology6769"
         operator="dilate"
         radius="0.321"
         result="result3" />
      <feComposite
         id="feComposite6771"
         in2="result3"
         in="SourceGraphic"
         operator="over"
         result="composite2" />
    </filter>
    <filter
       color-interpolation-filters="sRGB"
       id="filter6773"
       inkscape:label="deevad outline effect">
      <feFlood
         id="feFlood6775"
         flood-opacity="1"
         flood-color="rgb(0,0,0)"
         result="flood" />
      <feComposite
         id="feComposite6777"
         in2="SourceGraphic"
         in="flood"
         operator="in"
         result="composite1" />
      <feMorphology
         id="feMorphology6779"
         operator="dilate"
         radius="0.321"
         result="result3" />
      <feComposite
         id="feComposite6781"
         in2="result3"
         in="SourceGraphic"
         operator="over"
         result="composite2" />
    </filter>
    <filter
       color-interpolation-filters="sRGB"
       id="filter4375-4-1-1-1-1"
       inkscape:label="deevad outline effect">
      <feFlood
         id="feFlood4377-7-9-0-8-5"
         flood-opacity="1"
         flood-color="rgb(0,0,0)"
         result="flood" />
      <feComposite
         id="feComposite4379-3-8-8-2-7"
         in2="SourceGraphic"
         in="flood"
         operator="in"
         result="composite1" />
      <feMorphology
         id="feMorphology4393-1-0-49-8-7"
         operator="dilate"
         radius="4"
         result="result3" />
      <feComposite
         id="feComposite4385-9-5-7-0-3"
         in2="result3"
         in="SourceGraphic"
         operator="over"
         result="composite2" />
    </filter>
    <filter
       color-interpolation-filters="sRGB"
       id="filter4375-4-1-1-1-1-3"
       inkscape:label="deevad outline effect">
      <feFlood
         id="feFlood4377-7-9-0-8-5-5"
         flood-opacity="1"
         flood-color="rgb(0,0,0)"
         result="flood" />
      <feComposite
         id="feComposite4379-3-8-8-2-7-8"
         in2="SourceGraphic"
         in="flood"
         operator="in"
         result="composite1" />
      <feMorphology
         id="feMorphology4393-1-0-49-8-7-1"
         operator="dilate"
         radius="4"
         result="result3" />
      <feComposite
         id="feComposite4385-9-5-7-0-3-6"
         in2="result3"
         in="SourceGraphic"
         operator="over"
         result="composite2" />
    </filter>
    <filter
       color-interpolation-filters="sRGB"
       id="filter4375-4-1-1-15-1-3-3"
       inkscape:label="deevad outline effect">
      <feFlood
         id="feFlood4377-7-9-0-4-4-4-9"
         flood-opacity="1"
         flood-color="rgb(0,0,0)"
         result="flood" />
      <feComposite
         id="feComposite4379-3-8-8-6-0-7-6"
         in2="SourceGraphic"
         in="flood"
         operator="in"
         result="composite1" />
      <feMorphology
         id="feMorphology4393-1-0-49-8-2-7-6"
         operator="dilate"
         radius="0.321"
         result="result3" />
      <feComposite
         id="feComposite4385-9-5-7-2-1-2-4"
         in2="result3"
         in="SourceGraphic"
         operator="over"
         result="composite2" />
    </filter>
    <filter
       color-interpolation-filters="sRGB"
       id="filter6892"
       inkscape:label="deevad outline effect">
      <feFlood
         id="feFlood6894"
         flood-opacity="1"
         flood-color="rgb(0,0,0)"
         result="flood" />
      <feComposite
         id="feComposite6896"
         in2="SourceGraphic"
         in="flood"
         operator="in"
         result="composite1" />
      <feMorphology
         id="feMorphology6898"
         operator="dilate"
         radius="0.321"
         result="result3" />
      <feComposite
         id="feComposite6900"
         in2="result3"
         in="SourceGraphic"
         operator="over"
         result="composite2" />
    </filter>
    <filter
       color-interpolation-filters="sRGB"
       id="filter6902"
       inkscape:label="deevad outline effect">
      <feFlood
         id="feFlood6904"
         flood-opacity="1"
         flood-color="rgb(0,0,0)"
         result="flood" />
      <feComposite
         id="feComposite6906"
         in2="SourceGraphic"
         in="flood"
         operator="in"
         result="composite1" />
      <feMorphology
         id="feMorphology6908"
         operator="dilate"
         radius="0.321"
         result="result3" />
      <feComposite
         id="feComposite6910"
         in2="result3"
         in="SourceGraphic"
         operator="over"
         result="composite2" />
    </filter>
    <filter
       color-interpolation-filters="sRGB"
       id="filter6912"
       inkscape:label="deevad outline effect">
      <feFlood
         id="feFlood6914"
         flood-opacity="1"
         flood-color="rgb(0,0,0)"
         result="flood" />
      <feComposite
         id="feComposite6916"
         in2="SourceGraphic"
         in="flood"
         operator="in"
         result="composite1" />
      <feMorphology
         id="feMorphology6918"
         operator="dilate"
         radius="0.321"
         result="result3" />
      <feComposite
         id="feComposite6920"
         in2="result3"
         in="SourceGraphic"
         operator="over"
         result="composite2" />
    </filter>
    <filter
       color-interpolation-filters="sRGB"
       id="filter6922"
       inkscape:label="deevad outline effect">
      <feFlood
         id="feFlood6924"
         flood-opacity="1"
         flood-color="rgb(0,0,0)"
         result="flood" />
      <feComposite
         id="feComposite6926"
         in2="SourceGraphic"
         in="flood"
         operator="in"
         result="composite1" />
      <feMorphology
         id="feMorphology6928"
         operator="dilate"
         radius="0.321"
         result="result3" />
      <feComposite
         id="feComposite6930"
         in2="result3"
         in="SourceGraphic"
         operator="over"
         result="composite2" />
    </filter>
    <filter
       color-interpolation-filters="sRGB"
       id="filter6932"
       inkscape:label="deevad outline effect">
      <feFlood
         id="feFlood6934"
         flood-opacity="1"
         flood-color="rgb(0,0,0)"
         result="flood" />
      <feComposite
         id="feComposite6936"
         in2="SourceGraphic"
         in="flood"
         operator="in"
         result="composite1" />
      <feMorphology
         id="feMorphology6938"
         operator="dilate"
         radius="0.321"
         result="result3" />
      <feComposite
         id="feComposite6940"
         in2="result3"
         in="SourceGraphic"
         operator="over"
         result="composite2" />
    </filter>
    <filter
       color-interpolation-filters="sRGB"
       id="filter6942"
       inkscape:label="deevad outline effect">
      <feFlood
         id="feFlood6944"
         flood-opacity="1"
         flood-color="rgb(0,0,0)"
         result="flood" />
      <feComposite
         id="feComposite6946"
         in2="SourceGraphic"
         in="flood"
         operator="in"
         result="composite1" />
      <feMorphology
         id="feMorphology6948"
         operator="dilate"
         radius="0.321"
         result="result3" />
      <feComposite
         id="feComposite6950"
         in2="result3"
         in="SourceGraphic"
         operator="over"
         result="composite2" />
    </filter>
    <filter
       color-interpolation-filters="sRGB"
       id="filter6952"
       inkscape:label="deevad outline effect">
      <feFlood
         id="feFlood6954"
         flood-opacity="1"
         flood-color="rgb(0,0,0)"
         result="flood" />
      <feComposite
         id="feComposite6956"
         in2="SourceGraphic"
         in="flood"
         operator="in"
         result="composite1" />
      <feMorphology
         id="feMorphology6958"
         operator="dilate"
         radius="0.321"
         result="result3" />
      <feComposite
         id="feComposite6960"
         in2="result3"
         in="SourceGraphic"
         operator="over"
         result="composite2" />
    </filter>
  </defs>
  <sodipodi:namedview
     pagecolor="#ffffff"
     bordercolor="#666666"
     borderopacity="1"
     objecttolerance="10"
     gridtolerance="10"
     guidetolerance="10"
     inkscape:pageopacity="0"
     inkscape:pageshadow="2"
     inkscape:window-width="1914"
     inkscape:window-height="1018"
     id="namedview4"
     showgrid="false"
     inkscape:zoom="0.92000004"
     inkscape:cx="893.65237"
     inkscape:cy="290.79459"
     inkscape:window-x="0"
     inkscape:window-y="0"
     inkscape:window-maximized="0"
     inkscape:current-layer="layer3" />
  <g
     inkscape:groupmode="layer"
     id="layer2"
     inkscape:label="artwork"
     sodipodi:insensitive="true">
    <image
       sodipodi:absref="/home/peppercarrot/webcomics/"
       xlink:href="../gfx_Pepper-and-Carrot_by-David-Revoy_E06P07.png"
       width="2481"
       height="3503"
       id="image10"
       x="0"
       y="0" />
  </g>
  <g
     inkscape:groupmode="layer"
     id="layer3"
     inkscape:label="speechbubbles">
    <path
       style="fill:#ffffff;fill-opacity:1;stroke:none;stroke-width:1"
       d="m 1991.2418,3270.6971 c 25.6683,29.1531 55.2058,3.3568 11.535,48.7784 68.0195,42.5923 32.0284,49.3003 24.3607,61.3784 -0.6647,1.3602 -5.318,5.4401 -3.3237,6.1199 1.9942,0.6802 13.9594,-1.3598 15.9536,1.3599 1.9943,2.7203 -17.9479,41.4791 -15.2889,42.8392 2.659,1.3598 63.8145,-24.4796 72.4561,-18.3597 8.6416,6.1198 3.9886,21.7592 6.6475,22.4395 2.6586,0.6801 27.254,-3.4 30.5776,-2.72 3.3237,0.68 9.3064,21.0793 12.6299,21.7594 3.3238,0.68 18.6127,-8.8395 21.2715,-8.1598 2.6591,0.6802 1.3294,17.6794 4.6531,18.3595 3.3238,0.6801 17.948,-14.2795 19.9423,-13.5995 1.994,0.6799 9.3061,34.6791 12.6299,36.7188 3.3237,2.0402 24.5951,-37.3988 26.5894,-38.0789 1.9941,-0.6801 14.624,46.2388 17.2831,46.9189 2.6589,0.6798 15.9537,-31.9593 17.948,-31.2792 1.9941,0.6798 14.6238,19.7197 17.2829,21.0792 2.6589,1.36 19.9419,-42.1588 22.6008,-42.1588 2.6592,0 25.2601,18.3594 27.2544,21.7594 1.9941,3.3999 3.9883,-17.6793 6.6471,-17.6793 2.659,0 33.2368,12.2396 33.9017,11.5598 0.6646,-0.6803 -4.6532,-13.5999 -2.6589,-13.5999 1.994,0 33.2366,16.9996 34.566,13.5999 1.3297,-3.4001 67.8031,16.9994 72.4562,14.2796 4.6532,-2.7203 -29.9132,-55.7586 -26.5895,-59.8385 3.3236,-4.08 15.2891,0.6799 15.9537,-1.3601 0.6647,-2.0399 -7.312,-10.8797 -5.3181,-13.5996 1.9944,-2.7201 24.5954,-13.5996 26.5895,-16.9995 1.9942,-3.3997 -9.9711,-12.2399 -7.312,-14.28 2.659,-2.0397 41.8785,-14.9593 42.5432,-18.3591 0.6647,-3.4001 -19.9421,-19.7193 -17.2833,-24.4793 2.6592,-4.7599 9.9711,-6.7998 9.3064,-10.1998 -0.6649,-3.4 -13.2947,-7.4798 -12.63,-10.8798 0.6648,-3.4 7.312,-20.3993 9.3061,-23.1194 1.9944,-2.7198 -13.9591,-1.3599 -13.9591,-4.0799 0,-2.7198 58.4966,-75.478 57.167,-95.8774 -20.6067,12.9197 -91.0687,36.039 -113.0048,30.5993 -21.9364,-5.44 -13.2947,-39.439 -16.6184,-41.4789 -3.3236,-2.0402 -27.9191,11.5597 -31.2426,6.7997 -3.3237,-4.7598 -4.653,-13.5997 -7.312,-13.5997 -2.6588,0 -17.9481,19.0394 -21.2715,18.3597 -3.3237,-0.6801 -34.5662,-30.5991 -39.2195,-31.2792 -4.653,-0.68 -22.6008,11.5598 -26.5892,12.2396 -3.9886,0.6799 -7.3122,-16.3195 -10.6359,-14.9594 -3.3239,1.3598 -23.8565,19.8732 -27.0023,17.8289 -17.6328,-13.7455 -23.26,-18.6447 -36.9851,-32.0753 0.7449,11.0218 2.2233,19.2907 2.9839,29.2466 0,0 -22.1287,-16.7866 -26.1171,-16.7866 -3.9884,0 -7.9364,33.7454 -11.26,35.1053 -3.3238,1.3598 -53.6232,-31.7426 -51.629,-35.8225 1.9944,-4.0797 -8.1972,36.5026 -12.8503,38.5425 -4.6533,2.0397 -32.6229,-15.0447 -33.9523,-13.0049 -1.3294,2.04 8.6924,23.8844 4.7039,24.5644 -3.9884,0.6802 -13.2948,3.4001 -13.2948,3.4001 l -1.5509,-0.7037 c 0,0 -139.2444,-75.682 -142.568,-79.7617 -3.3237,-4.0798 116.2003,87.265 118.1943,92.705 -11.965,-5.44 -47.1963,-16.9995 -49.8549,-20.3996 -2.6592,-3.3998 4.6529,12.2399 8.6415,16.9998 -5.3181,-2.0402 -9.9711,-2.7201 -9.9711,-2.7201 l 15.2889,16.3198 -4.6531,1.36 c 0,0 9.9709,7.4796 9.9709,10.8796 0,3.3997 -25.9245,7.4798 -25.9245,7.4798 0,0 10.6358,6.1198 7.9768,9.5197 -2.659,3.3996 -9.3065,5.4398 -9.3065,5.4398 l -1.3293,8.8399 z"
       id="path5888"
       inkscape:connector-curvature="0"
       sodipodi:nodetypes="ccccccccccccccscccscscscccccccccsccscscssccsccccsccccsccsccccccsccccc" />
    <path
       style="color:#000000;fill:#ffffff;fill-opacity:1;fill-rule:nonzero;stroke:none;stroke-width:1px;marker:none;visibility:visible;display:inline;overflow:visible;enable-background:accumulate"
       d="m 1919.6524,2968.2728 c 69.2955,-35.792 124.535,-70.0795 118.1025,-29.6168 70.2621,-46.6885 119.2724,-22.6403 169.4905,-2.6128 17.4036,-14.4624 24.268,-38.6134 68.4129,-28.4923 -3.0081,-16.3098 14.5754,-25.6028 50.533,-28.6354 -43.9384,-13.9586 -50.284,-24.5566 37.3077,-26.7571 -64.7244,-7.3487 -124.878,-15.3466 -41.0215,-43.7971 -23.7178,-3.1985 -86.8251,21.2121 -41.6642,-63.8234 -47.0955,24.0411 -94.2402,35.2451 -136.6828,-28.8699 -21.8592,21.5509 -50.4694,34.7522 -92.3283,-1.6402 -15.3187,22.0128 -74.3964,18.1986 -94.988,11.4131 38.0199,30.0025 33.1061,45.8575 -26.5178,42.5818 89.1808,56.0862 9.6929,41.1921 -8.7956,51.407 74.3932,23.5848 35.3298,40.0747 17.2416,58.5455 89.2913,9.3999 31.8608,41.6119 -19.09,90.2976 z"
       id="path3549-3"
       inkscape:connector-curvature="0"
       sodipodi:nodetypes="ccccccccccccccc" />
    <path
       style="color:#000000;font-style:normal;font-variant:normal;font-weight:normal;font-stretch:normal;font-size:medium;line-height:normal;font-family:Sans;-inkscape-font-specification:Sans;text-indent:0;text-align:start;text-decoration:none;text-decoration-line:none;letter-spacing:normal;word-spacing:normal;text-transform:none;writing-mode:lr-tb;direction:ltr;baseline-shift:baseline;text-anchor:start;display:inline;overflow:visible;visibility:visible;fill:#ffffff;fill-opacity:1;fill-rule:nonzero;stroke:none;stroke-width:31.89999962;marker:none;enable-background:accumulate"
       d="m 416.56478,3340.5902 24.83976,-5.1644 c -7.52154,-36.3794 -13.68595,-61.4776 -23.72462,-81.0826 -10.03874,-19.6049 -24.78048,-32.9577 -45.01348,-42.6286 -36.41666,-17.4064 -81.45734,-43.8096 -98.20961,-81.2528 -9.61408,-21.4887 -22.76449,-50.8123 -27.78998,-78.1209 -5.02531,-27.3087 -2.60105,-50.1072 16.31939,-65.7124 21.65864,-17.864 37.8212,-21.9983 54.99629,-30.0165 17.17499,-8.0183 34.11021,-21.3877 47.0396,-51.6191 l -23.31225,-9.9869 c -11.16692,26.1102 -20.11927,31.9206 -34.46319,38.6172 -14.34395,6.6965 -35.34811,12.7782 -60.39708,33.4383 -27.78728,22.9188 -30.96496,58.119 -25.12384,89.8598 5.84096,31.7408 20.02505,62.525 29.58101,83.8835 21.58785,48.2512 72.67834,75.742 110.42217,93.7827 16.84727,8.0525 25.51902,15.9996 33.37048,31.333 7.8515,15.3334 14.04893,38.7986 21.46535,74.6697 z"
       id="path3381"
       inkscape:connector-curvature="0" />
    <path
       style="color:#000000;display:inline;overflow:visible;visibility:visible;fill:#ffffff;fill-opacity:1;fill-rule:nonzero;stroke:none;stroke-width:1px;marker:none;enable-background:accumulate"
       d="m 539.13639,3240.9368 c 11.70681,-36.8395 55.22994,-77.9099 160.82801,-79.3573 -95.48815,-20.1658 -159.84937,20.1725 -177.80344,33.4868 -17.95407,13.3144 16.97543,45.8705 16.97543,45.8705 z"
       id="path4008"
       inkscape:connector-curvature="0" />
    <path
       style="color:#000000;display:inline;overflow:visible;visibility:visible;fill:#ffffff;fill-opacity:1;fill-rule:nonzero;stroke:none;stroke-width:0.99999994px;marker:none;enable-background:accumulate"
       d="m 149.04882,2947.3885 c 8.46238,-38.0987 79.44098,-64.666 258.10344,-53.8635 95.70125,5.7863 204.50805,10.5099 193.22491,66.3441 -11.28326,55.8341 -167.83764,51.2361 -200.27691,51.8929 -32.43928,0.6571 -200.44685,-8.6099 -228.48494,-28.2455 -17.5512,-12.2914 -23.97689,-24.3043 -22.5665,-36.128 z"
       id="path4546"
       inkscape:connector-curvature="0"
       sodipodi:nodetypes="cssssc" />
    <flowRoot
       xml:space="preserve"
       id="flowRoot4133-6-9-4-8-5"
       style="color:#000000;font-style:normal;font-variant:normal;font-weight:normal;font-stretch:normal;line-height:0.01%;font-family:Arial;-inkscape-font-specification:Arial;letter-spacing:0.00204969px;word-spacing:0px;display:inline;overflow:visible;visibility:visible;fill:#ffffff;fill-opacity:1;fill-rule:nonzero;stroke:#ffffff;stroke-width:0.0836072;stroke-linecap:butt;stroke-linejoin:miter;stroke-miterlimit:4;stroke-dasharray:none;stroke-dashoffset:0;stroke-opacity:1;marker:none;filter:url(#filter4375-4-1-1-15-1-3);enable-background:accumulate"
       transform="matrix(8.3099216,-5.4900388,-0.26452567,16.18078,-8894.6563,-10450.938)"><flowRegion
         id="flowRegion4135-2-9-3-5-2"
         style="stroke-width:0.86646658"><rect
           id="rect4137-1-7-1-2-1"
           width="200.00224"
           height="39.051064"
           x="1125.3193"
           y="1078.5308"
           style="color:#000000;letter-spacing:0.00204969px;display:inline;overflow:visible;visibility:visible;fill:#ffffff;fill-opacity:1;fill-rule:nonzero;stroke:#ffffff;stroke-width:0.0836072;stroke-linecap:butt;stroke-linejoin:miter;stroke-miterlimit:4;stroke-dasharray:none;stroke-dashoffset:0;stroke-opacity:1;marker:none;filter:url(#filter4375-4-1-1-15-1-3);enable-background:accumulate" /></flowRegion><flowPara
         id="flowPara4139-2-8-6-8-6"
         style="color:#000000;font-style:normal;font-variant:normal;font-weight:normal;font-stretch:normal;font-size:17.85409164px;line-height:125%;font-family:Lavi;-inkscape-font-specification:Lavi;letter-spacing:0.00204969px;word-spacing:0.00204969px;display:inline;overflow:visible;visibility:visible;fill:#ffffff;fill-opacity:1;fill-rule:nonzero;stroke:#ffffff;stroke-width:0.0836072;stroke-linecap:butt;stroke-linejoin:miter;stroke-miterlimit:4;stroke-dasharray:none;stroke-dashoffset:0;stroke-opacity:1;marker:none;enable-background:accumulate">CAW-CAW-<flowSpan
   style="font-size:15.71809769px"
   id="flowSpan3145">C</flowSpan><flowSpan
   style="font-size:15.0060997px"
   id="flowSpan3141">aa</flowSpan><flowSpan
   style="font-size:13.58210468px"
   id="flowSpan3139">aa</flowSpan><flowSpan
   style="font-size:10.73411274px"
   id="flowSpan3137">aa</flowSpan><flowSpan
   style="font-size:9.31011772px"
   id="flowSpan3135">aa</flowSpan><flowSpan
   style="font-size:7.88612223px"
   id="flowSpan3133">w</flowSpan><flowSpan
   style="font-size:6.46212626px"
   id="flowSpan3127">w</flowSpan><flowSpan
   style="font-size:5.03813076px"
   id="flowSpan3125">ww</flowSpan></flowPara></flowRoot>    <flowRoot
       xml:space="preserve"
       id="flowRoot4133-6-9-4-8-5-3"
       style="color:#000000;font-style:normal;font-variant:normal;font-weight:normal;font-stretch:normal;line-height:0.01%;font-family:Arial;-inkscape-font-specification:Arial;letter-spacing:0.00204969px;word-spacing:0px;display:inline;overflow:visible;visibility:visible;fill:#ffffff;fill-opacity:1;fill-rule:nonzero;stroke:#ffffff;stroke-width:0.0836072;stroke-linecap:butt;stroke-linejoin:miter;stroke-miterlimit:4;stroke-dasharray:none;stroke-dashoffset:0;stroke-opacity:1;marker:none;filter:url(#filter4375-4-1-1-15-1-3-3);enable-background:accumulate"
       transform="matrix(9.5870221,-1.5691407,-6.0483171,15.572657,-2606.9138,-12927.809)"><flowRegion
         id="flowRegion4135-2-9-3-5-2-5"
         style="stroke-width:0.86646658"><rect
           id="rect4137-1-7-1-2-1-3"
           width="99.622368"
           height="30.005394"
           x="1125.3193"
           y="1078.5308"
           style="color:#000000;letter-spacing:0.00204969px;display:inline;overflow:visible;visibility:visible;fill:#ffffff;fill-opacity:1;fill-rule:nonzero;stroke:#ffffff;stroke-width:0.0836072;stroke-linecap:butt;stroke-linejoin:miter;stroke-miterlimit:4;stroke-dasharray:none;stroke-dashoffset:0;stroke-opacity:1;marker:none;filter:url(#filter4375-4-1-1-15-1-3-3);enable-background:accumulate" /></flowRegion><flowPara
         id="flowPara4139-2-8-6-8-6-3"
         style="color:#000000;font-style:normal;font-variant:normal;font-weight:normal;font-stretch:normal;font-size:12px;line-height:125%;font-family:Lavi;-inkscape-font-specification:Lavi;letter-spacing:0.00204969px;word-spacing:0.00204969px;display:inline;overflow:visible;visibility:visible;fill:#ffffff;fill-opacity:1;fill-rule:nonzero;stroke:#ffffff;stroke-width:0.0836072;stroke-linecap:butt;stroke-linejoin:miter;stroke-miterlimit:4;stroke-dasharray:none;stroke-dashoffset:0;stroke-opacity:1;marker:none;filter:url(#filter4375-4-1-1-15-1-3-3);enable-background:accumulate"><flowSpan
           id="flowSpan4277-2"
           style="color:#000000;font-size:17.85409164px;display:inline;overflow:visible;visibility:visible;fill:#ffffff;fill-opacity:1;fill-rule:nonzero;stroke:#ffffff;stroke-width:0.0836072;stroke-linecap:butt;stroke-linejoin:miter;stroke-miterlimit:4;stroke-dasharray:none;stroke-dashoffset:0;stroke-opacity:1;marker:none;filter:url(#filter4375-4-1-1-15-1-3-3);enable-background:accumulate">BAM!</flowSpan></flowPara></flowRoot>    <path
       style="color:#000000;fill:#ffffff;fill-opacity:1;fill-rule:nonzero;stroke:none;stroke-width:1px;marker:none;visibility:visible;display:inline;overflow:visible;enable-background:accumulate"
       d="m 69.497434,2869.3681 c -6.82553,-70.4477 53.019506,-92.8941 178.782896,-92.3501 169.34697,0.7326 165.84117,43.7737 167.11329,85.2452 2.14923,70.0656 -86.80268,83.7178 -173.6869,80.7916 -103.60538,-3.4893 -163.207706,2.0204 -172.209286,-73.6867 z"
       id="path5026"
       inkscape:connector-curvature="0"
       sodipodi:nodetypes="csssc" />
    <flowRoot
       xml:space="preserve"
       id="flowRoot2987-4-9-3"
       style="font-style:normal;font-variant:normal;font-weight:normal;font-stretch:normal;line-height:0.01%;font-family:Lavi;-inkscape-font-specification:Lavi;text-align:center;letter-spacing:0px;word-spacing:0px;text-anchor:middle;fill:#000000;fill-opacity:1;stroke:none"
       transform="translate(-174.19924,2571.3262)"><flowRegion
         id="flowRegion2989-5-4-5"><rect
           id="rect2991-7-9-6"
           width="602.40173"
           height="310.73996"
           x="120.55251"
           y="265.53046"
           style="font-style:normal;font-variant:normal;font-weight:normal;font-stretch:normal;font-family:Lavi;-inkscape-font-specification:Lavi;text-align:center;text-anchor:middle" /></flowRegion><flowPara
         style="font-size:48px;line-height:1.25;text-align:center;text-anchor:middle"
         id="flowPara3443">Quina canya! </flowPara></flowRoot>    <path
       style="color:#000000;display:inline;overflow:visible;visibility:visible;fill:#ffffff;fill-opacity:1;fill-rule:nonzero;stroke:none;stroke-width:1.04320168px;marker:none;enable-background:accumulate"
       d="M 51.856917,3262.9991 C 61.954644,3145.9697 167.01661,3089.6529 380.4443,3120.964 c 117.30772,17.2098 251.32326,3.8033 209.95988,180.3724 -39.07435,166.7978 -200.27217,157.384 -238.98028,159.4017 -38.70816,2.0183 -239.18307,-26.4475 -272.639523,-86.7632 -20.942962,-37.7558 -28.610404,-74.6564 -26.92746,-110.9758 z"
       id="path4546-6"
       inkscape:connector-curvature="0"
       sodipodi:nodetypes="cssssc" />
    <flowRoot
       xml:space="preserve"
       id="flowRoot3482"
       style="font-style:normal;font-variant:normal;font-weight:normal;font-stretch:normal;line-height:0.01%;font-family:Lavi;-inkscape-font-specification:Lavi;text-align:center;letter-spacing:0px;word-spacing:0px;text-anchor:middle;fill:#000000;fill-opacity:1;stroke:none"
       transform="translate(-39.166148,2833.6981)"><flowRegion
         id="flowRegion3484"><rect
           id="rect3486"
           width="514.90173"
           height="299.1095"
           x="120.55251"
           y="265.53046"
           style="font-style:normal;font-variant:normal;font-weight:normal;font-stretch:normal;font-family:Lavi;-inkscape-font-specification:Lavi;text-align:center;text-anchor:middle" /></flowRegion><flowPara
         id="flowPara3490"
         style="font-size:48px;line-height:1.25;text-align:center;text-anchor:middle"> </flowPara><flowPara
         style="font-size:48px;line-height:1.25;text-align:center;text-anchor:middle"
         id="flowPara3494">...la meva poció com </flowPara><flowPara
         style="font-size:48px;line-height:1.25;text-align:center;text-anchor:middle"
         id="flowPara3122">a mínim servirà per</flowPara><flowPara
         style="font-size:48px;line-height:1.25;text-align:center;text-anchor:middle"
         id="flowPara3124">arrencar-vos unes rialles perque... </flowPara></flowRoot>    <flowRoot
       transform="matrix(0.85222813,0,0,0.85222813,21.079885,2701.879)"
       style="font-style:normal;font-variant:normal;font-weight:normal;font-stretch:normal;line-height:0.01%;font-family:Lavi;-inkscape-font-specification:Lavi;text-align:center;letter-spacing:0px;word-spacing:0px;text-anchor:middle;fill:#000000;fill-opacity:1;stroke:none"
       id="flowRoot3447"
       xml:space="preserve"><flowRegion
         id="flowRegion3449"><rect
           style="font-style:normal;font-variant:normal;font-weight:normal;font-stretch:normal;font-family:Lavi;-inkscape-font-specification:Lavi;text-align:center;text-anchor:middle"
           y="265.53046"
           x="120.55251"
           height="310.73996"
           width="602.40173"
           id="rect3451" /></flowRegion><flowPara
         style="font-size:48px;line-height:1.25;text-align:center;text-anchor:middle"
         id="flowPara3455">què em toca ja? </flowPara></flowRoot>    <flowRoot
       transform="translate(1863.4101,2563.4669)"
       style="font-style:normal;font-variant:normal;font-weight:normal;font-stretch:normal;line-height:0.01%;font-family:Lavi;-inkscape-font-specification:Lavi;text-align:center;letter-spacing:0px;word-spacing:0px;text-anchor:middle;fill:#000000;fill-opacity:1;stroke:none"
       id="flowRoot3447-0"
       xml:space="preserve"><flowRegion
         id="flowRegion3449-7"><rect
           style="font-style:normal;font-variant:normal;font-weight:normal;font-stretch:normal;font-family:Lavi;-inkscape-font-specification:Lavi;text-align:center;text-anchor:middle"
           y="265.53046"
           x="120.55251"
           height="65.739944"
           width="279.90173"
           id="rect3451-7" /></flowRegion><flowPara
         style="font-size:48px;line-height:1.25;text-align:center;text-anchor:middle"
         id="flowPara3455-8">Fuig, idiota!</flowPara></flowRoot>    <flowRoot
       transform="translate(1862.6658,2939.9709)"
       style="font-style:normal;font-variant:normal;font-weight:normal;font-stretch:normal;line-height:0.01%;font-family:Lavi;-inkscape-font-specification:Lavi;text-align:center;letter-spacing:0px;word-spacing:0px;text-anchor:middle;fill:#000000;fill-opacity:1;stroke:none"
       id="flowRoot3447-0-3"
       xml:space="preserve"><flowRegion
         id="flowRegion3449-7-4"><rect
           style="font-style:normal;font-variant:normal;font-weight:normal;font-stretch:normal;font-family:Lavi;-inkscape-font-specification:Lavi;text-align:center;text-anchor:middle"
           y="265.53046"
           x="120.55251"
           height="178.23993"
           width="472.40173"
           id="rect3451-7-5" /></flowRegion><flowPara
         style="font-size:48px;line-height:1.25;text-align:center;text-anchor:middle"
         id="flowPara3597">El torneig</flowPara><flowPara
         style="font-size:48px;line-height:1.25;text-align:center;text-anchor:middle"
         id="flowPara3133">s'ha acabat!</flowPara><flowPara
         style="font-size:48px;line-height:1.25;text-align:center;text-anchor:middle"
         id="flowPara3138">Salva la pell!</flowPara></flowRoot>  </g>
  <g
     inkscape:groupmode="layer"
     id="layer1"
     inkscape:label="txt" />
</svg>
