<?xml version="1.0" encoding="UTF-8" standalone="no"?>
<!-- Created with Inkscape (http://www.inkscape.org/) -->

<svg
   xmlns:dc="http://purl.org/dc/elements/1.1/"
   xmlns:cc="http://creativecommons.org/ns#"
   xmlns:rdf="http://www.w3.org/1999/02/22-rdf-syntax-ns#"
   xmlns:svg="http://www.w3.org/2000/svg"
   xmlns="http://www.w3.org/2000/svg"
   xmlns:xlink="http://www.w3.org/1999/xlink"
   xmlns:sodipodi="http://sodipodi.sourceforge.net/DTD/sodipodi-0.dtd"
   xmlns:inkscape="http://www.inkscape.org/namespaces/inkscape"
   id="svg2"
   version="1.1"
   inkscape:version="0.92.2 (5c3e80d, 2017-08-06)"
   width="2481"
   height="3503"
   sodipodi:docname="E36P11.svg">
  <metadata
     id="metadata8">
    <rdf:RDF>
      <cc:Work
         rdf:about="">
        <dc:format>image/svg+xml</dc:format>
        <dc:type
           rdf:resource="http://purl.org/dc/dcmitype/StillImage" />
        <dc:title />
      </cc:Work>
    </rdf:RDF>
  </metadata>
  <defs
     id="defs6" />
  <sodipodi:namedview
     pagecolor="#1e1e1e"
     bordercolor="#111111"
     borderopacity="1"
     objecttolerance="10"
     gridtolerance="10"
     guidetolerance="10"
     inkscape:pageopacity="0"
     inkscape:pageshadow="2"
     inkscape:window-width="1297"
     inkscape:window-height="1038"
     id="namedview4"
     showgrid="false"
     inkscape:zoom="0.46000002"
     inkscape:cx="1156.0877"
     inkscape:cy="1639.5478"
     inkscape:window-x="617"
     inkscape:window-y="-3"
     inkscape:window-maximized="0"
     inkscape:current-layer="layer1"
     inkscape:pagecheckerboard="0"
     inkscape:snap-global="false" />
  <g
     inkscape:groupmode="layer"
     id="layer2"
     inkscape:label="artwork"
     sodipodi:insensitive="true">
    <image
       sodipodi:absref="C:\Users\Kari\Documents\Pepper and Carrot\Episode 36\fi\../gfx_Pepper-and-Carrot_by-David-Revoy_E36P11.png"
       xlink:href="../gfx_Pepper-and-Carrot_by-David-Revoy_E36P11.png"
       y="0"
       x="0"
       id="image10"
       height="3503"
       width="2481" />
  </g>
  <g
     inkscape:groupmode="layer"
     id="layer3"
     inkscape:label="speechbubbles"
     style="display:inline">
    <path
       style="color:#000000;display:inline;overflow:visible;visibility:visible;fill:#ffffff;fill-opacity:1;fill-rule:nonzero;stroke:none;stroke-width:0.649444px;marker:none;enable-background:accumulate"
       d="m 384.22008,282.95177 c -36.52082,21.41551 -81.08506,17.53589 -121.80587,16.52247 -42.52036,-3.44423 -93.06761,-16.67254 -112.2994,-58.54734 -17.96129,-38.78476 2.10016,-87.11707 40.45297,-105.22628 35.18838,-16.98124 75.64954,-18.66814 114.10065,-19.46171 49.92399,1.16875 104.76155,32.33519 112.49934,84.58625 4.21244,30.58574 -9.514,62.20135 -32.94769,82.12661 z"
       id="path4040-40"
       inkscape:connector-curvature="0"
       sodipodi:nodetypes="zssssz" />
    <path
       style="color:#000000;display:inline;overflow:visible;visibility:visible;fill:#ffffff;fill-opacity:1;fill-rule:nonzero;stroke:none;stroke-width:0.895703px;marker:none;enable-background:accumulate"
       d="m 617.61025,105.88672 c -27.34146,0.48289 -55.30789,1.99485 -81.01026,10.55273 -19.27663,6.28483 -36.60817,17.59434 -46.89078,32.88401 -10.78797,15.11503 -15.24648,32.66921 -17.99958,49.9598 -3.75274,20.5909 -5.45897,42.02901 1.14989,62.34728 10.14236,29.028 40.31222,51.93542 75.16053,58.49046 45.59561,10.88095 94.50308,13.37614 140.83587,4.25676 26.56867,-5.64189 52.37207,-15.47968 72.95579,-30.96068 13.87857,-11.91714 20.4242,-28.63021 21.90443,-45.0154 2.97723,-25.0214 3.57178,-50.80265 -4.83215,-75.17205 -8.00131,-22.85714 -29.42504,-41.60583 -55.43746,-50.51416 -20.18886,-7.20666 -41.79469,-10.9992 -63.31684,-14.11157 -14.05315,-1.87992 -28.28771,-2.85024 -42.51944,-2.71718 z"
       id="path3365-90"
       inkscape:connector-curvature="0"
       sodipodi:nodetypes="csssssc" />
    <path
       style="color:#000000;display:inline;overflow:visible;visibility:visible;fill:#ffffff;fill-opacity:1;fill-rule:nonzero;stroke:none;stroke-width:0.92011541px;marker:none;enable-background:accumulate"
       d="m 852.63426,232.06662 c 0.67911,-42.31251 13.90778,-82.32663 131.17711,-80.94184 87.92923,1.03769 111.34513,33.63869 113.29333,76.40801 1.3728,30.14075 -46.1974,58.03976 -121.74358,56.56145 -72.2077,-1.41266 -117.44616,-19.75933 -122.72686,-52.02762 z"
       id="path5026-3"
       inkscape:connector-curvature="0"
       sodipodi:nodetypes="csssc" />
    <path
       style="color:#000000;display:inline;overflow:visible;visibility:visible;fill:#ffffff;fill-opacity:1;fill-rule:nonzero;stroke:none;stroke-width:1.06702995px;marker:none;enable-background:accumulate"
       d="m 947.32484,275.05062 c -43.34053,0.0194 -52.18434,75.22752 -14.63328,128.2568 -16.5114,-21.59304 -72.61174,-61.13455 -7.77479,-172.66812 29.32893,-50.45175 14.74185,29.39163 14.74185,29.39163 z"
       id="path4035-4"
       inkscape:connector-curvature="0"
       sodipodi:nodetypes="ccscc" />
    <path
       style="color:#000000;display:inline;overflow:visible;visibility:visible;fill:#ffffff;fill-opacity:1;fill-rule:nonzero;stroke:none;stroke-width:0.9173px;marker:none;enable-background:accumulate"
       d="m 1009.012,1094.6247 c -26.43581,1.0029 -53.24587,6.7706 -76.27963,20.5504 -16.40054,10.8103 -26.93722,29.2081 -31.19305,48.4378 -7.94354,33.722 -10.6984,69.09 -5.14873,103.443 2.35716,14.018 5.9219,27.9883 12.17216,40.7455 4.1586,8.0641 10.51963,14.9526 18.3892,19.2706 10.67207,6.4988 22.22492,11.293 33.76261,15.8995 22.82406,8.3361 47.08524,11.3559 71.13634,13.0514 11.3654,0.7232 22.7583,-0.6605 33.8165,-3.3399 14.447,-3.4583 28.4874,-8.5983 42.046,-14.738 17.888,-8.6759 34.6397,-21.4297 44.7245,-39.2156 9.8558,-17.3125 13.0333,-37.54 14.4971,-57.2503 2.0786,-25.6082 1.301,-52.0446 -7.1468,-76.484 -7.7166,-21.5968 -23.8246,-39.9866 -44.2321,-49.6577 -23.7669,-11.8236 -50.1839,-16.1409 -76.1744,-19.3281 -10.0801,-1.0909 -20.2336,-1.6584 -30.3697,-1.3846 z"
       id="path3365-90-4"
       inkscape:connector-curvature="0"
       sodipodi:nodetypes="csssssc" />
    <path
       style="fill:#ffffff;fill-rule:evenodd;stroke:none;stroke-width:1.18884px;stroke-linecap:butt;stroke-linejoin:miter;stroke-opacity:1"
       d="m 1051.5368,1104.645 c -7.0579,-18.4075 1.4646,-58.4739 28.7582,-72.4342 -20.0938,4.5574 -50.5407,19.6541 -55.3048,46.5586 -7.4355,41.9896 24.8168,27.8537 24.8168,27.8537 z"
       id="path4248"
       inkscape:connector-curvature="0"
       sodipodi:nodetypes="ccscc" />
    <path
       style="color:#000000;display:inline;overflow:visible;visibility:visible;fill:#ffffff;fill-opacity:1;fill-rule:nonzero;stroke:none;stroke-width:1.57962167px;marker:none;enable-background:accumulate"
       d="m 1756.2087,1162.7593 c -59.0513,1.2504 -117.9017,5.9054 -176.5789,11.2584 -25.6937,2.707 -52.385,6.0999 -74.6155,17.743 -33.9173,17.7334 -56.2853,49.96 -55.7143,83.0804 -1.2422,24.6175 3.5855,50.5164 20.8388,71.2422 18.6676,22.045 49.4273,35.77 81.2718,40.4528 44.0071,7.5176 89.0132,9.6759 133.3283,15.6091 70.2664,7.7288 140.3686,17.021 211.1391,21.1463 68.797,2.339 137.4657,-8.3822 202.4465,-26.3977 27.7106,-6.9604 56.1667,-14.8978 78.3362,-30.7916 21.31,-15.0794 33.551,-37.7544 34.8195,-60.6448 2.7788,-22.744 0.7396,-46.4268 -10.2932,-67.638 -10.0662,-17.5971 -28.6899,-31.4705 -50.4593,-38.992 -30.7765,-11.8597 -64.485,-16.9804 -97.598,-22.4383 -58.6386,-8.7229 -118.3481,-10.846 -177.8229,-11.6758 -39.6932,-0.8502 -79.385,-2.036 -119.0981,-1.954 z"
       id="path4546-6-5"
       inkscape:connector-curvature="0"
       sodipodi:nodetypes="cssssc" />
    <path
       style="color:#000000;display:inline;overflow:visible;visibility:visible;fill:#ffffff;fill-opacity:1;fill-rule:nonzero;stroke:none;stroke-width:1.04770029px;marker:none;enable-background:accumulate"
       d="m 1697.8821,1378.7198 c -16.3752,0.7686 -32.9553,1.5531 -48.9314,6.4878 -20.1598,6.7228 -39.1081,21.5376 -49.5254,43.0811 -7.2013,15.3973 -7.5934,34.7592 -0.4938,49.9925 7.7296,17.3844 22.0769,29.2546 37.0131,37.5218 24.3512,13.303 51.6457,17.0248 78.3768,19.2006 32.3866,2.4153 64.9102,1.7256 97.3707,2.3266 61.3883,0.3822 122.8261,1.051 184.2215,-2.7314 23.555,-1.8246 47.2515,-4.3611 70.2295,-11.3215 17.017,-5.5469 34.0146,-14.8541 45.5421,-30.9849 12.6517,-18.2228 15.2605,-44.8387 6.1683,-65.318 -7.6437,-18.297 -22.5706,-31.6625 -39.3532,-37.2899 -35.7895,-14.7003 -74.6262,-19.0046 -112.6184,-14.3817 -23.371,2.5405 -46.8207,6.3149 -70.2778,4.5964 -26.3986,-1.2172 -52.7623,-3.4825 -79.2241,-3.1143 -38.1402,-0.3109 -76.2976,0.9637 -114.4457,1.7698 -1.3507,0.055 -2.7015,0.1102 -4.0522,0.1654 z"
       id="path4546-6-5-7-9"
       inkscape:connector-curvature="0"
       sodipodi:nodetypes="cssssc" />
    <path
       style="color:#000000;display:inline;overflow:visible;visibility:visible;fill:#ffffff;fill-opacity:1;fill-rule:nonzero;stroke:none;stroke-width:1.16782px;marker:none;enable-background:accumulate"
       d="m 1834.6759,1063.9074 c -58.4661,16.7056 -74.2086,55.188 -42.9987,96.676 31.21,41.487 10.2962,43.1429 10.2962,43.1429 l -38.5277,-15.376 c 0,0 -61.7873,-122.5503 71.2302,-124.4429 z"
       id="path3072-56"
       inkscape:connector-curvature="0"
       sodipodi:nodetypes="ccccc" />
    <path
       style="color:#000000;display:inline;overflow:visible;visibility:visible;fill:#ffffff;fill-opacity:1;fill-rule:nonzero;stroke:none;stroke-width:0.54077709px;marker:none;enable-background:accumulate"
       d="m 150.26108,1627.5134 c 13.51344,-13.7787 180.21346,-23.5914 218.72297,7.571 26.83734,21.7169 16.4843,63.3637 -6.51872,74.2047 -23.00303,10.8417 -134.06004,13.8952 -165.62436,8.3737 -28.3843,-4.9645 -58.17785,-15.6511 -59.7486,-44.0939 -0.64108,-11.6083 -0.34474,-32.2773 13.16871,-46.0555 z"
       id="path4040-5"
       inkscape:connector-curvature="0"
       sodipodi:nodetypes="zssssz" />
    <path
       style="color:#000000;display:inline;overflow:visible;visibility:visible;fill:#ffffff;fill-opacity:1;fill-rule:nonzero;stroke:none;stroke-width:0.791779px;marker:none;enable-background:accumulate"
       d="m 233.22496,1712.5896 c 17.72695,-22.517 236.40418,-38.5528 286.921,12.3724 35.20525,35.4896 21.62412,103.5483 -8.55126,121.2646 -30.1754,17.7174 -175.86009,22.7074 -217.26619,13.6842 -37.23455,-8.1128 -76.31776,-25.5768 -78.37828,-72.0577 -0.84094,-18.9703 -0.45222,-52.7473 17.27473,-75.2635 z"
       id="path4040-5-3"
       inkscape:connector-curvature="0"
       sodipodi:nodetypes="zssssz" />
    <path
       style="color:#000000;display:inline;overflow:visible;visibility:visible;fill:#ffffff;fill-opacity:1;fill-rule:nonzero;stroke:none;stroke-width:0.855677px;marker:none;enable-background:accumulate"
       d="m 467.32955,1948.136 c 13.3495,-41.5666 52.33232,-60.4288 7.51958,-104.8642 -33.47159,-33.1897 12.91326,-29.7973 12.91326,-29.7973 0,0 5.02259,-41.3782 24.01835,27.0751 18.99576,68.4534 -9.8869,64.3755 -44.45119,107.5864 z"
       id="path3072-6"
       inkscape:connector-curvature="0"
       sodipodi:nodetypes="csczc" />
    <path
       style="fill:#ffffff;stroke:none;stroke-width:1.08433795"
       d="m 648.88993,1729.0627 c -11.57384,-77.2262 73.03575,-116.2848 135.26812,-113.792 91.57089,-8.7833 184.2084,-5.3924 275.47805,4.5119 68.5875,10.8803 112.5259,95.1354 74.1403,157.8025 -43.5113,64.9464 -128.8872,57.1589 -196.13729,63.5693 -78.2504,1.7648 -160.03887,-0.035 -233.43607,-30.7339 -28.99136,-16.8426 -48.00511,-48.2285 -55.31311,-81.3578 z"
       id="path3286-6"
       inkscape:connector-curvature="0"
       sodipodi:nodetypes="csssssssc" />
    <path
       style="fill:#ffffff;stroke:none;stroke-width:0.983781"
       d="m 660.3512,1881.1107 c -11.4945,-64.0059 72.53508,-96.378 134.34083,-94.312 90.94317,-7.2797 182.94566,-4.4694 273.58947,3.7395 68.1174,9.0177 111.7546,78.8493 73.6322,130.7884 -43.213,53.8283 -128.0036,47.3739 -194.79272,52.6869 -77.71396,1.4627 -158.94183,-0.029 -231.83584,-25.4726 -28.79262,-13.9592 -47.67604,-39.9722 -54.93394,-67.4302 z"
       id="path3286-6-7"
       inkscape:connector-curvature="0"
       sodipodi:nodetypes="csssssssc" />
    <path
       style="fill:#ffffff;stroke:none;stroke-width:0.93792135"
       d="m 680.72177,1988.2364 c -4.43339,-53.9327 90.23875,-81.2101 156.6519,-79.4692 99.00703,-6.134 197.90093,-3.7659 294.65743,3.151 72.3563,7.5985 110.7373,66.44 63.1504,110.205 -53.3133,45.3569 -143.9743,39.9181 -216.68129,44.3951 -84.01267,1.2324 -171.44802,-0.025 -246.9128,-21.4638 -29.32151,-11.7623 -46.45376,-33.6814 -50.86564,-56.8181 z"
       id="path3286-6-7-4"
       inkscape:connector-curvature="0"
       sodipodi:nodetypes="csssssssc" />
    <path
       style="fill:#ffffff;stroke:none;stroke-width:0.79506904"
       d="m 1548.2857,2263.7186 c -44.9401,0.9856 -90.3406,1.4285 -134.4009,8.2171 -26.0083,5.0646 -51.5169,14.6572 -66.8074,30.3859 -13.332,15.0743 -11.5564,34.6485 0.035,49.9505 9.5667,14.5227 29.5777,25.5007 52.3317,28.7663 51.3192,10.8118 105.5373,11.8471 158.8103,11.8441 48.8056,-0.2085 97.6151,-2.118 146.0997,-5.9578 26.9076,-2.6624 54.6437,-8.0568 75.1903,-20.8645 24.8657,-15.4056 35.7053,-41.4194 23.3534,-63.0951 -8.5365,-14.8343 -28.0393,-25.8059 -49.925,-30.5955 -23.0944,-5.1627 -47.6793,-4.7949 -71.6341,-6.0981 -43.9131,-1.8463 -87.9233,-3.227 -131.9255,-2.5776 -0.3759,0.011 -0.7518,0.016 -1.1277,0.025 z"
       id="path3286-6-7-4-2-5"
       inkscape:connector-curvature="0"
       sodipodi:nodetypes="csssssssc" />
    <path
       style="display:inline;fill:#ffffff;stroke:none;stroke-width:1.08587015"
       d="m 1577.8041,2336.9936 c -46.7857,1.7659 -94.051,2.5593 -139.9206,14.7227 -27.0766,9.0742 -53.6328,26.2616 -69.5513,54.4429 -13.8796,27.0089 -12.031,62.0803 0.037,89.4972 9.9595,26.0206 30.7925,45.69 54.4809,51.541 53.4269,19.3717 109.8718,21.2267 165.3325,21.2214 50.8102,-0.3736 101.6243,-3.795 152.1002,-10.6747 28.0128,-4.7703 56.8879,-14.4355 78.2783,-37.3833 25.8869,-27.6025 37.1717,-74.2119 24.3127,-113.0486 -8.8873,-26.5789 -29.191,-46.2369 -51.9755,-54.8185 -24.0429,-9.2502 -49.6374,-8.5912 -74.5762,-10.926 -45.7165,-3.3081 -91.5344,-5.782 -137.3437,-4.6184 -0.3912,0.02 -0.7826,0.029 -1.1738,0.045 z"
       id="path3286-6-7-4-2-5-3"
       inkscape:connector-curvature="0"
       sodipodi:nodetypes="csssssssc" />
    <path
       style="color:#000000;display:inline;overflow:visible;visibility:visible;fill:#ffffff;fill-opacity:1;fill-rule:nonzero;stroke:none;stroke-width:1.03365px;marker:none;enable-background:accumulate"
       d="m 1109.0561,1984.7544 c -8.1997,41.8065 59.3043,70.6591 115.2035,48.7714 -22.9931,10.09 -81.6027,63.8105 -171.9044,-28.8625 -40.8476,-41.9203 41.4313,-16.5735 41.4313,-16.5735 z"
       id="path4035-4-5"
       inkscape:connector-curvature="0"
       sodipodi:nodetypes="ccscc" />
    <path
       style="color:#000000;display:inline;overflow:visible;visibility:visible;fill:#ffffff;fill-opacity:1;fill-rule:nonzero;stroke:none;stroke-width:1.14715px;marker:none;enable-background:accumulate"
       d="m 1640.0206,2360.0065 c 85.321,-69.4317 155.0537,-160.9776 126.0876,-275.9291 50.0818,114.8531 -29.8722,233.4391 -50.2498,258.0963 -21.5049,26.0213 -75.8378,17.8328 -75.8378,17.8328 z"
       id="path4008-7"
       inkscape:connector-curvature="0"
       sodipodi:nodetypes="ccsc" />
    <path
       style="color:#000000;display:inline;overflow:visible;visibility:visible;fill:#ffffff;fill-opacity:1;fill-rule:nonzero;stroke:none;stroke-width:0.923908px;marker:none;enable-background:accumulate"
       d="m 1999.7453,2481.5298 c 2.3308,-54.303 42.207,-94.2785 147.9697,-84.7482 56.6523,5.1058 120.9338,8.2785 118.1755,87.8248 -2.7583,79.5464 -95.096,78.0975 -114.1175,80.0803 -19.0213,1.9828 -118.4149,-5.7151 -136.2571,-32.6526 -11.1688,-16.8627 -15.7793,-33.6902 -15.7706,-50.5043 z"
       id="path4546-6-89"
       inkscape:connector-curvature="0"
       sodipodi:nodetypes="cssssc" />
    <path
       style="fill:#ffffff;fill-rule:evenodd;stroke:none;stroke-width:1px;stroke-linecap:butt;stroke-linejoin:miter;stroke-opacity:1"
       d="m 2127.4405,2420.4639 c 0,0 -20.8561,-32.9672 -21.8804,-43.1562 -1.0243,-10.189 2.4576,-31.6896 11.9397,-43.6552 -22.2118,19.0145 -28.0641,35.9803 -27.9104,44.0276 0.1532,8.0482 12.5159,40.8376 12.5159,40.8376 z"
       id="path1367"
       inkscape:connector-curvature="0"
       inkscape:transform-center-x="-1.8067567"
       inkscape:transform-center-y="-52.12792"
       sodipodi:nodetypes="cscscc" />
    <path
       style="color:#000000;display:inline;overflow:visible;visibility:visible;fill:#ffffff;fill-opacity:1;fill-rule:nonzero;stroke:none;stroke-width:0.95959455px;marker:none;enable-background:accumulate"
       d="m 344.6648,2679.7924 c -50.60513,0.5919 -102.02477,2.3916 -150.91773,21.045 -24.12609,9.6603 -47.03358,28.3745 -60.49879,56.6179 -12.11064,25.4074 -15.32361,58.721 -5.42591,86.1829 8.75364,25.4395 27.61742,43.964 48.51963,49.7395 28.10941,10.5828 57.1283,16.3214 86.0694,21.5466 78.01441,12.8551 157.66238,12.3746 235.13485,-5.9838 21.85061,-5.3649 43.84218,-14.0928 61.78001,-31.7038 14.41973,-13.7753 26.04566,-33.5136 29.75511,-56.5247 6.32949,-35.1349 -2.58454,-75.365 -24.7921,-98.0597 -16.09266,-16.2997 -36.4584,-22.8007 -56.17009,-27.5485 -32.93369,-7.5911 -66.38948,-10.0695 -99.71042,-13.0801 -21.2265,-1.4903 -42.48493,-2.3339 -63.74396,-2.2313 z"
       id="path4546-7"
       inkscape:connector-curvature="0"
       sodipodi:nodetypes="cssssc" />
    <path
       style="color:#000000;display:inline;overflow:visible;visibility:visible;fill:#ffffff;fill-opacity:1;fill-rule:nonzero;stroke:none;stroke-width:1.19696px;marker:none;enable-background:accumulate"
       d="m 310.18788,2871.5088 c -36.75155,0.8193 -73.91606,6.1732 -106.55052,25.8203 -20.02581,12.3925 -37.95681,31.8953 -47.19666,58.9224 -8.82074,25.1197 -10.76088,55.9717 -2.2461,83.9115 5.41775,18.3906 13.94152,35.8256 25.35073,49.1787 11.62296,11.6309 25.5354,17.2693 38.98433,22.6325 29.23224,10.8736 59.07258,15.5849 88.71862,19.397 23.15677,2.7322 46.33778,4.7959 69.40382,4.9702 20.00797,-0.5469 39.93308,-2.1609 59.65282,-5.0665 26.98454,-4.3287 53.88697,-12.519 76.78063,-30.4277 15.9711,-12.766 29.47845,-32.0208 34.43353,-56.6791 4.88964,-23.8613 3.25628,-50.3678 -2.92402,-74.9871 -5.91006,-22.2633 -18.17538,-42.0509 -33.60231,-54.5157 -21.79282,-18.2667 -46.87375,-25.5795 -71.22057,-30.7727 -30.3403,-6.2846 -60.74027,-8.3618 -91.0898,-11.2698 -12.85801,-0.9106 -25.70117,-1.3254 -38.4945,-1.114 z"
       id="path4546-6-5-4"
       inkscape:connector-curvature="0"
       sodipodi:nodetypes="cssssc" />
    <path
       style="color:#000000;display:inline;overflow:visible;visibility:visible;fill:#ffffff;fill-opacity:1;fill-rule:nonzero;stroke:none;stroke-width:0.94912px;marker:none;enable-background:accumulate"
       d="m 570.40008,2788.5105 c 0.70291,-20.5931 2.79564,-98.204 79.29359,-67.917 -12.96153,-15.3177 -101.3034,-57.4847 -117.55274,67.9555 -4.05901,31.3344 6.93857,21.4416 13.2428,23.8225 6.30431,2.3809 25.01635,-23.861 25.01635,-23.861 z"
       id="path4064-5"
       inkscape:connector-curvature="0"
       sodipodi:nodetypes="ccszc" />
    <path
       style="fill:#ffffff;stroke:none;stroke-width:0.85675412"
       d="m 1430.0277,2662.0926 c -72.2574,0.9233 -144.8307,3.0072 -216.2024,13.7868 -26.9378,4.2349 -54.4766,9.6729 -77.8386,22.854 -13.4842,7.6153 -24.7645,18.2822 -31.9613,30.9504 -12.2095,20.4817 -16.7509,44.1433 -15.1374,67.129 1.9252,22.6463 11.9877,45.3697 31.0879,60.9924 20.1371,16.9557 46.6726,26.3212 73.1278,32.6695 35.4289,8.2434 72.1702,10.5336 108.6279,12.1032 52.8876,1.8442 105.8274,0.5955 158.7177,-0.4765 59.3348,-1.6962 119.1441,-5.1368 176.7907,-18.4821 27.3358,-6.6438 54.7151,-15.6931 76.8954,-31.7281 14.2935,-10.6908 25.4191,-25.6331 27.2447,-42.3978 2.3357,-16.1243 0.5363,-32.522 -3.0013,-48.399 -5.9353,-22.5265 -20.8872,-43.304 -42.3515,-56.7029 -26.1464,-17.2682 -58.0525,-25.7704 -89.6368,-31.476 -47.0343,-8.2674 -95.1224,-10.2803 -142.9635,-10.915 -11.1337,-0.1186 -22.2664,-0.073 -33.3993,0.092 z"
       id="path3280-8-0"
       inkscape:connector-curvature="0"
       sodipodi:nodetypes="csssc" />
    <path
       style="color:#000000;display:inline;overflow:visible;visibility:visible;fill:#ffffff;fill-opacity:1;fill-rule:nonzero;stroke:none;stroke-width:1px;marker:none;enable-background:accumulate"
       d="m 1190.5649,2938.1193 c 71.9512,20.8726 126.9981,-3.0998 138.6013,-80.4717 29.2254,-33.921 39.4944,-8.1295 39.4944,-8.1295 0,0 9.6333,15.8558 9.2,26.1866 -1.6876,40.2341 -97.4111,114.3526 -187.2957,62.4146 z"
       id="path3072-7"
       inkscape:connector-curvature="0"
       sodipodi:nodetypes="cccsc" />
    <path
       style="fill:#ffffff;fill-rule:evenodd;stroke:none;stroke-width:1px;stroke-linecap:butt;stroke-linejoin:miter;stroke-opacity:1"
       d="m 611.87816,457.91854 c -12.3953,-22.626 4.8341,-35.579 4.6846,-49.244 -0.1543,-14.107 -33.2797,-25.956 -34.0153,-39.032 -0.7356,-13.076 20.5032,-26.957 19.032,-47.388 -1.4712,-20.432 -25.011,-24.518 -22.8041,-0.818 2.2069,23.701 -15.6571,27.839 -11.7699,46.584 6.483,31.261 30.8848,30.638 38.523,39.431 5.057,5.822 -4.6847,18.594 -2.4778,32.487 2.2069,13.894 8.8275,17.98 8.8275,17.98 z"
       id="path4272-2"
       inkscape:connector-curvature="0"
       sodipodi:nodetypes="csssssssc" />
    <path
       style="display:inline;fill:#ffffff;stroke:none;stroke-width:0.877336"
       d="M 395.5572,452.67668 C 407.56611,407.77396 413.32098,333.81277 360.54542,296.86263 333.08948,277.6397 320.11233,262.96148 320.11233,262.96148 l 22.24546,-19.14958 c 105.35115,77.35453 72.21397,163.85407 53.19941,208.86478 z"
       id="path3063-1-0"
       inkscape:connector-curvature="0"
       sodipodi:nodetypes="csccc" />
  </g>
  <g
     inkscape:groupmode="layer"
     id="layer1"
     inkscape:label="txt">
    <text
       id="text4246-4-2-7"
       y="195.79843"
       x="276.44409"
       style="font-style:normal;font-variant:normal;font-weight:normal;font-stretch:normal;line-height:0%;font-family:Lavi;-inkscape-font-specification:Lavi;text-align:center;letter-spacing:0px;word-spacing:0px;text-anchor:middle;fill:#000000;fill-opacity:1;stroke:none"
       xml:space="preserve"><tspan
         y="195.79843"
         x="276.44409"
         style="font-size:45px;line-height:1.25;fill:#000000"
         sodipodi:role="line"
         id="tspan1639">Mikä häntä</tspan><tspan
         y="252.04843"
         x="276.44409"
         style="font-size:45px;line-height:1.25;fill:#000000"
         sodipodi:role="line"
         id="tspan2967">vaivaa?</tspan></text>
    <text
       id="text4246-4-2-7-3"
       y="176.08881"
       x="630.43268"
       style="font-style:normal;font-variant:normal;font-weight:normal;font-stretch:normal;line-height:0%;font-family:Lavi;-inkscape-font-specification:Lavi;text-align:center;letter-spacing:0px;word-spacing:0px;text-anchor:middle;fill:#000000;fill-opacity:1;stroke:none"
       xml:space="preserve"><tspan
         y="176.08881"
         x="630.43268"
         style="font-size:45px;line-height:1.25;fill:#000000"
         sodipodi:role="line"
         id="tspan3727">Pepper?</tspan><tspan
         y="232.33881"
         x="630.43268"
         style="font-size:45px;line-height:1.25;fill:#000000"
         sodipodi:role="line"
         id="tspan10316">Onko kaikki</tspan><tspan
         y="288.58881"
         x="630.43268"
         style="font-size:45px;line-height:1.25;fill:#000000"
         sodipodi:role="line"
         id="tspan100">hyvin?</tspan></text>
    <text
       id="text4246-4-2-7-3-5"
       y="231.91487"
       x="970.14368"
       style="font-style:normal;font-variant:normal;font-weight:normal;font-stretch:normal;line-height:0%;font-family:Lavi;-inkscape-font-specification:Lavi;text-align:center;letter-spacing:0px;word-spacing:0px;text-anchor:middle;fill:#000000;fill-opacity:1;stroke:none"
       xml:space="preserve"><tspan
         y="231.91487"
         x="970.14368"
         style="font-size:45px;line-height:1.25;fill:#000000"
         sodipodi:role="line"
         id="tspan17268">Joo, on.</tspan></text>
    <text
       id="text4246-4-2-7-3-5-2"
       y="1182.4652"
       x="1034.8293"
       style="font-style:normal;font-variant:normal;font-weight:normal;font-stretch:normal;line-height:0%;font-family:Lavi;-inkscape-font-specification:Lavi;text-align:center;letter-spacing:0px;word-spacing:0px;text-anchor:middle;fill:#000000;fill-opacity:1;stroke:none"
       xml:space="preserve"><tspan
         y="1182.4652"
         x="1034.8293"
         style="font-size:45px;line-height:1.25;fill:#000000"
         sodipodi:role="line"
         id="tspan25929">Tajusin</tspan><tspan
         y="1238.7152"
         x="1034.8293"
         style="font-size:45px;line-height:1.25;fill:#000000"
         sodipodi:role="line"
         id="tspan107">vain juuri</tspan><tspan
         y="1294.9652"
         x="1034.8293"
         style="font-size:45px;line-height:1.25;fill:#000000"
         sodipodi:role="line"
         id="tspan109">jotakin.</tspan></text>
    <text
       id="text4246-4-2-7-3-5-2-2"
       y="1243.312"
       x="1830.1265"
       style="font-style:normal;font-variant:normal;font-weight:normal;font-stretch:normal;line-height:0%;font-family:Lavi;-inkscape-font-specification:Lavi;text-align:center;letter-spacing:0px;word-spacing:0px;text-anchor:middle;fill:#000000;fill-opacity:1;stroke:none"
       xml:space="preserve"><tspan
         y="1243.312"
         x="1830.1265"
         style="font-size:45px;line-height:1.25;fill:#000000"
         sodipodi:role="line"
         id="tspan5516">Kaikki, mitä on tapahtunut, on</tspan><tspan
         y="1299.562"
         x="1830.1265"
         style="font-size:45px;line-height:1.25;fill:#000000"
         sodipodi:role="line"
         id="tspan10142">suoraan tai epäsuorasti seurausta</tspan><tspan
         y="1355.812"
         x="1830.1265"
         style="font-size:45px;line-height:1.25;fill:#000000"
         sodipodi:role="line"
         id="tspan125">teoistani ja valinnoistani ...</tspan></text>
    <text
       id="text4246-4-2-7-3-5-2-2-6"
       y="1432.9945"
       x="1862.4454"
       style="font-style:normal;font-variant:normal;font-weight:normal;font-stretch:normal;line-height:0%;font-family:Lavi;-inkscape-font-specification:Lavi;text-align:center;letter-spacing:0px;word-spacing:0px;text-anchor:middle;fill:#000000;fill-opacity:1;stroke:none"
       xml:space="preserve"><tspan
         y="1432.9945"
         x="1862.4454"
         style="font-style:normal;font-variant:normal;font-weight:bold;font-stretch:normal;font-size:45px;line-height:1.25;font-family:Lavi;-inkscape-font-specification:Lavi;fill:#000000"
         sodipodi:role="line"
         id="tspan16620"><tspan
           id="tspan127"
           style="font-style:normal;font-variant:normal;font-weight:normal;font-stretch:normal;font-size:45px;line-height:1.25;font-family:Lavi;-inkscape-font-specification:Lavi;fill:#000000">... toisin sanoen,</tspan></tspan><tspan
         y="1489.2445"
         x="1862.4454"
         style="font-style:normal;font-variant:normal;font-weight:bold;font-stretch:normal;font-size:45px;line-height:1.25;font-family:Lavi;-inkscape-font-specification:Lavi;fill:#000000"
         sodipodi:role="line"
         id="tspan129">minun ketjureaktiotani!</tspan></text>
    <text
       id="text4246-4-2-7-3-5-2-2-6-7-2"
       y="1679.4132"
       x="256.14807"
       style="font-style:normal;font-variant:normal;font-weight:normal;font-stretch:normal;line-height:0%;font-family:Lavi;-inkscape-font-specification:Lavi;text-align:center;letter-spacing:0px;word-spacing:0px;text-anchor:middle;fill:#000000;fill-opacity:1;stroke:none"
       xml:space="preserve"><tspan
         y="1679.4132"
         x="256.14807"
         style="font-style:normal;font-variant:normal;font-weight:normal;font-stretch:normal;font-size:45px;line-height:1.25;font-family:Lavi;-inkscape-font-specification:Lavi;fill:#000000"
         sodipodi:role="line"
         id="tspan104696-2-8">Todellako?</tspan></text>
    <text
       id="text4246-4-2-7-3-5-2-2-6-7-2-9"
       y="1764.6151"
       x="378.92795"
       style="font-style:normal;font-variant:normal;font-weight:normal;font-stretch:normal;line-height:0%;font-family:Lavi;-inkscape-font-specification:Lavi;text-align:center;letter-spacing:0px;word-spacing:0px;text-anchor:middle;fill:#000000;fill-opacity:1;stroke:none"
       xml:space="preserve"><tspan
         y="1764.6151"
         x="378.92795"
         style="font-style:normal;font-variant:normal;font-weight:normal;font-stretch:normal;font-size:45px;line-height:1.25;font-family:Lavi;-inkscape-font-specification:Lavi;fill:#000000"
         sodipodi:role="line"
         id="tspan168035">Sinun pitää</tspan><tspan
         y="1820.8651"
         x="378.92795"
         style="font-style:normal;font-variant:normal;font-weight:normal;font-stretch:normal;font-size:45px;line-height:1.25;font-family:Lavi;-inkscape-font-specification:Lavi;fill:#000000"
         sodipodi:role="line"
         id="tspan55293">selittää tuo.</tspan></text>
    <text
       id="text4246-4-2-7-3-5-2-2-6-7-2-9-3"
       y="1676.4771"
       x="897.13013"
       style="font-style:normal;font-variant:normal;font-weight:normal;font-stretch:normal;line-height:0%;font-family:Lavi;-inkscape-font-specification:Lavi;text-align:center;letter-spacing:0px;word-spacing:0px;text-anchor:middle;fill:#000000;fill-opacity:1;stroke:none"
       xml:space="preserve"><tspan
         y="1676.4771"
         x="897.13013"
         style="font-style:normal;font-variant:normal;font-weight:normal;font-stretch:normal;font-size:45px;line-height:1.25;font-family:Lavi;-inkscape-font-specification:Lavi;fill:#000000"
         sodipodi:role="line"
         id="tspan64017">Nyt riittää jutustelu.</tspan><tspan
         y="1732.7271"
         x="897.13013"
         style="font-style:normal;font-variant:normal;font-weight:normal;font-stretch:normal;font-size:45px;line-height:1.25;font-family:Lavi;-inkscape-font-specification:Lavi;fill:#000000"
         sodipodi:role="line"
         id="tspan72039">Olemme keskellä</tspan><tspan
         y="1788.9771"
         x="897.13013"
         style="font-style:normal;font-variant:normal;font-weight:normal;font-stretch:normal;font-size:45px;line-height:1.25;font-family:Lavi;-inkscape-font-specification:Lavi;fill:#000000"
         sodipodi:role="line"
         id="tspan144">taistelukenttää.</tspan></text>
    <text
       id="text4246-4-2-7-3-5-2-2-6-7-2-9-3-2"
       y="1868.5121"
       x="910.66687"
       style="font-style:normal;font-variant:normal;font-weight:normal;font-stretch:normal;line-height:0%;font-family:Lavi;-inkscape-font-specification:Lavi;text-align:center;letter-spacing:0px;word-spacing:0px;text-anchor:middle;fill:#000000;fill-opacity:1;stroke:none"
       xml:space="preserve"><tspan
         y="1868.5121"
         x="910.66687"
         style="font-style:normal;font-variant:normal;font-weight:normal;font-stretch:normal;font-size:45px;line-height:1.25;font-family:Lavi;-inkscape-font-specification:Lavi;fill:#000000"
         sodipodi:role="line"
         id="tspan184397">Voimme puhua siitä,</tspan><tspan
         y="1924.7621"
         x="910.66687"
         style="font-style:normal;font-variant:normal;font-weight:normal;font-stretch:normal;font-size:45px;line-height:1.25;font-family:Lavi;-inkscape-font-specification:Lavi;fill:#000000"
         sodipodi:role="line"
         id="tspan78621">kun olemme ilmassa.</tspan></text>
    <text
       id="text4246-4-2-7-3-5-2-2-6-7-2-9-3-2-9"
       y="2008.9945"
       x="945.51813"
       style="font-style:normal;font-variant:normal;font-weight:normal;font-stretch:normal;line-height:0%;font-family:Lavi;-inkscape-font-specification:Lavi;text-align:center;letter-spacing:0px;word-spacing:0px;text-anchor:middle;fill:#000000;fill-opacity:1;stroke:none"
       xml:space="preserve"><tspan
         y="2008.9945"
         x="945.51813"
         style="font-style:normal;font-variant:normal;font-weight:normal;font-stretch:normal;font-size:45px;line-height:1.25;font-family:Lavi;-inkscape-font-specification:Lavi;fill:#000000"
         sodipodi:role="line"
         id="tspan184397-7">Hyppää kyytiin, Pepper!</tspan></text>
    <text
       id="text4246-4-2-7-3-5-2-2-6-7-2-9-3-2-9-8"
       y="2333.4099"
       x="1578.2986"
       style="font-style:normal;font-variant:normal;font-weight:normal;font-stretch:normal;line-height:0%;font-family:Lavi;-inkscape-font-specification:Lavi;text-align:center;letter-spacing:0px;word-spacing:0px;text-anchor:middle;fill:#000000;fill-opacity:1;stroke:none"
       xml:space="preserve"><tspan
         y="2333.4099"
         x="1578.2986"
         style="font-style:normal;font-variant:normal;font-weight:normal;font-stretch:normal;font-size:45px;line-height:1.25;font-family:Lavi;-inkscape-font-specification:Lavi;fill:#000000"
         sodipodi:role="line"
         id="tspan189870">Torreya on oikeassa.</tspan></text>
    <text
       id="text4246-4-2-7-3-5-2-2-6-7-2-9-3-2-9-8-3"
       y="2416.0747"
       x="1606.6317"
       style="font-style:normal;font-variant:normal;font-weight:normal;font-stretch:normal;line-height:0%;font-family:Lavi;-inkscape-font-specification:Lavi;text-align:center;letter-spacing:0px;word-spacing:0px;text-anchor:middle;fill:#000000;fill-opacity:1;stroke:none"
       xml:space="preserve"><tspan
         y="2416.0747"
         x="1606.6317"
         style="font-style:normal;font-variant:normal;font-weight:normal;font-stretch:normal;font-size:45px;line-height:1.25;font-family:Lavi;-inkscape-font-specification:Lavi;fill:#000000"
         sodipodi:role="line"
         id="tspan88679">Meidän pitää päästä</tspan><tspan
         y="2472.3247"
         x="1606.6317"
         style="font-style:normal;font-variant:normal;font-weight:normal;font-stretch:normal;font-size:45px;line-height:1.25;font-family:Lavi;-inkscape-font-specification:Lavi;fill:#000000"
         sodipodi:role="line"
         id="tspan93587">Qualicityyn, tapahtui</tspan><tspan
         y="2528.5747"
         x="1606.6317"
         style="font-style:normal;font-variant:normal;font-weight:normal;font-stretch:normal;font-size:45px;line-height:1.25;font-family:Lavi;-inkscape-font-specification:Lavi;fill:#000000"
         sodipodi:role="line"
         id="tspan97393">mitä tapahtui.</tspan></text>
    <text
       id="text4246-4-2-7-3-5-2-2-6-7-2-9-3-2-9-8-5"
       y="2464.9375"
       x="2133.2007"
       style="font-style:normal;font-variant:normal;font-weight:normal;font-stretch:normal;line-height:0%;font-family:Lavi;-inkscape-font-specification:Lavi;text-align:center;letter-spacing:0px;word-spacing:0px;text-anchor:middle;fill:#000000;fill-opacity:1;stroke:none"
       xml:space="preserve"><tspan
         y="2464.9375"
         x="2133.2007"
         style="font-style:normal;font-variant:normal;font-weight:normal;font-stretch:normal;font-size:45px;line-height:1.25;font-family:Lavi;-inkscape-font-specification:Lavi;fill:#000000"
         sodipodi:role="line"
         id="tspan106897">Odottakaa</tspan><tspan
         y="2521.1875"
         x="2133.2007"
         style="font-style:normal;font-variant:normal;font-weight:normal;font-stretch:normal;font-size:45px;line-height:1.25;font-family:Lavi;-inkscape-font-specification:Lavi;fill:#000000"
         sodipodi:role="line"
         id="tspan160">hetki!</tspan></text>
    <text
       id="text4246-4-2-7-3-5-2-2-6-7-2-9-3-2-9-8-5-1"
       y="2749.7256"
       x="353.28015"
       style="font-style:normal;font-variant:normal;font-weight:normal;font-stretch:normal;line-height:0%;font-family:Lavi;-inkscape-font-specification:Lavi;text-align:center;letter-spacing:0px;word-spacing:0px;text-anchor:middle;fill:#000000;fill-opacity:1;stroke:none"
       xml:space="preserve"><tspan
         y="2749.7256"
         x="353.28015"
         style="font-style:normal;font-variant:normal;font-weight:normal;font-stretch:normal;font-size:45px;line-height:1.25;font-family:Lavi;-inkscape-font-specification:Lavi;fill:#000000"
         sodipodi:role="line"
         id="tspan145655">Wasabin armeija</tspan><tspan
         y="2805.9756"
         x="353.28015"
         style="font-style:normal;font-variant:normal;font-weight:normal;font-stretch:normal;font-size:45px;line-height:1.25;font-family:Lavi;-inkscape-font-specification:Lavi;fill:#000000"
         sodipodi:role="line"
         id="tspan164">on aikeissa ryhtyä</tspan><tspan
         y="2862.2256"
         x="353.28015"
         style="font-style:normal;font-variant:normal;font-weight:normal;font-stretch:normal;font-size:45px;line-height:1.25;font-family:Lavi;-inkscape-font-specification:Lavi;fill:#000000"
         sodipodi:role="line"
         id="tspan174">vastahyökkäykseen.</tspan><tspan
         y="2880.759"
         x="353.28015"
         style="font-style:normal;font-variant:normal;font-weight:normal;font-stretch:normal;font-size:45px;line-height:1.25;font-family:Lavi;-inkscape-font-specification:Lavi;fill:#000000"
         sodipodi:role="line"
         id="tspan172" /></text>
    <text
       id="text4246-4-2-7-3-5-2-2-6-7-2-9-3-2-9-8-5-1-3"
       y="2968.9463"
       x="356.77548"
       style="font-style:normal;font-variant:normal;font-weight:normal;font-stretch:normal;line-height:0%;font-family:Lavi;-inkscape-font-specification:Lavi;text-align:center;letter-spacing:0px;word-spacing:0px;text-anchor:middle;fill:#000000;fill-opacity:1;stroke:none"
       xml:space="preserve"><tspan
         y="2968.9463"
         x="356.77548"
         style="font-style:normal;font-variant:normal;font-weight:normal;font-stretch:normal;font-size:45px;line-height:1.25;font-family:Lavi;-inkscape-font-specification:Lavi;fill:#000000"
         sodipodi:role="line"
         id="tspan207740">Emme voi antaa</tspan><tspan
         y="3025.1963"
         x="356.77548"
         style="font-style:normal;font-variant:normal;font-weight:normal;font-stretch:normal;font-size:45px;line-height:1.25;font-family:Lavi;-inkscape-font-specification:Lavi;fill:#000000"
         sodipodi:role="line"
         id="tspan176">heidän tappaa</tspan><tspan
         y="3081.4463"
         x="356.77548"
         style="font-style:normal;font-variant:normal;font-weight:normal;font-stretch:normal;font-size:45px;line-height:1.25;font-family:Lavi;-inkscape-font-specification:Lavi;fill:#000000"
         sodipodi:role="line"
         id="tspan166612">toisiaan.</tspan></text>
    <text
       id="text4246-4-2-7-3-5-2-2-6-7-2-9-3-2-9-8-5-1-3-6"
       y="2739.7092"
       x="1412.0334"
       style="font-style:normal;font-variant:normal;font-weight:normal;font-stretch:normal;line-height:0%;font-family:Lavi;-inkscape-font-specification:Lavi;text-align:center;letter-spacing:0px;word-spacing:0px;text-anchor:middle;fill:#000000;fill-opacity:1;stroke:none"
       xml:space="preserve"><tspan
         y="2739.7092"
         x="1412.0334"
         style="font-style:normal;font-variant:normal;font-weight:normal;font-stretch:normal;font-size:45px;line-height:1.25;font-family:Lavi;-inkscape-font-specification:Lavi;fill:#000000"
         sodipodi:role="line"
         id="tspan216256">Minusta tuntuu, että</tspan><tspan
         y="2795.9592"
         x="1412.0334"
         style="font-style:normal;font-variant:normal;font-weight:normal;font-stretch:normal;font-size:45px;line-height:1.25;font-family:Lavi;-inkscape-font-specification:Lavi;fill:#000000"
         sodipodi:role="line"
         id="tspan185">tämän taistelun lopettaminen</tspan><tspan
         y="2852.2092"
         x="1412.0334"
         style="font-style:normal;font-variant:normal;font-weight:normal;font-stretch:normal;font-size:45px;line-height:1.25;font-family:Lavi;-inkscape-font-specification:Lavi;fill:#000000"
         sodipodi:role="line"
         id="tspan179595">on minun velvollisuuteni.</tspan></text>
  </g>
</svg>
