<?xml version="1.0" encoding="UTF-8" standalone="no"?>
<svg
   xmlns:dc="http://purl.org/dc/elements/1.1/"
   xmlns:cc="http://creativecommons.org/ns#"
   xmlns:rdf="http://www.w3.org/1999/02/22-rdf-syntax-ns#"
   xmlns:svg="http://www.w3.org/2000/svg"
   xmlns="http://www.w3.org/2000/svg"
   xmlns:xlink="http://www.w3.org/1999/xlink"
   xmlns:sodipodi="http://sodipodi.sourceforge.net/DTD/sodipodi-0.dtd"
   xmlns:inkscape="http://www.inkscape.org/namespaces/inkscape"
   id="svg2"
   version="1.1"
   inkscape:version="1.0.2 (e86c8708, 2021-01-15)"
   width="2481"
   height="3503"
   sodipodi:docname="E34P08.svg">
  <metadata
     id="metadata8">
    <rdf:RDF>
      <cc:Work
         rdf:about="">
        <dc:format>image/svg+xml</dc:format>
        <dc:type
           rdf:resource="http://purl.org/dc/dcmitype/StillImage" />
        <dc:title />
      </cc:Work>
    </rdf:RDF>
  </metadata>
  <defs
     id="defs6" />
  <sodipodi:namedview
     pagecolor="#ffffff"
     bordercolor="#666666"
     borderopacity="1"
     objecttolerance="10"
     gridtolerance="10"
     guidetolerance="10"
     inkscape:pageopacity="0"
     inkscape:pageshadow="2"
     inkscape:window-width="960"
     inkscape:window-height="1130"
     id="namedview4"
     showgrid="false"
     inkscape:zoom="0.32446594"
     inkscape:cx="1138.7944"
     inkscape:cy="2800.0636"
     inkscape:window-x="960"
     inkscape:window-y="23"
     inkscape:window-maximized="0"
     inkscape:current-layer="layer1"
     inkscape:document-rotation="0"
     inkscape:snap-global="false"
     borderlayer="true" />
  <g
     inkscape:groupmode="layer"
     id="layer2"
     inkscape:label="artwork"
     sodipodi:insensitive="true">
    <image
       sodipodi:absref="/Users/gand/Downloads/webcomics-master-new-ep34_The-Knighting-of-Shichimi/new-ep34_The-Knighting-of-Shichimi/lang/gfx_Pepper-and-Carrot_by-David-Revoy_E34P08.png"
       xlink:href="../gfx_Pepper-and-Carrot_by-David-Revoy_E34P08.png"
       width="2481"
       height="3503"
       id="image10"
       x="0"
       y="0" />
  </g>
  <g
     inkscape:groupmode="layer"
     id="layer3"
     inkscape:label="speechbubbles"
     style="display:inline">
    <path
       style="color:#000000;display:inline;overflow:visible;visibility:visible;fill:#ffffff;fill-opacity:1;fill-rule:nonzero;stroke:none;stroke-width:0.770224px;marker:none;enable-background:accumulate"
       d="m 1858.8745,2602.7661 c 24.645,-31.5484 88.5186,-58.8546 134.0691,-29.1667 47.5832,1.2392 31.3766,-27.3129 31.3766,-27.3129 -2.2798,-13.3723 -128.0086,-31.4485 -165.4457,56.4796 z"
       id="path3984-7"
       inkscape:connector-curvature="0"
       sodipodi:nodetypes="cccc" />
    <path
       style="display:inline;fill:#ffffff;stroke:none;stroke-width:1.28903"
       d="m 2139.5807,2621.5116 c -39.732,1.3018 -80.0519,11.6343 -112.5385,34.4018 -52.0268,37.8793 -77.6571,106.5808 -62.1474,167.7992 7.5004,33.3099 29.3504,63.9003 60.4817,80.4294 30.274,16.4295 64.9382,23.0993 99.0946,26.8304 50.4803,5.0277 102.0181,-0.8975 150.1128,-16.4303 27.1188,-9.3308 49.3649,-30.5298 59.8113,-56.4196 10.3673,-24.8008 12.2721,-51.9474 12.3085,-78.4226 -0.8573,-40.5907 -15.4633,-80.8482 -41.0767,-113.0233 -12.0666,-15.1589 -29.4552,-26.2103 -48.6879,-30.7527 -22.5825,-5.3063 -45.6993,-7.9876 -68.6603,-11.2516 -16.1452,-1.9984 -32.4067,-3.3908 -48.6981,-3.1607 z"
       id="path3280-8-3"
       inkscape:connector-curvature="0"
       sodipodi:nodetypes="csssc" />
    <path
       style="color:#000000;display:inline;overflow:visible;visibility:visible;fill:#ffffff;fill-opacity:1;fill-rule:nonzero;stroke:none;stroke-width:0.728515px;marker:none;enable-background:accumulate"
       d="m 2152.1088,2472.571 c -41.7584,-0.9701 -84.0784,3.662 -123.2497,17.4105 -14.7151,5.29 -29.2257,12.7608 -38.8403,24.7234 -12.0315,15.1252 -17.9022,34.0355 -18.41,52.7878 -0.1046,18.5638 7.1715,37.6624 21.8731,50.5903 11.7363,10.1785 26.957,15.6751 41.7542,20.7364 27.1244,9.1294 55.5564,14.2904 84.0868,17.5432 18.9775,2.1752 38.0323,3.74 57.1042,4.8757 16.8858,0.6093 33.7178,-1.6169 50.1146,-5.1354 23.7549,-4.5131 47.7514,-10.3879 68.4689,-22.4672 14.7362,-8.7345 27.1907,-21.7633 32.0384,-37.6643 6.5761,-20.4107 1.5862,-43.6413 -12.6138,-60.4231 -11.8436,-15.4162 -25.9168,-29.9854 -43.9326,-39.2111 -15.1977,-7.5829 -32.0986,-11.3046 -48.7019,-15.0934 -22.8853,-4.9277 -46.2523,-7.7894 -69.6919,-8.6728 z"
       id="path3970-3"
       inkscape:connector-curvature="0"
       sodipodi:nodetypes="cccscsc" />
    <path
       style="display:inline;fill:#ffffff;fill-rule:evenodd;stroke:none;stroke-width:1.19769px;stroke-linecap:butt;stroke-linejoin:miter;stroke-opacity:1"
       d="m 149.97784,2639.0252 c 39.86193,27.8955 32.52231,40.0735 -23.67073,35.9837 89.58912,42.8351 52.60569,49.2464 -4.1167,49.9774 38.07751,15.6456 80.20982,30.956 -7.20414,56.9743 50.65722,4.2183 94.79578,10.1746 8.23329,50.977 44.91072,-1.6758 74.04332,-18.7567 19.8773,36.7827 73.51489,-24.9458 140.64956,-17.0906 102.59359,45.1802 36.95129,-18.3388 97.70046,-64.815 76.15825,-13.9936 16.9296,-16.2306 38.47559,-22.3733 77.18751,8.9959 -7.54878,-22.6233 -30.29283,-58.4779 38.07913,-14.9932 -20.6692,-34.0251 -0.84903,-68.3859 68.1897,-17.9249 -10.28467,-25.6552 -78.5565,-35.3843 5.91036,-61.0395 -58.18262,-2.5587 -40.13526,-19.9247 -3.08744,-40.9814 -69.28068,-11.6374 -35.0024,-25.7279 6.17499,-39.982 -42.91247,-5.4331 -76.01888,-14.5828 -8.2334,-61.972 -74.61274,19.6735 -53.02033,-13.6004 -49.40008,-36.9833 -34.43236,18.5673 -73.37075,47.7106 -76.15836,-7.9964 -46.18982,69.1143 -63.67863,16.2752 -89.5375,-0.9995 -26.8957,82.2398 -87.8655,6.4455 -104.97483,0.9995 34.89138,33.6606 40.98338,48.9014 -36.02094,10.9951 z"
       id="path1096"
       inkscape:connector-curvature="0"
       sodipodi:nodetypes="cccccccccccccccccccc" />
    <path
       style="fill:#ffffff;fill-rule:evenodd;stroke:none;stroke-width:1px;stroke-linecap:butt;stroke-linejoin:miter;stroke-opacity:1"
       d="m 276.69249,2637.35 c 22.24357,147.5922 76.16994,294.7462 66.72409,442.7767 39.32721,-7.5351 57.02691,-43.538 110.60404,61.3044 36.13567,-50.5432 43.46402,-9.9468 54.08883,20.3938 25.92501,-21.2619 53.62712,-17.4156 81.20022,-15.3921 -24.07084,-2.6294 -42.56765,-23.176 -74.42406,-0.7793 -0.99204,-50.5675 -24.7242,-64.2967 -53.19608,-40.6932 -22.25284,-65.4923 -46.37098,-77.5206 -92.38131,-54.9383 1.82968,-175.1557 -47.49605,-279.4592 -67.44658,-422.2765 z"
       id="path1313"
       sodipodi:nodetypes="cccccccccc" />
    <path
       style="color:#000000;display:inline;overflow:visible;visibility:visible;fill:#ffffff;fill-opacity:1;fill-rule:nonzero;stroke:none;stroke-width:1.31433px;marker:none;enable-background:accumulate"
       d="m 137.94543,2952.2227 c 2.57481,-42.4765 8.37968,-76.1738 40.31649,-94.8593 31.93682,-18.6853 90.00534,-22.3584 163.67617,-15.008 39.46208,3.9372 95.53388,9.6703 126.98199,27.4197 31.4482,17.7488 38.27248,47.5133 34.95875,109.7344 -3.31371,62.2209 -14.9026,95.3659 -51.27921,110.7925 -36.37663,15.4267 -97.54109,13.1348 -110.85534,14.7045 -34.81312,-4.9421 -101.93998,2.0672 -144.61363,-11.013 -42.67375,-13.0801 -60.89408,-46.2498 -59.18522,-141.7708 z"
       id="path4546-6-0"
       inkscape:connector-curvature="0"
       sodipodi:nodetypes="cssssscsc" />
    <path
       style="fill:#ffffff;fill-rule:evenodd;stroke:none;stroke-width:1.49986px;stroke-linecap:butt;stroke-linejoin:miter;stroke-opacity:1"
       d="m 217.08242,2649.8057 c 36.90709,-50.2257 39.2881,-5.139 58.31878,36.2923 18.49928,-30.6102 5.37016,-37.0801 47.77595,2.3088 8.80076,-60.6152 28.70148,-43.015 52.77387,-10.9502 -8.33465,-42.6242 -8.81213,-62.5771 28.15389,-25.9228 9.37569,-48.4233 28.08772,-13.1777 54.29681,10.3696 -6.36522,-54.7029 -9.43727,-54.5433 44.24189,-44.9322 -37.30857,-48.1984 12.34553,-26.491 50.27471,-20.7394 -56.92936,-37.391 -36.38571,-30.7833 20.1101,-27.6509 -70.09485,-30.9514 -74.25014,-26.6667 -8.04407,-63.9433 -98.70585,11.1753 -89.4022,9.8366 -24.13193,-55.302 -39.18092,5.5174 -140.98295,82.943 -78.42873,13.8262 -53.48141,18.2513 -77.40978,39.2565 -49.37466,-20.9763 l -19.66776,-1.0234 c -20.37926,21.8995 -44.11621,56.4771 -47.59527,11.6299 -29.76644,33.519 -28.07601,39.1189 -42.23077,-3.4564 -19.66696,57.8645 -22.71029,13.0651 -34.18713,-24.1945 -25.83448,34.7634 -26.07555,74.5428 -42.23077,19.0097 -11.24706,56.5135 -34.0037,16.4098 -66.36284,-10.3684 10.09255,61.5083 12.97253,60.8806 -36.19797,22.4662 18.43992,56.1578 -0.12592,44.3678 -52.285671,41.4758 62.451481,49.6039 42.560661,48.1051 -20.110112,82.9544 35.01382,5.5208 97.345683,-28.793 64.351853,17.2813 77.3397,-28.1852 15.08709,45.1113 -4.02196,82.953 69.10198,-57.7667 97.75391,-104.5155 104.57179,-31.1074 z"
       id="path1309"
       inkscape:connector-curvature="0"
       sodipodi:nodetypes="ccccccccccccccccccccccccc" />
    <path
       style="display:inline;fill:#ffffff;stroke:none;stroke-width:1.02829"
       d="m 1992.7821,1897.0397 c -40.4296,2.736 -80.3452,11.3654 -115.7321,25.3762 -23.7963,9.4592 -45.5733,21.4595 -62.8698,36.0163 -45.0802,36.8691 -68.5034,84.6133 -66.9017,131.316 -0.2539,38.8305 15.0355,77.9928 48.643,109.2538 32.1952,30.6293 77.6986,55.772 131.8639,67.1058 31.6743,6.7754 64.3826,11.4505 97.3069,15.0475 45.6479,3.2885 91.789,-3.2909 135.9075,-12.0083 39.362,-7.7571 78.6744,-18.9489 109.1295,-38.1915 33.6609,-21.2595 55.1853,-49.3969 71.5439,-77.7954 16.5948,-28.4516 25.5346,-59.3983 19.2618,-89.4294 -5.482,-30.6845 -16.4049,-61.5992 -41.0771,-87.7014 -24.1154,-25.3208 -60.1949,-44.917 -101.1321,-57.1409 -53.6756,-16.5798 -113.6912,-22.6178 -173.1077,-23.2252 -17.6052,-0.04 -35.2458,0.2802 -52.836,1.3765 z"
       id="path3280-5"
       inkscape:connector-curvature="0"
       sodipodi:nodetypes="csssc" />
    <path
       style="color:#000000;display:inline;overflow:visible;visibility:visible;fill:#ffffff;fill-opacity:1;fill-rule:nonzero;stroke:none;stroke-width:0.869755px;marker:none;enable-background:accumulate"
       d="m 631.52816,1840.5303 c 47.24511,-27.3875 115.83444,-55.1086 154.24551,3.9472 23.5574,-4.8627 69.71482,-40.1263 115.42935,17.7336 -47.53609,-35.9834 -78.50267,-15.4767 -118.07887,4.9225 -18.59072,-41.5285 -83.01307,-49.4207 -140.96132,7.1368 -57.94866,56.5566 -38.62415,45.003 -38.62415,45.003 l 10.52452,-62.5977 z"
       id="path5074-8"
       inkscape:connector-curvature="0"
       sodipodi:nodetypes="ccccsccc" />
    <path
       style="display:inline;fill:#ffffff;stroke:none;stroke-width:1.18834"
       d="m 465.51238,1809.6248 c -34.68188,0.7389 -70.1199,3.4396 -102.66955,16.8084 -42.86246,18.3204 -75.40112,59.7151 -84.59766,106.617 -6.59813,30.9899 -5.98549,64.0314 4.12374,94.1487 9.69036,27.8612 30.55811,50.9356 56.13393,64.0185 12.86391,6.833 26.90215,10.815 41.04531,13.6347 23.42793,5.0583 47.09797,9.0377 70.91319,11.5291 53.22037,5.0806 108.52713,0.3701 157.78324,-22.3317 16.67748,-7.7539 32.96707,-17.5861 45.24763,-31.8188 16.89306,-20.9574 24.35737,-47.9653 28.85021,-74.3543 5.47155,-34.478 1.90145,-71.4877 -15.06323,-102.1896 -17.47144,-30.9888 -48.04725,-52.6652 -81.22212,-62.0331 -33.32015,-10.1393 -68.22556,-12.6084 -102.75642,-14.0875 -5.92924,-0.1 -11.85975,-0.077 -17.78827,0.059 z"
       id="path3280-5-9"
       inkscape:connector-curvature="0"
       sodipodi:nodetypes="csssc" />
    <path
       style="color:#000000;display:inline;overflow:visible;visibility:visible;fill:#ffffff;fill-opacity:1;fill-rule:nonzero;stroke:none;stroke-width:1.28148px;marker:none;enable-background:accumulate"
       d="m 1537.8412,284.94746 c 6.5633,-105.76337 76.9053,-182.47388 319.072,-163.46234 129.7179,10.18345 276.9636,16.63628 268.8526,171.56664 -8.1112,154.93009 -219.6932,151.7186 -263.3304,155.49977 -43.6367,3.78143 -249.3046,-12.62073 -289.5884,-65.16602 -25.2171,-32.89174 -35.4042,-65.68853 -35.0058,-98.43805 z"
       id="path4546-7"
       inkscape:connector-curvature="0"
       sodipodi:nodetypes="cssssc" />
    <path
       style="fill:#ffffff;fill-rule:evenodd;stroke:none;stroke-width:1px;stroke-linecap:butt;stroke-linejoin:miter;stroke-opacity:1"
       d="m 1583.1971,228.38894 -0.065,25.78758 C 1064.4433,130.64867 897.1794,416.85146 793.5913,670.33743 810.89342,604.71047 848.83107,539.01086 867.11504,495.25305 921.33848,365.48369 1120.9039,126.81475 1583.1971,228.38894 Z"
       id="path1237"
       sodipodi:nodetypes="cccsc" />
    <path
       style="fill:#ffffff;fill-rule:evenodd;stroke:none;stroke-width:1.10439px;stroke-linecap:butt;stroke-linejoin:miter;stroke-opacity:1"
       d="m 762.11421,216.60577 c 40.3442,11.39062 76.8126,18.47248 64.41408,-28.77198 71.41189,64.14139 61.16791,20.21324 72.46585,4.7953 42.45696,45.30926 78.98768,38.85236 110.71176,-9.5906 17.934,69.87666 55.4627,36.02096 88.5694,25.57509 -0.08,19.65041 -43.446,51.58168 76.5452,14.77426 -27.9319,17.74772 -74.0655,47.46097 9.5944,29.6687 -13.5577,4.70521 10.943,8.43155 1.1856,11.20152 -43.6677,12.39671 -51.8086,40.33824 14.3971,50.2334 -46.784,11.02696 -57.3998,38.61543 -2.3112,70.34972 -69.9566,-21.89745 -59.3879,7.05318 -46.4432,21.02109 -68.6959,-28.71797 -78.3075,-17.22036 -72.4656,4.7953 -21.9239,-20.08627 -46.94,-28.49669 -95.23996,5.75414 10.80399,-20.57301 -41.74627,-19.99146 -90.24066,12.56682 25.53747,-31.32526 -10.52068,-35.53776 -50.66518,-15.76372 -10.58836,-33.28802 -50.34784,-16.38659 -92.59524,4.7954 34.48355,-32.48983 36.98237,-59.63244 -30.19409,-75.12704 65.09961,-18.58654 53.24554,-33.57856 28.18117,-47.95337 24.76278,-13.51742 40.90842,-28.24224 -24.15529,-54.34725 38.04114,4.05839 78.54611,9.29069 38.24586,-23.97678 z"
       id="path4582"
       inkscape:connector-curvature="0"
       sodipodi:nodetypes="cccccccscccccccccccc" />
    <path
       style="fill:#ffffff;fill-rule:evenodd;stroke:none;stroke-width:1.14149px;stroke-linecap:butt;stroke-linejoin:miter;stroke-opacity:1"
       d="m 186.64099,269.10219 c 14.16793,-17.9695 21.6656,-57.67395 -26.96962,-49.84375 39.28832,-24.22773 26.02054,-46.39487 -3.9116,-60.30611 73.97307,21.84758 73.30597,-3.1264 61.65626,-34.98976 47.54155,45.23929 40.41961,-2.73478 35.84699,-20.87523 10.75548,16.73933 13.0223,42.92164 49.60085,2.10678 -0.32028,30.13252 -6.17118,65.92523 62.1714,25.78584 -22.50387,36.76194 -23.29348,63.59943 42.00483,60.23151 -28.38205,11.84018 -67.58994,23.8538 -13.96314,34.38016 -34.61657,-0.92979 -57.61576,1.55757 -42.76886,15.17701 -14.37392,-2.5435 -33.83306,-9.95842 -3.30801,30.50934 -20.80242,-14.97453 -46.52652,-38.26005 -39.11492,-5.59088 -18.23798,-14.68676 -19.40407,6.8976 -15.2404,39.80566 -12.94537,-38.21825 -26.75878,-42.54053 -41.59034,-7.10557 6.55708,-27.98121 3.27152,-63.65454 -44.38626,-25.35425 -12.90735,-2.90399 -11.03497,-2.74842 -20.02718,-3.93075 z"
       id="path1213"
       sodipodi:nodetypes="cccccccccccccccc" />
    <path
       style="fill:#ffffff;fill-rule:evenodd;stroke:none;stroke-width:1.28731px;stroke-linecap:butt;stroke-linejoin:miter;stroke-opacity:1"
       d="M 223.92681,451.40352 C 191.03014,380.78428 162.95416,309.9462 234.75229,234.57441 l -10.34265,-15.32374 c -90.31546,91.35161 -49.21656,162.34365 -0.48283,232.15285 z"
       id="path1217"
       sodipodi:nodetypes="cccc" />
    <path
       style="fill:#ffffff;fill-rule:evenodd;stroke:none;stroke-width:1.08499px;stroke-linecap:butt;stroke-linejoin:miter;stroke-opacity:1"
       d="m 1643.7985,1929.1739 c 96.8015,-46.6867 120.9988,-40.2821 80.5755,28.3512 65.4725,-1.176 123.2483,3.9962 149.8904,34.8462 l 15.5883,-26.0596 c -31.2138,-18.9598 -72.3678,-35.221 -134.1445,-30.1606 20.9177,-34.9284 13.3859,-99.1339 -111.9097,-6.9772 z"
       id="path1284"
       sodipodi:nodetypes="cccccc" />
    <text
       xml:space="preserve"
       style="font-style:normal;font-variant:normal;font-weight:normal;font-stretch:normal;font-size:45px;line-height:1.25;font-family:Lavi;-inkscape-font-specification:Lavi;text-align:center;letter-spacing:0px;word-spacing:0px;text-anchor:middle;fill:#000000;fill-opacity:1;stroke:none"
       x="2149.2981"
       y="2552.0259"
       id="text4246-3-2-2-6-3-7-9-3-3-56-9-3-20-5-9-02-6"><tspan
         style="font-size:45px"
         sodipodi:role="line"
         x="2149.2981"
         y="2552.0259"
         id="tspan992-2-1">Considerati</tspan><tspan
         style="font-size:45px"
         sodipodi:role="line"
         x="2149.2981"
         y="2608.2759"
         id="tspan1175-1">fortunata!</tspan></text>
  </g>
  <g
     inkscape:groupmode="layer"
     id="layer1"
     inkscape:label="txt">
    <text
       xml:space="preserve"
       style="font-style:normal;font-variant:normal;font-weight:normal;font-stretch:normal;font-size:81.3623px;line-height:1.25;font-family:Lavi;-inkscape-font-specification:Lavi;text-align:center;letter-spacing:0px;word-spacing:0px;text-anchor:middle;fill:#000000;fill-opacity:1;stroke:none;stroke-width:1.408;stroke-miterlimit:4;stroke-dasharray:none"
       x="316.34204"
       y="221.56798"
       id="text4246-3-2-2-6-3-7-9-3-3-56-9-3-20"
       transform="matrix(0.93887237,0,-0.13753791,1.0651075,0,0)"><tspan
         style="font-style:normal;font-variant:normal;font-weight:normal;font-stretch:normal;font-size:81.3623px;font-family:Lavi;-inkscape-font-specification:Lavi;stroke:#000000;stroke-width:1.408;stroke-miterlimit:4;stroke-dasharray:none;stroke-opacity:1"
         sodipodi:role="line"
         x="316.34204"
         y="221.56798"
         id="tspan334">?!!</tspan></text>
    <text
       xml:space="preserve"
       style="font-style:normal;font-variant:normal;font-weight:normal;font-stretch:normal;font-size:48.8015px;line-height:1.25;font-family:Lavi;-inkscape-font-specification:Lavi;text-align:center;letter-spacing:0px;word-spacing:0px;text-anchor:middle;fill:#000000;fill-opacity:1;stroke:none;stroke-width:1.08448"
       x="1829.2006"
       y="208.50026"
       id="text4246-3-2-2-6-3-7-9-3-3-56-9-3-20-3-7"><tspan
         style="font-size:48.8015px;stroke-width:1.08448"
         sodipodi:role="line"
         x="1829.2006"
         y="208.50026"
         id="tspan880-3">Ho appena cancellato</tspan><tspan
         style="font-size:48.8015px;stroke-width:1.08448"
         sodipodi:role="line"
         x="1829.2006"
         y="269.50214"
         id="tspan900">il suo incantesimo</tspan><tspan
         style="font-size:48.8015px;stroke-width:1.08448"
         sodipodi:role="line"
         x="1829.2006"
         y="330.504"
         id="tspan916"><tspan
   style="font-style:italic;font-variant:normal;font-weight:normal;font-stretch:normal;font-family:Lavi;-inkscape-font-specification:'Lavi Italic'"
   id="tspan164">Glamour </tspan>che la fa</tspan><tspan
         style="font-size:48.8015px;stroke-width:1.08448"
         sodipodi:role="line"
         x="1829.2006"
         y="391.50589"
         id="tspan914">sembrare giovane.</tspan></text>
    <text
       xml:space="preserve"
       style="font-style:normal;font-variant:normal;font-weight:normal;font-stretch:normal;font-size:45px;line-height:1.25;font-family:Lavi;-inkscape-font-specification:Lavi;text-align:center;letter-spacing:0px;word-spacing:0px;text-anchor:middle;fill:#000000;fill-opacity:1;stroke:none"
       x="479.57349"
       y="1901.157"
       id="text4246-3-2-2-6-3-7-9-3-3-56-9-3-20-5"><tspan
         style="font-size:45px"
         sodipodi:role="line"
         x="479.57349"
         y="1901.157"
         id="tspan943">Mi sono accorta</tspan><tspan
         style="font-size:45px"
         sodipodi:role="line"
         x="479.57349"
         y="1957.407"
         id="tspan905"> dell'incantesimo</tspan><tspan
         style="font-size:45px"
         sodipodi:role="line"
         x="479.57349"
         y="2013.657"
         id="tspan924">non appena</tspan><tspan
         style="font-size:45px"
         sodipodi:role="line"
         x="479.57349"
         y="2069.907"
         id="tspan210">sono arrivata.</tspan></text>
    <text
       xml:space="preserve"
       style="font-style:normal;font-variant:normal;font-weight:normal;font-stretch:normal;font-size:45px;line-height:1.25;font-family:Lavi;-inkscape-font-specification:Lavi;text-align:center;letter-spacing:0px;word-spacing:0px;text-anchor:middle;fill:#000000;fill-opacity:1;stroke:none"
       x="2060.0312"
       y="1966.6521"
       id="text4246-3-2-2-6-3-7-9-3-3-56-9-3-20-5-9"><tspan
         style="font-size:45px"
         sodipodi:role="line"
         x="2060.0312"
         y="1966.6521"
         id="tspan921">Ecco, vi ho dato </tspan><tspan
         style="font-size:45px"
         sodipodi:role="line"
         x="2060.0312"
         y="2022.9021"
         id="tspan946">una piccola dimostrazione</tspan><tspan
         style="font-size:45px"
         sodipodi:role="line"
         x="2060.0312"
         y="2079.1521"
         id="tspan76">di quello che vi meritate</tspan><tspan
         style="font-size:45px"
         sodipodi:role="line"
         x="2060.0312"
         y="2135.4021"
         id="tspan948">per aver obbligato Shichimi</tspan><tspan
         style="font-size:45px"
         sodipodi:role="line"
         x="2060.0312"
         y="2191.6521"
         id="tspan222">a combattere</tspan><tspan
         style="font-size:45px"
         sodipodi:role="line"
         x="2060.0312"
         y="2247.9021"
         id="tspan224">contro di me!</tspan></text>
    <text
       xml:space="preserve"
       style="font-style:normal;font-variant:normal;font-weight:normal;font-stretch:normal;font-size:60px;line-height:1.25;font-family:Lavi;-inkscape-font-specification:Lavi;text-align:center;letter-spacing:2px;word-spacing:0px;text-anchor:middle;fill:#000000;fill-opacity:1;stroke:none;stroke-width:1.32287"
       x="371.23419"
       y="2215.2615"
       id="text4246-3-2-2-6-3-7-9-3-3-56-9-3-20-5-9-0"
       transform="scale(0.860916,1.1615535)"><tspan
         style="font-style:normal;font-variant:normal;font-weight:bold;font-stretch:normal;font-size:60px;font-family:Lavi;-inkscape-font-specification:'Lavi Bold';stroke-width:1.32287"
         sodipodi:role="line"
         x="372.23419"
         y="2215.2615"
         id="tspan992-6">INSOLENTE!</tspan></text>
    <text
       xml:space="preserve"
       style="font-style:normal;font-variant:normal;font-weight:normal;font-stretch:normal;font-size:58px;line-height:1.25;font-family:Lavi;-inkscape-font-specification:Lavi;text-align:center;letter-spacing:0px;word-spacing:0px;text-anchor:middle;fill:#000000;fill-opacity:1;stroke:none;stroke-width:1.30553"
       x="330.97919"
       y="2751.8735"
       id="text4246-3-2-2-6-3-7-9-3-3-56-9-3-20-5-2"><tspan
         style="font-size:58px;stroke-width:1.30553"
         sodipodi:role="line"
         x="330.97919"
         y="2751.8735"
         id="tspan943-8">Come </tspan><tspan
         style="font-size:58px;stroke-width:1.30553"
         sodipodi:role="line"
         x="330.97919"
         y="2824.3735"
         id="tspan1085">osi,</tspan></text>
    <text
       xml:space="preserve"
       style="font-style:normal;font-variant:normal;font-weight:normal;font-stretch:normal;font-size:50px;line-height:1.25;font-family:Lavi;-inkscape-font-specification:Lavi;text-align:center;letter-spacing:0px;word-spacing:0px;text-anchor:middle;fill:#000000;fill-opacity:1;stroke:none;stroke-width:1.30553"
       x="320.56845"
       y="2934.1201"
       id="text4246-3-2-2-6-3-7-9-3-3-56-9-3-20-5-2-7"><tspan
         style="font-size:50px;stroke-width:1.30553"
         sodipodi:role="line"
         x="320.56845"
         y="2934.1201"
         id="tspan1119">di fronte</tspan><tspan
         style="font-size:50px;stroke-width:1.30553"
         sodipodi:role="line"
         x="320.56845"
         y="2996.6201"
         id="tspan957">a tutta la</tspan><tspan
         style="font-size:50px;stroke-width:1.30553"
         sodipodi:role="line"
         x="320.56845"
         y="3059.1201"
         id="tspan959"> mia scuola!</tspan></text>
    <text
       xml:space="preserve"
       style="font-style:normal;font-variant:normal;font-weight:normal;font-stretch:normal;font-size:45px;line-height:1.25;font-family:Lavi;-inkscape-font-specification:Lavi;text-align:center;letter-spacing:0px;word-spacing:0px;text-anchor:middle;fill:#000000;fill-opacity:1;stroke:none"
       x="2159.6121"
       y="2726.9434"
       id="text4246-3-2-2-6-3-7-9-3-3-56-9-3-20-5-9-02-2"><tspan
         style="font-size:45px"
         sodipodi:role="line"
         x="2159.6121"
         y="2726.9434"
         id="tspan970">Se avessi avuto</tspan><tspan
         style="font-size:45px"
         sodipodi:role="line"
         x="2159.6121"
         y="2783.1934"
         id="tspan980">tutta la mia Rea,</tspan><tspan
         style="font-size:45px"
         sodipodi:role="line"
         x="2159.6121"
         y="2839.4434"
         id="tspan80">non mi sarei</tspan><tspan
         style="font-size:45px"
         sodipodi:role="line"
         x="2159.6121"
         y="2895.6934"
         id="tspan982">fermata qui.</tspan></text>
    <text
       xml:space="preserve"
       style="font-style:normal;font-variant:normal;font-weight:normal;font-stretch:normal;font-size:52.13230000000000075px;line-height:1.25;font-family:Lavi;-inkscape-font-specification:Lavi;text-align:center;letter-spacing:0px;word-spacing:0px;text-anchor:middle;fill:#000000;fill-opacity:1;stroke:none;stroke-width:1.1585"
       x="955.36609"
       y="283.94598"
       id="text4246-3-2-2-6-3-7-9-3-3-56-9-3-20-3-3"><tspan
         style="font-size:52.13230000000000075px;stroke-width:1.1585;"
         sodipodi:role="line"
         x="955.36609"
         y="283.94598"
         id="tspan334-6">Lei... era</tspan><tspan
         style="font-size:52.13230000000000075px;stroke-width:1.1585;"
         sodipodi:role="line"
         x="955.36609"
         y="349.11136"
         id="tspan880-7">il mio obiettivo!</tspan></text>
  </g>
</svg>
