<?xml version="1.0" encoding="UTF-8" standalone="no"?>
<!-- Created with Inkscape (http://www.inkscape.org/) -->

<svg
   xmlns:dc="http://purl.org/dc/elements/1.1/"
   xmlns:cc="http://creativecommons.org/ns#"
   xmlns:rdf="http://www.w3.org/1999/02/22-rdf-syntax-ns#"
   xmlns:svg="http://www.w3.org/2000/svg"
   xmlns="http://www.w3.org/2000/svg"
   xmlns:xlink="http://www.w3.org/1999/xlink"
   xmlns:sodipodi="http://sodipodi.sourceforge.net/DTD/sodipodi-0.dtd"
   xmlns:inkscape="http://www.inkscape.org/namespaces/inkscape"
   id="svg2"
   version="1.1"
   inkscape:version="0.92.4 5da689c313, 2019-01-14"
   width="2481"
   height="3503"
   sodipodi:docname="E27P03.svg">
  <metadata
     id="metadata8">
    <rdf:RDF>
      <cc:Work
         rdf:about="">
        <dc:format>image/svg+xml</dc:format>
        <dc:type
           rdf:resource="http://purl.org/dc/dcmitype/StillImage" />
        <dc:title />
      </cc:Work>
    </rdf:RDF>
  </metadata>
  <defs
     id="defs6">
    <filter
       style="color-interpolation-filters:sRGB"
       id="filter4375-4-1-1-1-9"
       inkscape:label="deevad outline effect">
      <feFlood
         id="feFlood4377-7-9-0-8-1"
         flood-opacity="1"
         flood-color="rgb(0,0,0)"
         result="flood" />
      <feComposite
         id="feComposite4379-3-8-8-2-77"
         in2="SourceGraphic"
         in="flood"
         operator="in"
         result="composite1" />
      <feMorphology
         id="feMorphology4393-1-0-49-8-9"
         operator="dilate"
         radius="4"
         result="result3" />
      <feComposite
         id="feComposite4385-9-5-7-0-8"
         in2="result3"
         in="SourceGraphic"
         operator="over"
         result="composite2" />
    </filter>
    <filter
       style="color-interpolation-filters:sRGB"
       id="filter4375-4-1-1-1-9-5"
       inkscape:label="deevad outline effect">
      <feFlood
         id="feFlood4377-7-9-0-8-1-8"
         flood-opacity="1"
         flood-color="rgb(0,0,0)"
         result="flood" />
      <feComposite
         id="feComposite4379-3-8-8-2-77-0"
         in2="SourceGraphic"
         in="flood"
         operator="in"
         result="composite1" />
      <feMorphology
         id="feMorphology4393-1-0-49-8-9-0"
         operator="dilate"
         radius="4"
         result="result3" />
      <feComposite
         id="feComposite4385-9-5-7-0-8-0"
         in2="result3"
         in="SourceGraphic"
         operator="over"
         result="composite2" />
    </filter>
  </defs>
  <sodipodi:namedview
     pagecolor="#ffffff"
     bordercolor="#666666"
     borderopacity="1"
     objecttolerance="10"
     gridtolerance="10"
     guidetolerance="10"
     inkscape:pageopacity="0"
     inkscape:pageshadow="2"
     inkscape:window-width="1920"
     inkscape:window-height="1024"
     id="namedview4"
     showgrid="false"
     inkscape:zoom="0.60491496"
     inkscape:cx="1135.0315"
     inkscape:cy="781.29406"
     inkscape:window-x="0"
     inkscape:window-y="24"
     inkscape:window-maximized="1"
     inkscape:current-layer="layer1"
     inkscape:snap-global="false" />
  <g
     inkscape:groupmode="layer"
     id="layer2"
     inkscape:label="artwork"
     sodipodi:insensitive="true">
    <image
       sodipodi:absref="/home/midgard/git/peppercarrot/comics/ep27_Coriander-s-Invention/lang/kr/../gfx_Pepper-and-Carrot_by-David-Revoy_E27P03.png"
       xlink:href="../gfx_Pepper-and-Carrot_by-David-Revoy_E27P03.png"
       width="2481"
       height="3503"
       id="image10"
       x="0"
       y="0" />
  </g>
  <g
     inkscape:groupmode="layer"
     id="layer3"
     inkscape:label="speechbubbles">
    <path
       style="fill:#ffffff;fill-rule:evenodd;stroke:none;stroke-width:0.93883085px;stroke-linecap:butt;stroke-linejoin:miter;stroke-opacity:1"
       d="m 1139.973,1575.3738 c 2.3781,-55.8541 0.8912,-94.0323 19.9255,-107.5615 19.0345,-13.529 163.6527,-13.9309 175.3191,-12.9046 11.6664,1.0264 36.4064,7.3205 46.6657,4.1053 10.2591,-3.2151 39.9753,-4.2434 55.5944,-0.4937 15.6193,3.7496 83.0827,4.2495 91.142,15.4109 8.0593,11.1616 28.1933,41.8742 27.8232,76.2082 -0.3703,34.3339 -9.6208,52.3394 -19.4574,71.2705 -9.8368,18.931 -45.1827,46.1505 -65.8932,45.4371 -20.7104,-0.7134 -89.8205,2.3795 -101.4486,2.7819 -11.628,0.4024 -83.8648,7.1922 -108.4129,8.0417 -24.548,0.8494 -61.9769,-12.5504 -87.0628,-31.7029 -25.0857,-19.1526 -34.195,-70.5929 -34.195,-70.5929 z"
       id="path263"
       inkscape:connector-curvature="0"
       sodipodi:nodetypes="ccccccccssccc" />
    <path
       style="fill:#ffffff;fill-rule:evenodd;stroke:none;stroke-width:1px;stroke-linecap:butt;stroke-linejoin:miter;stroke-opacity:1"
       d="m 1252.6692,1467.8179 c 0,0 -14.7372,-14.1832 -28.1318,-24.3459 -13.1591,-9.9839 -23.1743,-37.0399 -19.4243,-57.7963 -18.1089,29.447 -5.815,53.6299 11.889,81.0614 15.1315,24.8588 35.6671,1.0808 35.6671,1.0808 z"
       id="path265"
       inkscape:connector-curvature="0"
       sodipodi:nodetypes="csccc" />
    <path
       style="fill:#ffffff;fill-rule:evenodd;stroke:none;stroke-width:0.92811328px;stroke-linecap:butt;stroke-linejoin:miter;stroke-opacity:1"
       d="m 1990.4298,1842.3898 c 20.8708,-28.9517 66.8646,-44.0967 102.9144,-44.9009 36.0497,-0.8042 130.9172,8.0421 162.2235,21.7138 31.3063,13.6715 60.2579,29.6208 57.4119,69.0271 -2.8461,39.4064 -11.3842,80.4211 -17.0762,94.8971 -5.6921,14.4757 -23.7169,36.9937 -41.7417,49.861 -18.0249,12.8674 -79.6888,16.0843 -101.5083,16.0843 -21.8196,0 -97.7137,-9.6506 -113.8411,-21.7138 -16.1275,-12.0631 -49.3312,-32.1684 -55.0232,-68.3579 -5.6921,-36.1895 -2.8461,-94.897 6.6407,-116.6107 z"
       id="path267"
       inkscape:connector-curvature="0"
       sodipodi:nodetypes="csccccscsc" />
    <path
       style="fill:#ffffff;fill-rule:evenodd;stroke:none;stroke-width:1px;stroke-linecap:butt;stroke-linejoin:miter;stroke-opacity:1"
       d="m 1874.768,1864.6864 c 53.571,-19.7367 111.3904,-9.3727 131.1271,16.0031 19.7367,25.3757 16.4282,45.0866 16.4282,45.0866 l -21.6164,9.3985 c 0,14.3171 5.8835,-17.1392 -7.2743,-30.7446 -12.9359,-13.376 -35.6882,-34.1046 -57.3046,-37.8639 -21.6164,-3.7594 -50.0819,-2.8196 -61.36,-1.8797 z"
       id="path269"
       inkscape:connector-curvature="0"
       sodipodi:nodetypes="ccccscc" />
    <path
       style="fill:#ffffff;fill-rule:evenodd;stroke:none;stroke-width:0.88782531px;stroke-linecap:butt;stroke-linejoin:miter;stroke-opacity:1"
       d="m 315.57183,2427.5851 c 17.03876,-18.3739 56.2279,-23.778 73.26666,-30.2629 17.03876,-6.4849 40.04109,-1.0808 51.11628,-2.1616 11.07519,-1.0809 41.74496,-6.4849 50.26434,-5.4041 8.51938,1.0808 63.04341,6.4849 74.1186,7.5657 11.0752,1.0808 58.78372,6.4849 63.89535,27.0205 5.11163,20.5355 20.44651,60.5258 12.77907,79.9806 -7.66744,19.4547 -17.03876,52.9601 -39.18914,64.8491 -22.1504,11.889 -56.22791,31.3438 -96.26899,33.5054 -40.04109,2.1616 -95.41706,-6.4849 -103.93644,-6.4849 -8.51938,0 -53.67209,1.0808 -71.56279,-25.9397 -17.8907,-27.0204 -30.66976,-57.2834 -28.11395,-84.3038 2.55581,-27.0205 13.63101,-58.3643 13.63101,-58.3643 z"
       id="path271"
       inkscape:connector-curvature="0" />
    <path
       style="fill:#ffffff;fill-rule:evenodd;stroke:none;stroke-width:1px;stroke-linecap:butt;stroke-linejoin:miter;stroke-opacity:1"
       d="m 549.40558,2567.868 c 0,0 -6.17962,40.1675 -4.9437,48.819 1.23593,8.6515 12.35924,48.201 19.77478,58.0884 -19.15682,-22.2466 -31.51605,-51.2908 -33.9879,-61.1782 -2.47184,-9.8874 -1.23592,-50.0549 -1.23592,-50.0549 z"
       id="path273"
       inkscape:connector-curvature="0" />
    <path
       style="fill:#ffffff;fill-rule:evenodd;stroke:none;stroke-width:1px;stroke-linecap:butt;stroke-linejoin:miter;stroke-opacity:1"
       d="m 874.10689,2397.2192 c 36.95412,-5.6852 28.42624,7.8173 60.40576,7.1066 31.97953,-0.7106 97.35985,-7.8172 112.99435,-14.2131 8.5278,-3.5533 9.2385,2.132 9.2385,2.132 0,0 26.2943,1.4213 31.2689,2.8426 4.9745,1.4213 24.1623,10.6598 31.2688,8.5279 7.1066,-2.132 19.1877,-5.6853 19.1877,-5.6853 0,0 -0.7106,47.614 -1.4213,51.1672 -0.7106,3.5533 -5.6852,30.5582 -5.6852,39.7968 0,9.2385 4.2639,23.4516 3.5532,27.7156 -0.7106,4.2639 9.2386,14.9237 9.2386,14.9237 l -27.005,0.7107 -18.477,2.132 -7.8172,-2.132 -33.4009,2.8426 -19.1877,0.7107 1.4213,-4.264 -82.43605,4.264 3.55328,-6.3959 -28.42624,1.4213 -10.65984,6.3959 -3.55328,-5.6853 -24.16231,0.7107 -12.79181,6.3959 7.10656,-13.5025 -10.65984,-7.8172 -2.13196,-104.4664 6.3959,-4.264 z"
       id="path275"
       inkscape:connector-curvature="0" />
    <path
       style="fill:#ffffff;fill-rule:evenodd;stroke:none;stroke-width:1px;stroke-linecap:butt;stroke-linejoin:miter;stroke-opacity:1"
       d="m 1118.5743,2437.016 c 32.7805,-4.9746 54.6342,9.2385 62.6473,7.8172 8.0131,-1.4213 34.2376,-10.6598 42.979,-9.9492 8.7415,0.7107 64.1044,8.5279 80.8588,5.6853 16.7545,-2.8427 53.9059,0 59.7336,-0.7107 5.8275,-0.7106 29.1382,-14.2131 35.6944,-14.2131 6.5561,0 17.4829,6.3959 41.5221,-9.2385 -10.1985,18.477 -16.0261,31.2688 -16.0261,31.2688 0,0 25.496,-7.1065 35.6943,-7.1065 10.1985,0 18.2116,3.5532 23.3107,1.4213 5.0992,-2.132 32.7806,-2.8426 37.1514,-2.8426 4.3708,0 15.2975,-3.5533 20.3968,-3.5533 5.0992,0 51.7205,4.2639 58.2766,4.2639 6.5561,0 67.7465,-7.1066 74.3026,-7.1066 6.5561,0 36.4229,2.132 48.8068,-2.8426 1.4568,14.2131 -2.9139,48.3246 -2.9139,56.1418 0,7.8173 0.7284,17.7664 0.7284,24.1624 -10.9268,7.1065 -18.94,21.3196 -18.94,21.3196 0,0 18.2116,3.5533 23.3107,0.7107 5.0992,-2.8426 2.1854,52.5885 2.9139,63.2484 0.7285,10.6598 -8.7415,0.7106 -8.7415,0.7106 0,0 -1.4569,7.8172 -7.2846,9.2386 -5.8276,1.4213 -108.5401,-0.7107 -120.1954,-0.7107 -11.6554,0 -15.2977,3.5533 -15.2977,3.5533 h -50.2636 l -1.4569,-6.3959 -22.5821,4.2639 -30.5953,4.9746 -18.2114,3.5533 -10.1983,-2.8426 -50.2637,0.7106 -43.7074,1.4213 10.9268,-10.6598 -113.6393,7.8172 -52.449,1.4213 -48.0782,6.3959 -9.4699,-22.741 -5.0993,-49.0352 c 0,0 -2.9138,-13.5026 5.0993,-15.6345 8.013,-2.1319 -5.8277,-4.2639 -7.2846,-17.0557 -1.457,-12.7918 -5.8276,-45.482 -5.8276,-45.482 l 9.4699,-2.8426 -11.6553,-7.1066 z"
       id="path277"
       inkscape:connector-curvature="0" />
    <path
       style="fill:#ffffff;fill-rule:evenodd;stroke:none;stroke-width:0.99999994px;stroke-linecap:butt;stroke-linejoin:miter;stroke-opacity:1"
       d="m 1327.3521,2751.2587 c 32.6788,-36.3054 55.3539,-80.3905 55.3539,-94.0051 8.6697,12.9662 8.0028,10.373 8.0028,10.373 0,0 14.6721,-38.8987 14.0051,-62.8862 -0.6667,-23.9875 26.6766,-24.6358 30.0111,-19.4493 3.3345,5.1864 9.47,23.9875 9.47,23.9875 l -4.1347,13.6145 -4.0015,-3.2415 c 0,0 -15.3389,40.1952 -17.3397,44.7334 -2.0008,4.5382 -10.6705,23.9876 -10.6705,23.9876 l -2.6677,-11.6696 -14.6721,10.373 0.6669,16.2077 -8.003,-7.1314 c 0,0 -0.6667,9.7247 -4.0014,14.9112 -3.3346,5.1864 -24.0089,27.8774 -26.6765,31.1189 -2.6676,3.2415 -25.3427,9.0763 -25.3427,9.0763 z"
       id="path279"
       inkscape:connector-curvature="0" />
    <path
       style="fill:#ffffff;fill-rule:evenodd;stroke:none;stroke-width:0.93233323px;stroke-linecap:butt;stroke-linejoin:miter;stroke-opacity:1"
       d="m 1862.0808,2446.5375 7.2398,6.3959 36.7802,-3.7564 7.3553,-7.2726 c 0,0 16.3451,7.2726 21.2486,4.8484 4.9035,-2.4242 24.5176,-4.0403 24.5176,-4.0403 l 7.3553,6.4645 17.9796,-2.4242 c 0,0 41.68,6.4645 51.487,5.6564 9.8071,-0.808 26.9694,-8.8886 26.9694,-8.8886 0,0 33.5075,8.8886 38.411,7.2725 4.9035,-1.6161 13.8933,-2.4241 13.8933,-2.4241 l 10.6243,17.7774 c 0,0 21.2486,-16.9694 21.2486,-25.05 13.8934,-0.8082 32.6902,0 35.9592,-1.6162 3.2691,-1.6161 4.9036,9.6968 4.9036,9.6968 l 9.807,5.6564 c 0,0 24.5176,-17.7774 26.9694,-21.0096 2.4518,-3.2323 18.7969,-2.4243 18.7969,-2.4243 0,0 22.8831,0.8081 26.1521,0 3.269,-0.808 17.1623,0.8081 29.4212,1.6161 12.2588,0.8082 24.5176,0.8082 33.5074,-2.4241 2.4518,13.7371 0,63.029 -0.8173,68.6855 -8.9898,13.737 -17.9796,39.5951 -25.3348,44.4435 19.6141,-9.6968 19.6141,-12.929 26.9693,-19.3935 -0.8172,20.2017 -7.3552,63.0289 -8.1725,67.8774 13.0761,-10.5048 11.4416,-8.0807 9.8071,-4.0403 -1.6346,4.0403 -6.5381,16.1612 -8.1726,25.8579 -1.6345,9.6968 0,21.8178 -1.6345,28.2823 -1.6345,6.4646 -3.269,15.3533 -3.269,15.3533 0,0 -32.6902,9.6967 -38.411,11.3129 -5.7208,1.6161 -56.3905,1.6161 -69.4666,1.6161 -13.0761,0 -32.6902,2.4242 -41.68,1.6161 4.9036,-8.8886 8.1726,-15.3532 8.1726,-15.3532 0,0 -40.8627,4.0403 -50.6698,5.6565 -9.8071,1.6161 -50.6698,-7.2726 -59.6596,-6.4645 -8.9898,0.808 -58.8423,2.4241 -71.9184,3.2322 -13.076,0.808 -45.7662,2.4242 -58.025,4.8484 -12.2588,2.4242 -49.0353,4.0403 -57.2078,4.0403 -8.1726,0 -23.7004,0.8081 -23.7004,0.8081 0,0 -1.6345,-29.0902 -1.6345,-39.5952 0,-10.5048 -4.0863,-62.2209 -0.8173,-67.8773 3.269,-5.6566 5.7208,-45.2517 5.7208,-49.292 0,-4.0403 -7.7109,-35.1243 -7.7109,-35.1243 z"
       id="path283"
       inkscape:connector-curvature="0"
       sodipodi:nodetypes="ccccscccccsccccccccccccccccccccscccccsscssscc" />
    <path
       style="fill:#ffffff;fill-rule:evenodd;stroke:none;stroke-width:0.99999994px;stroke-linecap:butt;stroke-linejoin:miter;stroke-opacity:1"
       d="m 1928.0456,2832.7023 c -13.1433,-30.6118 9.2927,-109.1953 20.1114,-126.6745 0,-10.6243 -4.641,-22.8831 -4.641,-22.8831 0,0 -11.6028,4.9035 -14.6968,10.6243 -3.0941,5.7208 13.1497,-34.3247 22.4319,-40.8627 9.2823,-6.538 -6.9616,-37.5937 -6.9616,-37.5937 0,0 -31.7143,26.1521 -33.2613,37.5937 -1.547,11.4416 -10.0557,70.2839 -6.1881,80.9082 3.8676,10.6243 6.1881,4.9035 9.2821,0.8172 3.0942,-4.0862 11.6029,-12.2588 16.244,-15.5278 -7.7353,19.6141 -20.1115,84.1772 -2.3206,113.5984 z"
       id="path285"
       inkscape:connector-curvature="0"
       sodipodi:nodetypes="ccccccssccc" />
  </g>
  <g
     inkscape:groupmode="layer"
     id="layer1"
     inkscape:label="txt">
    <text
       transform="matrix(0.70272407,-0.18897312,-0.12973321,0.91760952,503.3821,1657.2223)"
       id="text923"
       y="1584.5073"
       x="787.65729"
       style="font-style:normal;font-variant:normal;font-weight:normal;font-stretch:normal;line-height:1;font-family:'Nanum Pen Script OTF';-inkscape-font-specification:'Nanum Pen Script OTF';letter-spacing:0px;word-spacing:0px;fill:#000000;fill-opacity:1;stroke:#000000;stroke-width:0.60947049;stroke-miterlimit:4;stroke-dasharray:none;stroke-opacity:1;filter:url(#filter4375-4-1-1-1-9)"
       xml:space="preserve"><tspan
         style="font-style:normal;font-variant:normal;font-weight:normal;font-stretch:normal;font-size:80.40014648px;line-height:1;font-family:'Nanum Pen Script OTF';-inkscape-font-specification:'Nanum Pen Script OTF';fill:#ffffff;stroke-width:0.60947049"
         y="1584.5073"
         x="787.65729"
         id="tspan921"
         sodipodi:role="line">딸깍!</tspan></text>
    <text
       id="text873"
       y="1526.2671"
       x="1347.0281"
       style="font-style:normal;font-variant:normal;font-weight:normal;font-stretch:normal;font-size:15.31840515px;line-height:1;font-family:'Nanum Pen Script OTF';-inkscape-font-specification:'Nanum Pen Script OTF';text-align:center;letter-spacing:0px;word-spacing:0px;text-anchor:middle;fill:#000000;fill-opacity:1;stroke:none;stroke-width:1.27653384"
       xml:space="preserve"><tspan
         id="tspan871"
         y="1526.2671"
         x="1347.0281"
         style="font-style:normal;font-variant:normal;font-weight:normal;font-stretch:normal;font-size:57.44401932px;line-height:1;font-family:'Nanum Pen Script OTF';-inkscape-font-specification:'Nanum Pen Script OTF';stroke-width:1.27653384"
         sodipodi:role="line">내가 왜 이걸 새로</tspan><tspan
         y="1583.7111"
         x="1347.0281"
         style="font-style:normal;font-variant:normal;font-weight:normal;font-stretch:normal;font-size:57.44401932px;line-height:1;font-family:'Nanum Pen Script OTF';-inkscape-font-specification:'Nanum Pen Script OTF';stroke-width:1.27653384"
         sodipodi:role="line"
         id="tspan934">만들려고 했는지</tspan><tspan
         y="1641.1552"
         x="1347.0281"
         style="font-style:normal;font-variant:normal;font-weight:normal;font-stretch:normal;font-size:57.44401932px;line-height:1;font-family:'Nanum Pen Script OTF';-inkscape-font-specification:'Nanum Pen Script OTF';stroke-width:1.27653384"
         sodipodi:role="line"
         id="tspan936">곧 알게 될 거야.</tspan></text>
    <text
       id="text885"
       y="1882.9148"
       x="2148.0454"
       style="font-style:normal;font-variant:normal;font-weight:normal;font-stretch:normal;font-size:13.93379879px;line-height:1;font-family:'Nanum Pen Script OTF';-inkscape-font-specification:'Nanum Pen Script OTF';text-align:center;letter-spacing:0px;word-spacing:0px;text-anchor:middle;fill:#000000;fill-opacity:1;stroke:none;stroke-width:1.16114986"
       xml:space="preserve"><tspan
         id="tspan883"
         y="1882.9148"
         x="2148.0454"
         style="font-style:normal;font-variant:normal;font-weight:normal;font-stretch:normal;font-size:56px;line-height:1;font-family:'Nanum Pen Script OTF';-inkscape-font-specification:'Nanum Pen Script OTF, Normal';font-variant-ligatures:normal;font-variant-caps:normal;font-variant-numeric:normal;font-feature-settings:normal;text-align:center;writing-mode:lr-tb;text-anchor:middle;stroke-width:1.16114986"
         sodipodi:role="line">내 대관식에</tspan><tspan
         y="1938.9148"
         x="2148.0454"
         style="font-style:normal;font-variant:normal;font-weight:normal;font-stretch:normal;font-size:56px;line-height:1;font-family:'Nanum Pen Script OTF';-inkscape-font-specification:'Nanum Pen Script OTF, Normal';font-variant-ligatures:normal;font-variant-caps:normal;font-variant-numeric:normal;font-feature-settings:normal;text-align:center;writing-mode:lr-tb;text-anchor:middle;stroke-width:1.16114986"
         sodipodi:role="line"
         id="tspan952">대한 두려움이랑</tspan><tspan
         y="1994.9148"
         x="2148.0454"
         style="font-style:normal;font-variant:normal;font-weight:normal;font-stretch:normal;font-size:56px;line-height:1;font-family:'Nanum Pen Script OTF';-inkscape-font-specification:'Nanum Pen Script OTF, Normal';font-variant-ligatures:normal;font-variant-caps:normal;font-variant-numeric:normal;font-feature-settings:normal;text-align:center;writing-mode:lr-tb;text-anchor:middle;stroke-width:1.16114986"
         sodipodi:role="line"
         id="tspan954">관련이 있어.</tspan></text>
    <text
       id="text893"
       y="2459.635"
       x="469.53635"
       style="font-style:normal;font-variant:normal;font-weight:normal;font-stretch:normal;font-size:14.71164608px;line-height:1;font-family:'Nanum Pen Script OTF';-inkscape-font-specification:'Nanum Pen Script OTF';text-align:center;letter-spacing:0px;word-spacing:0px;text-anchor:middle;fill:#000000;fill-opacity:1;stroke:none;stroke-width:1.22597051"
       xml:space="preserve"><tspan
         id="tspan891"
         y="2459.635"
         x="469.53635"
         style="font-style:normal;font-variant:normal;font-weight:normal;font-stretch:normal;font-size:55.16867065px;line-height:1;font-family:'Nanum Pen Script OTF';-inkscape-font-specification:'Nanum Pen Script OTF';stroke-width:1.22597051"
         sodipodi:role="line">나의 새로운</tspan><tspan
         y="2514.8037"
         x="469.53635"
         style="font-style:normal;font-variant:normal;font-weight:normal;font-stretch:normal;font-size:55.16867065px;line-height:1;font-family:'Nanum Pen Script OTF';-inkscape-font-specification:'Nanum Pen Script OTF';stroke-width:1.22597051"
         sodipodi:role="line"
         id="tspan961">발명품을</tspan><tspan
         y="2569.9724"
         x="469.53635"
         style="font-style:normal;font-variant:normal;font-weight:normal;font-stretch:normal;font-size:55.16867065px;line-height:1;font-family:'Nanum Pen Script OTF';-inkscape-font-specification:'Nanum Pen Script OTF';stroke-width:1.22597051"
         sodipodi:role="line"
         id="tspan963">소개합니다...</tspan></text>
    <text
       id="text899"
       y="2474.2717"
       x="1013.7342"
       style="font-style:normal;font-variant:normal;font-weight:normal;font-stretch:normal;font-size:16.55196571px;line-height:1;font-family:'Nanum Pen Script OTF';-inkscape-font-specification:'Nanum Pen Script OTF';text-align:center;letter-spacing:0px;word-spacing:0px;text-anchor:middle;fill:#000000;fill-opacity:1;stroke:none;stroke-width:1.37933052"
       xml:space="preserve"><tspan
         y="2474.2717"
         x="1013.7342"
         style="font-style:normal;font-variant:normal;font-weight:normal;font-stretch:normal;font-size:44.13857651px;line-height:1;font-family:Bandal;-inkscape-font-specification:Bandal;stroke-width:1.37933052"
         sodipodi:role="line"
         id="tspan967">안녕 세계.</tspan></text>
    <text
       id="text907"
       y="2512.2803"
       x="1426.3103"
       style="font-style:normal;font-variant:normal;font-weight:normal;font-stretch:normal;font-size:16.13369942px;line-height:1;font-family:'Nanum Pen Script OTF';-inkscape-font-specification:'Nanum Pen Script OTF';text-align:center;letter-spacing:0px;word-spacing:0px;text-anchor:middle;fill:#000000;fill-opacity:1;stroke:none;stroke-width:1.34447503"
       xml:space="preserve"><tspan
         y="2512.2803"
         x="1426.3103"
         style="font-style:normal;font-variant:normal;font-weight:normal;font-stretch:normal;font-size:43.02320099px;line-height:1.20000005;font-family:Bandal;-inkscape-font-specification:Bandal;stroke-width:1.34447503"
         sodipodi:role="line"
         id="tspan974">저는 당신의 심리학자-로봇입니다</tspan><tspan
         y="2563.9082"
         x="1426.3103"
         style="font-style:normal;font-variant:normal;font-weight:normal;font-stretch:normal;font-size:43.02320099px;line-height:1.20000005;font-family:Bandal;-inkscape-font-specification:Bandal;stroke-width:1.34447503"
         sodipodi:role="line"
         id="tspan976">삐빅!</tspan></text>
    <text
       id="text919"
       y="2535.249"
       x="2101.4121"
       style="font-style:normal;font-variant:normal;font-weight:normal;font-stretch:normal;font-size:17.99002075px;line-height:1;font-family:Bandal;-inkscape-font-specification:Bandal;text-align:center;letter-spacing:0px;word-spacing:0px;text-anchor:middle;fill:#000000;fill-opacity:1;stroke:none;stroke-width:1.49916816"
       xml:space="preserve"><tspan
         id="tspan917"
         y="2535.249"
         x="2101.4121"
         style="font-style:normal;font-variant:normal;font-weight:normal;font-stretch:normal;font-size:47.97338104px;line-height:1.20000005;font-family:Bandal;-inkscape-font-specification:Bandal;stroke-width:1.49916816"
         sodipodi:role="line">이 의자에 앉아서</tspan><tspan
         y="2592.8171"
         x="2101.4121"
         style="font-style:normal;font-variant:normal;font-weight:normal;font-stretch:normal;font-size:47.97338104px;line-height:1.20000005;font-family:Bandal;-inkscape-font-specification:Bandal;stroke-width:1.49916816"
         sodipodi:role="line"
         id="tspan908">무료 진단을 받아보세요.</tspan></text>
    <text
       transform="matrix(0.68795915,-0.1850026,-0.12700739,0.89832965,1912.1948,1573.9855)"
       id="text927"
       y="1584.5073"
       x="787.65729"
       style="font-style:normal;font-variant:normal;font-weight:normal;font-stretch:normal;line-height:1;font-family:'Nanum Pen Script OTF';-inkscape-font-specification:'Nanum Pen Script OTF';letter-spacing:0px;word-spacing:0px;fill:#000000;fill-opacity:1;stroke:#000000;stroke-width:0.60947055;stroke-miterlimit:4;stroke-dasharray:none;stroke-opacity:1;filter:url(#filter4375-4-1-1-1-9-5)"
       xml:space="preserve"><tspan
         style="font-style:normal;font-variant:normal;font-weight:normal;font-stretch:normal;font-size:80.40014648px;line-height:1;font-family:'Nanum Pen Script OTF';-inkscape-font-specification:'Nanum Pen Script OTF';fill:#ffffff;stroke-width:0.60947055"
         y="1584.5073"
         x="787.65729"
         id="tspan925"
         sodipodi:role="line">탁!</tspan></text>
  </g>
</svg>
