<?xml version="1.0" encoding="UTF-8" standalone="no"?>
<!-- Created with Inkscape (http://www.inkscape.org/) -->

<svg
   id="svg2"
   version="1.1"
   inkscape:version="1.1.1 (3bf5ae0d25, 2021-09-20)"
   width="2481"
   height="3503"
   sodipodi:docname="E37P05.svg"
   xmlns:inkscape="http://www.inkscape.org/namespaces/inkscape"
   xmlns:sodipodi="http://sodipodi.sourceforge.net/DTD/sodipodi-0.dtd"
   xmlns:xlink="http://www.w3.org/1999/xlink"
   xmlns="http://www.w3.org/2000/svg"
   xmlns:svg="http://www.w3.org/2000/svg"
   xmlns:rdf="http://www.w3.org/1999/02/22-rdf-syntax-ns#"
   xmlns:cc="http://creativecommons.org/ns#"
   xmlns:dc="http://purl.org/dc/elements/1.1/">
  <metadata
     id="metadata8">
    <rdf:RDF>
      <cc:Work
         rdf:about="">
        <dc:format>image/svg+xml</dc:format>
        <dc:type
           rdf:resource="http://purl.org/dc/dcmitype/StillImage" />
      </cc:Work>
    </rdf:RDF>
  </metadata>
  <defs
     id="defs6">
    <filter
       inkscape:label="Magmah-FX"
       inkscape:menu="Distort"
       inkscape:menu-tooltip="Horizontal rippling of edges"
       style="color-interpolation-filters:sRGB"
       id="filter4265-7"
       y="0"
       x="0"
       width="1"
       height="1">
      <feTurbulence
         numOctaves="1"
         baseFrequency="0.002 0.107"
         id="feTurbulence4267-7" />
      <feColorMatrix
         values="5 0 0 0 0 0 0 0 0 0 0 0 0 0 0 0 0 0 4 0 "
         result="result91"
         id="feColorMatrix4269-1" />
      <feDisplacementMap
         yChannelSelector="A"
         xChannelSelector="R"
         scale="14.3"
         in="SourceGraphic"
         in2="result91"
         id="feDisplacementMap4271-2" />
    </filter>
    <filter
       style="color-interpolation-filters:sRGB"
       inkscape:label="Magmah-spell-glow"
       id="filter4751"
       x="-0.033441791"
       y="-0.12562146"
       width="1.0668836"
       height="1.2512429">
      <feFlood
         flood-opacity="1"
         flood-color="rgb(255,255,255)"
         result="flood"
         id="feFlood4753" />
      <feComposite
         in="flood"
         in2="SourceGraphic"
         operator="in"
         result="composite1"
         id="feComposite4755" />
      <feGaussianBlur
         in="composite1"
         stdDeviation="5.4"
         result="blur"
         id="feGaussianBlur4757" />
      <feOffset
         dx="0"
         dy="0"
         result="offset"
         id="feOffset4759" />
      <feComposite
         in="SourceGraphic"
         in2="offset"
         operator="over"
         result="composite2"
         id="feComposite4761" />
    </filter>
    <filter
       inkscape:label="Magmah-FX"
       inkscape:menu="Distort"
       inkscape:menu-tooltip="Horizontal rippling of edges"
       style="color-interpolation-filters:sRGB"
       id="filter4265-7-5"
       y="0"
       x="0"
       width="1"
       height="1">
      <feTurbulence
         numOctaves="1"
         baseFrequency="0.002 0.107"
         id="feTurbulence4267-7-3" />
      <feColorMatrix
         values="5 0 0 0 0 0 0 0 0 0 0 0 0 0 0 0 0 0 4 0 "
         result="result91"
         id="feColorMatrix4269-1-5" />
      <feDisplacementMap
         yChannelSelector="A"
         xChannelSelector="R"
         scale="14.3"
         in="SourceGraphic"
         in2="result91"
         id="feDisplacementMap4271-2-6" />
    </filter>
  </defs>
  <sodipodi:namedview
     pagecolor="#ffffff"
     bordercolor="#666666"
     borderopacity="1"
     objecttolerance="10"
     gridtolerance="10"
     guidetolerance="10"
     inkscape:pageopacity="0"
     inkscape:pageshadow="2"
     inkscape:window-width="1536"
     inkscape:window-height="795"
     id="namedview4"
     showgrid="false"
     inkscape:zoom="1.1313708"
     inkscape:cx="1172.4714"
     inkscape:cy="2107.1782"
     inkscape:window-x="0"
     inkscape:window-y="32"
     inkscape:window-maximized="1"
     inkscape:current-layer="layer1"
     inkscape:pagecheckerboard="0"
     inkscape:showpageshadow="0"
     inkscape:deskcolor="#d1d1d1" />
  <g
     inkscape:groupmode="layer"
     id="layer2"
     inkscape:label="artwork"
     sodipodi:insensitive="true">
    <image
       xlink:href="../gfx_Pepper-and-Carrot_by-David-Revoy_E37P05.png"
       y="0"
       x="0"
       id="image10"
       height="3503"
       width="2481" />
  </g>
  <g
     inkscape:groupmode="layer"
     id="layer3"
     inkscape:label="speechbubbles"
     style="display:inline">
    <path
       style="fill:#ffffff;stroke:none;stroke-width:0.890852"
       d="m 398.6926,327.6038 c -30.9398,1.27022 -61.74154,12.11818 -89.81282,31.9664 -18.83813,16.52832 -28.7696,54.39995 -21.2013,85.78513 4.93899,21.48487 16.88674,37.74914 30.33617,46.79642 22.99189,16.72383 48.79058,21.20944 73.97194,22.66048 25.1398,1.4184 50.46622,0.79389 75.34198,-5.36864 16.20805,-4.86637 31.99247,-15.54946 44.09311,-32.90834 10.87121,-15.86072 18.07986,-38.80839 16.60776,-62.03365 -1.08616,-17.40594 -7.85195,-32.95787 -16.76498,-43.56861 -9.36496,-11.15179 -20.45021,-18.314 -31.48243,-24.72329 -25.8898,-14.25647 -53.70325,-18.64978 -81.08943,-18.6059 z"
       id="path3280-81"
       inkscape:connector-curvature="0"
       sodipodi:nodetypes="csssc" />
    <path
       style="display:inline;fill:#ffffff;stroke:none;stroke-width:0.630577"
       d="m 343.08858,240.44336 c -15.87069,1.1501 -32.02929,3.2898 -46.91716,11.90454 -7.41992,4.21989 -14.64363,10.82965 -18.70137,21.06986 -5.54052,13.2182 -6.4063,30.84453 -1.06512,44.47778 4.95787,12.16051 14.0955,19.84459 23.55742,22.21384 17.40273,5.76801 35.18352,8.55332 52.90549,11.33177 19.75827,1.74222 40.0177,-2.72946 57.9294,-15.25464 7.09086,-5.31996 13.32523,-14.05281 15.76371,-25.29306 3.55198,-14.35754 1.28852,-31.7808 -6.36472,-42.50248 -5.08373,-7.00558 -11.58004,-11.26472 -17.94302,-15.25055 -11.52143,-6.76025 -23.89433,-9.78978 -36.20514,-11.59339 -7.63132,-0.98861 -15.30121,-1.21511 -22.95949,-1.10367 z"
       id="path3280-81-3"
       inkscape:connector-curvature="0"
       sodipodi:nodetypes="csssc" />
    <path
       style="color:#000000;display:inline;overflow:visible;visibility:visible;fill:#ffffff;fill-opacity:1;fill-rule:nonzero;stroke:none;stroke-width:1.86002px;marker:none;enable-background:accumulate"
       d="m 2010.8013,253.23827 c -61.842,0.51735 -124.3704,5.0691 -183.7186,22.07105 -29.2378,8.63225 -57.8068,22.36612 -77.7326,44.43704 -19.9579,23.56945 -30.3233,54.67468 -25.1973,84.4561 5.6993,20.32368 22.4374,36.48518 41.5133,47.10106 29.0412,16.80597 63.1868,23.73079 96.7431,27.95171 45.8375,5.32787 91.9983,7.86273 138.1379,9.62303 67.9494,1.47143 137.3444,-1.72622 202.0984,-22.3995 26.5815,-8.51946 52.7564,-19.80285 73.8984,-37.25304 11.4721,-9.63003 21.6812,-21.97084 23.4268,-36.62014 1.9556,-14.73302 -1.6784,-29.58153 -6.7813,-43.47851 -8.9396,-23.01855 -26.7612,-42.93036 -49.5582,-55.39695 -35.0255,-19.91557 -75.7003,-29.26332 -116.0382,-34.69677 -38.6592,-5.07892 -77.7972,-5.99315 -116.7917,-5.79508 z"
       id="path5026-3"
       inkscape:connector-curvature="0"
       sodipodi:nodetypes="csssc" />
    <path
       style="color:#000000;display:inline;overflow:visible;visibility:visible;fill:#ffffff;fill-opacity:1;fill-rule:nonzero;stroke:none;stroke-width:0.862955px;marker:none;enable-background:accumulate"
       d="m 1551.2199,908.91728 c -29.6859,0.0546 -60.1868,4.89628 -85.9037,18.79996 -13.0276,6.86923 -23.8089,17.1951 -29.9691,29.61951 -12.6644,24.61382 -8.4084,54.62475 8.1581,76.93165 11.7127,16.2482 30.1475,28.0099 50.4391,34.1993 30.2496,9.1701 62.4475,11.4906 94.1888,11.8244 29.0356,-0.023 58.6264,0.2493 86.7903,-6.9871 15.1593,-3.9075 29.9806,-10.1123 41.1688,-20.3136 13.7739,-12.0485 22.5391,-28.4608 24.5681,-45.609 3.1717,-22.71534 -4.8769,-46.96174 -23.276,-63.1486 -19.1194,-17.61157 -45.7217,-27.18565 -72.4748,-30.76712 -30.9375,-4.7159 -62.4289,-4.22913 -93.6896,-4.5494 z"
       id="path4040-40"
       inkscape:connector-curvature="0"
       sodipodi:nodetypes="zssssz" />
    <path
       style="color:#000000;display:inline;overflow:visible;visibility:visible;fill:#ffffff;fill-opacity:1;fill-rule:nonzero;stroke:none;stroke-width:0.999998px;marker:none;enable-background:accumulate"
       d="m 496.15677,1011.893 c 34.73321,-33.49717 31.89314,-53.50347 31.44376,-68.11357 -4.7651,-0.9949 -12.85059,-4.2577 -12.85059,-4.2577 0,0 1.90835,-28.8086 -1.17233,-39.94541 -3.08071,-11.13686 -17.53582,-8.20897 -17.53582,-8.20897 0,0 -5.18065,55.93348 -10.00914,67.69208 13.18767,2.2293 19.31591,4.9084 24.41808,3.8748 3.16059,8.1805 -2.4061,36.7502 -14.29396,48.95877 z"
       id="path4456-3"
       inkscape:connector-curvature="0" />
    <path
       style="color:#000000;display:inline;overflow:visible;visibility:visible;fill:#ffffff;fill-opacity:1;fill-rule:nonzero;stroke:none;stroke-width:0.709513px;marker:none;enable-background:accumulate"
       d="M 1196.6465 2294.5039 C 1169.9865 2295.1229 1142.3972 2297.684 1118.3609 2310.1812 C 1100.7903 2319.4917 1086.3734 2336.5938 1083.8898 2356.7507 C 1082.2566 2378.8745 1097.7157 2400.1092 1118.2056 2407.5917 C 1135.4014 2414.2964 1153.9896 2415.8578 1171.6668 2420.8505 C 1232.6808 2434.3702 1295.744 2436.81 1357.9409 2432.3061 C 1388.0071 2429.7939 1417.9432 2424.446 1446.6662 2415.1151 C 1464.0776 2408.968 1481.6519 2400.6004 1493.6345 2386.0843 C 1505.5235 2370.3813 1504.515 2346.4376 1491.1849 2331.8872 C 1480.4143 2319.0923 1464.069 2313.15 1448.3646 2309.0049 C 1420.2444 2301.4384 1391.0121 2299.8968 1362.1099 2297.6968 C 1307.0228 2294.4071 1251.8087 2294.4963 1196.6465 2294.5039 z "
       id="path4546-6-21"
       inkscape:connector-curvature="0"
       sodipodi:nodetypes="cssssc" />
    <path
       style="color:#000000;display:inline;overflow:visible;visibility:visible;fill:#ffffff;fill-opacity:1;fill-rule:nonzero;stroke:none;stroke-width:0.653333px;marker:none;enable-background:accumulate"
       d="m 659.09619,2217.36 c -29.61075,0.3901 -59.94297,7.3658 -81.84753,22.3161 -23.76396,17.2991 -36.67699,41.3766 -39.58075,65.5338 -4.97799,29.7138 8.26244,60.6818 35.11861,83.2626 16.65932,11.9712 39.13566,17.8897 60.56266,23.8219 35.18985,9.3439 73.88158,11.0585 110.53617,5.7028 26.67807,-3.3064 53.37967,-11.1015 72.19629,-25.7262 15.4145,-12.2343 21.77376,-28.9793 23.8651,-45.1766 2.38675,-19.9238 0.24095,-39.9881 -3.4685,-59.7516 -3.30334,-15.2384 -10.99553,-30.5402 -26.11306,-41.6872 -13.60184,-10.344 -32.20477,-16.1068 -50.86062,-19.8157 -21.33335,-4.2117 -43.37045,-6.1221 -65.32608,-7.6226 -11.67134,-0.641 -23.37799,-0.9388 -35.08229,-0.8573 z"
       id="path4546-6-21-2"
       inkscape:connector-curvature="0"
       sodipodi:nodetypes="cssssc" />
    <path
       style="color:#000000;display:inline;overflow:visible;visibility:visible;fill:#ffffff;fill-opacity:1;fill-rule:nonzero;stroke:none;stroke-width:1.24776px;marker:none;enable-background:accumulate"
       d="m 459.6053,1891.1682 c -25.78503,-0.1843 -51.98226,-1.2113 -77.35414,8.2206 -14.89066,5.503 -29.5287,16.4906 -39.23287,34.6389 -11.30434,20.7888 -13.8777,49.4611 -9.45774,74.2333 2.0847,11.4957 5.45637,22.5261 10.13464,32.1648 5.10112,10.2673 12.34551,18.2476 20.71394,21.9272 23.99002,13.3419 49.94142,17.2374 75.56787,19.3922 26.83283,1.912 53.77615,1.5576 80.67395,-0.5068 22.72476,-2.2076 45.79131,-6.821 67.10421,-19.9956 12.9036,-8.3042 25.31276,-21.1158 32.03119,-39.8433 9.35157,-25.8894 8.31707,-59.5895 -4.03458,-82.094 -9.94251,-17.2808 -24.8812,-26.0068 -39.56322,-31.5062 -24.26146,-8.935 -49.44455,-11.2556 -74.40874,-14.0389 -14.02766,-1.3934 -28.08049,-2.6936 -42.17451,-2.5922 z"
       id="path4546-6-21-1"
       inkscape:connector-curvature="0"
       sodipodi:nodetypes="cssssc" />
    <path
       style="color:#000000;display:inline;overflow:visible;visibility:visible;fill:#ffffff;fill-opacity:1;fill-rule:nonzero;stroke:none;stroke-width:0.82024px;marker:none;enable-background:accumulate"
       d="m 509.23732,2142.6099 c 3.17414,-65.4058 47.59866,-114.1729 164.14038,-104.4124 62.42608,5.2274 133.28819,8.0063 129.36198,103.8044 -3.92628,95.7982 -105.75118,95.55 -126.75223,98.244 -21.00112,2.6954 -130.53858,-4.9618 -149.91784,-37.0994 -12.13101,-20.1171 -17.02871,-40.2978 -16.83229,-60.5366 z"
       id="path4546-6-21-1-9"
       inkscape:connector-curvature="0"
       sodipodi:nodetypes="cssssc" />
    <path
       style="color:#000000;display:inline;overflow:visible;visibility:visible;fill:#ffffff;fill-opacity:1;fill-rule:nonzero;stroke:none;stroke-width:1.1971px;marker:none;enable-background:accumulate"
       d="m 1341.4929,1909.2595 c -27.5618,0.4582 -55.9462,3.1632 -81.2588,17.1764 -12.5256,7.0164 -24.1142,19.5093 -27.0289,36.1571 -2.011,16.5978 7.3755,32.6541 19.5753,39.8816 12.5575,7.4302 26.7271,9.125 40.3274,12.2488 47.3844,8.8731 95.695,12.5507 143.5404,7.2714 16.7633,-2.1389 34.1059,-5.7216 48.5019,-16.7585 9.0671,-7.2007 15.462,-19.0016 16.6354,-31.9393 1.7823,-14.8825 -2.914,-31.5687 -14.0178,-39.759 -14.2163,-11.4438 -31.7223,-14.0896 -48.3325,-16.8855 -29.1521,-4.3915 -58.5332,-6.3032 -87.8924,-7.3341 -3.3497,-0.069 -6.6998,-0.078 -10.05,-0.059 z"
       id="path4546-6-21-1-9-4"
       inkscape:connector-curvature="0"
       sodipodi:nodetypes="cssssc" />
    <path
       style="color:#000000;display:inline;overflow:visible;visibility:visible;fill:#ffffff;fill-opacity:1;fill-rule:nonzero;stroke:none;stroke-width:0.96193px;marker:none;enable-background:accumulate"
       d="m 1217.0653,1985.7656 c -48.72,0.882 -98.2182,2.8713 -145.1541,18.4889 -16.7841,6.8173 -29.3374,22.7322 -35.6945,40.6654 -10.5597,27.1823 -9.0909,60.755 7.3726,84.8351 9.6728,13.9915 24.9653,22.1407 40.5818,24.9674 20.6129,4.8894 41.5345,8.1831 62.4995,10.6435 37.7541,3.8894 75.7096,2.0101 113.5403,1.0065 54.1568,-0.3976 108.4394,2.4619 162.4735,-2.8587 20.189,-1.8225 40.4778,-3.8181 60.2654,-8.678 26.1011,-8.9227 46.4535,-36.1747 47.4467,-66.2485 1.4018,-24.676 -9.4442,-49.1571 -26.8658,-64.6853 -22.3692,-21.3445 -51.9346,-31.1597 -80.9693,-35.023 -38.4737,-4.6848 -77.1542,0.8942 -115.7178,-0.9675 -29.9261,-0.7004 -59.8367,-2.493 -89.7783,-2.1458 z"
       id="path4546-6-21-1-9-4-7"
       inkscape:connector-curvature="0"
       sodipodi:nodetypes="cssssc" />
    <path
       style="color:#000000;display:inline;overflow:visible;visibility:visible;fill:#ffffff;fill-opacity:1;fill-rule:nonzero;stroke:none;stroke-width:1.14709px;marker:none;enable-background:accumulate"
       d="m 1005.12,3066.8417 c 5.7267,-41.6532 61.8615,-70.7879 205.3078,-59.2238 76.8376,6.1939 164.1463,11.2087 156.65,72.2502 -7.4964,61.0415 -133.0578,56.2289 -159.0305,56.9907 -25.9729,0.7627 -160.8399,-9.1373 -183.8475,-30.561 -14.4023,-13.4105 -19.8828,-26.5311 -19.0798,-39.4561 z"
       id="path4546-6-21-1-9-4-7-8"
       inkscape:connector-curvature="0"
       sodipodi:nodetypes="cssssc" />
    <path
       style="color:#000000;display:inline;overflow:visible;visibility:visible;fill:#ffffff;fill-opacity:1;fill-rule:nonzero;stroke:none;stroke-width:0.624175px;marker:none;enable-background:accumulate"
       d="m 2225.7983,3151.2322 c 1.6004,-29.4598 24.0001,-51.4252 82.7628,-47.029 31.4764,2.3544 67.2066,3.6062 65.2269,46.7553 -1.9798,43.1489 -53.3219,43.0372 -63.9111,44.2506 -10.5891,1.2141 -65.82,-2.2349 -75.5915,-16.7102 -6.1167,-9.061 -8.5862,-18.1508 -8.4871,-27.2667 z"
       id="path4546-6-21-1-9-4-7-8-4"
       inkscape:connector-curvature="0"
       sodipodi:nodetypes="cssssc" />
    <path
       style="color:#000000;display:inline;overflow:visible;visibility:visible;fill:#ffffff;fill-opacity:1;fill-rule:nonzero;stroke:none;stroke-width:1px;marker:none;enable-background:accumulate"
       d="m 1284.7327,2502.3184 c -35.7282,-19.4322 -47.354,-28.3515 -44.071,-75.6186 3.2834,-47.2663 -14.2412,-48.0483 -14.2412,-48.0483 l -19.1468,25.8436 c 0,0 -0.01,101.2711 77.459,97.8233 z"
       id="path3072-56-6"
       inkscape:connector-curvature="0" />
    <path
       style="color:#000000;display:inline;overflow:visible;visibility:visible;fill:#ffffff;fill-opacity:1;fill-rule:nonzero;stroke:none;stroke-width:1px;marker:none;enable-background:accumulate"
       d="m 1468.6848,2848.0015 c 26.25,171.1132 -108.5575,232.9592 -156.9646,205.9986 -41.3932,-23.0541 -36.6132,25.372 -36.6132,25.372 0,0 -184.8377,-79.9742 -48.5243,-12.9007 136.3134,67.0735 295.373,-29.4851 242.1021,-218.4699 z"
       id="path3072-56-6-7"
       inkscape:connector-curvature="0"
       sodipodi:nodetypes="csczc" />
    <path
       style="color:#000000;display:inline;overflow:visible;visibility:visible;fill:#ffffff;fill-opacity:1;fill-rule:nonzero;stroke:none;stroke-width:1.23531px;marker:none;enable-background:accumulate"
       d="m 1600.1128,765.40053 c -31.9024,0.86526 -63.75,3.58573 -95.6531,4.48299 -13.8054,0.62196 -27.7584,0.0262 -41.3504,3.51014 -18.4511,4.31918 -36.6903,13.30038 -50.403,29.02405 -14.722,17.4464 -22.1246,44.10691 -16.9423,68.40731 6.009,31.51403 28.3588,57.2258 54.6752,64.15009 27.1663,9.19976 55.4539,11.87233 83.4767,14.64772 36.9017,2.71002 74.2905,3.36655 110.7324,-5.1805 22.2016,-5.37305 44.5963,-12.62287 63.9674,-27.1101 15.8868,-12.95287 24.5636,-36.15118 24.4636,-58.81308 0.8997,-21.61 -5.1653,-44.44698 -18.9541,-59.07887 -15.336,-17.08795 -35.8781,-25.62943 -56.2334,-29.71727 -19.0753,-3.81306 -38.4747,-4.52487 -57.779,-4.32248 z"
       id="path4546-3"
       inkscape:connector-curvature="0"
       sodipodi:nodetypes="cssssc" />
    <path
       style="color:#000000;display:inline;overflow:visible;visibility:visible;fill:#ffffff;fill-opacity:1;fill-rule:nonzero;stroke:none;stroke-width:0.999998px;marker:none;enable-background:accumulate"
       d="m 2200.3678,3236.6589 c 19.412,3.2287 21.8531,2.1451 26.087,-6.1508 4.2336,-8.2965 7.4345,-21.3989 24.2674,-27.0612 16.8328,-5.6629 26.4772,-1.2243 33.0349,1.2943 -1.1679,-11.6566 8.131,-31.9623 0.9277,-37.4845 -7.2032,-5.5223 17.0343,2.8574 17.0343,2.8574 0,0 12.1095,28.3527 3.5098,41.2194 -8.5996,12.8666 -35.9866,3.6351 -48.1953,5.9287 -12.2087,2.2936 -17.7187,20.2054 -26.9698,23.8183 -9.2511,3.6136 -20.9523,-1.0637 -29.696,-4.4216 z"
       id="path4538-7-1"
       inkscape:connector-curvature="0"
       sodipodi:nodetypes="ccscccsscc" />
    <path
       style="fill:#ffffff;fill-rule:evenodd;stroke:none;stroke-width:0.989952px;stroke-linecap:butt;stroke-linejoin:miter;stroke-opacity:1"
       d="m 560.70811,2509.4267 c 63.64415,46.5419 102.80112,22.7401 102.39474,6.9311 -0.73279,-28.5061 -23.68426,-45.5161 -20.14693,-49.7569 56.87331,-68.1838 45.61583,-44.4564 42.02712,-78.3168 -3.58863,-33.8596 -32.82515,9.9982 -43.47048,25.9957 -10.64526,15.9984 -23.23393,28.0821 -24.13067,46.0989 -0.89678,18.0167 30.31994,32.2197 26.20251,52.3883 -4.11738,20.1676 -82.87629,-3.3403 -82.87629,-3.3403 z"
       id="path4324-2"
       inkscape:connector-curvature="0"
       sodipodi:nodetypes="cssssssc" />
    <path
       style="fill:#ffffff;fill-rule:evenodd;stroke:none;stroke-width:1px;stroke-linecap:butt;stroke-linejoin:miter;stroke-opacity:1"
       d="m 1641.3607,1592.1712 c 22.6649,-9.5896 43.3488,-24.3392 44.2472,-33.5648 0.8985,-9.2259 -11.1673,-38.3407 15.3399,-36.3802 44.753,7.0521 59.1413,-17.435 71.8681,-40.1028 -10.4456,44.0867 -37.326,59.8862 -66.9409,56.1082 -20.4331,0.5043 27.1628,20.802 -14.1238,65.6767 -34.0791,18.4121 -50.3905,-11.7371 -50.3905,-11.7371 z"
       id="path1085"
       inkscape:connector-curvature="0"
       sodipodi:nodetypes="csccccc" />
    <path
       style="display:inline;fill:#ffffff;fill-rule:evenodd;stroke:none;stroke-width:1px;stroke-linecap:butt;stroke-linejoin:miter;stroke-opacity:1"
       d="m 602.38281,413.81836 c -16.46145,0.69234 -32.53906,10.64863 -39.37482,25.82696 -1.5098,2.80001 -5.28273,3.60587 -7.9531,2.02233 -5.98863,-2.1906 -11.2243,-5.98508 -17.1572,-8.31055 -9.42582,-4.50612 -18.97461,-9.76783 -29.57769,-10.58241 -9.00662,0.914 -17.21994,8.38612 -18.31844,17.45517 0.90457,4.28518 5.9133,5.81752 9.78437,5.505 14.04596,1.22391 26.26568,8.99968 37.96354,16.2261 7.48461,4.90408 17.2879,7.91388 25.94154,4.3397 8.81339,-3.63103 14.02032,-12.22106 18.30372,-20.27104 3.62722,-6.5902 7.0618,-13.9609 13.65799,-18.08996 6.18392,-3.01805 13.32935,-0.5356 18.89819,2.69485 6.80555,3.74446 18.82609,7.48219 26.68995,6.1183 5.30212,-0.83429 11.53306,0.83552 40.82961,-10.13109 -31.99063,6.29792 -54.18708,-2.32452 -64.55229,-8.18195 -4.64584,-2.56145 -9.72444,-4.75296 -15.13537,-4.62141 z"
       id="path1090"
       inkscape:connector-curvature="0"
       sodipodi:nodetypes="cscsccsssssscccc" />
    <path
       style="display:inline;fill:#ffffff;fill-rule:evenodd;stroke:none;stroke-width:1px;stroke-linecap:butt;stroke-linejoin:miter;stroke-opacity:1"
       d="m 1617.1958,451.27144 c -12.9658,3.52999 -22.7273,13.2725 -33.0295,21.31481 -10.56,8.22528 -23.222,15.13886 -36.9698,14.8702 -12.354,-0.48323 -23.8452,-5.64876 -34.869,-10.8028 4.8969,5.51905 11.4884,9.07502 17.4852,13.22715 9.8915,6.03376 21.2993,11.19668 33.1646,9.85413 13.7356,-1.82473 25.2428,-10.16894 36.6713,-17.35003 9.2631,-5.89601 19.3995,-11.88555 30.7279,-11.84241 11.2199,0.46193 21.09,7.36067 28.069,15.7517 16.1165,16.07554 40.6983,22.00557 62.7241,17.44391 18.4525,-3.77253 34.5407,-14.70036 48.0397,-27.44861 7.4725,-7.02323 14.7519,-14.32675 21.1143,-22.37986 2.8972,-4.06459 5.7878,-8.70444 5.7898,-13.83941 -1.3294,-7.64777 -9.2775,-12.55259 -16.6906,-12.40095 -15.99,-1.92544 -32.0375,9.08542 -37.0028,24.21972 -6.8813,13.76612 -18.3165,26.13815 -33.3597,30.75119 -13.1078,4.184 -28.2984,-0.43593 -37.2218,-10.81739 -8.1607,-7.6165 -16.4492,-16.15889 -27.6395,-18.99131 -8.68,-2.75282 -18.0697,-3.47368 -27.0032,-1.56004 z"
       id="path1090-9"
       inkscape:connector-curvature="0"
       sodipodi:nodetypes="cscsccsssssscccccc" />
    <path
       style="display:inline;fill:#ffffff;stroke:none;stroke-width:0.863046"
       d="m 1550.6196,1550.2764 c -13.3922,0.1166 -26.8548,-0.07 -40.121,3.292 -15.041,3.7615 -29.9285,10.8354 -43.1875,22.906 -14.0974,12.8062 -25.7801,33.3542 -30.7713,58.1366 -2.3971,11.5442 -2.7877,24.1008 -0.8742,35.8965 3.3263,21.7063 13.099,40.5391 25.796,50.0978 14.8528,12.8338 32.1273,15.7674 48.7777,15.63 32.1997,1.7866 64.4595,2.4618 96.6395,-0.5599 18.7353,-1.5475 37.9845,-5.003 54.9605,-18.5957 11.9139,-9.6892 21.7829,-27.3953 24.1462,-48.7269 4.3077,-34.942 -7.7373,-72.4285 -27.3445,-89.0728 -17.5076,-15.9276 -37.6691,-22.1458 -57.4853,-25.8622 -16.7717,-2.9982 -33.6768,-3.3164 -50.5361,-3.1414 z"
       id="path3280-8-3"
       inkscape:connector-curvature="0"
       sodipodi:nodetypes="csssc" />
    <path
       style="fill:#ffffff;fill-rule:evenodd;stroke:none;stroke-width:1.07322px;stroke-linecap:butt;stroke-linejoin:miter;stroke-opacity:1"
       d="m 377.33403,761.5608 c -30.46681,1.79515 -61.08758,2.66681 -91.26139,7.95082 -13.48684,3.09291 -27.43013,6.90855 -38.54964,16.1815 -9.58695,10.44655 -16.29073,23.50187 -22.26406,36.60688 -5.12325,14.74002 -3.79501,30.97601 -0.71701,46.04545 2.20447,13.89024 7.26356,28.04855 17.51522,37.26767 10.60569,10.7655 23.70052,20.01048 38.55078,21.18155 14.22645,1.20679 28.49956,-0.23472 42.7413,0.45828 67.12526,0.13516 134.45253,0.71935 201.28181,-7.12753 10.86638,-1.85695 21.13378,-8.77888 26.60975,-19.26913 6.19116,-9.54595 13.16699,-19.57176 13.8523,-31.6715 0.77108,-11.36805 0.0482,-22.77495 0.0806,-34.15923 -0.23798,-7.3192 0.32107,-14.82565 -1.53816,-21.94938 -2.14919,-8.29822 -7.14203,-15.33835 -13.10135,-20.88675 -12.16706,-12.17325 -28.19773,-18.96153 -44.43856,-21.42492 -28.81144,-5.90031 -58.12511,-8.4944 -87.42199,-8.93815 -13.77792,-0.30084 -27.55951,-0.27893 -41.33954,-0.26556 z"
       id="path1299"
       inkscape:connector-curvature="0" />
    <path
       style="fill:#ffffff;fill-opacity:1;fill-rule:evenodd;stroke:none;stroke-width:0.944535px;stroke-linecap:butt;stroke-linejoin:miter;stroke-opacity:1"
       d="m 918.49899,922.38419 c -7.26485,0.86734 -12.72934,7.06793 -16.70106,13.30501 -3.61542,5.15329 -10.04076,6.20817 -15.60823,6.08783 -7.60747,0.22173 -13.95833,6.16177 -17.89677,12.8845 -2.30688,3.55077 -2.99376,8.00224 -2.78406,12.27282 -0.42719,6.67297 -5.12189,11.93324 -5.74472,18.52713 0.13551,6.3875 5.55669,10.535 6.69098,16.59892 1.18254,4.5169 1.85905,9.9862 5.75767,12.7515 5.48358,3.1882 12.29018,-0.2253 17.62491,3.5487 3.83694,2.9316 7.10019,6.6895 10.86118,9.748 3.95211,3.4669 8.54236,6.0294 13.48762,7.2675 11.25175,3.3373 23.01261,0.9185 34.12862,-1.867 15.34346,-3.5707 31.00589,-5.4628 46.68967,-5.6211 4.64581,-0.3583 8.6772,-3.1437 12.4068,-5.9562 4.2551,-2.8443 9.4122,-4.4438 14.3661,-3.1727 5.149,0.7524 10.8414,2.4968 15.7021,-0.3939 6.485,-4.7571 9.1371,-13.1958 12.7746,-20.35492 2.9054,-6.1287 6.1636,-12.97344 4.767,-20.0904 -1.951,-5.88049 -7.6918,-8.27678 -11.6603,-12.17595 -6.726,-7.58527 -5.9048,-19.54532 -12.1965,-27.42615 -6.0633,-7.78732 -15.8216,-10.83932 -24.8987,-10.57648 -7.04593,0.18336 -13.85812,2.5898 -20.20889,5.78799 -4.75047,1.83563 -10.64991,1.6179 -14.40129,-2.47125 -3.72563,-3.22883 -8.23963,-6.67829 -13.25742,-5.53162 -6.98964,0.94699 -13.12581,6.65075 -20.40334,5.44371 -7.10586,-1.16006 -12.0351,-8.87024 -19.49597,-8.58594 z"
       id="path4367-3"
       inkscape:connector-curvature="0"
       sodipodi:nodetypes="ccccccccccccccccccccccc" />
    <path
       style="color:#000000;display:inline;overflow:visible;visibility:visible;fill:#ffffff;fill-opacity:1;fill-rule:nonzero;stroke:none;stroke-width:1px;marker:none;enable-background:accumulate"
       d="m 925.04404,987.51508 c 0.43093,17.40692 10.57358,33.58462 24.60302,43.46732 4.0486,3.4474 7.8177,7.2049 11.522,11.0151 -9.5441,6.7343 -21.87387,8.4934 -30.69728,16.3868 -3.00333,7.8153 2.07856,16.9291 9.5442,19.9766 7.90108,4.1347 17.55078,5.3387 23.93238,12.0527 5.8472,7.0001 1.9231,19.0861 -6.6504,21.789 -11.2727,5.778 -17.95023,20.1486 -13.54258,32.3069 4.13098,10.8528 14.58748,18.0402 25.44518,21.0937 5.2942,1.6139 10.7387,2.647 16.1286,3.8787 -10.8778,-5.5071 -22.4207,-11.1561 -29.8066,-21.25 -5.866,-8.2804 -2.1755,-21.8742 7.6733,-25.1751 6.0663,-1.8597 13.149,-3.1903 17.0207,-8.7544 8.18221,-11.235 4.0413,-29.3207 -8.5309,-35.4929 -6.8306,-3.5643 -14.777,-5.4022 -20.3877,-10.9819 -1.6954,-3.9526 2.6275,-8.2401 6.5884,-7.513 7.4263,-1.7714 15.8041,-2.1777 21.7723,-7.5012 4.4591,-5.1824 3.2488,-13.2448 -0.7338,-18.3354 -8.0405,-15.3899 -15.424,-31.1229 -23.8906,-46.28912 -6.1584,-1.4328 -12.54059,-0.9451 -18.78997,-1.6404 -3.73928,-0.2117 -7.47855,-0.4233 -11.21782,-0.635 0.006,0.5339 0.0117,1.0677 0.0176,1.6016 z"
       id="path5058"
       inkscape:connector-curvature="0"
       sodipodi:nodetypes="cscsssssccsssccsccccc" />
    <path
       style="display:inline;fill:#ffffff;stroke:none;stroke-width:1"
       d="m 1571.4018,1191.6392 c 13.4807,-8.3202 19.4484,-23.3927 17.65,-33.0755 -8.8182,-22.1676 -14.651,-36.255 -2.7595,-61.9827 4.6158,-9.7523 4.136,-55.5565 4.136,-55.5565 0,0 -22.8632,20.1797 -30.5405,32.0067 -7.678,11.8285 -8.5357,16.4156 -9.3696,22.0916 -0.8517,5.797 -1.3553,24.9485 0.8987,35.296 4.6362,17.6704 24.7701,36.2388 6.7072,51.624 -38.2054,28.7903 -15.6246,82.4307 39.9278,44.9299 -67.6745,16.2702 -41.7605,-26.0079 -26.6503,-35.3336 z"
       id="path3023-0"
       inkscape:connector-curvature="0"
       sodipodi:nodetypes="scccsscccss" />
    <path
       style="display:inline;fill:#ffffff;fill-rule:evenodd;stroke:none;stroke-width:1px;stroke-linecap:butt;stroke-linejoin:miter;stroke-opacity:1"
       d="m 464.88133,1910.6914 c -28.8926,-2.0653 -70.7911,12.6625 -46.4898,55.1642 -53.0586,-27.852 -127.5213,-37.8514 -145.041,8.545 -2.9485,-56.7468 -38.5111,-41.338 -67.8631,-27.673 27.9346,-23.2981 -23.4398,-34.7771 -50.9437,-35.2783 56.996,-50.2966 26.119,-64.931 2.7943,-82.6311 57.4315,11.9803 42.9826,-15.1235 49.4459,-30.8559 49.812,33.8557 85.2527,24.5077 112.648,-9.0266 15.1349,17.4028 20.6066,54.0871 73.5776,-4.0088 -18.8313,49.4071 7.2124,43.5524 49.0134,18.2945 -6.2541,16.8237 -45.124,43.2233 21.271,38.72 -41.1448,16.9717 -49.3548,38.642 1.5874,68.75 z"
       id="path4584-8"
       inkscape:connector-curvature="0"
       sodipodi:nodetypes="cccccccccccc" />
    <path
       style="fill:#ffffff;fill-rule:evenodd;stroke:none;stroke-width:0.999993px;stroke-linecap:butt;stroke-linejoin:miter;stroke-opacity:1"
       d="m 1088.4402,1861.1551 c 12.6082,4.62 30.6985,12.1275 32.8912,20.213 2.1928,8.0848 13.7047,23.1004 9.8674,36.3833 -3.8373,13.2822 -14.8011,26.5651 -25.2166,34.0733 -10.4157,7.5075 -30.1504,13.2822 -42.7587,14.4376 -12.6083,1.1553 -44.9513,-6.9301 -54.2706,-4.6201 -9.3192,2.31 -43.30683,3.4647 -60.30065,-2.31 -16.99383,-5.7755 -36.1804,-27.1432 -38.92135,-40.4262 -2.74096,-13.2829 9.31917,-39.848 11.51191,-46.7781 2.1928,-6.9308 11.51198,-9.2409 11.51198,-9.2409 26.0186,-3.9635 117.34611,-7.6933 155.68541,-1.7319 z"
       id="path1099"
       inkscape:connector-curvature="0"
       sodipodi:nodetypes="ccccccccccc" />
    <path
       style="color:#000000;display:inline;overflow:visible;visibility:visible;fill:#ffffff;fill-opacity:1;fill-rule:nonzero;stroke:none;stroke-width:0.907969px;marker:none;enable-background:accumulate"
       d="m 1406.4493,2087.7856 c -5.0895,8.184 -10.6008,16.2326 -17.6121,22.099 -5.8758,-1.1163 -9.9332,-8.9165 -8.5129,-15.9508 -9.6983,2.4784 -15.9744,12.8652 -24.3086,18.5837 -12.7934,10.4746 -27.162,19.4958 -42.6682,20.6376 -14.3849,-2.9573 -25.2451,-20.4697 -23.6873,-38.21 -4.2444,-0.5144 -6.9575,4.6022 -8.6122,8.654 -4.8104,7.3999 -9.7881,15.4871 -17.2132,19.1227 -6.6162,-0.4701 -10.9347,-10.5798 -7.46,-17.5861 -1.9384,-3.2332 -6.1139,-0.7158 -7.0105,2.541 -10.3313,10.8003 -21.0287,22.4055 -34.4434,26.7535 -15.4784,3.3629 -30.9056,-2.4989 -44.513,-10.5178 -3.2674,-1.6612 -6.6927,-2.8262 -10.0735,-4.1179 -5.5859,8.1966 -7.0194,20.0171 -14.5156,26.3766 -8.1064,6.7045 -18.4631,8.3502 -27.7593,5.9304 -4.6424,2.4652 -4.8382,9.3438 -7.1603,14.0021 -6.2147,11.8724 -17.9187,17.8896 -29.0264,18.6319 -4.4415,0.876 -8.8831,1.752 -13.3246,2.628 8.3893,5.1134 17.6291,8.4801 25.1139,15.5169 -2.3422,7.3147 -9.1709,10.2607 -15.0318,11.1579 -11.7527,1.6483 -23.6263,1.3367 -35.3057,4.0232 -2.0709,0.3119 -4.1421,0.6275 -6.2021,1.0544 22.0254,2.3376 44.1171,6.7137 64.5293,16.8463 4.0781,10.2562 -3.0527,23.813 -12.2888,24.9571 -5.0351,3.1243 -10.0701,6.2486 -15.1051,9.3731 12.2126,-0.4069 24.6015,-1.9657 36.6266,0.8714 7.6638,11.9053 5.4916,31.2932 -4.502,40.9481 0.6309,3.8038 4.9097,3.4691 6.9232,1.384 9.6557,-2.8171 20.421,-4.5873 29.4538,1.0138 14.0414,10.9924 21.7204,29.944 34.3889,42.7659 1.035,1.1009 2.1443,3.1686 3.5511,3.0253 11.1479,-24.3477 36.713,-36.7839 58.2756,-29.7393 7.3106,1.8519 14.2166,5.3099 21.013,8.8867 9.5713,-3.8059 16.006,-14.9282 25.8989,-17.8717 10.4515,-5.178 22.6986,-7.2731 33.0636,-1.6084 5.6556,4.6924 8.6572,13.0548 14.983,16.7191 6.1924,-2.0013 8.0888,-10.7676 13.4201,-14.3724 12.7237,-11.6466 30.8003,-11.992 44.1158,-2.8723 5.0183,1.9222 10.0089,-2.3093 13.3008,-6.7112 11.2166,-11.0395 25.9138,-14.4727 39.8059,-15.1561 4.2338,-0.2187 8.4651,-0.1103 12.6917,0.013 1.0763,-3.774 -2.3456,-5.9112 -4.1111,-8.1497 -4.2553,-4.481 -8.7068,-10.6747 -7.6703,-18.1559 1.3468,-9.7377 8.7385,-16.4517 16.0625,-19.3861 4.69,-2.1201 9.5802,-3.55 14.1313,-6.1436 -4.504,-4.9211 -10.217,-7.7776 -15.1444,-11.996 -4.8187,-3.7714 -9.8202,-7.6549 -13.7027,-12.7134 -0.3665,-10.8992 6.889,-20.5759 15.1686,-23.8643 3.836,-2.9265 7.5994,-6.0563 10.917,-9.8323 -9.0265,-1.3838 -18.5353,-2.0907 -26.5099,-7.7195 -5.0145,-10.9967 -3.0147,-25.4188 3.2574,-35.4526 0.5665,-2.5644 -2.1224,-3.358 -3.6815,-2.7567 -9.715,-0.3029 -20.2666,-0.6588 -28.3046,-7.8337 -8.1801,-8.3966 -10.636,-22.431 -9.5505,-35.113 0.337,-4.7338 1.1052,-9.5214 0.5029,-14.2409 -0.7278,1.185 -1.4555,2.3698 -2.1833,3.5548 z"
       id="path3549-3-7-5"
       inkscape:connector-curvature="0"
       sodipodi:nodetypes="cccccccccccccccccccc" />
    <path
       style="color:#000000;display:inline;overflow:visible;visibility:visible;fill:#ffffff;fill-opacity:1;fill-rule:nonzero;stroke:none;stroke-width:0.963166px;marker:none;enable-background:accumulate"
       d="m 1216.8588,3102.4019 c -32.9237,1.0127 -66.2283,2.3026 -98.2821,13.293 -12.2803,4.504 -24.2593,13.6969 -30.8884,28.54 -9.7639,20.9979 -10.2241,48.1413 -3.1585,70.6368 6.5256,21.7902 19.4654,40.9136 36.3399,48.9857 22.1945,10.5885 46.1088,10.9262 69.4149,11.303 13.2852,0.09 26.566,0.5429 39.8487,0.8295 37.6024,0.5215 75.3711,-3.0065 112.2235,-13.2119 9.4468,-3.132 18.848,-9.7458 23.934,-21.1583 7.0506,-14.4665 9.6289,-31.6967 11.7399,-48.4189 1.4622,-15.0588 -0.5672,-31.1141 -7.2765,-43.6735 -9.8106,-19.9832 -26.6096,-32.7789 -44.1626,-36.7438 -19.0408,-4.8818 -38.5295,-4.3959 -57.7663,-6.9623 -17.2943,-1.7278 -34.6066,-3.6794 -51.9665,-3.4193 z"
       id="path3330-06"
       inkscape:connector-curvature="0"
       sodipodi:nodetypes="zsssssz" />
    <path
       style="color:#000000;display:inline;overflow:visible;visibility:visible;fill:#ffffff;fill-opacity:1;fill-rule:nonzero;stroke:none;stroke-width:0.930948px;marker:none;enable-background:accumulate"
       d="m 1292.7739,3245.8924 c -30.9862,0.7733 -62.3309,1.7584 -92.4984,10.1515 -11.5578,3.4395 -22.8318,10.4599 -29.0709,21.7952 -9.1891,16.0354 -9.6224,36.7641 -2.9726,53.9432 6.1416,16.6406 18.32,31.2445 34.2014,37.409 20.8886,8.0861 43.3956,8.344 65.33,8.6317 12.5035,0.068 25.0028,0.4146 37.504,0.6335 35.3894,0.3982 70.9356,-2.296 105.6194,-10.0896 8.8909,-2.3918 17.7387,-7.4425 22.5254,-16.158 6.6359,-11.0476 9.0623,-24.2057 11.0491,-36.976 1.3762,-11.5 -0.5338,-23.761 -6.8482,-33.3522 -9.2334,-15.2605 -25.0438,-25.0322 -41.5639,-28.0602 -17.9202,-3.728 -36.2621,-3.357 -54.3668,-5.3169 -16.2766,-1.3194 -32.5702,-2.8098 -48.9085,-2.6112 z"
       id="path3330-06-3"
       inkscape:connector-curvature="0"
       sodipodi:nodetypes="zsssssz" />
    <path
       style="color:#000000;display:inline;overflow:visible;visibility:visible;fill:#ffffff;fill-opacity:1;fill-rule:nonzero;stroke:none;stroke-width:1px;marker:none;enable-background:accumulate"
       d="m 1039.2669,1903.8172 c 12.9493,3.5313 53.5872,20.5771 12.2952,22.1787 58.4932,34.8788 36.4599,48.5856 29.0728,56.6372 16.1722,-2.9028 43.2767,3.6912 37.948,25.997 15.5796,-3.3105 37.1138,30.9541 46.9488,47.7121 5.4751,-22.5128 14.7633,-26.7531 33.5882,14.6671 -5.0222,-31.6407 -8.5325,-61.1815 35.5765,-24.5631 -1.3396,-11.6529 -37.505,-38.8648 55.2875,-27.1762 -32.7571,-19.6367 -52.8115,-40.7758 2.6164,-68.3558 -25.4958,-7.917 -44.0058,-20.0077 -15.9196,-44.1161 -24.7104,-4.752 -32.1598,-33.2989 -29.3536,-43.8776 -22.4857,21.5457 -39.1208,21.0346 -47.2071,-7.7103 -38.5962,48.8917 -38.9502,9.3578 -52.5793,1.7385 -9.2198,38.1114 -32.9734,21.426 -54.7012,14.9485 7.6586,43.5652 -27.838,29.7409 -53.5726,31.92 z"
       id="path3549-3-8"
       inkscape:connector-curvature="0"
       sodipodi:nodetypes="ccccccccccccccc" />
  </g>
  <g
     inkscape:groupmode="layer"
     id="layer1"
     inkscape:label="txt"
     style="display:inline">
    <text
       xml:space="preserve"
       style="font-style:normal;font-variant:normal;font-weight:normal;font-stretch:normal;font-size:64.2252px;line-height:100%;font-family:'Nanum Pen Script OTF';-inkscape-font-specification:'Nanum Pen Script OTF';text-align:center;letter-spacing:0px;word-spacing:0px;text-anchor:middle;fill:#000000;fill-opacity:1;stroke:none;stroke-width:1.41673"
       x="353.23511"
       y="313.44553"
       id="text938"><tspan
         sodipodi:role="line"
         style="font-style:normal;font-variant:normal;font-weight:normal;font-stretch:normal;font-size:64.2252px;font-family:'Nanum Pen Script OTF';-inkscape-font-specification:'Nanum Pen Script OTF';stroke-width:1.41673"
         x="353.23511"
         y="313.44553"
         id="tspan936">흐음...</tspan></text>
    <text
       xml:space="preserve"
       style="font-style:normal;font-variant:normal;font-weight:normal;font-stretch:normal;font-size:64px;line-height:100%;font-family:'Nanum Pen Script OTF';-inkscape-font-specification:'Nanum Pen Script OTF';text-align:center;letter-spacing:0px;word-spacing:0px;text-anchor:middle;fill:#000000;fill-opacity:1;stroke:none;stroke-width:1.63029"
       x="411.52176"
       y="407.28848"
       id="text942"><tspan
         sodipodi:role="line"
         style="font-style:normal;font-variant:normal;font-weight:normal;font-stretch:normal;font-size:64px;font-family:'Nanum Pen Script OTF';-inkscape-font-specification:'Nanum Pen Script OTF';stroke-width:1.63029"
         x="411.52176"
         y="407.28848"
         id="tspan940">그렇단</tspan><tspan
         sodipodi:role="line"
         style="font-style:normal;font-variant:normal;font-weight:normal;font-stretch:normal;font-size:64px;font-family:'Nanum Pen Script OTF';-inkscape-font-specification:'Nanum Pen Script OTF';stroke-width:1.63029"
         x="411.52176"
         y="471.28848"
         id="tspan7644">말이지...</tspan></text>
    <text
       xml:space="preserve"
       style="font-style:normal;font-variant:normal;font-weight:normal;font-stretch:normal;font-size:58.061px;line-height:100%;font-family:'Nanum Pen Script OTF';-inkscape-font-specification:'Nanum Pen Script OTF';text-align:center;letter-spacing:0px;word-spacing:0px;text-anchor:middle;fill:#000000;fill-opacity:1;stroke:none;stroke-width:1.28076"
       x="2003.2051"
       y="345.12582"
       id="text950"><tspan
         sodipodi:role="line"
         style="font-style:normal;font-variant:normal;font-weight:normal;font-stretch:normal;font-size:58.061px;font-family:'Nanum Pen Script OTF';-inkscape-font-specification:'Nanum Pen Script OTF';stroke-width:1.28076"
         x="2003.2051"
         y="345.12582"
         id="tspan948">...그래서 불사조의 눈물을 받아</tspan><tspan
         sodipodi:role="line"
         style="font-style:normal;font-variant:normal;font-weight:normal;font-stretch:normal;font-size:58.061px;font-family:'Nanum Pen Script OTF';-inkscape-font-specification:'Nanum Pen Script OTF';stroke-width:1.28076"
         x="2003.2051"
         y="403.18683"
         id="tspan14120">네 그것을 치료하고 싶다,</tspan><tspan
         sodipodi:role="line"
         style="font-style:normal;font-variant:normal;font-weight:normal;font-stretch:normal;font-size:58.061px;font-family:'Nanum Pen Script OTF';-inkscape-font-specification:'Nanum Pen Script OTF';stroke-width:1.28076"
         x="2003.2051"
         y="461.24783"
         id="tspan14124">이거지?</tspan></text>
    <text
       xml:space="preserve"
       style="font-style:normal;font-variant:normal;font-weight:normal;font-stretch:normal;font-size:53.9254px;line-height:100%;font-family:'Nanum Pen Script OTF';-inkscape-font-specification:'Nanum Pen Script OTF';text-align:center;letter-spacing:0px;word-spacing:0px;text-anchor:middle;fill:#000000;fill-opacity:1;stroke:none;stroke-width:1.18953"
       x="395.85886"
       y="834.29047"
       id="text958"><tspan
         sodipodi:role="line"
         style="font-style:normal;font-variant:normal;font-weight:normal;font-stretch:normal;font-size:53.9254px;font-family:'Nanum Pen Script OTF';-inkscape-font-specification:'Nanum Pen Script OTF';stroke-width:1.18953"
         x="395.85886"
         y="834.29047"
         id="tspan956">예, 제겐</tspan><tspan
         sodipodi:role="line"
         style="font-style:normal;font-variant:normal;font-weight:normal;font-stretch:normal;font-size:53.9254px;font-family:'Nanum Pen Script OTF';-inkscape-font-specification:'Nanum Pen Script OTF';stroke-width:1.18953"
         x="395.85886"
         y="888.21588"
         id="tspan25291"><tspan
   style="stroke:#000000;stroke-width:1.71047;stroke-opacity:1"
   id="tspan25985">유일한 희망</tspan>입니다.</tspan></text>
    <text
       xml:space="preserve"
       style="font-style:normal;font-variant:normal;font-weight:normal;font-stretch:normal;font-size:54.4468px;line-height:100%;font-family:'Nanum Pen Script OTF';-inkscape-font-specification:'Nanum Pen Script OTF';text-align:center;letter-spacing:0px;word-spacing:0px;text-anchor:middle;fill:#000000;fill-opacity:1;stroke:none;stroke-width:1.20103"
       x="1201.0981"
       y="996.46381"
       id="text964"
       transform="skewX(-13.976118)"><tspan
         sodipodi:role="line"
         style="font-style:normal;font-variant:normal;font-weight:normal;font-stretch:normal;font-size:54.4468px;font-family:'Nanum Pen Script OTF';-inkscape-font-specification:'Nanum Pen Script OTF';stroke-width:1.20103"
         x="1201.0981"
         y="996.46381"
         id="tspan962">*한숨*</tspan></text>
    <text
       xml:space="preserve"
       style="font-style:normal;font-variant:normal;font-weight:normal;font-stretch:normal;font-size:54.9131px;line-height:100%;font-family:'Nanum Pen Script OTF';-inkscape-font-specification:'Nanum Pen Script OTF';text-align:center;letter-spacing:0px;word-spacing:0px;text-anchor:middle;fill:#000000;fill-opacity:1;stroke:none;stroke-width:1.21132"
       x="1562.922"
       y="838.46234"
       id="text970"><tspan
         sodipodi:role="line"
         style="font-style:normal;font-variant:normal;font-weight:normal;font-stretch:normal;font-size:54.9131px;font-family:'Nanum Pen Script OTF';-inkscape-font-specification:'Nanum Pen Script OTF';stroke-width:1.21132"
         x="1562.922"
         y="838.46234"
         id="tspan968">...그럼,</tspan><tspan
         sodipodi:role="line"
         style="font-style:normal;font-variant:normal;font-weight:normal;font-stretch:normal;font-size:54.9131px;font-family:'Nanum Pen Script OTF';-inkscape-font-specification:'Nanum Pen Script OTF';stroke-width:1.21132"
         x="1562.922"
         y="893.37543"
         id="tspan35225">뭘 꾸물대?</tspan></text>
    <text
       xml:space="preserve"
       style="font-style:normal;font-variant:normal;font-weight:normal;font-stretch:normal;font-size:57.1651px;line-height:100%;font-family:'Nanum Pen Script OTF';-inkscape-font-specification:'Nanum Pen Script OTF';text-align:center;letter-spacing:0px;word-spacing:0px;text-anchor:middle;fill:#000000;fill-opacity:1;stroke:none;stroke-width:1.261"
       x="1588.9434"
       y="1016.0117"
       id="text976"><tspan
         sodipodi:role="line"
         style="font-style:normal;font-variant:normal;font-weight:normal;font-stretch:normal;font-size:57.1651px;font-family:'Nanum Pen Script OTF';-inkscape-font-specification:'Nanum Pen Script OTF';stroke-width:1.261"
         x="1588.9434"
         y="1016.0117"
         id="tspan974">나를 울려봐.</tspan></text>
    <text
       xml:space="preserve"
       style="font-style:normal;font-variant:normal;font-weight:normal;font-stretch:normal;font-size:59.7338px;line-height:100%;font-family:'Nanum Pen Script OTF';-inkscape-font-specification:'Nanum Pen Script OTF';text-align:center;letter-spacing:0px;word-spacing:0px;text-anchor:middle;fill:#000000;fill-opacity:1;stroke:none;stroke-width:1.31766"
       x="1562.7925"
       y="1641.2551"
       id="text982"><tspan
         sodipodi:role="line"
         style="font-style:normal;font-variant:normal;font-weight:normal;font-stretch:normal;font-size:59.7338px;font-family:'Nanum Pen Script OTF';-inkscape-font-specification:'Nanum Pen Script OTF';stroke:#000000;stroke-width:1.31766;stroke-opacity:1"
         x="1562.7925"
         y="1641.2551"
         id="tspan980">1분 안에</tspan><tspan
         sodipodi:role="line"
         style="font-style:normal;font-variant:normal;font-weight:normal;font-stretch:normal;font-size:59.7338px;font-family:'Nanum Pen Script OTF';-inkscape-font-specification:'Nanum Pen Script OTF';stroke-width:1.31766"
         x="1562.7925"
         y="1700.9889"
         id="tspan39904">끝내도록!</tspan></text>
    <text
       xml:space="preserve"
       style="font-style:normal;font-variant:normal;font-weight:normal;font-stretch:normal;font-size:88.4403px;line-height:100%;font-family:'Nanum Pen Script OTF';-inkscape-font-specification:'Nanum Pen Script OTF';text-align:center;letter-spacing:0px;word-spacing:0px;text-anchor:middle;fill:#000000;fill-opacity:1;stroke:#000000;stroke-width:1.58047;stroke-opacity:1"
       x="312.41541"
       y="1900.7086"
       id="text986"><tspan
         sodipodi:role="line"
         style="font-style:normal;font-variant:normal;font-weight:normal;font-stretch:normal;font-size:88.4403px;font-family:'Nanum Pen Script OTF';-inkscape-font-specification:'Nanum Pen Script OTF';stroke:#000000;stroke-width:1.58047;stroke-opacity:1"
         x="312.41541"
         y="1900.7086"
         id="tspan984">네?!</tspan></text>
    <text
       xml:space="preserve"
       style="font-style:normal;font-variant:normal;font-weight:normal;font-stretch:normal;font-size:65.4833px;line-height:100%;font-family:'Nanum Pen Script OTF';-inkscape-font-specification:'Nanum Pen Script OTF';text-align:center;letter-spacing:0px;word-spacing:0px;text-anchor:middle;fill:#000000;fill-opacity:1;stroke:#000000;stroke-width:1.33038;stroke-opacity:1"
       x="480.21722"
       y="1975.8096"
       id="text992"><tspan
         sodipodi:role="line"
         style="font-style:normal;font-variant:normal;font-weight:normal;font-stretch:normal;font-size:65.4833px;font-family:'Nanum Pen Script OTF';-inkscape-font-specification:'Nanum Pen Script OTF';stroke:#000000;stroke-width:1.33038;stroke-opacity:1"
         x="480.21722"
         y="1975.8096"
         id="tspan990">당신을</tspan><tspan
         sodipodi:role="line"
         style="font-style:normal;font-variant:normal;font-weight:normal;font-stretch:normal;font-size:65.4833px;font-family:'Nanum Pen Script OTF';-inkscape-font-specification:'Nanum Pen Script OTF';stroke:#000000;stroke-width:1.33038;stroke-opacity:1"
         x="480.21722"
         y="2041.2928"
         id="tspan49118">울리라고요?!</tspan></text>
    <text
       xml:space="preserve"
       style="font-style:normal;font-variant:normal;font-weight:normal;font-stretch:normal;font-size:63.2689px;line-height:100%;font-family:'Nanum Pen Script OTF';-inkscape-font-specification:'Nanum Pen Script OTF';text-align:center;letter-spacing:0px;word-spacing:0px;text-anchor:middle;fill:#000000;fill-opacity:1;stroke:none;stroke-width:1.39563"
       x="661.67181"
       y="2126.7493"
       id="text1000"><tspan
         sodipodi:role="line"
         style="font-style:normal;font-variant:normal;font-weight:normal;font-stretch:normal;font-size:63.2689px;font-family:'Nanum Pen Script OTF';-inkscape-font-specification:'Nanum Pen Script OTF';stroke-width:1.39563"
         x="661.67181"
         y="2126.7493"
         id="tspan998">거기까진</tspan><tspan
         sodipodi:role="line"
         style="font-style:normal;font-variant:normal;font-weight:normal;font-stretch:normal;font-size:63.2689px;font-family:'Nanum Pen Script OTF';-inkscape-font-specification:'Nanum Pen Script OTF';stroke-width:1.39563"
         x="661.67181"
         y="2190.0181"
         id="tspan52804">몰랐는데...</tspan></text>
    <text
       xml:space="preserve"
       style="font-style:normal;font-variant:normal;font-weight:normal;font-stretch:normal;font-size:62.7123px;line-height:100%;font-family:'Nanum Pen Script OTF';-inkscape-font-specification:'Nanum Pen Script OTF';text-align:center;letter-spacing:0px;word-spacing:0px;text-anchor:middle;fill:#000000;fill-opacity:1;stroke:none;stroke-width:1.27288"
       x="708.10236"
       y="2264.6353"
       id="text1010"
       transform="scale(0.98652379,1.0136603)"><tspan
         sodipodi:role="line"
         style="font-style:normal;font-variant:normal;font-weight:normal;font-stretch:normal;font-size:62.7123px;font-family:'Nanum Pen Script OTF';-inkscape-font-specification:'Nanum Pen Script OTF';stroke-width:1.27288"
         x="708.10236"
         y="2264.6353"
         id="tspan53293">거기다...</tspan><tspan
         sodipodi:role="line"
         style="font-style:normal;font-variant:normal;font-weight:normal;font-stretch:normal;font-size:62.7123px;font-family:'Nanum Pen Script OTF';-inkscape-font-specification:'Nanum Pen Script OTF';stroke:#000000;stroke-width:1.27288;stroke-opacity:1"
         x="708.10236"
         y="2327.3477"
         id="tspan53299">1분 안이라뇨?!</tspan></text>
    <text
       xml:space="preserve"
       style="font-style:normal;font-variant:normal;font-weight:normal;font-stretch:normal;font-size:69.7426px;line-height:100%;font-family:'Nanum Pen Script OTF';-inkscape-font-specification:'Nanum Pen Script OTF';text-align:center;letter-spacing:0px;word-spacing:0px;text-anchor:middle;fill:#000000;fill-opacity:1;stroke:none;stroke-width:1.44948"
       x="1017.7083"
       y="1931.0763"
       id="text1014"><tspan
         sodipodi:role="line"
         style="font-style:normal;font-variant:normal;font-weight:normal;font-stretch:normal;font-size:69.7426px;font-family:'Nanum Pen Script OTF';-inkscape-font-specification:'Nanum Pen Script OTF';stroke-width:1.44948"
         x="1017.7083"
         y="1931.0763"
         id="tspan1012">어...</tspan></text>
    <text
       xml:space="preserve"
       style="font-style:normal;font-variant:normal;font-weight:normal;font-stretch:normal;font-size:74.6629px;line-height:100%;font-family:'Nanum Pen Script OTF';-inkscape-font-specification:'Nanum Pen Script OTF';text-align:center;letter-spacing:0px;word-spacing:0px;text-anchor:middle;fill:#000000;fill-opacity:1;stroke:#000000;stroke-width:1.43741;stroke-opacity:1"
       x="1187.8383"
       y="1961.8252"
       id="text1018"><tspan
         sodipodi:role="line"
         style="font-style:normal;font-variant:normal;font-weight:normal;font-stretch:normal;font-size:74.6629px;font-family:'Nanum Pen Script OTF';-inkscape-font-specification:'Nanum Pen Script OTF';stroke-width:1.43741;stroke:#000000;stroke-opacity:1"
         x="1187.8383"
         y="1961.8252"
         id="tspan1016">네!</tspan></text>
    <text
       xml:space="preserve"
       style="font-style:normal;font-variant:normal;font-weight:normal;font-stretch:normal;font-size:51.8943px;line-height:100%;font-family:'Nanum Pen Script OTF';-inkscape-font-specification:'Nanum Pen Script OTF';text-align:center;letter-spacing:0px;word-spacing:0px;text-anchor:middle;fill:#000000;fill-opacity:1;stroke:none;stroke-width:1.28002"
       x="1377.6179"
       y="1976.1787"
       id="text1022"><tspan
         sodipodi:role="line"
         style="font-style:normal;font-variant:normal;font-weight:normal;font-stretch:normal;font-size:51.8943px;font-family:'Nanum Pen Script OTF';-inkscape-font-specification:'Nanum Pen Script OTF';stroke-width:1.28002"
         x="1377.6179"
         y="1976.1787"
         id="tspan1020">해볼게요.</tspan></text>
    <text
       xml:space="preserve"
       style="font-style:normal;font-variant:normal;font-weight:normal;font-stretch:normal;font-size:57.1393px;line-height:100%;font-family:'Nanum Pen Script OTF';-inkscape-font-specification:'Nanum Pen Script OTF';text-align:center;letter-spacing:0px;word-spacing:0px;text-anchor:middle;fill:#000000;fill-opacity:1;stroke:none;stroke-width:1.26043"
       x="1278.1838"
       y="2065.6233"
       id="text1030"><tspan
         sodipodi:role="line"
         style="font-style:normal;font-variant:normal;font-weight:normal;font-stretch:normal;font-size:57.1393px;font-family:'Nanum Pen Script OTF';-inkscape-font-specification:'Nanum Pen Script OTF';stroke-width:1.26043"
         x="1278.1838"
         y="2065.6233"
         id="tspan62834">음... <tspan
   style="stroke:#000000;stroke-opacity:1"
   id="tspan71410">전 세계에 굶어 죽는</tspan></tspan><tspan
         sodipodi:role="line"
         style="font-style:normal;font-variant:normal;font-weight:normal;font-stretch:normal;font-size:57.1393px;font-family:'Nanum Pen Script OTF';-inkscape-font-specification:'Nanum Pen Script OTF';stroke-width:1.26043"
         x="1278.1838"
         y="2122.7627"
         id="tspan62838"><tspan
   style="stroke:#000000;stroke-opacity:1"
   id="tspan71412">사람들</tspan>을 생각해보세요.</tspan></text>
    <text
       xml:space="preserve"
       style="font-style:normal;font-variant:normal;font-weight:normal;font-stretch:normal;font-size:54.7894px;line-height:100%;font-family:'Nanum Pen Script OTF';-inkscape-font-specification:'Nanum Pen Script OTF';text-align:center;letter-spacing:0px;word-spacing:0px;text-anchor:middle;fill:#000000;fill-opacity:1;stroke:none;stroke-width:1.20859"
       x="1276.1174"
       y="2194.8413"
       id="text1034"><tspan
         sodipodi:role="line"
         style="font-style:normal;font-variant:normal;font-weight:normal;font-stretch:normal;font-size:54.7894px;font-family:'Nanum Pen Script OTF';-inkscape-font-specification:'Nanum Pen Script OTF';stroke-width:1.20859"
         x="1276.1174"
         y="2194.8413"
         id="tspan1032">어, 아뇨아뇨아뇨!</tspan></text>
    <text
       xml:space="preserve"
       style="font-style:normal;font-variant:normal;font-weight:normal;font-stretch:normal;font-size:58.0979px;line-height:100%;font-family:'Nanum Pen Script OTF';-inkscape-font-specification:'Nanum Pen Script OTF';text-align:center;letter-spacing:0px;word-spacing:0px;text-anchor:middle;fill:#000000;fill-opacity:1;stroke:none;stroke-width:1.28157"
       x="1276.7888"
       y="2260.2349"
       id="text1040"><tspan
         sodipodi:role="line"
         style="font-style:normal;font-variant:normal;font-weight:normal;font-stretch:normal;font-size:58.0979px;font-family:'Nanum Pen Script OTF';-inkscape-font-specification:'Nanum Pen Script OTF';stroke-width:1.28157"
         x="1276.7888"
         y="2260.2349"
         id="tspan1038">더 좋은 생각이</tspan><tspan
         sodipodi:role="line"
         style="font-style:normal;font-variant:normal;font-weight:normal;font-stretch:normal;font-size:58.0979px;font-family:'Nanum Pen Script OTF';-inkscape-font-specification:'Nanum Pen Script OTF';stroke-width:1.28157"
         x="1276.7888"
         y="2318.3328"
         id="tspan76374">났어요:</tspan></text>
    <text
       xml:space="preserve"
       style="font-style:normal;font-variant:normal;font-weight:normal;font-stretch:normal;font-size:57.3969px;line-height:100%;font-family:'Nanum Pen Script OTF';-inkscape-font-specification:'Nanum Pen Script OTF';text-align:center;letter-spacing:0px;word-spacing:0px;text-anchor:middle;fill:#000000;fill-opacity:1;stroke:#000000;stroke-width:1.87490391;stroke-opacity:1"
       x="1293.8857"
       y="2382.5784"
       id="text1044"><tspan
         sodipodi:role="line"
         style="font-style:normal;font-variant:normal;font-weight:normal;font-stretch:normal;font-size:57.3969px;font-family:'Nanum Pen Script OTF';-inkscape-font-specification:'Nanum Pen Script OTF';stroke:#000000;stroke-width:1.87490391;stroke-opacity:1"
         x="1293.8857"
         y="2382.5784"
         id="tspan1042">당신이 그리워하는 이요.</tspan></text>
    <text
       xml:space="preserve"
       style="font-style:normal;font-variant:normal;font-weight:normal;font-stretch:normal;font-size:53.6754px;line-height:100%;font-family:'Nanum Pen Script OTF';-inkscape-font-specification:'Nanum Pen Script OTF';text-align:center;letter-spacing:0px;word-spacing:0px;text-anchor:middle;fill:#000000;fill-opacity:1;stroke:none;stroke-width:1.18402"
       x="1184.5018"
       y="3082.7275"
       id="text1048"><tspan
         sodipodi:role="line"
         style="font-style:normal;font-variant:normal;font-weight:normal;font-stretch:normal;font-size:53.6754px;font-family:'Nanum Pen Script OTF';-inkscape-font-specification:'Nanum Pen Script OTF';stroke-width:1.18402"
         x="1184.5018"
         y="3082.7275"
         id="tspan1046">아직 부족한가요?</tspan></text>
    <text
       xml:space="preserve"
       style="font-style:normal;font-variant:normal;font-weight:normal;font-stretch:normal;font-size:61.466px;line-height:100%;font-family:'Nanum Pen Script OTF';-inkscape-font-specification:'Nanum Pen Script OTF';text-align:center;letter-spacing:0px;word-spacing:0px;text-anchor:middle;fill:#000000;fill-opacity:1;stroke:#000000;stroke-width:1.35587;stroke-opacity:1"
       x="1232.4929"
       y="3173.8782"
       id="text1054"><tspan
         sodipodi:role="line"
         style="font-style:normal;font-variant:normal;font-weight:normal;font-stretch:normal;font-size:61.466px;font-family:'Nanum Pen Script OTF';-inkscape-font-specification:'Nanum Pen Script OTF';stroke:#000000;stroke-width:1.35587;stroke-opacity:1"
         x="1232.4929"
         y="3173.8782"
         id="tspan1052">버려진</tspan><tspan
         sodipodi:role="line"
         style="font-style:normal;font-variant:normal;font-weight:normal;font-stretch:normal;font-size:61.466px;font-family:'Nanum Pen Script OTF';-inkscape-font-specification:'Nanum Pen Script OTF';stroke:#000000;stroke-width:1.35587;stroke-opacity:1"
         x="1232.4929"
         y="3235.3442"
         id="tspan85662">동물들은요?!</tspan></text>
    <text
       xml:space="preserve"
       style="font-style:normal;font-variant:normal;font-weight:normal;font-stretch:normal;font-size:43.7269px;line-height:100%;font-family:'Nanum Pen Script OTF';-inkscape-font-specification:'Nanum Pen Script OTF';text-align:center;letter-spacing:0px;word-spacing:0px;text-anchor:middle;fill:#000000;fill-opacity:1;stroke:none;stroke-width:1.3665"
       x="1307.4158"
       y="3307.2463"
       id="text1060"><tspan
         sodipodi:role="line"
         style="font-style:normal;font-variant:normal;font-weight:normal;font-stretch:normal;font-size:43.7269px;font-family:'Nanum Pen Script OTF';-inkscape-font-specification:'Nanum Pen Script OTF';stroke-width:1.3665"
         x="1307.4158"
         y="3307.2463"
         id="tspan1058">버려지는 동물들이</tspan><tspan
         sodipodi:role="line"
         style="font-style:normal;font-variant:normal;font-weight:normal;font-stretch:normal;font-size:43.7269px;font-family:'Nanum Pen Script OTF';-inkscape-font-specification:'Nanum Pen Script OTF';stroke-width:1.3665"
         x="1307.4158"
         y="3350.9731"
         id="tspan90386">너무 불쌍해요...</tspan></text>
    <text
       xml:space="preserve"
       style="font-style:normal;font-variant:normal;font-weight:normal;font-stretch:normal;font-size:79.3042px;line-height:100%;font-family:'Nanum Pen Script OTF';-inkscape-font-specification:'Nanum Pen Script OTF';text-align:center;letter-spacing:0px;word-spacing:0px;text-anchor:middle;fill:#000000;fill-opacity:1;stroke:none;stroke-width:1.74936"
       x="2304.3357"
       y="3148.4365"
       id="text1064"><tspan
         sodipodi:role="line"
         style="font-style:normal;font-variant:normal;font-weight:normal;font-stretch:normal;font-size:79.3042px;font-family:'Nanum Pen Script OTF';-inkscape-font-specification:'Nanum Pen Script OTF';stroke-width:1.74936"
         x="2304.3357"
         y="3148.4365"
         id="tspan1062">...</tspan></text>
  </g>
</svg>
