{
   "id": 35,
   "original-language": "en",
   "supporters": 1054,
   "published": "2021-06-18",
   "pluxmlID": 468,
   "background-color": "#FFFFFF",
   "credits": {
      "art":[
         "David Revoy <https://framagit.org/Deevad>"
      ],
      "scenario":[
         "David Revoy <https://framagit.org/Deevad>"
      ],
      "beta-readers":[
         "Arlo James Barnes <https://framagit.org/ArloJamesBarnes>",
         "Craig Maloney <https://framagit.org/craigmaloney>",
         "Karl Ove Hufthammer <https://framagit.org/huftis>",
         "Martin Disch <https://framagit.org/martindisch>",
         "Nicolas Artance <https://framagit.org/Nartance>",
         "Parnikkapore <https://framagit.org/parnikkapore>",
         "Valvin <https://framagit.org/valvin>"
      ]
   },
   "software":[
      {
         "name": "Krita",
         "version": "4.4.2appimage"
      },
      {
         "name": "Inkscape",
         "version": "1.1"
      },
      {
         "name": "Kubuntu",
         "version": "20.04"
      }
   ]
}
