<?xml version="1.0" encoding="UTF-8" standalone="no"?>
<!-- Created with Inkscape (http://www.inkscape.org/) -->

<svg
   xmlns:dc="http://purl.org/dc/elements/1.1/"
   xmlns:cc="http://creativecommons.org/ns#"
   xmlns:rdf="http://www.w3.org/1999/02/22-rdf-syntax-ns#"
   xmlns:svg="http://www.w3.org/2000/svg"
   xmlns="http://www.w3.org/2000/svg"
   xmlns:xlink="http://www.w3.org/1999/xlink"
   xmlns:sodipodi="http://sodipodi.sourceforge.net/DTD/sodipodi-0.dtd"
   xmlns:inkscape="http://www.inkscape.org/namespaces/inkscape"
   id="svg2"
   version="1.1"
   inkscape:version="0.92.2 (5c3e80d, 2017-08-06)"
   width="2481"
   height="3503"
   sodipodi:docname="E17P07.svg">
  <metadata
     id="metadata8">
    <rdf:RDF>
      <cc:Work
         rdf:about="">
        <dc:format>image/svg+xml</dc:format>
        <dc:type
           rdf:resource="http://purl.org/dc/dcmitype/StillImage" />
        <dc:title />
      </cc:Work>
    </rdf:RDF>
  </metadata>
  <defs
     id="defs6">
    <filter
       style="color-interpolation-filters:sRGB;"
       inkscape:label="Drop Shadow"
       id="filter5522">
      <feFlood
         flood-opacity="1"
         flood-color="rgb(0,0,0)"
         result="flood"
         id="feFlood5524" />
      <feComposite
         in="flood"
         in2="SourceGraphic"
         operator="in"
         result="composite1"
         id="feComposite5526" />
      <feGaussianBlur
         in="composite1"
         stdDeviation="1"
         result="blur"
         id="feGaussianBlur5528" />
      <feOffset
         dx="2.5"
         dy="2.5"
         result="offset"
         id="feOffset5530" />
      <feComposite
         in="SourceGraphic"
         in2="offset"
         operator="over"
         result="composite2"
         id="feComposite5532" />
    </filter>
    <filter
       style="color-interpolation-filters:sRGB;"
       inkscape:label="Drop Shadow"
       id="filter5534">
      <feFlood
         flood-opacity="1"
         flood-color="rgb(0,0,0)"
         result="flood"
         id="feFlood5536" />
      <feComposite
         in="flood"
         in2="SourceGraphic"
         operator="in"
         result="composite1"
         id="feComposite5538" />
      <feGaussianBlur
         in="composite1"
         stdDeviation="1"
         result="blur"
         id="feGaussianBlur5540" />
      <feOffset
         dx="2.5"
         dy="2.5"
         result="offset"
         id="feOffset5542" />
      <feComposite
         in="SourceGraphic"
         in2="offset"
         operator="over"
         result="composite2"
         id="feComposite5544" />
    </filter>
    <filter
       style="color-interpolation-filters:sRGB;"
       inkscape:label="Drop Shadow"
       id="filter5546">
      <feFlood
         flood-opacity="1"
         flood-color="rgb(0,0,0)"
         result="flood"
         id="feFlood5548" />
      <feComposite
         in="flood"
         in2="SourceGraphic"
         operator="in"
         result="composite1"
         id="feComposite5550" />
      <feGaussianBlur
         in="composite1"
         stdDeviation="1"
         result="blur"
         id="feGaussianBlur5552" />
      <feOffset
         dx="2.5"
         dy="2.5"
         result="offset"
         id="feOffset5554" />
      <feComposite
         in="SourceGraphic"
         in2="offset"
         operator="over"
         result="composite2"
         id="feComposite5556" />
    </filter>
    <filter
       style="color-interpolation-filters:sRGB;"
       inkscape:label="Drop Shadow"
       id="filter5558">
      <feFlood
         flood-opacity="1"
         flood-color="rgb(0,0,0)"
         result="flood"
         id="feFlood5560" />
      <feComposite
         in="flood"
         in2="SourceGraphic"
         operator="in"
         result="composite1"
         id="feComposite5562" />
      <feGaussianBlur
         in="composite1"
         stdDeviation="1"
         result="blur"
         id="feGaussianBlur5564" />
      <feOffset
         dx="2.5"
         dy="2.5"
         result="offset"
         id="feOffset5566" />
      <feComposite
         in="SourceGraphic"
         in2="offset"
         operator="over"
         result="composite2"
         id="feComposite5568" />
    </filter>
  </defs>
  <sodipodi:namedview
     pagecolor="#ffffff"
     bordercolor="#666666"
     borderopacity="1"
     objecttolerance="10"
     gridtolerance="10"
     guidetolerance="10"
     inkscape:pageopacity="0"
     inkscape:pageshadow="2"
     inkscape:window-width="1299"
     inkscape:window-height="713"
     id="namedview4"
     showgrid="false"
     inkscape:zoom="0.39438756"
     inkscape:cx="1184.4245"
     inkscape:cy="570.55642"
     inkscape:window-x="67"
     inkscape:window-y="27"
     inkscape:window-maximized="1"
     inkscape:current-layer="layer3" />
  <g
     inkscape:groupmode="layer"
     id="layer2"
     inkscape:label="artwork"
     sodipodi:insensitive="true">
    <image
       sodipodi:absref="/home/emmiline/Documents/git/webcomics/ep17_A-Fresh-Start/lang/da/../gfx_Pepper-and-Carrot_by-David-Revoy_E17P07.png"
       xlink:href="../gfx_Pepper-and-Carrot_by-David-Revoy_E17P07.png"
       y="0"
       x="0"
       id="image10"
       height="3503"
       width="2481" />
  </g>
  <g
     inkscape:groupmode="layer"
     id="layer3"
     inkscape:label="speechbubbles"
     style="opacity:1">
    <path
       style="color:#000000;display:inline;overflow:visible;visibility:visible;fill:#ffffff;fill-opacity:1;fill-rule:nonzero;stroke:none;stroke-width:1px;marker:none;enable-background:accumulate"
       d="m 1130.6126,431.11963 c 25.2946,-29.55472 361.508,-49.07664 431.9268,-2.46023 79.5372,52.65267 22.7067,165.2971 -40.1774,188.87154 -59.4421,22.2841 -217.2262,37.87117 -295.0815,15.37822 -77.8555,-22.49294 -138.3874,-52.895 -141.8722,-120.05427 -1.4225,-27.41037 19.9097,-52.18054 45.2043,-81.73526 z"
       id="path4040"
       inkscape:connector-curvature="0"
       sodipodi:nodetypes="zssssz" />
    <path
       style="color:#000000;display:inline;overflow:visible;visibility:visible;fill:#ffffff;fill-opacity:1;fill-rule:nonzero;stroke:none;stroke-width:1px;marker:none;enable-background:accumulate"
       d="m 1718.5209,509.9842 c -7.7418,16.19807 -15.5076,33.1973 -32.4434,44.53252 -4.9282,3.13091 -10.3949,6.06413 -16.7951,7.55715 -7.4315,0.34787 -14.9982,-3.69945 -19.5221,-8.64539 -7.1207,-6.8955 -11.3036,-15.81586 -21.4899,-20.78482 -7.4974,-3.49757 -15.0354,-1.37767 -21.6815,-0.0597 -16.7822,3.62734 -32.5282,9.11411 -50.5605,10.55753 -19.8886,2.65529 -41.3726,4.30783 -62.9062,-1.38774 -8.498,-2.35513 -17.1818,-5.65988 -23.4987,-11.12248 -16.9211,-13.58117 -25.455,-33.19058 -18.7509,-48.31082 5.6068,-9.14761 23.0937,-12.59261 36.7206,-5.62125 7.2465,3.60893 11.003,9.87667 12.2022,15.6104 4.8041,10.62809 13.5292,16.17886 27.3657,20.48853 11.3777,3.68742 23.4851,4.84238 34.5115,3.72094 16.3526,1.58414 28.7095,-5.25897 41.9672,-9.32447 6.1131,-1.78274 14.7425,-0.81807 21.9596,0.003 10.4123,2.98538 18.6964,8.13329 22.7748,15.25714 4.4423,7.30296 9.0427,15.99488 19.2106,20.41309 6.6879,3.70799 9.9042,1.61642 15.0888,-0.007 15.318,-7.03414 27.7026,-16.42843 34.5809,-29.01708 0.5231,-1.25492 0.8972,-2.55454 1.2667,-3.85901 z"
       id="path4496-6"
       inkscape:connector-curvature="0"
       sodipodi:nodetypes="cccccccccccccccccccccc" />
    <path
       style="fill:#ffffff;stroke:none;stroke-width:0.88650227"
       d="m 679.05773,242.64665 c 27.71307,-84.8638 102.2195,-77.07536 158.88671,-81.27277 71.69321,-5.08826 178.34366,-0.22193 213.01706,40.54598 55.2661,70.92378 -23.9545,111.27859 -79.19989,128.16022 -88.26634,23.73706 -179.27791,12.79275 -266.71785,-12.63101 -16.25233,-6.21182 -34.69157,-45.67665 -25.98603,-74.80242 z"
       id="path3100"
       inkscape:connector-curvature="0"
       sodipodi:nodetypes="cccccc" />
    <path
       style="color:#000000;display:inline;overflow:visible;visibility:visible;fill:#ffffff;fill-opacity:1;fill-rule:nonzero;stroke:none;stroke-width:1px;marker:none;enable-background:accumulate"
       d="m 769.01638,470.98308 c 62.14532,-16.29259 90.41803,-60.54356 101.98459,-144.73098 11.48796,-83.61528 42.62521,-40.29844 42.62521,-40.29844 0,0 -10.34632,173.42219 -144.6098,185.02942 z"
       id="path3984"
       inkscape:connector-curvature="0"
       sodipodi:nodetypes="cscc" />
    <text
       xml:space="preserve"
       style="font-style:normal;font-variant:normal;font-weight:normal;font-stretch:normal;line-height:0%;font-family:Arial;-inkscape-font-specification:Arial;text-align:center;letter-spacing:0px;word-spacing:0px;text-anchor:middle;display:inline;opacity:0.85500004;fill:#ffffff;fill-opacity:1;stroke:#ffffff;filter:url(#filter5558)"
       x="1240.6473"
       y="3388.5505"
       id="text4229"><tspan
         sodipodi:role="line"
         x="1240.6473"
         y="3388.5505"
         style="font-style:normal;font-variant:normal;font-weight:normal;font-stretch:normal;font-size:27.5px;line-height:1.25;font-family:Lavi;-inkscape-font-specification:Lavi;fill:#ffffff;stroke:#ffffff"
         id="tspan4169">Licens: Creative Commons Kreditering 4.0. Værktøj: Krita, G'MIC, Inkscape, på Linux Ubuntu</tspan></text>
    <text
       xml:space="preserve"
       style="color:#000000;font-style:normal;font-variant:normal;font-weight:normal;font-stretch:normal;line-height:0%;font-family:Lavi;-inkscape-font-specification:Lavi;text-indent:0;text-align:center;text-decoration:none;text-decoration-line:none;letter-spacing:0px;word-spacing:0px;text-transform:none;writing-mode:lr-tb;direction:ltr;baseline-shift:baseline;text-anchor:middle;display:inline;overflow:visible;visibility:visible;opacity:0.85500004;fill:#ffffff;fill-opacity:1;fill-rule:nonzero;stroke:#ffffff;filter:url(#filter5546);enable-background:accumulate"
       x="1242.353"
       y="3350.7795"
       id="text4246-42-4"><tspan
         sodipodi:role="line"
         style="color:#000000;font-style:normal;font-variant:normal;font-weight:normal;font-stretch:normal;font-size:27.5px;line-height:125%;font-family:Lavi;-inkscape-font-specification:Lavi;text-indent:0;text-align:center;text-decoration:none;text-decoration-line:none;letter-spacing:0px;word-spacing:0px;text-transform:none;writing-mode:lr-tb;direction:ltr;baseline-shift:baseline;text-anchor:middle;display:inline;overflow:visible;visibility:visible;fill:#ffffff;fill-opacity:1;fill-rule:nonzero;stroke:#ffffff;enable-background:accumulate"
         x="1242.353"
         y="3350.7795"
         id="tspan4252-9-9">Baseret på Hereva-universet skabt af David Revoy med bidrag af Craig Maloney. Rettelser af Willem Sonke, Moini, Hali, CGand og Alex Gryson.</tspan></text>
    <text
       xml:space="preserve"
       style="font-style:normal;font-variant:normal;font-weight:normal;font-stretch:normal;line-height:0%;font-family:Lavi;-inkscape-font-specification:Lavi;text-align:center;letter-spacing:0px;word-spacing:0px;text-anchor:middle;opacity:1;fill:#ffffff;fill-opacity:1;stroke:#ffffff;stroke-width:3.82200003;stroke-miterlimit:4;stroke-dasharray:none;stroke-opacity:1;filter:url(#filter5534)"
       x="2028.7821"
       y="2443.6147"
       id="text4213"
       transform="matrix(0.75304346,0,-0.11971288,1.3279446,0,27.158278)"><tspan
         sodipodi:role="line"
         id="tspan4215"
         x="2028.7821"
         y="2443.6147"
         style="font-size:63.55184174px;line-height:1.25;fill:#ffffff;stroke:#ffffff;stroke-width:3.82200003;stroke-miterlimit:4;stroke-dasharray:none">- SLUT -</tspan></text>
    <text
       xml:space="preserve"
       style="font-style:normal;font-variant:normal;font-weight:normal;font-stretch:normal;line-height:0%;font-family:Lavi;-inkscape-font-specification:Lavi;text-align:center;letter-spacing:0px;word-spacing:0px;text-anchor:middle;opacity:1;fill:#ffffff;fill-opacity:1;stroke:#ffffff;filter:url(#filter5522)"
       x="1240.0964"
       y="3314.6868"
       id="text4246-42"><tspan
         sodipodi:role="line"
         style="font-size:36.73472214px;line-height:1.25;fill:#ffffff;stroke:#ffffff"
         x="1240.0964"
         y="3314.6868"
         id="tspan4252-9">06/2016 – www.peppercarrot.com – Tegning og manuskript: David Revoy – Dansk oversættelse: Emmiline Alapetite</tspan></text>
  </g>
  <g
     inkscape:groupmode="layer"
     id="layer1"
     inkscape:label="txt">
    <text
       xml:space="preserve"
       style="font-style:normal;font-variant:normal;font-weight:normal;font-stretch:normal;line-height:0%;font-family:Lavi;-inkscape-font-specification:Lavi;text-align:center;letter-spacing:0px;word-spacing:0px;text-anchor:middle;fill:#000000;fill-opacity:1;stroke:none"
       x="886.39807"
       y="239.55782"
       id="text4246-0"><tspan
         sodipodi:role="line"
         style="font-size:45px;line-height:1.25"
         x="886.39807"
         y="239.55782"
         id="tspan4320">Nu kender du</tspan><tspan
         sodipodi:role="line"
         style="font-size:45px;line-height:1.25"
         x="886.39807"
         y="295.8078"
         id="tspan59">hele historien.</tspan></text>
    <text
       xml:space="preserve"
       style="font-style:normal;font-variant:normal;font-weight:normal;font-stretch:normal;line-height:0%;font-family:Lavi;-inkscape-font-specification:Lavi;text-align:center;letter-spacing:0px;word-spacing:0px;text-anchor:middle;fill:#000000;fill-opacity:1;stroke:none"
       x="1343.17"
       y="480.15073"
       id="text4246-0-2"><tspan
         sodipodi:role="line"
         style="font-size:45px;line-height:1.25"
         x="1343.17"
         y="480.15073"
         id="tspan4213">...og du siger, du er</tspan><tspan
         sodipodi:role="line"
         style="font-size:45px;line-height:1.25"
         x="1343.17"
         y="536.40076"
         id="tspan106">her, fordi de <tspan
   style="font-style:italic;font-variant:normal;font-weight:normal;font-stretch:normal;font-family:Lavi;-inkscape-font-specification:'Lavi Italic'"
   id="tspan4182">ingenting</tspan></tspan><tspan
         sodipodi:role="line"
         style="font-size:45px;line-height:1.25"
         x="1343.17"
         y="592.65076"
         id="tspan109">har lært dig?</tspan></text>
    <path
       style="color:#000000;display:inline;overflow:visible;visibility:visible;fill:#ffffff;fill-opacity:1;fill-rule:nonzero;stroke:none;stroke-width:1.10388684px;marker:none;enable-background:accumulate"
       d="m 407.20082,204.1747 c -2.16737,-12.24058 36.84535,-76.70743 169.05538,-68.54704 132.21001,8.16038 158.21857,54.6744 157.13484,70.99517 -1.08374,16.32069 -33.59428,41.61784 -53.10074,45.69803 -19.50637,4.08019 -70.43973,13.87256 -102.95048,10.60852 -32.51053,-3.26421 -132.20991,-19.5849 -151.71638,-34.27361 -19.50636,-14.68862 -16.25526,-21.21695 -18.42262,-24.48107 z"
       id="path3365"
       inkscape:connector-curvature="0" />
    <text
       xml:space="preserve"
       style="font-style:normal;font-variant:normal;font-weight:normal;font-stretch:normal;line-height:0%;font-family:Lavi;-inkscape-font-specification:Lavi;text-align:center;letter-spacing:0px;word-spacing:0px;text-anchor:middle;fill:#000000;fill-opacity:1;stroke:none"
       x="571.54419"
       y="211.26059"
       id="text4246-0-7"><tspan
         sodipodi:role="line"
         style="font-size:45px;line-height:1.25"
         x="571.54419"
         y="211.26059"
         id="tspan4320-0">...det var det.</tspan></text>
    <flowRoot
       xml:space="preserve"
       id="flowRoot111"
       style="fill:black;fill-opacity:1;stroke:none;font-family:sans-serif;font-style:normal;font-weight:normal;font-size:5.33333333px;line-height:1.25;letter-spacing:0px;word-spacing:0px"><flowRegion
         id="flowRegion113"><rect
           id="rect115"
           width="31.646736"
           height="69.622818"
           x="1458.9146"
           y="999.74316" /></flowRegion><flowPara
         id="flowPara117" /></flowRoot>  </g>
</svg>
