<?xml version="1.0" encoding="UTF-8" standalone="no"?>
<svg
   xmlns:dc="http://purl.org/dc/elements/1.1/"
   xmlns:cc="http://creativecommons.org/ns#"
   xmlns:rdf="http://www.w3.org/1999/02/22-rdf-syntax-ns#"
   xmlns:svg="http://www.w3.org/2000/svg"
   xmlns="http://www.w3.org/2000/svg"
   xmlns:xlink="http://www.w3.org/1999/xlink"
   xmlns:sodipodi="http://sodipodi.sourceforge.net/DTD/sodipodi-0.dtd"
   xmlns:inkscape="http://www.inkscape.org/namespaces/inkscape"
   id="svg2"
   version="1.1"
   inkscape:version="1.0.2-2 (e86c870879, 2021-01-15)"
   width="2481"
   height="3503"
   sodipodi:docname="E31P06.svg">
  <metadata
     id="metadata8">
    <rdf:RDF>
      <cc:Work
         rdf:about="">
        <dc:format>image/svg+xml</dc:format>
        <dc:type
           rdf:resource="http://purl.org/dc/dcmitype/StillImage" />
        <dc:title />
      </cc:Work>
    </rdf:RDF>
  </metadata>
  <defs
     id="defs6">
    <rect
       x="559.682"
       y="1163.0892"
       width="2.1862578"
       height="43.725157"
       id="rect65" />
    <filter
       style="color-interpolation-filters:sRGB"
       id="filter4375-4-1-1-1-9-5-8-3-8"
       inkscape:label="Drop Shadow">
      <feFlood
         id="feFlood4377-7-9-0-8-1-7-3-8-3"
         flood-opacity="1"
         flood-color="rgb(39,39,39)"
         result="flood" />
      <feComposite
         id="feComposite4379-3-8-8-2-77-4-1-8-7"
         in2="SourceGraphic"
         in="flood"
         operator="in"
         result="composite1" />
      <feMorphology
         id="feMorphology4393-1-0-49-8-9-3-0-31-8"
         operator="dilate"
         radius="6.2000000000000002"
         result="result3" />
      <feComposite
         id="feComposite4385-9-5-7-0-8-8-7-8-2"
         in2="result3"
         in="SourceGraphic"
         operator="over"
         result="fbSourceGraphic" />
      <feColorMatrix
         result="fbSourceGraphicAlpha"
         in="fbSourceGraphic"
         values="0 0 0 -1 0 0 0 0 -1 0 0 0 0 -1 0 0 0 0 1 0"
         id="feColorMatrix4544-96-1" />
      <feTurbulence
         id="feTurbulence4546-4-0"
         type="fractalNoise"
         numOctaves="3"
         seed="37"
         baseFrequency="0.129 0.0050000000000000001"
         result="turbulence" />
      <feDisplacementMap
         id="feDisplacementMap4548-3-5"
         in2="turbulence"
         in="fbSourceGraphic"
         scale="6.6"
         yChannelSelector="G"
         xChannelSelector="R"
         result="fbSourceGraphic" />
      <feColorMatrix
         result="fbSourceGraphicAlpha"
         in="fbSourceGraphic"
         values="0 0 0 -1 0 0 0 0 -1 0 0 0 0 -1 0 0 0 0 1 0"
         id="feColorMatrix4670-33-8" />
      <feFlood
         id="feFlood4672-8-5"
         flood-opacity="0.40999999999999998"
         flood-color="rgb(0,0,0)"
         result="flood"
         in="fbSourceGraphic" />
      <feComposite
         id="feComposite4674-6-5"
         in2="fbSourceGraphic"
         in="flood"
         operator="in"
         result="composite1" />
      <feGaussianBlur
         id="feGaussianBlur4676-0-0"
         in="composite1"
         stdDeviation="0"
         result="blur" />
      <feOffset
         id="feOffset4678-4-7"
         dx="6"
         dy="6"
         result="offset" />
      <feComposite
         id="feComposite4680-8-3"
         in2="offset"
         in="fbSourceGraphic"
         operator="over"
         result="composite2" />
    </filter>
    <filter
       style="color-interpolation-filters:sRGB"
       id="filter4375-4-1-1-1-9-0"
       inkscape:label="deevad outline effect">
      <feFlood
         id="feFlood4377-7-9-0-8-1-9"
         flood-opacity="1"
         flood-color="rgb(0,0,0)"
         result="flood" />
      <feComposite
         id="feComposite4379-3-8-8-2-77-1"
         in2="SourceGraphic"
         in="flood"
         operator="in"
         result="composite1" />
      <feMorphology
         id="feMorphology4393-1-0-49-8-9-9"
         operator="dilate"
         radius="3"
         result="result3" />
      <feComposite
         id="feComposite4385-9-5-7-0-8-6"
         in2="result3"
         in="SourceGraphic"
         operator="over"
         result="composite2" />
    </filter>
    <filter
       style="color-interpolation-filters:sRGB"
       id="filter4375-4-1-1-1-9-0-5"
       inkscape:label="deevad outline effect">
      <feFlood
         id="feFlood4377-7-9-0-8-1-9-6"
         flood-opacity="1"
         flood-color="rgb(0,0,0)"
         result="flood" />
      <feComposite
         id="feComposite4379-3-8-8-2-77-1-2"
         in2="SourceGraphic"
         in="flood"
         operator="in"
         result="composite1" />
      <feMorphology
         id="feMorphology4393-1-0-49-8-9-9-9"
         operator="dilate"
         radius="3"
         result="result3" />
      <feComposite
         id="feComposite4385-9-5-7-0-8-6-1"
         in2="result3"
         in="SourceGraphic"
         operator="over"
         result="composite2" />
    </filter>
  </defs>
  <sodipodi:namedview
     pagecolor="#ffffff"
     bordercolor="#666666"
     borderopacity="1"
     objecttolerance="10"
     gridtolerance="10"
     guidetolerance="10"
     inkscape:pageopacity="0"
     inkscape:pageshadow="2"
     inkscape:window-width="1366"
     inkscape:window-height="745"
     id="namedview4"
     showgrid="false"
     inkscape:zoom="1.2937299"
     inkscape:cx="775.65229"
     inkscape:cy="2934.1431"
     inkscape:window-x="-8"
     inkscape:window-y="-8"
     inkscape:window-maximized="1"
     inkscape:current-layer="layer3"
     inkscape:snap-global="false"
     inkscape:document-rotation="0" />
  <g
     inkscape:groupmode="layer"
     id="layer2"
     inkscape:label="artwork"
     sodipodi:insensitive="true">
    <image
       sodipodi:absref="C:\Users\quentinlipeck\Downloads\webcomics-master-ec7d62e6553c2c63bb1cf2e799ee31f9cb9ce5e2\webcomics-master-ec7d62e6553c2c63bb1cf2e799ee31f9cb9ce5e2\ep31_The-Fight\lang\gfx_Pepper-and-Carrot_by-David-Revoy_E31P06.png"
       xlink:href="../gfx_Pepper-and-Carrot_by-David-Revoy_E31P06.png"
       y="0"
       x="0"
       id="image10"
       height="3503"
       width="2481" />
  </g>
  <g
     inkscape:groupmode="layer"
     id="layer3"
     inkscape:label="speechbubbles">
    <path
       style="color:#000000;display:inline;overflow:visible;visibility:visible;fill:#ffffff;fill-opacity:1;fill-rule:nonzero;stroke:none;stroke-width:1.13599px;marker:none;enable-background:accumulate"
       d="m 859.75494,2925.6926 c -14.80028,-3.0753 -58.45766,-31.0327 -6.72605,-31.992 -38.6631,-10.7706 -34.90211,-36.1548 -4.41813,-52.3649 -40.82017,5.0058 -71.54896,0.2287 -51.76978,-26.7489 -59.75395,19.5804 -86.47836,24.2844 -75.75637,-12.7729 -26.37374,31.4363 -53.44242,27.1345 -62.14965,-7.7042 -4.94369,26.527 -45.87541,36.8922 -94.6941,4.185 16.63089,30.8416 26.07486,46.8938 -60.70537,42.3823 33.65993,16.7365 55.04665,27.4574 -0.22941,37.9391 28.79808,6.861 47.46713,17.1507 4.1581,37.0684 28.9419,4.2054 74.18851,0.3429 20.88649,36.9929 35.46738,-17.8244 96.60337,-9.1912 71.84071,17.9721 69.62268,-32.5667 83.69967,-25.4803 95.5098,-5.1642 24.87407,-31.8112 76.75374,-37.7434 99.89334,-21.0916 -12.19597,-26.5151 31.503,-17.1146 64.16042,-18.7011 z"
       id="path3549-3-78-5-3"
       inkscape:connector-curvature="0"
       sodipodi:nodetypes="ccccccccccccccc" />
    <path
       style="color:#000000;display:inline;overflow:visible;visibility:visible;fill:#ffffff;fill-opacity:1;fill-rule:nonzero;stroke:none;stroke-width:1.51323px;marker:none;enable-background:accumulate"
       d="m 851.53162,2997.9683 c -13.86717,-4.5343 -28.17413,-33.9572 -5.64067,-53.7184 -18.69722,-1.0474 -29.39745,-11.1612 -11.761,-31.8664 -39.20567,25.9226 -49.59887,-9.3 -36.77243,-50.684 -57.54449,19.8778 -83.08341,23.9311 -71.12458,-19.6672 -26.50841,35.976 -51.93487,29.2616 -58.48491,-12.8239 -5.97362,31.369 -18.7259,48.513 -56.73865,9.0166 -2.79811,11.5098 10.07836,49.3651 -71.88885,38.9132 31.06338,21.9393 49.70062,25.9673 -3.16002,35.2484 26.93971,9.8697 62.74258,24.6704 20.75613,45.9114 27.20522,6.7089 52.71742,13.3264 0.45221,53.9523 34.45796,-19.2008 71.12368,-6.7582 46.34912,24.2126 67.52318,-34.7997 80.51003,-25.5208 90.70583,-0.5857 25.10638,-36.5111 61.38965,-32.3758 82.49366,-11.152 -10.25939,-32.3556 43.80807,-26.7705 74.81416,-26.7569 z"
       id="path3549-3-78-5"
       inkscape:connector-curvature="0"
       sodipodi:nodetypes="ccccccccccccccc" />
    <path
       style="fill:#ffffff;fill-opacity:1;stroke:none;stroke-width:1.0661"
       d="m 2336.0954,607.49643 c -17.905,3.86007 -24.7967,7.46431 -21.5908,9.6977 -7.3444,1.09817 -10.1737,30.03928 -3.3049,35.3413 0.4572,0.55806 3.6649,2.23433 2.2873,2.50979 -1.3769,0.27548 -9.6338,-0.5762 -11.0131,0.53413 -1.3795,1.11089 12.3438,17.00347 10.5068,17.5563 -1.8367,0.55338 -44.0217,-10.10974 -49.993,-7.61678 -5.9714,2.49298 -2.7764,8.9012 -4.6124,9.17575 -1.8359,0.27454 -18.8087,-1.42978 -21.1035,-1.15616 -2.2949,0.2736 -6.4463,8.61487 -8.7411,8.88847 -2.2951,0.27362 -12.8379,-3.64446 -14.6739,-3.36991 -1.8362,0.27454 -0.9368,7.23467 -3.2315,7.50829 -2.2951,0.2736 -12.3733,-5.86981 -13.7505,-5.59434 -1.3772,0.27548 -6.461,14.1817 -8.7573,15.01188 -2.2965,0.83018 -16.9364,-15.34253 -18.3124,-15.62363 -1.3757,-0.28165 -10.1441,18.90564 -11.98,19.18018 -1.8364,0.27454 -10.9776,-13.1041 -12.355,-12.82862 -1.3773,0.27548 -10.1155,8.05138 -11.9522,8.60421 -1.8368,0.55283 -13.7196,-17.28455 -15.5551,-17.28829 -1.8353,-0.004 -17.4554,7.47929 -18.8355,8.86791 -1.3803,1.38917 -2.734,-7.24215 -4.5693,-7.24589 -1.8352,-0.004 -22.9549,4.96349 -23.4129,4.68427 -0.4582,-0.27923 3.2265,-5.56029 1.85,-5.56309 -1.3763,-0.003 -22.9598,6.9115 -23.8741,5.5182 6.2956,-20.42315 -46.5501,6.15199 -50.0281,5.74316 -3.2089,-1.12024 20.7076,-22.78124 18.418,-24.45617 -2.29,-1.6744 -10.5542,0.25676 -11.0109,-0.57903 -0.4564,-0.83579 5.0591,-4.44284 3.6855,-5.55878 -1.3735,-1.1165 -16.9621,-5.60143 -18.3349,-6.99566 -1.3729,-1.3948 6.8956,-4.99624 5.0624,-5.83483 -1.8332,-0.83915 -28.8904,-6.18233 -29.3456,-7.57524 -0.4551,-1.39237 13.7865,-8.04334 11.9562,-9.99509 -1.8301,-1.95229 -6.8753,-2.79743 -6.4127,-4.18848 0.4626,-1.39049 9.1847,-3.04299 8.7296,-4.43535 -0.4551,-1.39238 -5.0252,-8.36054 -6.3987,-9.47648 -1.3737,-1.11595 9.637,-0.53694 9.6398,-1.65008 0,-1.11369 -2.1221,-23.5183 -18.3968,-33.66701 28.4943,6.75864 40.5029,3.53587 55.6504,1.34045 15.1475,-2.19598 9.2191,-16.12464 11.5155,-16.95484 9.3179,5.17921 24.2478,27.89768 26.6198,1.91714 -0.4713,-1.85524 16.4069,11.16727 18.7017,10.89366 2.2949,-0.27361 21.2121,-14.7864 24.4246,-15.05814 3.2125,-0.27174 15.588,4.76377 18.3401,5.04767 2.7524,0.2839 5.0647,-6.66969 7.3576,-6.10843 2.2927,0.56124 16.9621,5.60143 19.2576,5.04953 2.2957,-0.55245 4.1369,-2.775 5.9709,-2.21468 1.8335,0.56031 10.0868,2.80399 10.0868,2.80399 0,0 5.9694,-1.65812 8.7223,-1.65251 2.753,0.006 21.541,9.22905 23.8337,9.79031 2.2926,0.56124 25.8719,-9.43403 24.4998,-11.10655 2.904,7.31416 17.0177,0.65375 20.0041,1.02589 3.2094,0.84196 12.8516,-1.64353 13.7672,-0.80679 0.9152,0.83672 3.6566,5.29601 6.4088,5.57991 2.7524,0.2839 9.173,1.41013 9.173,1.41013 l -0.9219,1.6684 c 0,0 19.2826,6.87013 21.5815,5.20508 8.2574,-0.92566 7.8906,1.56665 29.0875,-6.34533 -16.9791,16.83134 -28.2495,35.87639 7.1027,28.12884 -29.397,7.40389 -16.3785,13.68463 8.2269,12.26364 z"
       id="path5888-3-2"
       inkscape:connector-curvature="0"
       sodipodi:nodetypes="cccsccsscccccccsccscscsccsccccccsccscsccccsccscsccccccccccc" />
    <path
       style="fill:#ffffff;fill-opacity:1;stroke:none;stroke-width:1.02237"
       d="m 2230.3667,406.59234 c -0.059,0.004 -0.1208,0.0176 -0.1806,0.041 -1.9138,0.75002 -9.0657,7.90828 -10.9794,7.15827 -1.9138,-0.75076 -10.6648,-7.40689 -12.1959,-6.65688 -1.5309,0.75001 -7.145,11.06376 -7.145,11.06376 0,0 -9.282,-4.96527 -18.9726,-11.01838 -2.8583,5.91093 -5.4397,17.08211 -7.3536,17.83213 -1.9137,0.75002 -21.5613,-12.78316 -29.3317,-17.47112 -2.8632,6.19133 -5.3038,18.47784 -7.7958,18.97112 -2.6792,1.12577 -19.636,-13.22067 -20.4014,-12.09564 -0.7655,1.12502 5.856,18.09759 3.5594,18.4726 -2.2966,0.37501 -7.6547,1.875 -7.6547,1.875 l 0.7645,2.25 c 0,0 -16.0759,-6.00192 -17.9897,-8.25196 -1.9136,-2.25078 1.1491,9.75311 2.2974,12.75391 -6.8898,-3.0008 -27.1756,-9.37813 -28.7065,-11.25391 -1.531,-1.87503 2.6796,6.75193 4.9761,9.37696 -3.0621,-1.12501 -5.7425,-1.5 -5.7425,-1.5 l 8.8042,9.00195 -2.6786,0.75 c 0,0 5.7407,4.12498 5.7407,6 0,1.87579 -14.928,4.12695 -14.928,4.12695 16.9345,11.23691 6.2659,14.55335 -6.8885,16.50391 7.1459,2.51362 12.162,4.93804 15.1815,7.11523 l -14.583,3.7168 15.1453,7.56445 -8.0781,3.24219 8.0781,5.4043 -22.2142,8.64648 23.225,5.4043 -17.1669,9.72851 17.1669,5.4043 -9.0889,7.56446 20.3474,1.45312 c 0,3.14332 -5.9246,19.04189 -8.8755,23.27148 11.6233,-0.0303 30.9471,0.13477 44.9939,0.13477 0.026,1.16441 0.1097,2.00665 0.5528,2.11523 0.752,0.18421 4.5664,-0.26823 8.4649,-0.72851 l 12.4025,4.42578 c 1.4619,3.15354 2.9658,6.59956 4.0126,6.80469 1.1962,0.23437 5.0827,-1.72876 8.2038,-3.14258 7e-4,-2.5e-4 0,2.5e-4 0,0 l 4.4724,-0.9082 c 0.9598,1.91909 0.5498,9.34263 2.2498,9.67578 1.9139,0.37502 10.3347,-7.87501 11.4829,-7.5 1.1483,0.375 5.3579,19.12886 7.2715,20.2539 1.9139,1.12501 14.1629,-20.6289 15.3114,-21.0039 1.1481,-0.37576 8.4189,25.5039 9.9499,25.8789 1.5312,0.37502 9.1869,-17.62892 10.3353,-17.2539 1.1483,0.37499 8.421,10.87889 9.9519,11.6289 1.5312,0.75002 11.4828,-23.25586 13.0139,-23.25586 1.531,0 14.5443,10.12693 15.6926,12.00196 1.1484,1.87579 2.2972,-9.75196 3.8282,-9.75196 1.5311,0 19.1362,6.75197 19.5189,6.37696 0.3829,-0.37501 -2.6792,-7.50196 -1.5309,-7.50196 1.1483,0 19.1385,9.37698 19.9041,7.50196 0.7653,-1.87578 32.8626,3.46603 41.72,7.87695 -6.8688,-9.56114 -17.2248,-30.75508 -15.3111,-33.00586 1.9138,-2.25003 8.8048,0.37502 9.1876,-0.75 0.3826,-1.12502 -4.2101,-6.00194 -3.0618,-7.50195 1.1482,-1.50078 14.161,-7.50191 15.3091,-9.37696 1.1483,-1.87577 -5.7404,-6.74999 -4.2095,-7.875 1.531,-1.12576 24.1139,-8.25313 24.4967,-10.1289 0.3827,-1.87504 -11.483,-10.87691 -9.9519,-13.50195 1.531,-2.62579 5.742,-3.74922 5.3591,-5.625 -0.3828,-1.87502 -7.656,-4.12694 -7.2732,-6.00196 0.3827,-1.87503 4.211,-11.25193 5.3591,-12.75195 1.1484,-1.50003 -8.0377,-0.74998 -8.0377,-2.25 0,-1.50078 -21.0027,-9.73512 2.6014,-31.94263 -33.7902,4.74119 -22.1221,-1.06318 -34.753,-4.06323 -12.6311,-3.0008 -7.655,-21.75584 -9.5687,-22.88086 -1.9139,-1.12577 -16.0762,6.377 -17.9899,3.75195 -1.9138,-2.62579 -2.6804,-7.50195 -4.2115,-7.50195 -1.5308,0 -17.9783,8.06404 -19.8921,7.68903 -1.9138,-0.37501 -12.2587,-14.44098 -14.938,-14.81598 -2.6792,-0.37502 -13.0147,6.37695 -15.3113,6.75195 -2.2246,0.36329 -4.0884,-8.42522 -5.9429,-8.29297 z"
       id="path5888-3"
       inkscape:connector-curvature="0"
       sodipodi:nodetypes="ccccccccccscccccccccscccccccccccccccscccccccccccccscsssccccccccccccsccccsccccc" />
    <path
       style="color:#000000;display:inline;overflow:visible;visibility:visible;fill:#ffffff;fill-opacity:1;fill-rule:nonzero;stroke:none;stroke-width:1px;marker:none;enable-background:accumulate"
       d="m 1272.5449,3077.9523 c -78.231,15.2781 -158.5825,23.1124 -234.3525,47.042 l 48.6913,-38.9221 c -31.113,-0.2775 -62.6052,11.89 -93.96922,19.832 l 24.81112,-26.6421 c -73.62433,-0.043 -140.93978,19.5825 -211.30464,29.7017 l 48.37788,-44.8304 c 71.35729,-4.7997 140.74069,-1.8479 214.31916,-15.3676 l -20.5535,27.1733 c 25.7084,-2.3825 51.5171,-5.4463 77.7719,-11.5491 l -30.1046,33.1547 z"
       id="path4032-1"
       inkscape:connector-curvature="0"
       sodipodi:nodetypes="cccccccccccc" />
    <path
       style="display:inline;fill:#ffffff;fill-rule:evenodd;stroke:none;stroke-width:0.958661px;stroke-linecap:butt;stroke-linejoin:miter;stroke-opacity:1"
       d="m 518.03764,2979.2366 c 47.45441,23.355 88.44603,41.0773 56.26585,-25.083 38.32299,49.4296 53.77977,27.5103 63.09757,-1.3936 29.97418,24.8442 50.67193,46.8027 65.53548,28.9276 5.53998,22.9883 17.42065,13.7115 27.70267,12.5694 3.38641,5.2017 -21.09131,-11.802 25.89867,-29.0181 -5.85003,-33.0161 29.87274,3.8352 57.39717,-11.4276 7.13071,27.9419 3.16074,45.2359 43.56546,5.8228 -14.60266,38.7644 -8.54754,44.2395 10.11166,29.404 -8.53084,15.9636 -13.63315,28.3211 18.77867,1.2247 -11.09619,29.4655 28.10871,9.9952 66.4456,-20.2566 -36.48263,33.5457 -87.27539,71.1845 -46.22216,66.8129 -5.72515,9.2221 -26.14632,17.2571 34.66843,31.8543 -11.3533,6.2577 -46.01455,-2.8874 -17.10083,23.6089 3.87385,3.0977 -9.09489,4.9888 15.6563,13.1458 -14.61089,-0.555 -23.57142,1.4268 -10.11168,13.4765 -26.6703,-0.6517 -16.69144,12.0185 2.88908,28.1785 -50.0161,-31.6245 -66.04535,-37.3865 -41.89121,-4.9004 -48.40512,-28.2604 -65.44372,-24.6432 -59.27522,-1.4092 -20.60499,-24.6694 -44.19888,-28.9832 -63.30952,-0.4832 -20.37612,-29.4078 -34.25857,-26.3948 -76.7593,-4.2335 22.92622,-24.9384 -9.68928,-9.0501 -34.66856,1.2247 13.67914,-31.1535 -21.03656,-10.707 -65.00354,19.6024 24.6213,-34.4018 -3.34271,-21.9748 -44.78025,2.4502 15.65639,-33.7969 -9.84147,-50.1411 -70.7816,-51.4559 29.16775,-12.1912 46.17688,-27.5334 15.88983,-55.1323 34.1421,8.1266 44.32618,0.5779 20.22328,-29.4033 37.23996,24.6085 20.30833,-11.0852 5.77815,-44.106 z"
       id="path4508-9"
       inkscape:connector-curvature="0"
       sodipodi:nodetypes="cccccccccccccccccccccccccccc" />
    <path
       style="color:#000000;display:inline;overflow:visible;visibility:visible;fill:#ffffff;fill-opacity:1;fill-rule:nonzero;stroke:none;stroke-width:1px;marker:none;enable-background:accumulate"
       d="m 2279.1877,625.34512 c -0.091,3.76817 51.831,-6.4041 51.831,-6.4041 0,0 1.5665,29.95657 4.6782,32.0986 11.0733,-0.0391 21.0624,-5.37296 21.0624,-5.37296 l 18.0133,48.73793 -20.0054,-31.72225 c -9.8867,-0.91886 -20.0127,-0.88091 -32.7339,9.5382 l -4.3594,-32.26765 -34.1656,7.80769 z"
       id="path4448"
       inkscape:connector-curvature="0"
       sodipodi:nodetypes="cccccccccc" />
  </g>
  <g
     inkscape:groupmode="layer"
     id="layer1"
     inkscape:label="txt">
    <text
       xml:space="preserve"
       style="font-style:normal;font-variant:normal;font-weight:normal;font-stretch:normal;font-size:15.8906px;line-height:0%;font-family:Lavi;-inkscape-font-specification:Lavi;text-align:center;letter-spacing:0px;word-spacing:0px;text-anchor:middle;fill:#000000;fill-opacity:1;stroke:none;stroke-width:1.17751"
       x="2214.6201"
       y="488.23569"
       id="text4246-1-3-2-8"
       transform="scale(0.99789912,1.0021053)"><tspan
         sodipodi:role="line"
         style="font-style:normal;font-variant:normal;font-weight:bold;font-stretch:normal;font-size:46.6667px;line-height:1.25;font-family:Lavi;-inkscape-font-specification:'Lavi Bold';stroke-width:1.17751"
         x="2214.6201"
         y="488.23569"
         id="tspan70">o kute e mi.</tspan><tspan
         sodipodi:role="line"
         style="font-style:normal;font-variant:normal;font-weight:bold;font-stretch:normal;font-size:46.6667px;line-height:1.25;font-family:Lavi;-inkscape-font-specification:'Lavi Bold';stroke-width:1.17751"
         x="2214.6201"
         y="546.56903"
         id="tspan829">O PINI!</tspan></text>
    <text
       xml:space="preserve"
       style="font-style:normal;font-variant:normal;font-weight:normal;font-stretch:normal;font-size:15.8906px;line-height:0%;font-family:Lavi;-inkscape-font-specification:Lavi;text-align:center;letter-spacing:0px;word-spacing:0px;text-anchor:middle;fill:#000000;fill-opacity:1;stroke:none;stroke-width:1.17751"
       x="2152.48"
       y="637.91968"
       id="text4246-1-3-2-8-3"
       transform="scale(0.99789912,1.0021053)"><tspan
         sodipodi:role="line"
         style="font-style:normal;font-variant:normal;font-weight:bold;font-stretch:normal;font-size:46.6667px;line-height:1.25;font-family:Lavi;-inkscape-font-specification:'Lavi Bold';stroke-width:1.17751"
         x="2152.48"
         y="637.91968"
         id="tspan829-7">ni ale li pini!</tspan></text>
    <text
       xml:space="preserve"
       style="font-style:normal;font-variant:normal;font-weight:normal;font-stretch:normal;line-height:0%;font-family:Lavi;-inkscape-font-specification:Lavi;letter-spacing:0px;word-spacing:0px;fill:#000000;fill-opacity:1;stroke:#ffffff;stroke-width:2.66678;stroke-miterlimit:4;stroke-dasharray:none;stroke-opacity:1;filter:url(#filter4375-4-1-1-1-9-0)"
       x="787.65729"
       y="1584.5073"
       id="text4580-25"
       transform="matrix(0.55718765,-0.37423929,0.21813977,1.0749149,-120.92735,-234.76499)"><tspan
         sodipodi:role="line"
         id="tspan4582-4"
         x="787.65729"
         y="1584.5073"
         style="font-size:70px;line-height:100%;letter-spacing:4.88345px;fill:#ffffff;stroke:#ffffff;stroke-width:2.66678;stroke-miterlimit:4;stroke-dasharray:none;stroke-opacity:1"><tspan
           style="font-size:55.3496px;line-height:100%;letter-spacing:4.88345px;stroke:#ffffff;stroke-width:2.66678;stroke-miterlimit:4;stroke-dasharray:none;stroke-opacity:1"
           id="tspan4439-4">Pini</tspan><tspan
           style="font-size:80.4001px;line-height:100%;letter-spacing:4.88345px;stroke:#ffffff;stroke-width:2.66678;stroke-miterlimit:4;stroke-dasharray:none;stroke-opacity:1"
           id="tspan4617-9">!</tspan></tspan></text>
    <text
       xml:space="preserve"
       style="font-style:normal;font-variant:normal;font-weight:normal;font-stretch:normal;line-height:0%;font-family:Lavi;-inkscape-font-specification:Lavi;letter-spacing:0px;word-spacing:0px;display:inline;fill:#ffffff;fill-opacity:1;stroke:#000000;stroke-width:0.481485;stroke-miterlimit:4;stroke-dasharray:none;stroke-opacity:1;filter:url(#filter4375-4-1-1-1-9-5-8-3-8)"
       x="787.65729"
       y="1584.5073"
       id="text4580-6-0-8-8"
       transform="matrix(1.5492299,-0.0813593,-0.87667877,1.9075458,1570.733,-1836.1775)"><tspan
         sodipodi:role="line"
         id="tspan4582-1-1-8-2"
         x="787.65729"
         y="1584.5073"
         style="font-style:normal;font-variant:normal;font-weight:bold;font-stretch:normal;font-size:70px;line-height:1.25;font-family:'Noto Sans';-inkscape-font-specification:'Noto Sans Bold';letter-spacing:5.87611px;fill:#ffffff;fill-opacity:1;stroke:#000000;stroke-width:0.481485;stroke-opacity:1"><tspan
           style="font-style:normal;font-variant:normal;font-weight:bold;font-stretch:normal;font-size:93.1495px;font-family:'Noto Sans';-inkscape-font-specification:'Noto Sans Bold';letter-spacing:5.87611px;fill:#ffffff;fill-opacity:1;stroke:#000000;stroke-width:0.481485;stroke-opacity:1"
           id="tspan4315-8-97-3">KO<tspan
   style="font-style:normal;font-variant:normal;font-weight:bold;font-stretch:normal;font-size:81.1149px;font-family:'Noto Sans';-inkscape-font-specification:'Noto Sans Bold';stroke-width:0.481485"
   id="tspan912">OOO</tspan></tspan><tspan
           style="font-style:normal;font-variant:normal;font-weight:bold;font-stretch:normal;font-size:114.732px;font-family:'Noto Sans';-inkscape-font-specification:'Noto Sans Bold';letter-spacing:5.87611px;fill:#ffffff;fill-opacity:1;stroke:#000000;stroke-width:0.481485;stroke-opacity:1"
           id="tspan4313-2-76-0">!</tspan></tspan></text>
    <text
       xml:space="preserve"
       style="font-style:normal;font-variant:normal;font-weight:normal;font-stretch:normal;line-height:0%;font-family:Lavi;-inkscape-font-specification:Lavi;letter-spacing:0px;word-spacing:0px;fill:#000000;fill-opacity:1;stroke:#ffffff;stroke-width:4.21926;stroke-miterlimit:4;stroke-dasharray:none;stroke-opacity:1;filter:url(#filter4375-4-1-1-1-9-0-5)"
       x="787.65729"
       y="1584.5073"
       id="text4580-25-2"
       transform="matrix(0.37191843,0.11061463,-0.38324889,0.61702867,2371.8774,1301.4149)"><tspan
         sodipodi:role="line"
         id="tspan4582-4-7"
         x="787.65729"
         y="1584.5073"
         style="font-style:normal;font-variant:normal;font-weight:bold;font-stretch:normal;font-size:80.4001px;line-height:100%;font-family:'Noto Sans';-inkscape-font-specification:'Noto Sans Bold';letter-spacing:4.88345px;fill:#ffffff;stroke:#ffffff;stroke-width:4.21926;stroke-miterlimit:4;stroke-dasharray:none;stroke-opacity:1">WEKA!</tspan></text>
    <text
       xml:space="preserve"
       style="font-style:normal;font-variant:normal;font-weight:normal;font-stretch:normal;font-size:15.8906px;line-height:0%;font-family:Lavi;-inkscape-font-specification:Lavi;text-align:center;letter-spacing:0px;word-spacing:0px;text-anchor:middle;fill:#000000;fill-opacity:1;stroke:none;stroke-width:1.17751"
       x="685.59564"
       y="2895.5073"
       id="text4246-1-3-2-8-3-3"
       transform="scale(0.99789912,1.0021053)"><tspan
         sodipodi:role="line"
         style="font-style:normal;font-variant:normal;font-weight:bold;font-stretch:normal;font-size:46.6667px;line-height:1.25;font-family:Lavi;-inkscape-font-specification:'Lavi Bold';stroke-width:1.17751"
         x="685.59564"
         y="2895.5073"
         id="tspan829-7-6">sina tu o!</tspan></text>
    <text
       xml:space="preserve"
       style="font-style:normal;font-variant:normal;font-weight:normal;font-stretch:normal;font-size:15.8906px;line-height:0%;font-family:Lavi;-inkscape-font-specification:Lavi;text-align:center;letter-spacing:0px;word-spacing:0px;text-anchor:middle;fill:#000000;fill-opacity:1;stroke:none;stroke-width:1.17751"
       x="709.36963"
       y="2981.7026"
       id="text4246-1-3-2-8-3-3-7"
       transform="scale(0.99789912,1.0021053)"><tspan
         sodipodi:role="line"
         style="font-style:normal;font-variant:normal;font-weight:bold;font-stretch:normal;font-size:46.6667px;line-height:1.25;font-family:Lavi;-inkscape-font-specification:'Lavi Bold';stroke-width:1.17751"
         x="709.36963"
         y="2981.7026"
         id="tspan829-7-6-5">O KAMA!</tspan></text>
    <text
       xml:space="preserve"
       style="font-style:normal;font-variant:normal;font-weight:normal;font-stretch:normal;font-size:15.8906px;line-height:0%;font-family:Lavi;-inkscape-font-specification:Lavi;text-align:center;letter-spacing:0px;word-spacing:0px;text-anchor:middle;fill:#000000;fill-opacity:1;stroke:none;stroke-width:1.17751"
       x="713.04907"
       y="3070.9504"
       id="text4246-1-3-2-8-36-2"
       transform="scale(0.99789912,1.0021053)"><tspan
         sodipodi:role="line"
         style="font-style:normal;font-variant:normal;font-weight:bold;font-stretch:normal;font-size:46.6667px;line-height:1.25;font-family:Lavi;-inkscape-font-specification:'Lavi Bold';stroke-width:1.17751"
         x="713.04907"
         y="3070.9504"
         id="tspan1020-8">lon tenpo ni!</tspan></text>
    <text
       xml:space="preserve"
       id="text63"
       style="font-style:normal;font-weight:normal;font-size:40px;line-height:1.25;font-family:sans-serif;white-space:pre;shape-inside:url(#rect65);fill:#000000;fill-opacity:1;stroke:none;" />
  </g>
</svg>
