<?xml version="1.0" encoding="UTF-8" standalone="no"?>
<!-- Created with Inkscape (http://www.inkscape.org/) -->

<svg
   id="svg2"
   version="1.1"
   inkscape:version="1.1 (c68e22c387, 2021-05-23)"
   width="2481"
   height="3503"
   sodipodi:docname="E37P05.svg"
   xmlns:inkscape="http://www.inkscape.org/namespaces/inkscape"
   xmlns:sodipodi="http://sodipodi.sourceforge.net/DTD/sodipodi-0.dtd"
   xmlns:xlink="http://www.w3.org/1999/xlink"
   xmlns="http://www.w3.org/2000/svg"
   xmlns:svg="http://www.w3.org/2000/svg"
   xmlns:rdf="http://www.w3.org/1999/02/22-rdf-syntax-ns#"
   xmlns:cc="http://creativecommons.org/ns#"
   xmlns:dc="http://purl.org/dc/elements/1.1/">
  <metadata
     id="metadata8">
    <rdf:RDF>
      <cc:Work
         rdf:about="">
        <dc:format>image/svg+xml</dc:format>
        <dc:type
           rdf:resource="http://purl.org/dc/dcmitype/StillImage" />
        <dc:title />
      </cc:Work>
    </rdf:RDF>
  </metadata>
  <defs
     id="defs6">
    <filter
       inkscape:label="Magmah-FX"
       inkscape:menu="Distort"
       inkscape:menu-tooltip="Horizontal rippling of edges"
       style="color-interpolation-filters:sRGB"
       id="filter4265-7"
       y="0"
       x="0"
       width="1"
       height="1">
      <feTurbulence
         numOctaves="1"
         baseFrequency="0.002 0.107"
         id="feTurbulence4267-7" />
      <feColorMatrix
         values="5 0 0 0 0 0 0 0 0 0 0 0 0 0 0 0 0 0 4 0 "
         result="result91"
         id="feColorMatrix4269-1" />
      <feDisplacementMap
         yChannelSelector="A"
         xChannelSelector="R"
         scale="14.3"
         in="SourceGraphic"
         in2="result91"
         id="feDisplacementMap4271-2" />
    </filter>
    <filter
       style="color-interpolation-filters:sRGB"
       inkscape:label="Magmah-spell-glow"
       id="filter4751"
       x="-0.033441791"
       y="-0.12562146"
       width="1.0668836"
       height="1.2512429">
      <feFlood
         flood-opacity="1"
         flood-color="rgb(255,255,255)"
         result="flood"
         id="feFlood4753" />
      <feComposite
         in="flood"
         in2="SourceGraphic"
         operator="in"
         result="composite1"
         id="feComposite4755" />
      <feGaussianBlur
         in="composite1"
         stdDeviation="5.4"
         result="blur"
         id="feGaussianBlur4757" />
      <feOffset
         dx="0"
         dy="0"
         result="offset"
         id="feOffset4759" />
      <feComposite
         in="SourceGraphic"
         in2="offset"
         operator="over"
         result="composite2"
         id="feComposite4761" />
    </filter>
    <filter
       inkscape:label="Magmah-FX"
       inkscape:menu="Distort"
       inkscape:menu-tooltip="Horizontal rippling of edges"
       style="color-interpolation-filters:sRGB"
       id="filter4265-7-5"
       y="0"
       x="0"
       width="1"
       height="1">
      <feTurbulence
         numOctaves="1"
         baseFrequency="0.002 0.107"
         id="feTurbulence4267-7-3" />
      <feColorMatrix
         values="5 0 0 0 0 0 0 0 0 0 0 0 0 0 0 0 0 0 4 0 "
         result="result91"
         id="feColorMatrix4269-1-5" />
      <feDisplacementMap
         yChannelSelector="A"
         xChannelSelector="R"
         scale="14.3"
         in="SourceGraphic"
         in2="result91"
         id="feDisplacementMap4271-2-6" />
    </filter>
  </defs>
  <sodipodi:namedview
     pagecolor="#ffffff"
     bordercolor="#666666"
     borderopacity="1"
     objecttolerance="10"
     gridtolerance="10"
     guidetolerance="10"
     inkscape:pageopacity="0"
     inkscape:pageshadow="2"
     inkscape:window-width="1366"
     inkscape:window-height="745"
     id="namedview4"
     showgrid="false"
     inkscape:zoom="0.4"
     inkscape:cx="1020"
     inkscape:cy="3313.75"
     inkscape:window-x="-8"
     inkscape:window-y="-8"
     inkscape:window-maximized="1"
     inkscape:current-layer="layer3"
     inkscape:pagecheckerboard="0"
     inkscape:showpageshadow="0"
     inkscape:deskcolor="#d1d1d1" />
  <g
     inkscape:groupmode="layer"
     id="layer2"
     inkscape:label="artwork"
     sodipodi:insensitive="true">
    <image
       xlink:href="../gfx_Pepper-and-Carrot_by-David-Revoy_E37P05.png"
       y="0"
       x="0"
       id="image10"
       height="3503"
       width="2481" />
  </g>
  <g
     inkscape:groupmode="layer"
     id="layer3"
     inkscape:label="speechbubbles"
     style="display:inline">
    <path
       style="fill:#ffffff;stroke:none;stroke-width:0.75896"
       d="m 398.28776,328.05131 c -32.50907,0.87745 -64.87308,8.371 -94.36813,22.08176 -19.79361,11.41744 -30.2288,37.57841 -22.27663,59.25867 5.18949,14.84132 17.74323,26.07636 31.87482,32.32604 24.15804,11.55249 51.26524,14.65106 77.7238,15.65341 26.4149,0.9798 53.02587,0.5484 79.16333,-3.70855 17.03013,-3.36159 33.61514,-10.74126 46.32952,-22.73243 11.4226,-10.95627 18.99687,-26.80807 17.45011,-42.85162 -1.14125,-12.02368 -8.2502,-22.76664 -17.6153,-30.09633 -9.83995,-7.70344 -21.48745,-12.65095 -33.07922,-17.07836 -27.20294,-9.84809 -56.42709,-12.8829 -85.2023,-12.85259 z"
       id="path3280-81"
       inkscape:connector-curvature="0"
       sodipodi:nodetypes="csssc" />
    <path
       style="display:inline;fill:#ffffff;stroke:none;stroke-width:0.75896"
       d="m 339.75781,240.44336 c -22.99099,1.1501 -46.39908,3.2898 -67.96632,11.90454 -10.74883,4.21989 -21.21342,10.82965 -27.09165,21.06986 -8.02625,13.2182 -9.28045,30.84453 -1.54298,44.47778 7.1822,12.16051 20.41938,19.84459 34.12634,22.21384 25.21039,5.76801 50.96845,8.55332 76.6413,11.33177 28.62272,1.74222 57.97145,-2.72946 83.91915,-15.25464 10.27213,-5.31996 19.30352,-14.05281 22.83601,-25.29306 5.14556,-14.35754 1.86662,-31.7808 -9.22021,-42.50248 -7.36453,-7.00558 -16.77538,-11.26472 -25.99307,-15.25055 -16.69047,-6.76025 -34.61442,-9.78978 -52.44841,-11.59339 -11.05507,-0.98861 -22.16602,-1.21511 -33.26016,-1.10367 z"
       id="path3280-81-3"
       inkscape:connector-curvature="0"
       sodipodi:nodetypes="csssc" />
    <path
       style="color:#000000;display:inline;overflow:visible;visibility:visible;fill:#ffffff;fill-opacity:1;fill-rule:nonzero;stroke:none;stroke-width:2.02177px;marker:none;enable-background:accumulate"
       d="m 2010.6417,253.23827 c -73.0654,0.51735 -146.9419,5.0691 -217.0609,22.07105 -34.5441,8.63225 -68.298,22.36612 -91.84,44.43704 -23.58,23.56945 -35.8266,54.67468 -29.7703,84.4561 6.7337,20.32368 26.5095,36.48518 49.0474,47.10106 34.3118,16.80597 74.6543,23.73079 114.3006,27.95171 54.1564,5.32787 108.6947,7.86273 163.208,9.62303 80.2813,1.47143 162.2706,-1.72622 238.7765,-22.3995 31.4057,-8.51946 62.3309,-19.80285 87.3099,-37.25304 13.5541,-9.63003 25.6161,-21.97084 27.6785,-36.62014 2.3105,-14.73302 -1.983,-29.58153 -8.012,-43.47851 -10.5621,-23.01855 -31.618,-42.93036 -58.5524,-55.39695 -41.3821,-19.91557 -89.4388,-29.26332 -137.0975,-34.69677 -45.6753,-5.07892 -91.9163,-5.99315 -137.9878,-5.79508 z"
       id="path5026-3"
       inkscape:connector-curvature="0"
       sodipodi:nodetypes="csssc" />
    <path
       style="color:#000000;display:inline;overflow:visible;visibility:visible;fill:#ffffff;fill-opacity:1;fill-rule:nonzero;stroke:none;stroke-width:1.07279px;marker:none;enable-background:accumulate"
       d="m 1520.8297,908.91728 c -41.1464,0.0609 -83.4224,5.45924 -119.0677,20.96152 -18.057,7.65903 -33.0005,19.17214 -41.5389,33.02507 -17.5536,27.44384 -11.6546,60.90533 11.3076,85.77703 16.2344,18.1163 41.7863,31.2304 69.9116,38.1314 41.9278,10.2245 86.5559,12.8118 130.5513,13.184 40.2451,-0.026 81.2598,0.2779 120.2966,-7.7905 21.0117,-4.3568 41.5548,-11.275 57.0624,-22.6492 19.0915,-13.4338 31.2405,-31.7331 34.0529,-50.853 4.3962,-25.32706 -6.7597,-52.36124 -32.2619,-70.40922 -26.5007,-19.63649 -63.3731,-30.31137 -100.4545,-34.30462 -42.8812,-5.25812 -86.5302,-4.71539 -129.8594,-5.07248 z"
       id="path4040-40"
       inkscape:connector-curvature="0"
       sodipodi:nodetypes="zssssz" />
    <path
       style="color:#000000;display:inline;overflow:visible;visibility:visible;fill:#ffffff;fill-opacity:1;fill-rule:nonzero;stroke:none;stroke-width:0.999998px;marker:none;enable-background:accumulate"
       d="m 496.15677,1011.893 c 34.73321,-33.49717 31.89314,-53.50347 31.44376,-68.11357 -4.7651,-0.9949 -12.85059,-4.2577 -12.85059,-4.2577 0,0 1.90835,-28.8086 -1.17233,-39.94541 -3.08071,-11.13686 -17.53582,-8.20897 -17.53582,-8.20897 0,0 -5.18065,55.93348 -10.00914,67.69208 13.18767,2.2293 19.31591,4.9084 24.41808,3.8748 3.16059,8.1805 -2.4061,36.7502 -14.29396,48.95877 z"
       id="path4456-3"
       inkscape:connector-curvature="0" />
    <path
       style="color:#000000;display:inline;overflow:visible;visibility:visible;fill:#ffffff;fill-opacity:1;fill-rule:nonzero;stroke:none;stroke-width:0.8221px;marker:none;enable-background:accumulate"
       d="m 1162.4661,2294.5039 c -35.7922,0.619 -72.8321,3.1801 -105.1018,15.6773 -23.5893,9.3105 -42.9446,26.4126 -46.279,46.5695 -2.1926,22.1238 18.5619,43.3585 46.0704,50.841 23.0862,6.7047 48.0416,8.2661 71.774,13.2588 81.914,13.5197 166.5791,15.9595 250.081,11.4556 40.3652,-2.5122 80.5557,-7.8601 119.1175,-17.191 23.3756,-6.1471 46.9699,-14.5147 63.0571,-29.0308 15.9615,-15.703 14.6075,-39.6467 -3.2888,-54.1971 -14.4599,-12.7949 -36.4042,-18.7372 -57.4881,-22.8823 -37.7526,-7.5665 -76.9982,-9.1081 -115.8006,-11.3081 -73.9568,-3.2897 -148.0841,-3.2005 -222.1417,-3.1929 z"
       id="path4546-6-21"
       inkscape:connector-curvature="0"
       sodipodi:nodetypes="cssssc" />
    <path
       style="color:#000000;display:inline;overflow:visible;visibility:visible;fill:#ffffff;fill-opacity:1;fill-rule:nonzero;stroke:none;stroke-width:0.709511px;marker:none;enable-background:accumulate"
       d="m 660.4671,2264.4761 c -27.46404,0.4961 -55.59723,9.3662 -75.91376,28.3762 -22.04112,21.9967 -34.01798,52.6125 -36.71122,83.3297 -4.6171,37.7827 7.66343,77.1602 32.57258,105.8728 15.45155,15.2221 36.2984,22.7478 56.17199,30.2909 32.63866,11.8813 68.52532,14.0614 102.52252,7.2514 24.74397,-4.2043 49.50975,-14.1162 66.96221,-32.7122 14.29698,-15.5566 20.1952,-36.8488 22.13493,-57.4445 2.21372,-25.3342 0.22348,-50.847 -3.21705,-75.9774 -3.06384,-19.3764 -10.19837,-38.8334 -24.21991,-53.0074 -12.61573,-13.153 -29.86999,-20.4807 -47.17333,-25.1968 -19.78672,-5.3553 -40.22618,-7.7846 -60.59007,-9.6925 -10.82519,-0.8151 -21.68313,-1.1937 -32.53889,-1.0902 z"
       id="path4546-6-21-2"
       inkscape:connector-curvature="0"
       sodipodi:nodetypes="cssssc" />
    <path
       style="color:#000000;display:inline;overflow:visible;visibility:visible;fill:#ffffff;fill-opacity:1;fill-rule:nonzero;stroke:none;stroke-width:1.52652px;marker:none;enable-background:accumulate"
       d="m 502.56765,1891.1682 c -38.59311,-0.1843 -77.80317,-1.2113 -115.77791,8.2206 -22.28723,5.503 -44.19636,16.4906 -58.72083,34.6389 -16.91949,20.7888 -20.77111,49.4611 -14.15565,74.2333 3.12023,11.4957 8.16669,22.5261 15.16878,32.1648 7.63498,10.2673 18.47784,18.2476 31.00308,21.9272 35.90647,13.3419 74.74859,17.2374 113.10435,19.3922 40.16138,1.912 80.48813,1.5576 120.74675,-0.5068 34.01273,-2.2076 68.53702,-6.821 100.43658,-19.9956 19.31314,-8.3042 37.88625,-21.1158 47.94189,-39.8433 13.99674,-25.8894 12.44838,-59.5895 -6.03866,-82.094 -14.8812,-17.2808 -37.24032,-26.0068 -59.21527,-31.5062 -36.31275,-8.935 -74.00491,-11.2556 -111.36945,-14.0389 -20.99556,-1.3934 -42.02879,-2.6936 -63.12366,-2.5922 z"
       id="path4546-6-21-1"
       inkscape:connector-curvature="0"
       sodipodi:nodetypes="cssssc" />
    <path
       style="color:#000000;display:inline;overflow:visible;visibility:visible;fill:#ffffff;fill-opacity:1;fill-rule:nonzero;stroke:none;stroke-width:0.90167px;marker:none;enable-background:accumulate"
       d="m 509.23732,2164.6298 c 3.17414,-79.0368 47.59866,-137.9672 164.14038,-126.1726 62.42608,6.3168 133.28819,9.6749 129.36198,125.4379 -3.92628,115.7632 -105.75118,115.4633 -126.75223,118.7187 -21.00112,3.2572 -130.53858,-5.9959 -149.91784,-44.8311 -12.13101,-24.3097 -17.02871,-48.6962 -16.83229,-73.1529 z"
       id="path4546-6-21-1-9"
       inkscape:connector-curvature="0"
       sodipodi:nodetypes="cssssc" />
    <path
       style="color:#000000;display:inline;overflow:visible;visibility:visible;fill:#ffffff;fill-opacity:1;fill-rule:nonzero;stroke:none;stroke-width:1.1971px;marker:none;enable-background:accumulate"
       d="m 1341.4929,1909.2595 c -27.5618,0.4582 -55.9462,3.1632 -81.2588,17.1764 -12.5256,7.0164 -24.1142,19.5093 -27.0289,36.1571 -2.011,16.5978 7.3755,32.6541 19.5753,39.8816 12.5575,7.4302 26.7271,9.125 40.3274,12.2488 47.3844,8.8731 95.695,12.5507 143.5404,7.2714 16.7633,-2.1389 34.1059,-5.7216 48.5019,-16.7585 9.0671,-7.2007 15.462,-19.0016 16.6354,-31.9393 1.7823,-14.8825 -2.914,-31.5687 -14.0178,-39.759 -14.2163,-11.4438 -31.7223,-14.0896 -48.3325,-16.8855 -29.1521,-4.3915 -58.5332,-6.3032 -87.8924,-7.3341 -3.3497,-0.069 -6.6998,-0.078 -10.05,-0.059 z"
       id="path4546-6-21-1-9-4"
       inkscape:connector-curvature="0"
       sodipodi:nodetypes="cssssc" />
    <path
       style="color:#000000;display:inline;overflow:visible;visibility:visible;fill:#ffffff;fill-opacity:1;fill-rule:nonzero;stroke:none;stroke-width:0.96193px;marker:none;enable-background:accumulate"
       d="m 1217.0653,1985.7656 c -48.72,0.882 -98.2182,2.8713 -145.1541,18.4889 -16.7841,6.8173 -29.3374,22.7322 -35.6945,40.6654 -10.5597,27.1823 -9.0909,60.755 7.3726,84.8351 9.6728,13.9915 24.9653,22.1407 40.5818,24.9674 20.6129,4.8894 41.5345,8.1831 62.4995,10.6435 37.7541,3.8894 75.7096,2.0101 113.5403,1.0065 54.1568,-0.3976 108.4394,2.4619 162.4735,-2.8587 20.189,-1.8225 40.4778,-3.8181 60.2654,-8.678 26.1011,-8.9227 46.4535,-36.1747 47.4467,-66.2485 1.4018,-24.676 -9.4442,-49.1571 -26.8658,-64.6853 -22.3692,-21.3445 -51.9346,-31.1597 -80.9693,-35.023 -38.4737,-4.6848 -77.1542,0.8942 -115.7178,-0.9675 -29.9261,-0.7004 -59.8367,-2.493 -89.7783,-2.1458 z"
       id="path4546-6-21-1-9-4-7"
       inkscape:connector-curvature="0"
       sodipodi:nodetypes="cssssc" />
    <path
       style="color:#000000;display:inline;overflow:visible;visibility:visible;fill:#ffffff;fill-opacity:1;fill-rule:nonzero;stroke:none;stroke-width:1.23104px;marker:none;enable-background:accumulate"
       d="m 990.13158,3066.8417 c 6.59561,-41.6532 71.24772,-70.7879 236.45922,-59.2238 88.4962,6.1939 189.0522,11.2087 180.4185,72.2502 -8.6338,61.0415 -153.2466,56.2289 -183.1602,56.9907 -29.9138,0.7627 -185.2442,-9.1373 -211.7427,-30.561 -16.5876,-13.4105 -22.89966,-26.5311 -21.97482,-39.4561 z"
       id="path4546-6-21-1-9-4-7-8"
       inkscape:connector-curvature="0"
       sodipodi:nodetypes="cssssc" />
    <path
       style="color:#000000;display:inline;overflow:visible;visibility:visible;fill:#ffffff;fill-opacity:1;fill-rule:nonzero;stroke:none;stroke-width:0.624175px;marker:none;enable-background:accumulate"
       d="m 2225.7983,3151.2322 c 1.6004,-29.4598 24.0001,-51.4252 82.7628,-47.029 31.4764,2.3544 67.2066,3.6062 65.2269,46.7553 -1.9798,43.1489 -53.3219,43.0372 -63.9111,44.2506 -10.5891,1.2141 -65.82,-2.2349 -75.5915,-16.7102 -6.1167,-9.061 -8.5862,-18.1508 -8.4871,-27.2667 z"
       id="path4546-6-21-1-9-4-7-8-4"
       inkscape:connector-curvature="0"
       sodipodi:nodetypes="cssssc" />
    <path
       style="color:#000000;display:inline;overflow:visible;visibility:visible;fill:#ffffff;fill-opacity:1;fill-rule:nonzero;stroke:none;stroke-width:1px;marker:none;enable-background:accumulate"
       d="m 1284.7327,2502.3184 c -35.7282,-19.4322 -47.354,-28.3515 -44.071,-75.6186 3.2834,-47.2663 -14.2412,-48.0483 -14.2412,-48.0483 l -19.1468,25.8436 c 0,0 -0.01,101.2711 77.459,97.8233 z"
       id="path3072-56-6"
       inkscape:connector-curvature="0" />
    <path
       style="color:#000000;display:inline;overflow:visible;visibility:visible;fill:#ffffff;fill-opacity:1;fill-rule:nonzero;stroke:none;stroke-width:1px;marker:none;enable-background:accumulate"
       d="m 1468.6848,2848.0015 c 26.25,171.1132 -108.5575,232.9592 -156.9646,205.9986 -41.3932,-23.0541 -36.6132,25.372 -36.6132,25.372 0,0 -184.8377,-79.9742 -48.5243,-12.9007 136.3134,67.0735 295.373,-29.4851 242.1021,-218.4699 z"
       id="path3072-56-6-7"
       inkscape:connector-curvature="0"
       sodipodi:nodetypes="csczc" />
    <path
       style="color:#000000;display:inline;overflow:visible;visibility:visible;fill:#ffffff;fill-opacity:1;fill-rule:nonzero;stroke:none;stroke-width:1.32718px;marker:none;enable-background:accumulate"
       d="m 1605.7395,765.40053 c -36.824,0.86526 -73.5849,3.58573 -110.4098,4.48299 -15.9351,0.62196 -32.0407,0.0262 -47.7296,3.51014 -21.2976,4.31918 -42.3506,13.30038 -58.1788,29.02405 -16.9932,17.4464 -25.5378,44.10691 -19.5561,68.40731 6.9361,31.51403 32.7339,57.2258 63.1101,64.15009 31.3574,9.19976 64.009,11.87233 96.3549,14.64772 42.5947,2.71002 85.7515,3.36655 127.8155,-5.1805 25.6267,-5.37305 51.4763,-12.62287 73.8358,-27.1101 18.3377,-12.95287 28.3531,-36.15118 28.2376,-58.81308 1.0385,-21.61 -5.9621,-44.44698 -21.8782,-59.07887 -17.7019,-17.08795 -41.4131,-25.62943 -64.9087,-29.71727 -22.018,-3.81306 -44.4102,-4.52487 -66.6927,-4.32248 z"
       id="path4546-3"
       inkscape:connector-curvature="0"
       sodipodi:nodetypes="cssssc" />
    <path
       style="color:#000000;display:inline;overflow:visible;visibility:visible;fill:#ffffff;fill-opacity:1;fill-rule:nonzero;stroke:none;stroke-width:0.999998px;marker:none;enable-background:accumulate"
       d="m 2200.3678,3236.6589 c 19.412,3.2287 21.8531,2.1451 26.087,-6.1508 4.2336,-8.2965 7.4345,-21.3989 24.2674,-27.0612 16.8328,-5.6629 26.4772,-1.2243 33.0349,1.2943 -1.1679,-11.6566 8.131,-31.9623 0.9277,-37.4845 -7.2032,-5.5223 17.0343,2.8574 17.0343,2.8574 0,0 12.1095,28.3527 3.5098,41.2194 -8.5996,12.8666 -35.9866,3.6351 -48.1953,5.9287 -12.2087,2.2936 -17.7187,20.2054 -26.9698,23.8183 -9.2511,3.6136 -20.9523,-1.0637 -29.696,-4.4216 z"
       id="path4538-7-1"
       inkscape:connector-curvature="0"
       sodipodi:nodetypes="ccscccsscc" />
    <path
       style="fill:#ffffff;fill-rule:evenodd;stroke:none;stroke-width:0.989952px;stroke-linecap:butt;stroke-linejoin:miter;stroke-opacity:1"
       d="m 563.82903,2593.7899 c 63.64415,46.5419 99.6802,37.8628 99.27382,22.0538 -0.73279,-28.5061 -23.68426,-45.5161 -20.14693,-49.7569 56.87331,-68.1838 45.61583,-44.4564 42.02712,-78.3168 -3.58863,-33.8596 -32.82515,9.9982 -43.47048,25.9957 -10.64526,15.9984 -23.23393,28.0821 -24.13067,46.0989 -0.89678,18.0167 30.31994,32.2197 26.20251,52.3883 -4.11738,20.1676 -79.75537,-18.463 -79.75537,-18.463 z"
       id="path4324-2"
       inkscape:connector-curvature="0"
       sodipodi:nodetypes="cssssssc" />
    <path
       style="fill:#ffffff;fill-rule:evenodd;stroke:none;stroke-width:1px;stroke-linecap:butt;stroke-linejoin:miter;stroke-opacity:1"
       d="m 1641.3607,1592.1712 c 22.6649,-9.5896 43.3488,-24.3392 44.2472,-33.5648 0.8985,-9.2259 -11.1673,-38.3407 15.3399,-36.3802 44.753,7.0521 59.1413,-17.435 71.8681,-40.1028 -10.4456,44.0867 -37.326,59.8862 -66.9409,56.1082 -20.4331,0.5043 27.1628,20.802 -14.1238,65.6767 -34.0791,18.4121 -50.3905,-11.7371 -50.3905,-11.7371 z"
       id="path1085"
       inkscape:connector-curvature="0"
       sodipodi:nodetypes="csccccc" />
    <path
       style="display:inline;fill:#ffffff;fill-rule:evenodd;stroke:none;stroke-width:1px;stroke-linecap:butt;stroke-linejoin:miter;stroke-opacity:1"
       d="m 602.38281,413.81836 c -16.46145,0.69234 -32.53906,10.64863 -39.37482,25.82696 -1.5098,2.80001 -5.28273,3.60587 -7.9531,2.02233 -5.98863,-2.1906 -11.2243,-5.98508 -17.1572,-8.31055 -9.42582,-4.50612 -18.97461,-9.76783 -29.57769,-10.58241 -9.00662,0.914 -17.21994,8.38612 -18.31844,17.45517 0.90457,4.28518 5.9133,5.81752 9.78437,5.505 14.04596,1.22391 26.26568,8.99968 37.96354,16.2261 7.48461,4.90408 17.2879,7.91388 25.94154,4.3397 8.81339,-3.63103 14.02032,-12.22106 18.30372,-20.27104 3.62722,-6.5902 7.0618,-13.9609 13.65799,-18.08996 6.18392,-3.01805 13.32935,-0.5356 18.89819,2.69485 6.80555,3.74446 18.82609,7.48219 26.68995,6.1183 5.30212,-0.83429 11.53306,0.83552 40.82961,-10.13109 -31.99063,6.29792 -54.18708,-2.32452 -64.55229,-8.18195 -4.64584,-2.56145 -9.72444,-4.75296 -15.13537,-4.62141 z"
       id="path1090"
       inkscape:connector-curvature="0"
       sodipodi:nodetypes="cscsccsssssscccc" />
    <path
       style="display:inline;fill:#ffffff;fill-rule:evenodd;stroke:none;stroke-width:1px;stroke-linecap:butt;stroke-linejoin:miter;stroke-opacity:1"
       d="m 1617.1958,451.27144 c -12.9658,3.52999 -22.7273,13.2725 -33.0295,21.31481 -10.56,8.22528 -23.222,15.13886 -36.9698,14.8702 -12.354,-0.48323 -23.8452,-5.64876 -34.869,-10.8028 4.8969,5.51905 11.4884,9.07502 17.4852,13.22715 9.8915,6.03376 21.2993,11.19668 33.1646,9.85413 13.7356,-1.82473 25.2428,-10.16894 36.6713,-17.35003 9.2631,-5.89601 19.3995,-11.88555 30.7279,-11.84241 11.2199,0.46193 21.09,7.36067 28.069,15.7517 16.1165,16.07554 40.6983,22.00557 62.7241,17.44391 18.4525,-3.77253 34.5407,-14.70036 48.0397,-27.44861 7.4725,-7.02323 14.7519,-14.32675 21.1143,-22.37986 2.8972,-4.06459 5.7878,-8.70444 5.7898,-13.83941 -1.3294,-7.64777 -9.2775,-12.55259 -16.6906,-12.40095 -15.99,-1.92544 -32.0375,9.08542 -37.0028,24.21972 -6.8813,13.76612 -18.3165,26.13815 -33.3597,30.75119 -13.1078,4.184 -28.2984,-0.43593 -37.2218,-10.81739 -8.1607,-7.6165 -16.4492,-16.15889 -27.6395,-18.99131 -8.68,-2.75282 -18.0697,-3.47368 -27.0032,-1.56004 z"
       id="path1090-9"
       inkscape:connector-curvature="0"
       sodipodi:nodetypes="cscsccsssssscccccc" />
    <path
       style="display:inline;fill:#ffffff;stroke:none;stroke-width:0.99135"
       d="m 1547.4141,1550.2764 c -17.67,0.1166 -35.4329,-0.07 -52.9368,3.292 -19.8455,3.7615 -39.4884,10.8354 -56.9828,22.906 -18.6005,12.8062 -34.0149,33.3542 -40.6004,58.1366 -3.1628,11.5442 -3.6782,24.1008 -1.1535,35.8965 4.3888,21.7063 17.2832,40.5391 34.0359,50.0978 19.5973,12.8338 42.3897,15.7674 64.3587,15.63 42.4852,1.7866 85.0497,2.4618 127.5088,-0.5599 24.7199,-1.5475 50.1179,-5.003 72.5165,-18.5957 15.7195,-9.6892 28.7409,-27.3953 31.8592,-48.7269 5.6837,-34.942 -10.2089,-72.4285 -36.0792,-89.0728 -23.0999,-15.9276 -49.7016,-22.1458 -75.8476,-25.8622 -22.1291,-2.9982 -44.4342,-3.3164 -66.6788,-3.1414 z"
       id="path3280-8-3"
       inkscape:connector-curvature="0"
       sodipodi:nodetypes="csssc" />
    <path
       style="fill:#ffffff;fill-rule:evenodd;stroke:none;stroke-width:1.11534px;stroke-linecap:butt;stroke-linejoin:miter;stroke-opacity:1"
       d="m 362.27946,761.5608 c -32.90501,1.79515 -65.9763,2.66681 -98.56486,7.95082 -14.56617,3.09291 -29.62531,6.90855 -41.6347,16.1815 -10.35417,10.44655 -17.59444,23.50187 -24.04581,36.60688 -5.53325,14.74002 -4.09871,30.97601 -0.77439,46.04545 2.38089,13.89024 7.84485,28.04855 18.91693,37.26767 11.45445,10.7655 25.59723,20.01048 41.63593,21.18155 15.36496,1.20679 30.78032,-0.23472 46.1618,0.45828 72.49717,0.13516 145.21251,0.71935 217.39001,-7.12753 11.73599,-1.85695 22.82507,-8.77888 28.73927,-19.26913 6.68663,-9.54595 14.22072,-19.57176 14.96088,-31.6715 0.83278,-11.36805 0.0521,-22.77495 0.087,-34.15923 -0.25703,-7.3192 0.34676,-14.82565 -1.66126,-21.94938 -2.32118,-8.29822 -7.71359,-15.33835 -14.14982,-20.88675 -13.14077,-12.17325 -30.45434,-18.96153 -47.9949,-21.42492 -31.11716,-5.90031 -62.77675,-8.4944 -94.4182,-8.93815 -14.88054,-0.30084 -29.76505,-0.27893 -44.64786,-0.26556 z"
       id="path1299"
       inkscape:connector-curvature="0" />
    <path
       style="fill:#ffffff;fill-opacity:1;fill-rule:evenodd;stroke:none;stroke-width:1px;stroke-linecap:butt;stroke-linejoin:miter;stroke-opacity:1"
       d="m 913.77686,922.38419 c -8.14312,0.86734 -14.26823,7.06793 -18.7201,13.30501 -4.05249,5.15329 -11.25461,6.20817 -17.49514,6.08783 -8.52716,0.22173 -15.64579,6.16177 -20.06036,12.8845 -2.58577,3.55077 -3.35569,8.00224 -3.12063,12.27282 -0.47884,6.67297 -5.74109,11.93324 -6.43922,18.52713 0.1519,6.3875 6.22845,10.535 7.49987,16.59892 1.3255,4.5169 2.0838,9.9862 6.45373,12.7515 6.14651,3.1882 13.77597,-0.2253 19.75563,3.5487 4.3008,2.9316 7.95855,6.6895 12.17422,9.748 4.42989,3.4669 9.57506,6.0294 15.11817,7.2675 12.612,3.3373 25.79466,0.9185 38.25451,-1.867 17.19838,-3.5707 34.75427,-5.4628 52.33411,-5.6211 5.20745,-0.3583 9.72625,-3.1437 13.90665,-5.9562 4.7696,-2.8443 10.5501,-4.4438 16.1029,-3.1727 5.7715,0.7524 12.152,2.4968 17.6004,-0.3939 7.269,-4.7571 10.2417,-13.1958 14.3189,-20.35492 3.2566,-6.1287 6.9087,-12.97344 5.3433,-20.0904 -2.1868,-5.88049 -8.6217,-8.27678 -13.0699,-12.17595 -7.5392,-7.58527 -6.6187,-19.54532 -13.671,-27.42615 -6.7963,-7.78732 -17.7343,-10.83932 -27.9088,-10.57648 -7.8977,0.18336 -15.53343,2.5898 -22.65196,5.78799 -5.32477,1.83563 -11.93741,1.6179 -16.1423,-2.47125 -4.17603,-3.22883 -9.23574,-6.67829 -14.86015,-5.53162 -7.83463,0.94699 -14.71262,6.65075 -22.86995,5.44371 -7.9649,-1.16006 -13.49005,-8.87024 -21.85288,-8.58594 z"
       id="path4367-3"
       inkscape:connector-curvature="0"
       sodipodi:nodetypes="ccccccccccccccccccccccc" />
    <path
       style="color:#000000;display:inline;overflow:visible;visibility:visible;fill:#ffffff;fill-opacity:1;fill-rule:nonzero;stroke:none;stroke-width:1px;marker:none;enable-background:accumulate"
       d="m 925.04404,987.51508 c 0.43093,17.40692 10.57358,33.58462 24.60302,43.46732 4.0486,3.4474 7.8177,7.2049 11.522,11.0151 -9.5441,6.7343 -21.87387,8.4934 -30.69728,16.3868 -3.00333,7.8153 2.07856,16.9291 9.5442,19.9766 7.90108,4.1347 17.55078,5.3387 23.93238,12.0527 5.8472,7.0001 1.9231,19.0861 -6.6504,21.789 -11.2727,5.778 -17.95023,20.1486 -13.54258,32.3069 4.13098,10.8528 14.58748,18.0402 25.44518,21.0937 5.2942,1.6139 10.7387,2.647 16.1286,3.8787 -10.8778,-5.5071 -22.4207,-11.1561 -29.8066,-21.25 -5.866,-8.2804 -2.1755,-21.8742 7.6733,-25.1751 6.0663,-1.8597 13.149,-3.1903 17.0207,-8.7544 8.18221,-11.235 4.0413,-29.3207 -8.5309,-35.4929 -6.8306,-3.5643 -14.777,-5.4022 -20.3877,-10.9819 -1.6954,-3.9526 2.6275,-8.2401 6.5884,-7.513 7.4263,-1.7714 15.8041,-2.1777 21.7723,-7.5012 4.4591,-5.1824 3.2488,-13.2448 -0.7338,-18.3354 -8.0405,-15.3899 -15.424,-31.1229 -23.8906,-46.28912 -6.1584,-1.4328 -12.54059,-0.9451 -18.78997,-1.6404 -3.73928,-0.2117 -7.47855,-0.4233 -11.21782,-0.635 0.006,0.5339 0.0117,1.0677 0.0176,1.6016 z"
       id="path5058"
       inkscape:connector-curvature="0"
       sodipodi:nodetypes="cscsssssccsssccsccccc" />
    <path
       style="display:inline;fill:#ffffff;stroke:none;stroke-width:1"
       d="m 1571.4018,1191.6392 c 13.4807,-8.3202 19.4484,-23.3927 17.65,-33.0755 -8.8182,-22.1676 -14.651,-36.255 -2.7595,-61.9827 4.6158,-9.7523 4.136,-55.5565 4.136,-55.5565 0,0 -27.4173,28.8158 -35.0946,40.6428 -7.678,11.8285 -3.0663,7.9917 -4.8155,13.4555 -1.7483,5.4625 -1.3553,24.9485 0.8987,35.296 4.6362,17.6704 24.7701,36.2388 6.7072,51.624 -38.2054,28.7903 -15.6246,82.4307 39.9278,44.9299 -67.6745,16.2702 -41.7605,-26.0079 -26.6503,-35.3336 z"
       id="path3023-0"
       inkscape:connector-curvature="0"
       sodipodi:nodetypes="scccsscccss" />
    <path
       style="display:inline;fill:#ffffff;fill-rule:evenodd;stroke:none;stroke-width:1px;stroke-linecap:butt;stroke-linejoin:miter;stroke-opacity:1"
       d="m 464.88133,1910.6914 c -28.8926,-2.0653 -70.7911,12.6625 -46.4898,55.1642 -53.0586,-27.852 -127.5213,-37.8514 -145.041,8.545 -2.9485,-56.7468 -38.5111,-41.338 -67.8631,-27.673 27.9346,-23.2981 -23.4398,-34.7771 -50.9437,-35.2783 56.996,-50.2966 26.119,-64.931 2.7943,-82.6311 57.4315,11.9803 42.9826,-15.1235 49.4459,-30.8559 49.812,33.8557 85.2527,24.5077 112.648,-9.0266 15.1349,17.4028 20.6066,54.0871 73.5776,-4.0088 -18.8313,49.4071 7.2124,43.5524 49.0134,18.2945 -6.2541,16.8237 -45.124,43.2233 21.271,38.72 -41.1448,16.9717 -49.3548,38.642 1.5874,68.75 z"
       id="path4584-8"
       inkscape:connector-curvature="0"
       sodipodi:nodetypes="cccccccccccc" />
    <path
       style="fill:#ffffff;fill-rule:evenodd;stroke:none;stroke-width:0.999993px;stroke-linecap:butt;stroke-linejoin:miter;stroke-opacity:1"
       d="m 1088.4402,1861.1551 c 12.6082,4.62 30.6985,12.1275 32.8912,20.213 2.1928,8.0848 13.7047,23.1004 9.8674,36.3833 -3.8373,13.2822 -14.8011,26.5651 -25.2166,34.0733 -10.4157,7.5075 -30.1504,13.2822 -42.7587,14.4376 -12.6083,1.1553 -44.9513,-6.9301 -54.2706,-4.6201 -9.3192,2.31 -43.30683,3.4647 -60.30065,-2.31 -16.99383,-5.7755 -36.1804,-27.1432 -38.92135,-40.4262 -2.74096,-13.2829 9.31917,-39.848 11.51191,-46.7781 2.1928,-6.9308 11.51198,-9.2409 11.51198,-9.2409 26.0186,-3.9635 117.34611,-7.6933 155.68541,-1.7319 z"
       id="path1099"
       inkscape:connector-curvature="0"
       sodipodi:nodetypes="ccccccccccc" />
    <path
       style="color:#000000;display:inline;overflow:visible;visibility:visible;fill:#ffffff;fill-opacity:1;fill-rule:nonzero;stroke:none;stroke-width:1.20466px;marker:none;enable-background:accumulate"
       d="m 1482.6751,2055.37 c -7.5139,9.7581 -15.6504,19.3547 -26.0017,26.3495 -8.6748,-1.3311 -14.665,-10.6315 -12.5681,-19.0188 -14.3182,2.9551 -23.584,15.3396 -35.8882,22.158 -18.8876,12.4892 -40.1008,23.2455 -62.9935,24.607 -21.2373,-3.5262 -37.2707,-24.4067 -34.9709,-45.5591 -6.2663,-0.6134 -10.2718,5.4873 -12.7147,10.3184 -7.102,8.8232 -14.4508,18.4659 -25.413,22.8006 -9.7678,-0.5604 -16.1434,-12.6146 -11.0136,-20.9685 -2.8616,-3.855 -9.0262,-0.8534 -10.35,3.0298 -15.2526,12.8775 -31.0458,26.7148 -50.8507,31.8991 -22.8517,4.0098 -45.6277,-2.9795 -65.7172,-12.5407 -4.8237,-1.9808 -9.8808,-3.3699 -14.872,-4.9099 -8.2468,9.7731 -10.3631,23.8671 -21.4302,31.4497 -11.968,7.994 -27.2582,9.9562 -40.9828,7.071 -6.8537,2.9394 -7.1429,11.141 -10.571,16.6953 -9.1752,14.1557 -26.4544,21.3303 -42.8534,22.2154 -6.5572,1.0445 -13.11456,2.0889 -19.6718,3.1334 12.38555,6.0969 26.0268,10.1111 37.077,18.5014 -3.4578,8.7215 -13.5395,12.2341 -22.19221,13.3039 -17.35129,1.9653 -34.88088,1.5939 -52.12392,4.7971 -3.05735,0.3719 -6.11522,0.7481 -9.15647,1.2572 32.51738,2.7871 65.1326,8.0049 95.2682,20.0864 6.0209,12.2288 -4.5068,28.3931 -18.1426,29.7571 -7.4335,3.7253 -14.86702,7.4505 -22.30047,11.176 18.03007,-0.4852 36.32067,-2.3438 54.07387,1.039 11.3146,14.195 8.1076,37.312 -6.6466,48.8238 0.9315,4.5354 7.2486,4.1363 10.2212,1.6502 14.2553,-3.3589 30.1487,-5.4695 43.4844,1.2088 20.7301,13.1066 32.067,35.7033 50.7704,50.9912 1.5278,1.3127 3.1656,3.7781 5.2425,3.6073 16.4585,-29.0306 54.2016,-43.8588 86.0357,-35.4592 10.7932,2.208 20.9889,6.3311 31.0226,10.5959 14.1309,-4.538 23.6307,-17.7995 38.2362,-21.3091 15.4301,-6.1739 33.5112,-8.6719 48.8138,-1.9178 8.3497,5.595 12.781,15.5658 22.1201,19.9348 9.1422,-2.3862 11.9421,-12.8386 19.813,-17.1366 18.7846,-13.8868 45.4722,-14.2986 65.1306,-3.4248 7.4088,2.2918 14.7767,-2.7535 19.6367,-8.002 16.5597,-13.1629 38.258,-17.2564 58.7678,-18.0712 6.2505,-0.2607 12.4975,-0.1315 18.7375,0.015 1.589,-4.4998 -3.463,-7.0482 -6.0695,-9.7171 -6.2823,-5.3429 -12.8543,-12.7278 -11.3241,-21.648 1.9883,-11.6105 12.9013,-19.6159 23.714,-23.1147 6.9241,-2.5279 14.1438,-4.2328 20.8628,-7.3253 -6.6494,-5.8676 -15.084,-9.2734 -22.3586,-14.3032 -7.114,-4.4967 -14.4981,-9.1271 -20.23,-15.1586 -0.5411,-12.9955 10.1707,-24.5334 22.3944,-28.4542 5.6632,-3.4894 11.2192,-7.2211 16.1174,-11.7234 -13.3264,-1.6499 -27.3649,-2.4928 -39.1381,-9.2042 -7.4033,-13.1119 -4.4509,-30.3077 4.809,-42.2714 0.8363,-3.0577 -3.1334,-4.0039 -5.4352,-3.2869 -14.3429,-0.3612 -29.9208,-0.7856 -41.7877,-9.3404 -12.0768,-10.0116 -15.7025,-26.7453 -14.1,-41.8665 0.4975,-5.6443 1.6316,-11.3527 0.7426,-16.9799 -1.0745,1.4128 -2.1491,2.8256 -3.2235,4.2385 z"
       id="path3549-3-7-5"
       inkscape:connector-curvature="0"
       sodipodi:nodetypes="cccccccccccccccccccc" />
    <path
       style="color:#000000;display:inline;overflow:visible;visibility:visible;fill:#ffffff;fill-opacity:1;fill-rule:nonzero;stroke:none;stroke-width:1px;marker:none;enable-background:accumulate"
       d="m 1215.9045,3102.4019 c -35.4901,1.0127 -71.3907,2.3026 -105.9431,13.293 -13.2375,4.504 -26.1502,13.6969 -33.2961,28.54 -10.5249,20.9979 -11.021,48.1413 -3.4047,70.6368 7.0343,21.7902 20.9827,40.9136 39.1726,48.9857 23.9245,10.5885 49.7029,10.9262 74.8256,11.303 14.3208,0.09 28.6368,0.5429 42.9549,0.8295 40.5334,0.5215 81.2461,-3.0065 120.9711,-13.2119 10.1832,-3.132 20.3171,-9.7458 25.7996,-21.1583 7.6002,-14.4665 10.3794,-31.6967 12.655,-48.4189 1.5762,-15.0588 -0.6114,-31.1141 -7.8437,-43.6735 -10.5753,-19.9832 -28.6838,-32.7789 -47.605,-36.7438 -20.525,-4.8818 -41.5328,-4.3959 -62.2691,-6.9623 -18.6423,-1.7278 -37.3041,-3.6794 -56.0171,-3.4193 z"
       id="path3330-06"
       inkscape:connector-curvature="0"
       sodipodi:nodetypes="zsssssz" />
    <path
       style="color:#000000;display:inline;overflow:visible;visibility:visible;fill:#ffffff;fill-opacity:1;fill-rule:nonzero;stroke:none;stroke-width:0.999999px;marker:none;enable-background:accumulate"
       d="m 1291.0012,3245.8924 c -35.7534,0.7733 -71.9204,1.7584 -106.729,10.1515 -13.3359,3.4395 -26.3444,10.4599 -33.5434,21.7952 -10.6028,16.0354 -11.1028,36.7641 -3.4299,53.9432 7.0864,16.6406 21.1384,31.2445 39.4632,37.409 24.1022,8.0861 50.0718,8.344 75.3808,8.6317 14.4271,0.068 28.8494,0.4146 43.2738,0.6335 40.834,0.3982 81.8488,-2.296 121.8686,-10.0896 10.2588,-2.3918 20.4678,-7.4425 25.9909,-16.158 7.6568,-11.0476 10.4565,-24.2057 12.7489,-36.976 1.588,-11.5 -0.6159,-23.761 -7.9017,-33.3522 -10.6539,-15.2605 -28.8967,-25.0322 -47.9584,-28.0602 -20.6772,-3.728 -41.8409,-3.357 -62.7309,-5.3169 -18.7808,-1.3194 -37.5811,-2.8098 -56.4329,-2.6112 z"
       id="path3330-06-3"
       inkscape:connector-curvature="0"
       sodipodi:nodetypes="zsssssz" />
    <path
       style="color:#000000;display:inline;overflow:visible;visibility:visible;fill:#ffffff;fill-opacity:1;fill-rule:nonzero;stroke:none;stroke-width:1px;marker:none;enable-background:accumulate"
       d="m 1039.2669,1903.8172 c 12.9493,3.5313 53.5872,20.5771 12.2952,22.1787 58.4932,34.8788 36.4599,48.5856 29.0728,56.6372 16.1722,-2.9028 43.2767,3.6912 37.948,25.997 15.5796,-3.3105 37.1138,30.9541 46.9488,47.7121 5.4751,-22.5128 14.7633,-26.7531 33.5882,14.6671 -5.0222,-31.6407 -8.5325,-61.1815 35.5765,-24.5631 -1.3396,-11.6529 -37.505,-38.8648 55.2875,-27.1762 -32.7571,-19.6367 -52.8115,-40.7758 2.6164,-68.3558 -25.4958,-7.917 -44.0058,-20.0077 -15.9196,-44.1161 -24.7104,-4.752 -32.1598,-33.2989 -29.3536,-43.8776 -22.4857,21.5457 -39.1208,21.0346 -47.2071,-7.7103 -38.5962,48.8917 -38.9502,9.3578 -52.5793,1.7385 -9.2198,38.1114 -32.9734,21.426 -54.7012,14.9485 7.6586,43.5652 -27.838,29.7409 -53.5726,31.92 z"
       id="path3549-3-8"
       inkscape:connector-curvature="0"
       sodipodi:nodetypes="ccccccccccccccc" />
  </g>
  <g
     inkscape:groupmode="layer"
     id="layer1"
     inkscape:label="txt"
     style="display:inline">
    <text
       xml:space="preserve"
       style="font-style:normal;font-variant:normal;font-weight:normal;font-stretch:normal;font-size:45.3333px;line-height:125%;font-family:Lavi;-inkscape-font-specification:Lavi;text-align:center;letter-spacing:0px;word-spacing:0px;text-anchor:middle;fill:#000000;fill-opacity:1;stroke:none"
       x="352.83478"
       y="308.57437"
       id="text4246-70-2-2-2-7-4-9-6"><tspan
         sodipodi:role="line"
         style="font-size:45.3333px"
         x="352.83478"
         y="308.57437"
         id="tspan9933-2-7">Hmm...</tspan></text>
    <text
       xml:space="preserve"
       style="font-style:normal;font-variant:normal;font-weight:normal;font-stretch:normal;font-size:45.3333px;line-height:125%;font-family:Lavi;-inkscape-font-specification:Lavi;text-align:center;letter-spacing:0px;word-spacing:0px;text-anchor:middle;fill:#000000;fill-opacity:1;stroke:none"
       x="415.25522"
       y="407.0365"
       id="text4246-70-2-2-2-7-4-9"><tspan
         sodipodi:role="line"
         style="font-size:45.3333px"
         x="415.25522"
         y="407.0365"
         id="tspan9933-2">Verstehe...</tspan></text>
    <text
       xml:space="preserve"
       style="font-style:normal;font-variant:normal;font-weight:normal;font-stretch:normal;font-size:45.3333px;line-height:125%;font-family:Lavi;-inkscape-font-specification:Lavi;text-align:center;letter-spacing:0px;word-spacing:0px;text-anchor:middle;fill:#000000;fill-opacity:1;stroke:none"
       x="2003.085"
       y="328.43054"
       id="text4246-70-2-2-2-7-4-9-7"><tspan
         sodipodi:role="line"
         style="font-size:45.3333px"
         x="2003.085"
         y="328.43054"
         id="tspan2476">...und nun bist du hier, </tspan><tspan
         sodipodi:role="line"
         style="font-size:45.3333px"
         x="2003.085"
         y="385.09717"
         id="tspan2480">um dich mit Phönixtränen </tspan><tspan
         sodipodi:role="line"
         style="font-size:45.3333px"
         x="2003.085"
         y="441.76379"
         id="tspan2482">zu heilen, stimmt's?</tspan></text>
    <text
       xml:space="preserve"
       style="font-style:normal;font-variant:normal;font-weight:normal;font-stretch:normal;font-size:45.3333px;line-height:125%;font-family:Lavi;-inkscape-font-specification:Lavi;text-align:center;letter-spacing:0px;word-spacing:0px;text-anchor:middle;fill:#000000;fill-opacity:1;stroke:none"
       x="382.54419"
       y="836.83826"
       id="text4246-70-2-2-2-7-4-9-9"><tspan
         sodipodi:role="line"
         style="font-size:45.3333px"
         x="382.54419"
         y="836.83826"
         id="tspan12869">Ja, es ist <tspan
   style="font-style:normal;font-variant:normal;font-weight:bold;font-stretch:normal;font-family:Lavi;-inkscape-font-specification:'Lavi Bold'"
   id="tspan1217">meine</tspan></tspan><tspan
         sodipodi:role="line"
         style="font-style:normal;font-variant:normal;font-weight:bold;font-stretch:normal;font-size:45.3333px;font-family:Lavi;-inkscape-font-specification:'Lavi Bold'"
         x="382.54419"
         y="893.50488"
         id="tspan1215"> einzige Wahl.</tspan></text>
    <text
       xml:space="preserve"
       style="font-style:normal;font-variant:normal;font-weight:normal;font-stretch:normal;font-size:45.3333px;line-height:125%;font-family:Lavi;-inkscape-font-specification:Lavi;text-align:center;letter-spacing:0px;word-spacing:0px;text-anchor:middle;fill:#000000;fill-opacity:1;stroke:none"
       x="956.3031"
       y="994.32025"
       id="text4246-70-2-2-2-7-4-9-9-3"><tspan
         sodipodi:role="line"
         style="font-style:italic;font-variant:normal;font-weight:normal;font-stretch:normal;font-size:45.3333px;font-family:Lavi;-inkscape-font-specification:'Lavi Italic'"
         x="956.3031"
         y="994.32025"
         id="tspan12869-7">*seufz*</tspan></text>
    <text
       xml:space="preserve"
       style="font-style:normal;font-variant:normal;font-weight:normal;font-stretch:normal;font-size:45.3333px;line-height:125%;font-family:Lavi;-inkscape-font-specification:Lavi;text-align:center;letter-spacing:0px;word-spacing:0px;text-anchor:middle;fill:#000000;fill-opacity:1;stroke:none"
       x="1562.6672"
       y="832.2207"
       id="text4246-70-2-2-2-7-4-9-9-6-6"><tspan
         sodipodi:role="line"
         style="font-size:45.3333px"
         x="1562.6672"
         y="832.2207"
         id="tspan1351">...nun, worauf </tspan><tspan
         sodipodi:role="line"
         style="font-size:45.3333px"
         x="1562.6672"
         y="888.88733"
         id="tspan4046">wartest du?</tspan></text>
    <text
       xml:space="preserve"
       style="font-style:normal;font-variant:normal;font-weight:normal;font-stretch:normal;font-size:45.3333px;line-height:125%;font-family:Lavi;-inkscape-font-specification:Lavi;text-align:center;letter-spacing:0px;word-spacing:0px;text-anchor:middle;fill:#000000;fill-opacity:1;stroke:none"
       x="1570.8657"
       y="992.48041"
       id="text4246-70-2-2-2-7-4-9-9-6"><tspan
         sodipodi:role="line"
         style="font-size:45.3333px"
         x="1570.8657"
         y="992.48041"
         id="tspan4642">Versuch mich zum </tspan><tspan
         sodipodi:role="line"
         style="font-size:45.3333px"
         x="1570.8657"
         y="1049.1471"
         id="tspan4646">Weinen zu bringen.</tspan></text>
    <text
       xml:space="preserve"
       style="font-style:normal;font-variant:normal;font-weight:normal;font-stretch:normal;font-size:45.3333px;line-height:125%;font-family:Lavi;-inkscape-font-specification:Lavi;text-align:center;letter-spacing:0px;word-spacing:0px;text-anchor:middle;fill:#000000;fill-opacity:1;stroke:none"
       x="1564.7095"
       y="1636.3534"
       id="text4246-70-2-2-2-7-4-9-9-6-5"><tspan
         sodipodi:role="line"
         style="font-size:45.3333px"
         x="1564.7095"
         y="1636.3534"
         id="tspan29603">Ich gebe dir</tspan><tspan
         sodipodi:role="line"
         style="font-style:normal;font-variant:normal;font-weight:bold;font-stretch:normal;font-size:45.3333px;font-family:Lavi;-inkscape-font-specification:'Lavi Bold'"
         x="1564.7095"
         y="1693.02"
         id="tspan1669">eine Minute!</tspan></text>
    <text
       xml:space="preserve"
       style="font-style:normal;font-variant:normal;font-weight:normal;font-stretch:normal;font-size:55.9581px;line-height:125%;font-family:Lavi;-inkscape-font-specification:Lavi;text-align:center;letter-spacing:0px;word-spacing:0px;text-anchor:middle;fill:#000000;fill-opacity:1;stroke:none;stroke-width:1"
       x="311.79352"
       y="1889.1261"
       id="text4246-70-2-2-2-7-4-9-9-6-1"><tspan
         sodipodi:role="line"
         style="font-style:normal;font-variant:normal;font-weight:bold;font-stretch:normal;font-size:55.9581px;font-family:Lavi;-inkscape-font-specification:'Lavi Bold';stroke-width:1"
         x="311.79352"
         y="1889.1261"
         id="tspan40668">Was?!</tspan></text>
    <text
       xml:space="preserve"
       style="font-style:normal;font-variant:normal;font-weight:normal;font-stretch:normal;font-size:49.2216px;line-height:125%;font-family:Lavi;-inkscape-font-specification:Lavi;text-align:center;letter-spacing:0px;word-spacing:0px;text-anchor:middle;fill:#000000;fill-opacity:1;stroke:none;stroke-width:1"
       x="532.64258"
       y="1972.0665"
       id="text4246-70-2-2-2-7-4-9-9-6-1-2-2"><tspan
         sodipodi:role="line"
         style="font-style:normal;font-variant:normal;font-weight:bold;font-stretch:normal;font-size:49.2216px;font-family:Lavi;-inkscape-font-specification:'Lavi Bold';stroke-width:1"
         x="532.64258"
         y="1972.0665"
         id="tspan6586">Dich zum </tspan><tspan
         sodipodi:role="line"
         style="font-style:normal;font-variant:normal;font-weight:bold;font-stretch:normal;font-size:49.2216px;font-family:Lavi;-inkscape-font-specification:'Lavi Bold';stroke-width:1"
         x="532.64258"
         y="2033.5935"
         id="tspan6590">Weinen bringen?!</tspan></text>
    <text
       xml:space="preserve"
       style="font-style:normal;font-variant:normal;font-weight:normal;font-stretch:normal;font-size:45.3333px;line-height:125%;font-family:Lavi;-inkscape-font-specification:Lavi;text-align:center;letter-spacing:0px;word-spacing:0px;text-anchor:middle;fill:#000000;fill-opacity:1;stroke:none"
       x="663.1972"
       y="2124.0947"
       id="text4246-70-2-2-2-7-4-9-9-6-1-2"><tspan
         sodipodi:role="line"
         style="font-size:45.3333px"
         x="663.1972"
         y="2124.0947"
         id="tspan1813">Aber ich </tspan><tspan
         sodipodi:role="line"
         style="font-size:45.3333px"
         x="663.1972"
         y="2180.7615"
         id="tspan9111">wusste nicht, </tspan><tspan
         sodipodi:role="line"
         style="font-size:45.3333px"
         x="663.1972"
         y="2237.428"
         id="tspan9113">dass...</tspan></text>
    <text
       xml:space="preserve"
       style="font-style:normal;font-variant:normal;font-weight:normal;font-stretch:normal;font-size:49.2681px;line-height:125%;font-family:Lavi;-inkscape-font-specification:Lavi;text-align:center;letter-spacing:0px;word-spacing:0px;text-anchor:middle;fill:#000000;fill-opacity:1;stroke:none;stroke-width:1"
       x="707.3999"
       y="2316.5879"
       id="text4246-70-2-2-2-7-4-9-9-6-1-2-27"
       transform="scale(0.98652379,1.0136603)"><tspan
         sodipodi:role="line"
         style="font-size:49.2681px;stroke-width:1"
         x="707.3999"
         y="2316.5879"
         id="tspan1134">Und zwar...</tspan><tspan
         sodipodi:role="line"
         style="font-style:normal;font-variant:normal;font-weight:bold;font-stretch:normal;font-size:49.2681px;font-family:Lavi;-inkscape-font-specification:'Lavi Bold';stroke-width:1"
         x="707.3999"
         y="2378.1731"
         id="tspan1825">in nur einer</tspan><tspan
         sodipodi:role="line"
         style="font-style:normal;font-variant:normal;font-weight:bold;font-stretch:normal;font-size:49.2681px;font-family:Lavi;-inkscape-font-specification:'Lavi Bold';stroke-width:1"
         x="707.3999"
         y="2439.7581"
         id="tspan13408">Minute?!</tspan></text>
    <text
       xml:space="preserve"
       style="font-style:normal;font-variant:normal;font-weight:normal;font-stretch:normal;font-size:48.1157px;line-height:125%;font-family:Lavi;-inkscape-font-specification:Lavi;text-align:center;letter-spacing:0px;word-spacing:0px;text-anchor:middle;fill:#000000;fill-opacity:1;stroke:none;stroke-width:1"
       x="1017.1918"
       y="1924.8142"
       id="text4246-70-2-2-2-7-4-9-9-6-1-2-3"><tspan
         sodipodi:role="line"
         style="font-size:48.1157px;stroke-width:1"
         x="1017.1918"
         y="1924.8142"
         id="tspan44044-5">Ähm...</tspan></text>
    <text
       xml:space="preserve"
       style="font-style:normal;font-variant:normal;font-weight:normal;font-stretch:normal;font-size:51.9425px;line-height:125%;font-family:Lavi;-inkscape-font-specification:Lavi;text-align:center;letter-spacing:0px;word-spacing:0px;text-anchor:middle;fill:#000000;fill-opacity:1;stroke:none;stroke-width:1"
       x="1187.4293"
       y="1953.7235"
       id="text4246-70-2-2-2-7-4-9-9-6-1-2-3-9-6"><tspan
         sodipodi:role="line"
         style="font-style:normal;font-variant:normal;font-weight:bold;font-stretch:normal;font-size:51.9425px;font-family:Lavi;-inkscape-font-specification:'Lavi Bold';stroke-width:1"
         x="1187.4293"
         y="1953.7235"
         id="tspan62775-6">OK!</tspan></text>
    <text
       xml:space="preserve"
       style="font-style:normal;font-variant:normal;font-weight:normal;font-stretch:normal;font-size:40.5417px;line-height:125%;font-family:Lavi;-inkscape-font-specification:Lavi;text-align:center;letter-spacing:0px;word-spacing:0px;text-anchor:middle;fill:#000000;fill-opacity:1;stroke:none;stroke-width:1"
       x="1377.374"
       y="1972.0564"
       id="text4246-70-2-2-2-7-4-9-9-6-1-2-3-9-6-0"><tspan
         sodipodi:role="line"
         style="font-size:40.5417px;stroke-width:1"
         x="1377.374"
         y="1972.0564"
         id="tspan62775-6-2">Mal sehen.</tspan></text>
    <text
       xml:space="preserve"
       style="font-style:normal;font-variant:normal;font-weight:normal;font-stretch:normal;font-size:45.3333px;line-height:125%;font-family:Lavi;-inkscape-font-specification:Lavi;text-align:center;letter-spacing:0px;word-spacing:0px;text-anchor:middle;fill:#000000;fill-opacity:1;stroke:none"
       x="1277.869"
       y="2055.957"
       id="text4246-70-2-2-2-7-4-9-9-6-1-2-3-9"><tspan
         sodipodi:role="line"
         style="font-size:45.3333px"
         x="1277.869"
         y="2055.957"
         id="tspan2077">Hmm... Stell dir <tspan
   style="font-style:normal;font-variant:normal;font-weight:bold;font-stretch:normal;font-family:Lavi;-inkscape-font-specification:'Lavi Bold'"
   id="tspan2079" /></tspan><tspan
         sodipodi:role="line"
         style="font-size:45.3333px"
         x="1277.869"
         y="2112.6238"
         id="tspan18854"><tspan
           style="font-style:normal;font-variant:normal;font-weight:bold;font-stretch:normal;font-family:Lavi;-inkscape-font-specification:'Lavi Bold'"
           id="tspan18856">Hungersnöte vor.</tspan></tspan></text>
    <text
       xml:space="preserve"
       style="font-style:normal;font-variant:normal;font-weight:normal;font-stretch:normal;font-size:45.3333px;line-height:125%;font-family:Lavi;-inkscape-font-specification:Lavi;text-align:center;letter-spacing:0px;word-spacing:0px;text-anchor:middle;fill:#000000;fill-opacity:1;stroke:none"
       x="1303.3167"
       y="2184.4316"
       id="text4246-70-2-2-2-7-4-9-9-6-1-2-3-9-2"><tspan
         sodipodi:role="line"
         style="font-size:45.3333px"
         x="1303.3167"
         y="2184.4316"
         id="tspan62775-9">Äh, wartewartewarte!</tspan></text>
    <text
       xml:space="preserve"
       style="font-style:normal;font-variant:normal;font-weight:normal;font-stretch:normal;font-size:45.3333px;line-height:125%;font-family:Lavi;-inkscape-font-specification:Lavi;text-align:center;letter-spacing:0px;word-spacing:0px;text-anchor:middle;fill:#000000;fill-opacity:1;stroke:none"
       x="1289.4706"
       y="2260.2942"
       id="text4246-70-2-2-2-7-4-9-9-6-1-2-3-9-2-2"><tspan
         sodipodi:role="line"
         style="font-size:45.3333px"
         x="1289.4706"
         y="2260.2942"
         id="tspan21188">Ich weiß was besseres:</tspan></text>
    <text
       xml:space="preserve"
       style="font-style:normal;font-variant:normal;font-weight:normal;font-stretch:normal;font-size:45.3333px;line-height:125%;font-family:Lavi;-inkscape-font-specification:Lavi;text-align:center;letter-spacing:0px;word-spacing:0px;text-anchor:middle;fill:#000000;fill-opacity:1;stroke:none"
       x="1287.4883"
       y="2344.7439"
       id="text4246-70-2-2-2-7-4-9-9-6-1-2-3-9-2-7-6"><tspan
         sodipodi:role="line"
         style="font-style:normal;font-variant:normal;font-weight:bold;font-stretch:normal;font-size:45.3333px;font-family:Lavi;-inkscape-font-specification:'Lavi Bold'"
         x="1287.4883"
         y="2344.7439"
         id="tspan22690">Denk an die, die von </tspan><tspan
         sodipodi:role="line"
         style="font-style:normal;font-variant:normal;font-weight:bold;font-stretch:normal;font-size:45.3333px;font-family:Lavi;-inkscape-font-specification:'Lavi Bold'"
         x="1287.4883"
         y="2401.4106"
         id="tspan32758">dir gegangen sind.</tspan></text>
    <text
       xml:space="preserve"
       style="font-style:normal;font-variant:normal;font-weight:normal;font-stretch:normal;font-size:45.3333px;line-height:125%;font-family:Lavi;-inkscape-font-specification:Lavi;text-align:center;letter-spacing:0px;word-spacing:0px;text-anchor:middle;fill:#000000;fill-opacity:1;stroke:none"
       x="1196.426"
       y="3084.6577"
       id="text4246-70-2-2-2-7-4-9-9-6-1-2-3-9-2-7"><tspan
         sodipodi:role="line"
         style="font-size:45.3333px"
         x="1196.426"
         y="3084.6577"
         id="tspan70880">Immer noch nicht?</tspan></text>
    <text
       xml:space="preserve"
       style="font-style:normal;font-variant:normal;font-weight:normal;font-stretch:normal;font-size:45.3333px;line-height:125%;font-family:Lavi;-inkscape-font-specification:Lavi;text-align:center;letter-spacing:0px;word-spacing:0px;text-anchor:middle;fill:#000000;fill-opacity:1;stroke:none"
       x="1237.2577"
       y="3176.5801"
       id="text4246-70-2-2-2-7-4-9-9-6-1-2-3-9-2-7-9"><tspan
         sodipodi:role="line"
         style="font-style:normal;font-variant:normal;font-weight:bold;font-stretch:normal;font-size:45.3333px;font-family:Lavi;-inkscape-font-specification:'Lavi Bold'"
         x="1237.2577"
         y="3176.5801"
         id="tspan2463">Ausgesetzte </tspan><tspan
         sodipodi:role="line"
         style="font-style:normal;font-variant:normal;font-weight:bold;font-stretch:normal;font-size:45.3333px;font-family:Lavi;-inkscape-font-specification:'Lavi Bold'"
         x="1237.2577"
         y="3233.2468"
         id="tspan34886">Haustiere?!</tspan></text>
    <text
       xml:space="preserve"
       style="font-style:normal;font-variant:normal;font-weight:normal;font-stretch:normal;font-size:31.9991px;line-height:125%;font-family:Lavi;-inkscape-font-specification:Lavi;text-align:center;letter-spacing:0px;word-spacing:0px;text-anchor:middle;fill:#000000;fill-opacity:1;stroke:none;stroke-width:0.999999"
       x="1309.0375"
       y="3310.5249"
       id="text4246-70-2-2-2-7-4-9-9-6-1-2-3-9-2-7-9-1"><tspan
         sodipodi:role="line"
         style="font-size:31.9991px;stroke-width:0.999999"
         x="1309.0375"
         y="3310.5249"
         id="tspan1820">Ausgesetzte Tiere </tspan><tspan
         sodipodi:role="line"
         style="font-size:31.9991px;stroke-width:0.999999"
         x="1309.0375"
         y="3350.5237"
         id="tspan35820">sind so traurig...</tspan></text>
    <text
       xml:space="preserve"
       style="font-style:normal;font-variant:normal;font-weight:normal;font-stretch:normal;font-size:45.3333px;line-height:125%;font-family:Lavi;-inkscape-font-specification:Lavi;text-align:center;letter-spacing:0px;word-spacing:0px;text-anchor:middle;fill:#000000;fill-opacity:1;stroke:none"
       x="2305.2185"
       y="3151.553"
       id="text4246-70-2-2-2-7-4-9-9-6-1-2-3-9-2-7-9-5"><tspan
         sodipodi:role="line"
         style="font-size:45.3333px"
         x="2305.2185"
         y="3151.553"
         id="tspan80607-3">...</tspan></text>
  </g>
</svg>
