<?xml version="1.0" encoding="UTF-8" standalone="no"?>
<svg
   xmlns:dc="http://purl.org/dc/elements/1.1/"
   xmlns:cc="http://creativecommons.org/ns#"
   xmlns:rdf="http://www.w3.org/1999/02/22-rdf-syntax-ns#"
   xmlns:svg="http://www.w3.org/2000/svg"
   xmlns="http://www.w3.org/2000/svg"
   xmlns:xlink="http://www.w3.org/1999/xlink"
   xmlns:sodipodi="http://sodipodi.sourceforge.net/DTD/sodipodi-0.dtd"
   xmlns:inkscape="http://www.inkscape.org/namespaces/inkscape"
   sodipodi:docname="E08P01.svg"
   height="3503"
   width="2481"
   inkscape:version="1.0 (4035a4fb49, 2020-05-01)"
   version="1.1"
   id="svg2">
  <sodipodi:namedview
     inkscape:document-rotation="0"
     inkscape:window-maximized="0"
     inkscape:window-y="0"
     inkscape:window-x="0"
     inkscape:current-layer="layer1"
     inkscape:cy="2618.6204"
     inkscape:cx="868.1731"
     inkscape:zoom="0.4"
     showgrid="false"
     id="namedview70"
     inkscape:window-height="955"
     inkscape:window-width="1813"
     inkscape:pageshadow="2"
     inkscape:pageopacity="0"
     bordercolor="#666666"
     pagecolor="#ffffff" />
  <metadata
     id="metadata8">
    <rdf:RDF>
      <cc:Work
         rdf:about="">
        <dc:format>image/svg+xml</dc:format>
        <dc:type
           rdf:resource="http://purl.org/dc/dcmitype/StillImage" />
        <dc:title />
      </cc:Work>
    </rdf:RDF>
  </metadata>
  <defs
     id="defs6" />
  <sodipodi:namedview
     inkscape:current-layer="layer1"
     inkscape:window-maximized="1"
     inkscape:window-y="26"
     inkscape:window-x="0"
     inkscape:cy="1668.5074"
     inkscape:cx="1191.6325"
     inkscape:zoom="0.3478261"
     showgrid="false"
     id="namedview4"
     inkscape:window-height="1025"
     inkscape:window-width="1920"
     inkscape:pageshadow="2"
     inkscape:pageopacity="0"
     guidetolerance="10"
     gridtolerance="10"
     objecttolerance="10"
     borderopacity="1"
     bordercolor="#666666"
     pagecolor="#ffffff" />
  <g
     sodipodi:insensitive="true"
     inkscape:label="artwork"
     id="layer2"
     inkscape:groupmode="layer">
    <image
       sodipodi:absref="C:\Users\stero\Documents\Kernewek\Pepper and Carrot\webcomics\ep08_Pepper-s-Birthday-Party\lang\gfx_Pepper-and-Carrot_by-David-Revoy_E08P01.png"
       xlink:href="../gfx_Pepper-and-Carrot_by-David-Revoy_E08P01.png"
       y="0"
       x="0"
       id="image10"
       height="3503"
       width="2481" />
  </g>
  <g
     inkscape:label="speechbubbles"
     id="layer3"
     inkscape:groupmode="layer" />
  <g
     inkscape:label="txt"
     id="layer1"
     inkscape:groupmode="layer">
    <path
       sodipodi:nodetypes="csszzc"
       inkscape:connector-curvature="0"
       id="path4546"
       d="m 1616.3692,1774.1821 c 10.9683,-98.6621 128.3432,-158.1225 389.8706,-147.6165 146.2531,5.8752 306.3115,34.8265 292.5916,157.7596 -13.561,121.5071 -227.7319,140.4429 -308.383,144.2964 -80.6513,3.8534 -235.1504,-10.562 -296.158,-47.7744 -61.0073,-37.2122 -79.4755,-76.086 -77.9212,-106.6651 z"
       style="color:#000000;display:inline;overflow:visible;visibility:visible;fill:#ffffff;fill-opacity:1;fill-rule:nonzero;stroke:none;stroke-width:1.01687276px;marker:none;enable-background:accumulate" />
    <path
       sodipodi:nodetypes="cscccc"
       inkscape:connector-curvature="0"
       id="path3063"
       d="m 1507.1507,1813.0245 c 45.7262,39.3993 122.0332,49.3479 166.6545,-10.6039 27.0361,-36.3249 39.2013,-61.147 39.2013,-61.147 l 18.9843,41.7013 -28.17,42.6913 c 0,0 -97.11,90.4832 -196.6701,-12.6417 z"
       style="fill:#ffffff;stroke:none" />
    <flowRoot
       transform="translate(1546.8007,1408.357)"
       style="font-style:normal;font-variant:normal;font-weight:normal;font-stretch:normal;line-height:0.01%;font-family:Lavi;-inkscape-font-specification:Lavi;text-align:center;letter-spacing:0px;word-spacing:0px;text-anchor:middle;fill:#000000;fill-opacity:1;stroke:none"
       id="flowRoot2987-4-9-3"
       xml:space="preserve"><flowRegion
         id="flowRegion2989-5-4-5"><rect
           style="font-style:normal;font-variant:normal;font-weight:normal;font-stretch:normal;font-family:Lavi;-inkscape-font-specification:Lavi;text-align:center;text-anchor:middle"
           y="265.53046"
           x="120.55251"
           height="310.73996"
           width="602.40173"
           id="rect2991-7-9-6" /></flowRegion><flowPara
         id="flowPara3394"
         style="font-size:48px;line-height:1.25;text-align:center;text-anchor:middle">Ogas ha'm penn-bloodh</flowPara><flowPara
         id="flowPara22"
         style="font-size:48px;line-height:1.25;text-align:center;text-anchor:middle">yw, ha ny'm beus kowetha vyth dhe omlowenhe gansa.</flowPara></flowRoot>
  </g>
</svg>
