<?xml version="1.0" encoding="UTF-8" standalone="no"?>
<!-- Created with Inkscape (http://www.inkscape.org/) -->

<svg
   id="svg2"
   version="1.1"
   inkscape:version="1.1.1 (3bf5ae0d25, 2021-09-20)"
   width="2481"
   height="3503"
   sodipodi:docname="E36P08.svg"
   xmlns:inkscape="http://www.inkscape.org/namespaces/inkscape"
   xmlns:sodipodi="http://sodipodi.sourceforge.net/DTD/sodipodi-0.dtd"
   xmlns:xlink="http://www.w3.org/1999/xlink"
   xmlns="http://www.w3.org/2000/svg"
   xmlns:svg="http://www.w3.org/2000/svg"
   xmlns:rdf="http://www.w3.org/1999/02/22-rdf-syntax-ns#"
   xmlns:cc="http://creativecommons.org/ns#"
   xmlns:dc="http://purl.org/dc/elements/1.1/">
  <metadata
     id="metadata8">
    <rdf:RDF>
      <cc:Work
         rdf:about="">
        <dc:format>image/svg+xml</dc:format>
        <dc:type
           rdf:resource="http://purl.org/dc/dcmitype/StillImage" />
        <dc:title />
      </cc:Work>
    </rdf:RDF>
  </metadata>
  <defs
     id="defs6">
    <filter
       inkscape:collect="always"
       style="color-interpolation-filters:sRGB"
       id="filter1058"
       x="-0.047021214"
       width="1.0940424"
       y="-0.12388914"
       height="1.2477783"
       inkscape:label="army-sound">
      <feGaussianBlur
         inkscape:collect="always"
         stdDeviation="0.67074246"
         id="feGaussianBlur1060" />
    </filter>
    <filter
       inkscape:collect="always"
       style="color-interpolation-filters:sRGB"
       id="filter987"
       x="-0.078444511"
       width="1.156889"
       y="-0.20668167"
       height="1.4133633"
       inkscape:label="army-sound_background">
      <feGaussianBlur
         inkscape:collect="always"
         stdDeviation="1.036897"
         id="feGaussianBlur989" />
    </filter>
    <filter
       inkscape:collect="always"
       style="color-interpolation-filters:sRGB"
       id="filter1058-6"
       x="-0.047021214"
       width="1.0940424"
       y="-0.12388914"
       height="1.2477783"
       inkscape:label="army-sound">
      <feGaussianBlur
         inkscape:collect="always"
         stdDeviation="0.67074246"
         id="feGaussianBlur1060-2" />
    </filter>
    <filter
       inkscape:collect="always"
       style="color-interpolation-filters:sRGB"
       id="filter987-9"
       x="-0.11625653"
       width="1.2325131"
       y="-0.20977609"
       height="1.4195522"
       inkscape:label="army-sound_background">
      <feGaussianBlur
         inkscape:collect="always"
         stdDeviation="1.036897"
         id="feGaussianBlur989-1" />
    </filter>
    <filter
       inkscape:collect="always"
       style="color-interpolation-filters:sRGB"
       id="filter987-2"
       x="-0.068922356"
       width="1.1378447"
       y="-0.20977609"
       height="1.4195522"
       inkscape:label="army-sound_background">
      <feGaussianBlur
         inkscape:collect="always"
         stdDeviation="1.036897"
         id="feGaussianBlur989-7" />
    </filter>
    <filter
       inkscape:collect="always"
       style="color-interpolation-filters:sRGB"
       id="filter987-9-0"
       x="-0.052639162"
       width="1.1052783"
       y="-0.20604846"
       height="1.4120969"
       inkscape:label="army-sound_background">
      <feGaussianBlur
         inkscape:collect="always"
         stdDeviation="1.036897"
         id="feGaussianBlur989-1-9" />
    </filter>
    <filter
       inkscape:collect="always"
       style="color-interpolation-filters:sRGB"
       id="filter987-2-0"
       x="-0.058943386"
       width="1.1178868"
       y="-0.16860858"
       height="1.3372172"
       inkscape:label="army-sound_background">
      <feGaussianBlur
         inkscape:collect="always"
         stdDeviation="1.036897"
         id="feGaussianBlur989-7-6" />
    </filter>
    <filter
       inkscape:collect="always"
       style="color-interpolation-filters:sRGB"
       id="filter987-2-0-1"
       x="-0.059054704"
       width="1.1181094"
       y="-0.20604846"
       height="1.4120969"
       inkscape:label="army-sound_background">
      <feGaussianBlur
         inkscape:collect="always"
         stdDeviation="1.036897"
         id="feGaussianBlur989-7-6-8" />
    </filter>
    <filter
       inkscape:collect="always"
       style="color-interpolation-filters:sRGB"
       id="filter987-9-0-2"
       x="-0.052647403"
       width="1.1052948"
       y="-0.20668167"
       height="1.4133633"
       inkscape:label="army-sound_background">
      <feGaussianBlur
         inkscape:collect="always"
         stdDeviation="1.036897"
         id="feGaussianBlur989-1-9-0" />
    </filter>
    <filter
       inkscape:collect="always"
       style="color-interpolation-filters:sRGB"
       id="filter987-2-7"
       x="-0.047905437"
       width="1.0958109"
       y="-0.20668167"
       height="1.4133633"
       inkscape:label="army-sound_background">
      <feGaussianBlur
         inkscape:collect="always"
         stdDeviation="1.036897"
         id="feGaussianBlur989-7-5" />
    </filter>
    <filter
       style="color-interpolation-filters:sRGB"
       id="filter4375-4-1-1-1-9-6-9-2-1-5-4"
       inkscape:label="deevad outline effect"
       x="-0.007108724"
       y="-0.012620398"
       width="1.0142174"
       height="1.0252408">
      <feFlood
         id="feFlood4377-7-9-0-8-1-0-2-2-06-5-3"
         flood-opacity="1"
         flood-color="rgb(23,27,52)"
         result="flood" />
      <feComposite
         id="feComposite4379-3-8-8-2-77-6-0-8-3-8-64"
         in2="SourceGraphic"
         in="flood"
         operator="in"
         result="composite1" />
      <feMorphology
         id="feMorphology4393-1-0-49-8-9-2-2-9-2-7-3"
         operator="dilate"
         radius="4"
         result="result3" />
      <feComposite
         id="feComposite4385-9-5-7-0-8-6-3-7-0-1-1"
         in2="result3"
         in="SourceGraphic"
         operator="over"
         result="composite2" />
    </filter>
    <filter
       height="1.1600000000000001"
       width="1.1600000000000001"
       inkscape:label="horn-FX"
       id="filter4375-4-1-1-1-9-5-8"
       style="color-interpolation-filters:sRGB"
       x="-0.080000000000000002"
       y="-0.080000000000000002"
       inkscape:auto-region="false">
      <feFlood
         result="flood"
         flood-color="rgb(46,52,54)"
         flood-opacity="1"
         id="feFlood4377-7-9-0-8-1-7-3" />
      <feComposite
         result="composite1"
         operator="in"
         in2="SourceGraphic"
         id="feComposite4379-3-8-8-2-77-4-1" />
      <feMorphology
         result="result3"
         radius="4.4217631697438895"
         operator="dilate"
         id="feMorphology4393-1-0-49-8-9-3-0" />
      <feComposite
         result="fbSourceGraphic"
         operator="over"
         in="SourceGraphic"
         in2="result3"
         id="feComposite4385-9-5-7-0-8-8-7" />
      <feColorMatrix
         id="feColorMatrix4544"
         values="0 0 0 -1 0 0 0 0 -1 0 0 0 0 -1 0 0 0 0 1 0"
         in="fbSourceGraphic"
         result="fbSourceGraphicAlpha" />
      <feTurbulence
         result="turbulence"
         baseFrequency="0.129 0.0050000000000000001"
         seed="37"
         numOctaves="3"
         type="fractalNoise"
         id="feTurbulence4546" />
      <feDisplacementMap
         result="fbSourceGraphic"
         xChannelSelector="R"
         yChannelSelector="G"
         scale="12.6"
         in="fbSourceGraphic"
         in2="turbulence"
         id="feDisplacementMap4548" />
      <feColorMatrix
         id="feColorMatrix4670"
         values="0 0 0 -1 0 0 0 0 -1 0 0 0 0 -1 0 0 0 0 1 0"
         in="fbSourceGraphic"
         result="fbSourceGraphicAlpha" />
      <feComposite
         result="composite1"
         operator="in"
         in="flood"
         in2="fbSourceGraphic"
         id="feComposite4674" />
      <feMorphology
         id="feMorphology854"
         operator="dilate"
         radius="5"
         result="result4"
         in="composite1" />
      <feComposite
         result="composite2"
         operator="over"
         in="fbSourceGraphic"
         in2="result4"
         id="feComposite4680" />
    </filter>
    <filter
       style="color-interpolation-filters:sRGB"
       id="filter4375-4-1-1-1-9-5-8-8-3-2"
       inkscape:label="Drop Shadow"
       x="-0.012763625"
       y="-0.0044975116"
       width="1.0141582"
       height="1.0569605">
      <feFlood
         id="feFlood4377-7-9-0-8-1-7-3-1-6-6"
         flood-opacity="1"
         flood-color="rgb(224,116,57)"
         result="flood"
         radius="5.0999999999999996" />
      <feComposite
         id="feComposite4379-3-8-8-2-77-4-1-0-7-1"
         in2="SourceGraphic"
         in="flood"
         operator="in"
         result="composite1"
         baseFrequency="0.053999999999999999 0.053999999999999999" />
      <feMorphology
         id="feMorphology4393-1-0-49-8-9-3-0-1-5-8"
         operator="dilate"
         radius="5.1272503082614058"
         result="result3" />
      <feComposite
         id="feComposite4385-9-5-7-0-8-8-7-5-3-7"
         in2="result3"
         in="SourceGraphic"
         operator="over"
         result="fbSourceGraphic"
         numOctaves="4" />
      <feColorMatrix
         result="fbSourceGraphicAlpha"
         in="fbSourceGraphic"
         values="0 0 0 -1 0 0 0 0 -1 0 0 0 0 -1 0 0 0 0 1 0"
         id="feColorMatrix4544-9-5-9" />
      <feTurbulence
         id="feTurbulence4546-3-6-2"
         type="fractalNoise"
         numOctaves="4.4123222748815163"
         seed="172"
         baseFrequency="0.062 0.054054054054054057"
         result="turbulence" />
      <feDisplacementMap
         id="feDisplacementMap4548-8-2-0"
         in2="turbulence"
         in="fbSourceGraphic"
         scale="10.781991"
         yChannelSelector="G"
         xChannelSelector="R"
         result="fbSourceGraphic" />
      <feColorMatrix
         result="fbSourceGraphicAlpha"
         in="fbSourceGraphic"
         values="0 0 0 -1 0 0 0 0 -1 0 0 0 0 -1 0 0 0 0 1 0"
         id="feColorMatrix4670-7-9-2"
         scale="10.800000000000001" />
      <feFlood
         id="feFlood4672-4-1-3"
         flood-opacity="1"
         flood-color="rgb(45,8,0)"
         result="flood"
         in="fbSourceGraphic"
         dx="-2.3999999999999999" />
      <feComposite
         id="feComposite4674-8-2-7"
         in2="fbSourceGraphic"
         in="flood"
         operator="in"
         result="composite1" />
      <feGaussianBlur
         id="feGaussianBlur4676-3-7-5"
         in="composite1"
         stdDeviation="0"
         result="blur" />
      <feOffset
         id="feOffset4678-6-0-9"
         dx="-2.3696682464454994"
         dy="3.1000000000000001"
         result="offset" />
      <feComposite
         id="feComposite4680-4-9-2"
         in2="offset"
         in="fbSourceGraphic"
         operator="over"
         result="composite2" />
    </filter>
    <filter
       style="color-interpolation-filters:sRGB"
       id="filter4375-4-1-1-1-9-5-8-8-3-2-2"
       inkscape:label="Drop Shadow"
       x="-0.01715553"
       y="-0.0044975116"
       width="1.01903"
       height="1.0569605">
      <feFlood
         id="feFlood4377-7-9-0-8-1-7-3-1-6-6-8"
         flood-opacity="1"
         flood-color="rgb(224,116,57)"
         result="flood"
         radius="5.0999999999999996" />
      <feComposite
         id="feComposite4379-3-8-8-2-77-4-1-0-7-1-9"
         in2="SourceGraphic"
         in="flood"
         operator="in"
         result="composite1"
         baseFrequency="0.053999999999999999 0.053999999999999999" />
      <feMorphology
         id="feMorphology4393-1-0-49-8-9-3-0-1-5-8-7"
         operator="dilate"
         radius="5.1272503082614058"
         result="result3" />
      <feComposite
         id="feComposite4385-9-5-7-0-8-8-7-5-3-7-3"
         in2="result3"
         in="SourceGraphic"
         operator="over"
         result="fbSourceGraphic"
         numOctaves="4" />
      <feColorMatrix
         result="fbSourceGraphicAlpha"
         in="fbSourceGraphic"
         values="0 0 0 -1 0 0 0 0 -1 0 0 0 0 -1 0 0 0 0 1 0"
         id="feColorMatrix4544-9-5-9-6" />
      <feTurbulence
         id="feTurbulence4546-3-6-2-1"
         type="fractalNoise"
         numOctaves="4.4123222748815163"
         seed="172"
         baseFrequency="0.062 0.054054054054054057"
         result="turbulence" />
      <feDisplacementMap
         id="feDisplacementMap4548-8-2-0-2"
         in2="turbulence"
         in="fbSourceGraphic"
         scale="10.781991"
         yChannelSelector="G"
         xChannelSelector="R"
         result="fbSourceGraphic" />
      <feColorMatrix
         result="fbSourceGraphicAlpha"
         in="fbSourceGraphic"
         values="0 0 0 -1 0 0 0 0 -1 0 0 0 0 -1 0 0 0 0 1 0"
         id="feColorMatrix4670-7-9-2-9"
         scale="10.800000000000001" />
      <feFlood
         id="feFlood4672-4-1-3-3"
         flood-opacity="1"
         flood-color="rgb(45,8,0)"
         result="flood"
         in="fbSourceGraphic"
         dx="-2.3999999999999999" />
      <feComposite
         id="feComposite4674-8-2-7-1"
         in2="fbSourceGraphic"
         in="flood"
         operator="in"
         result="composite1" />
      <feGaussianBlur
         id="feGaussianBlur4676-3-7-5-9"
         in="composite1"
         stdDeviation="0"
         result="blur" />
      <feOffset
         id="feOffset4678-6-0-9-4"
         dx="-2.3696682464454994"
         dy="3.1000000000000001"
         result="offset" />
      <feComposite
         id="feComposite4680-4-9-2-7"
         in2="offset"
         in="fbSourceGraphic"
         operator="over"
         result="composite2" />
    </filter>
    <filter
       style="color-interpolation-filters:sRGB"
       id="filter4375-4-1-1-1-9-5-8-8-1"
       inkscape:label="Drop Shadow"
       x="-0.011233353"
       y="-0.0024101746"
       width="1.0119459"
       height="1.0513727">
      <feFlood
         id="feFlood4377-7-9-0-8-1-7-3-1-0"
         flood-opacity="1"
         flood-color="rgb(19,8,20)"
         result="flood"
         radius="5.0999999999999996" />
      <feComposite
         id="feComposite4379-3-8-8-2-77-4-1-0-6"
         in2="SourceGraphic"
         in="flood"
         operator="in"
         result="composite1"
         baseFrequency="0.053999999999999999 0.053999999999999999" />
      <feMorphology
         id="feMorphology4393-1-0-49-8-9-3-0-1-3"
         operator="dilate"
         radius="5.1272503082614058"
         result="result3" />
      <feComposite
         id="feComposite4385-9-5-7-0-8-8-7-5-2"
         in2="result3"
         in="SourceGraphic"
         operator="over"
         result="fbSourceGraphic"
         numOctaves="4" />
      <feColorMatrix
         result="fbSourceGraphicAlpha"
         in="fbSourceGraphic"
         values="0 0 0 -1 0 0 0 0 -1 0 0 0 0 -1 0 0 0 0 1 0"
         id="feColorMatrix4544-9-0" />
      <feTurbulence
         id="feTurbulence4546-3-61"
         type="fractalNoise"
         numOctaves="4.4123222748815163"
         seed="172"
         baseFrequency="0.062 0.054054054054054057"
         result="turbulence" />
      <feDisplacementMap
         id="feDisplacementMap4548-8-5"
         in2="turbulence"
         in="fbSourceGraphic"
         scale="10.781991"
         yChannelSelector="G"
         xChannelSelector="R"
         result="fbSourceGraphic" />
      <feColorMatrix
         result="fbSourceGraphicAlpha"
         in="fbSourceGraphic"
         values="0 0 0 -1 0 0 0 0 -1 0 0 0 0 -1 0 0 0 0 1 0"
         id="feColorMatrix4670-7-5"
         scale="10.800000000000001" />
      <feFlood
         id="feFlood4672-4-4"
         flood-opacity="1"
         flood-color="rgb(45,8,0)"
         result="flood"
         in="fbSourceGraphic"
         dx="-2.3999999999999999" />
      <feComposite
         id="feComposite4674-8-7"
         in2="fbSourceGraphic"
         in="flood"
         operator="in"
         result="composite1" />
      <feGaussianBlur
         id="feGaussianBlur4676-3-6"
         in="composite1"
         stdDeviation="0"
         result="blur" />
      <feOffset
         id="feOffset4678-6-56"
         dx="-2.3696682464454994"
         dy="3.1000000000000001"
         result="offset" />
      <feComposite
         id="feComposite4680-4-93"
         in2="offset"
         in="fbSourceGraphic"
         operator="over"
         result="composite2" />
    </filter>
    <filter
       style="color-interpolation-filters:sRGB"
       id="filter4375-4-1-1-1-9-5-8-8-1-0"
       inkscape:label="Drop Shadow"
       x="-0.011233353"
       y="-0.0024101746"
       width="1.0119459"
       height="1.0513727">
      <feFlood
         id="feFlood4377-7-9-0-8-1-7-3-1-0-6"
         flood-opacity="1"
         flood-color="rgb(19,8,20)"
         result="flood"
         radius="5.0999999999999996" />
      <feComposite
         id="feComposite4379-3-8-8-2-77-4-1-0-6-1"
         in2="SourceGraphic"
         in="flood"
         operator="in"
         result="composite1"
         baseFrequency="0.053999999999999999 0.053999999999999999" />
      <feMorphology
         id="feMorphology4393-1-0-49-8-9-3-0-1-3-5"
         operator="dilate"
         radius="5.1272503082614058"
         result="result3" />
      <feComposite
         id="feComposite4385-9-5-7-0-8-8-7-5-2-5"
         in2="result3"
         in="SourceGraphic"
         operator="over"
         result="fbSourceGraphic"
         numOctaves="4" />
      <feColorMatrix
         result="fbSourceGraphicAlpha"
         in="fbSourceGraphic"
         values="0 0 0 -1 0 0 0 0 -1 0 0 0 0 -1 0 0 0 0 1 0"
         id="feColorMatrix4544-9-0-4" />
      <feTurbulence
         id="feTurbulence4546-3-61-7"
         type="fractalNoise"
         numOctaves="4.4123222748815163"
         seed="172"
         baseFrequency="0.062 0.054054054054054057"
         result="turbulence" />
      <feDisplacementMap
         id="feDisplacementMap4548-8-5-6"
         in2="turbulence"
         in="fbSourceGraphic"
         scale="10.781991"
         yChannelSelector="G"
         xChannelSelector="R"
         result="fbSourceGraphic" />
      <feColorMatrix
         result="fbSourceGraphicAlpha"
         in="fbSourceGraphic"
         values="0 0 0 -1 0 0 0 0 -1 0 0 0 0 -1 0 0 0 0 1 0"
         id="feColorMatrix4670-7-5-5"
         scale="10.800000000000001" />
      <feFlood
         id="feFlood4672-4-4-6"
         flood-opacity="1"
         flood-color="rgb(45,8,0)"
         result="flood"
         in="fbSourceGraphic"
         dx="-2.3999999999999999" />
      <feComposite
         id="feComposite4674-8-7-9"
         in2="fbSourceGraphic"
         in="flood"
         operator="in"
         result="composite1" />
      <feGaussianBlur
         id="feGaussianBlur4676-3-6-3"
         in="composite1"
         stdDeviation="0"
         result="blur" />
      <feOffset
         id="feOffset4678-6-56-7"
         dx="-2.3696682464454994"
         dy="3.1000000000000001"
         result="offset" />
      <feComposite
         id="feComposite4680-4-93-4"
         in2="offset"
         in="fbSourceGraphic"
         operator="over"
         result="composite2" />
    </filter>
    <filter
       style="color-interpolation-filters:sRGB"
       id="filter4375-4-1-1-1-9-5-8-8-1-0-7"
       inkscape:label="Drop Shadow"
       x="-0.009247153"
       y="-0.00283728"
       width="1.0098337"
       height="1.0604765">
      <feFlood
         id="feFlood4377-7-9-0-8-1-7-3-1-0-6-4"
         flood-opacity="1"
         flood-color="rgb(9,15,22)"
         result="flood"
         radius="5.0999999999999996" />
      <feComposite
         id="feComposite4379-3-8-8-2-77-4-1-0-6-1-4"
         in2="SourceGraphic"
         in="flood"
         operator="in"
         result="composite1"
         baseFrequency="0.053999999999999999 0.053999999999999999" />
      <feMorphology
         id="feMorphology4393-1-0-49-8-9-3-0-1-3-5-3"
         operator="dilate"
         radius="5.1272503082614058"
         result="result3" />
      <feComposite
         id="feComposite4385-9-5-7-0-8-8-7-5-2-5-0"
         in2="result3"
         in="SourceGraphic"
         operator="over"
         result="fbSourceGraphic"
         numOctaves="4" />
      <feColorMatrix
         result="fbSourceGraphicAlpha"
         in="fbSourceGraphic"
         values="0 0 0 -1 0 0 0 0 -1 0 0 0 0 -1 0 0 0 0 1 0"
         id="feColorMatrix4544-9-0-4-7" />
      <feTurbulence
         id="feTurbulence4546-3-61-7-8"
         type="fractalNoise"
         numOctaves="4.4123222748815163"
         seed="172"
         baseFrequency="0.062 0.054054054054054057"
         result="turbulence" />
      <feDisplacementMap
         id="feDisplacementMap4548-8-5-6-6"
         in2="turbulence"
         in="fbSourceGraphic"
         scale="10.781991"
         yChannelSelector="G"
         xChannelSelector="R"
         result="fbSourceGraphic" />
      <feColorMatrix
         result="fbSourceGraphicAlpha"
         in="fbSourceGraphic"
         values="0 0 0 -1 0 0 0 0 -1 0 0 0 0 -1 0 0 0 0 1 0"
         id="feColorMatrix4670-7-5-5-8"
         scale="10.800000000000001" />
      <feFlood
         id="feFlood4672-4-4-6-8"
         flood-opacity="1"
         flood-color="rgb(45,8,0)"
         result="flood"
         in="fbSourceGraphic"
         dx="-2.3999999999999999" />
      <feComposite
         id="feComposite4674-8-7-9-4"
         in2="fbSourceGraphic"
         in="flood"
         operator="in"
         result="composite1" />
      <feGaussianBlur
         id="feGaussianBlur4676-3-6-3-3"
         in="composite1"
         stdDeviation="0"
         result="blur" />
      <feOffset
         id="feOffset4678-6-56-7-1"
         dx="-2.3696682464454994"
         dy="3.1000000000000001"
         result="offset" />
      <feComposite
         id="feComposite4680-4-93-4-4"
         in2="offset"
         in="fbSourceGraphic"
         operator="over"
         result="composite2" />
    </filter>
    <filter
       style="color-interpolation-filters:sRGB"
       id="filter4375-4-1-1-1-9-5-8-8-1-0-7-9"
       inkscape:label="Drop Shadow"
       x="-0.0089850017"
       y="-0.00283728"
       width="1.009555"
       height="1.0604765">
      <feFlood
         id="feFlood4377-7-9-0-8-1-7-3-1-0-6-4-2"
         flood-opacity="1"
         flood-color="rgb(9,15,22)"
         result="flood"
         radius="5.0999999999999996" />
      <feComposite
         id="feComposite4379-3-8-8-2-77-4-1-0-6-1-4-6"
         in2="SourceGraphic"
         in="flood"
         operator="in"
         result="composite1"
         baseFrequency="0.053999999999999999 0.053999999999999999" />
      <feMorphology
         id="feMorphology4393-1-0-49-8-9-3-0-1-3-5-3-6"
         operator="dilate"
         radius="5.1272503082614058"
         result="result3" />
      <feComposite
         id="feComposite4385-9-5-7-0-8-8-7-5-2-5-0-4"
         in2="result3"
         in="SourceGraphic"
         operator="over"
         result="fbSourceGraphic"
         numOctaves="4" />
      <feColorMatrix
         result="fbSourceGraphicAlpha"
         in="fbSourceGraphic"
         values="0 0 0 -1 0 0 0 0 -1 0 0 0 0 -1 0 0 0 0 1 0"
         id="feColorMatrix4544-9-0-4-7-9" />
      <feTurbulence
         id="feTurbulence4546-3-61-7-8-5"
         type="fractalNoise"
         numOctaves="4.4123222748815163"
         seed="172"
         baseFrequency="0.062 0.054054054054054057"
         result="turbulence" />
      <feDisplacementMap
         id="feDisplacementMap4548-8-5-6-6-0"
         in2="turbulence"
         in="fbSourceGraphic"
         scale="10.781991"
         yChannelSelector="G"
         xChannelSelector="R"
         result="fbSourceGraphic" />
      <feColorMatrix
         result="fbSourceGraphicAlpha"
         in="fbSourceGraphic"
         values="0 0 0 -1 0 0 0 0 -1 0 0 0 0 -1 0 0 0 0 1 0"
         id="feColorMatrix4670-7-5-5-8-4"
         scale="10.800000000000001" />
      <feFlood
         id="feFlood4672-4-4-6-8-8"
         flood-opacity="1"
         flood-color="rgb(45,8,0)"
         result="flood"
         in="fbSourceGraphic"
         dx="-2.3999999999999999" />
      <feComposite
         id="feComposite4674-8-7-9-4-7"
         in2="fbSourceGraphic"
         in="flood"
         operator="in"
         result="composite1" />
      <feGaussianBlur
         id="feGaussianBlur4676-3-6-3-3-1"
         in="composite1"
         stdDeviation="0"
         result="blur" />
      <feOffset
         id="feOffset4678-6-56-7-1-7"
         dx="-2.3696682464454994"
         dy="3.1000000000000001"
         result="offset" />
      <feComposite
         id="feComposite4680-4-93-4-4-2"
         in2="offset"
         in="fbSourceGraphic"
         operator="over"
         result="composite2" />
    </filter>
    <filter
       style="color-interpolation-filters:sRGB"
       id="filter4375-4-1-1-1-9-5-8-8-1-0-1"
       inkscape:label="Drop Shadow"
       x="-0.089999999999999997"
       y="-0.080000000000000002"
       width="1.1600000000000001"
       height="1.1600000000000001"
       inkscape:auto-region="false">
      <feFlood
         id="feFlood4377-7-9-0-8-1-7-3-1-0-6-1"
         flood-opacity="1"
         flood-color="rgb(19,8,20)"
         result="flood"
         radius="5.0999999999999996" />
      <feComposite
         id="feComposite4379-3-8-8-2-77-4-1-0-6-1-5"
         in2="SourceGraphic"
         in="flood"
         operator="in"
         result="composite1"
         baseFrequency="0.053999999999999999 0.053999999999999999" />
      <feMorphology
         id="feMorphology4393-1-0-49-8-9-3-0-1-3-5-9"
         operator="dilate"
         radius="5.1272503082614058"
         result="result3" />
      <feComposite
         id="feComposite4385-9-5-7-0-8-8-7-5-2-5-7"
         in2="result3"
         in="SourceGraphic"
         operator="over"
         result="fbSourceGraphic"
         numOctaves="4" />
      <feColorMatrix
         result="fbSourceGraphicAlpha"
         in="fbSourceGraphic"
         values="0 0 0 -1 0 0 0 0 -1 0 0 0 0 -1 0 0 0 0 1 0"
         id="feColorMatrix4544-9-0-4-76" />
      <feTurbulence
         id="feTurbulence4546-3-61-7-7"
         type="fractalNoise"
         numOctaves="4.4123222748815163"
         seed="172"
         baseFrequency="0.062 0.054054054054054057"
         result="turbulence" />
      <feDisplacementMap
         id="feDisplacementMap4548-8-5-6-3"
         in2="turbulence"
         in="fbSourceGraphic"
         scale="10.781991"
         yChannelSelector="G"
         xChannelSelector="R"
         result="fbSourceGraphic" />
      <feColorMatrix
         result="fbSourceGraphicAlpha"
         in="fbSourceGraphic"
         values="0 0 0 -1 0 0 0 0 -1 0 0 0 0 -1 0 0 0 0 1 0"
         id="feColorMatrix4670-7-5-5-6"
         scale="10.800000000000001" />
      <feFlood
         id="feFlood4672-4-4-6-5"
         flood-opacity="1"
         flood-color="rgb(45,8,0)"
         result="flood"
         in="fbSourceGraphic"
         dx="-2.3999999999999999" />
      <feComposite
         id="feComposite4674-8-7-9-6"
         in2="fbSourceGraphic"
         in="flood"
         operator="in"
         result="composite1" />
      <feGaussianBlur
         id="feGaussianBlur4676-3-6-3-39"
         in="composite1"
         stdDeviation="0"
         result="blur" />
      <feOffset
         id="feOffset4678-6-56-7-4"
         dx="-2.3696682464454994"
         dy="3.1000000000000001"
         result="offset" />
      <feComposite
         id="feComposite4680-4-93-4-8"
         in2="offset"
         in="fbSourceGraphic"
         operator="over"
         result="composite2" />
    </filter>
    <filter
       style="color-interpolation-filters:sRGB"
       id="filter4375-4-1-1-1-9-5-8-8-1-1"
       inkscape:label="Drop Shadow"
       x="-0.089999999999999997"
       y="-0.080000000000000002"
       width="1.1500000000000001"
       height="1.1500000000000001"
       inkscape:auto-region="false">
      <feFlood
         id="feFlood4377-7-9-0-8-1-7-3-1-0-2"
         flood-opacity="1"
         flood-color="rgb(19,8,20)"
         result="flood"
         radius="5.0999999999999996" />
      <feComposite
         id="feComposite4379-3-8-8-2-77-4-1-0-6-9"
         in2="SourceGraphic"
         in="flood"
         operator="in"
         result="composite1"
         baseFrequency="0.053999999999999999 0.053999999999999999" />
      <feMorphology
         id="feMorphology4393-1-0-49-8-9-3-0-1-3-3"
         operator="dilate"
         radius="5.1272503082614058"
         result="result3" />
      <feComposite
         id="feComposite4385-9-5-7-0-8-8-7-5-2-9"
         in2="result3"
         in="SourceGraphic"
         operator="over"
         result="fbSourceGraphic"
         numOctaves="4" />
      <feColorMatrix
         result="fbSourceGraphicAlpha"
         in="fbSourceGraphic"
         values="0 0 0 -1 0 0 0 0 -1 0 0 0 0 -1 0 0 0 0 1 0"
         id="feColorMatrix4544-9-0-0" />
      <feTurbulence
         id="feTurbulence4546-3-61-8"
         type="fractalNoise"
         numOctaves="4.4123222748815163"
         seed="172"
         baseFrequency="0.062 0.054054054054054057"
         result="turbulence" />
      <feDisplacementMap
         id="feDisplacementMap4548-8-5-8"
         in2="turbulence"
         in="fbSourceGraphic"
         scale="10.781991"
         yChannelSelector="G"
         xChannelSelector="R"
         result="fbSourceGraphic" />
      <feColorMatrix
         result="fbSourceGraphicAlpha"
         in="fbSourceGraphic"
         values="0 0 0 -1 0 0 0 0 -1 0 0 0 0 -1 0 0 0 0 1 0"
         id="feColorMatrix4670-7-5-50"
         scale="10.800000000000001" />
      <feFlood
         id="feFlood4672-4-4-9"
         flood-opacity="1"
         flood-color="rgb(45,8,0)"
         result="flood"
         in="fbSourceGraphic"
         dx="-2.3999999999999999" />
      <feComposite
         id="feComposite4674-8-7-6"
         in2="fbSourceGraphic"
         in="flood"
         operator="in"
         result="composite1" />
      <feGaussianBlur
         id="feGaussianBlur4676-3-6-38"
         in="composite1"
         stdDeviation="0"
         result="blur" />
      <feOffset
         id="feOffset4678-6-56-5"
         dx="-2.3696682464454994"
         dy="3.1000000000000001"
         result="offset" />
      <feComposite
         id="feComposite4680-4-93-6"
         in2="offset"
         in="fbSourceGraphic"
         operator="over"
         result="composite2" />
    </filter>
    <filter
       style="color-interpolation-filters:sRGB"
       id="filter4375-4-1-1-1-9-5-8-8-1-0-7-1"
       inkscape:label="Drop Shadow"
       x="-0.050000000000000003"
       y="-0.080000000000000002"
       width="1.1500000000000001"
       height="1.1500000000000001"
       inkscape:auto-region="false">
      <feFlood
         id="feFlood4377-7-9-0-8-1-7-3-1-0-6-4-1"
         flood-opacity="1"
         flood-color="rgb(9,15,22)"
         result="flood"
         radius="5.0999999999999996" />
      <feComposite
         id="feComposite4379-3-8-8-2-77-4-1-0-6-1-4-5"
         in2="SourceGraphic"
         in="flood"
         operator="in"
         result="composite1"
         baseFrequency="0.053999999999999999 0.053999999999999999" />
      <feMorphology
         id="feMorphology4393-1-0-49-8-9-3-0-1-3-5-3-9"
         operator="dilate"
         radius="5.1272503082614058"
         result="result3" />
      <feComposite
         id="feComposite4385-9-5-7-0-8-8-7-5-2-5-0-8"
         in2="result3"
         in="SourceGraphic"
         operator="over"
         result="fbSourceGraphic"
         numOctaves="4" />
      <feColorMatrix
         result="fbSourceGraphicAlpha"
         in="fbSourceGraphic"
         values="0 0 0 -1 0 0 0 0 -1 0 0 0 0 -1 0 0 0 0 1 0"
         id="feColorMatrix4544-9-0-4-7-4" />
      <feTurbulence
         id="feTurbulence4546-3-61-7-8-8"
         type="fractalNoise"
         numOctaves="4.4123222748815163"
         seed="172"
         baseFrequency="0.062 0.054054054054054057"
         result="turbulence" />
      <feDisplacementMap
         id="feDisplacementMap4548-8-5-6-6-1"
         in2="turbulence"
         in="fbSourceGraphic"
         scale="10.781991"
         yChannelSelector="G"
         xChannelSelector="R"
         result="fbSourceGraphic" />
      <feColorMatrix
         result="fbSourceGraphicAlpha"
         in="fbSourceGraphic"
         values="0 0 0 -1 0 0 0 0 -1 0 0 0 0 -1 0 0 0 0 1 0"
         id="feColorMatrix4670-7-5-5-8-0"
         scale="10.800000000000001" />
      <feFlood
         id="feFlood4672-4-4-6-8-3"
         flood-opacity="1"
         flood-color="rgb(45,8,0)"
         result="flood"
         in="fbSourceGraphic"
         dx="-2.3999999999999999" />
      <feComposite
         id="feComposite4674-8-7-9-4-0"
         in2="fbSourceGraphic"
         in="flood"
         operator="in"
         result="composite1" />
      <feGaussianBlur
         id="feGaussianBlur4676-3-6-3-3-4"
         in="composite1"
         stdDeviation="0"
         result="blur" />
      <feOffset
         id="feOffset4678-6-56-7-1-4"
         dx="-2.3696682464454994"
         dy="3.1000000000000001"
         result="offset" />
      <feComposite
         id="feComposite4680-4-93-4-4-4"
         in2="offset"
         in="fbSourceGraphic"
         operator="over"
         result="composite2" />
    </filter>
    <filter
       style="color-interpolation-filters:sRGB"
       id="filter4375-4-1-1-1-9-5-8-8-1-0-7-9-4"
       inkscape:label="Drop Shadow"
       x="-0.089999999999999997"
       y="-0.080000000000000002"
       width="1.1600000000000001"
       height="1.1600000000000001"
       inkscape:auto-region="false">
      <feFlood
         id="feFlood4377-7-9-0-8-1-7-3-1-0-6-4-2-7"
         flood-opacity="1"
         flood-color="rgb(9,15,22)"
         result="flood"
         radius="5.0999999999999996" />
      <feComposite
         id="feComposite4379-3-8-8-2-77-4-1-0-6-1-4-6-6"
         in2="SourceGraphic"
         in="flood"
         operator="in"
         result="composite1"
         baseFrequency="0.053999999999999999 0.053999999999999999" />
      <feMorphology
         id="feMorphology4393-1-0-49-8-9-3-0-1-3-5-3-6-3"
         operator="dilate"
         radius="5.1272503082614058"
         result="result3" />
      <feComposite
         id="feComposite4385-9-5-7-0-8-8-7-5-2-5-0-4-1"
         in2="result3"
         in="SourceGraphic"
         operator="over"
         result="fbSourceGraphic"
         numOctaves="4" />
      <feColorMatrix
         result="fbSourceGraphicAlpha"
         in="fbSourceGraphic"
         values="0 0 0 -1 0 0 0 0 -1 0 0 0 0 -1 0 0 0 0 1 0"
         id="feColorMatrix4544-9-0-4-7-9-7" />
      <feTurbulence
         id="feTurbulence4546-3-61-7-8-5-5"
         type="fractalNoise"
         numOctaves="4.4123222748815163"
         seed="172"
         baseFrequency="0.062 0.054054054054054057"
         result="turbulence" />
      <feDisplacementMap
         id="feDisplacementMap4548-8-5-6-6-0-9"
         in2="turbulence"
         in="fbSourceGraphic"
         scale="10.781991"
         yChannelSelector="G"
         xChannelSelector="R"
         result="fbSourceGraphic" />
      <feColorMatrix
         result="fbSourceGraphicAlpha"
         in="fbSourceGraphic"
         values="0 0 0 -1 0 0 0 0 -1 0 0 0 0 -1 0 0 0 0 1 0"
         id="feColorMatrix4670-7-5-5-8-4-6"
         scale="10.800000000000001" />
      <feFlood
         id="feFlood4672-4-4-6-8-8-2"
         flood-opacity="1"
         flood-color="rgb(45,8,0)"
         result="flood"
         in="fbSourceGraphic"
         dx="-2.3999999999999999" />
      <feComposite
         id="feComposite4674-8-7-9-4-7-1"
         in2="fbSourceGraphic"
         in="flood"
         operator="in"
         result="composite1" />
      <feGaussianBlur
         id="feGaussianBlur4676-3-6-3-3-1-7"
         in="composite1"
         stdDeviation="0"
         result="blur" />
      <feOffset
         id="feOffset4678-6-56-7-1-7-8"
         dx="-2.3696682464454994"
         dy="3.1000000000000001"
         result="offset" />
      <feComposite
         id="feComposite4680-4-93-4-4-2-5"
         in2="offset"
         in="fbSourceGraphic"
         operator="over"
         result="composite2" />
    </filter>
    <filter
       style="color-interpolation-filters:sRGB"
       id="filter4375-4-1-1-1-9-5-8-8-3-2-2-7"
       inkscape:label="Drop Shadow"
       x="-0.01715553"
       y="-0.0044975116"
       width="1.01903"
       height="1.0569605">
      <feFlood
         id="feFlood4377-7-9-0-8-1-7-3-1-6-6-8-4"
         flood-opacity="1"
         flood-color="rgb(224,116,57)"
         result="flood"
         radius="5.0999999999999996" />
      <feComposite
         id="feComposite4379-3-8-8-2-77-4-1-0-7-1-9-1"
         in2="SourceGraphic"
         in="flood"
         operator="in"
         result="composite1"
         baseFrequency="0.053999999999999999 0.053999999999999999" />
      <feMorphology
         id="feMorphology4393-1-0-49-8-9-3-0-1-5-8-7-8"
         operator="dilate"
         radius="5.1272503082614058"
         result="result3" />
      <feComposite
         id="feComposite4385-9-5-7-0-8-8-7-5-3-7-3-5"
         in2="result3"
         in="SourceGraphic"
         operator="over"
         result="fbSourceGraphic"
         numOctaves="4" />
      <feColorMatrix
         result="fbSourceGraphicAlpha"
         in="fbSourceGraphic"
         values="0 0 0 -1 0 0 0 0 -1 0 0 0 0 -1 0 0 0 0 1 0"
         id="feColorMatrix4544-9-5-9-6-9" />
      <feTurbulence
         id="feTurbulence4546-3-6-2-1-7"
         type="fractalNoise"
         numOctaves="4.4123222748815163"
         seed="172"
         baseFrequency="0.062 0.054054054054054057"
         result="turbulence" />
      <feDisplacementMap
         id="feDisplacementMap4548-8-2-0-2-5"
         in2="turbulence"
         in="fbSourceGraphic"
         scale="10.781991"
         yChannelSelector="G"
         xChannelSelector="R"
         result="fbSourceGraphic" />
      <feColorMatrix
         result="fbSourceGraphicAlpha"
         in="fbSourceGraphic"
         values="0 0 0 -1 0 0 0 0 -1 0 0 0 0 -1 0 0 0 0 1 0"
         id="feColorMatrix4670-7-9-2-9-3"
         scale="10.800000000000001" />
      <feFlood
         id="feFlood4672-4-1-3-3-8"
         flood-opacity="1"
         flood-color="rgb(45,8,0)"
         result="flood"
         in="fbSourceGraphic"
         dx="-2.3999999999999999" />
      <feComposite
         id="feComposite4674-8-2-7-1-8"
         in2="fbSourceGraphic"
         in="flood"
         operator="in"
         result="composite1" />
      <feGaussianBlur
         id="feGaussianBlur4676-3-7-5-9-3"
         in="composite1"
         stdDeviation="0"
         result="blur" />
      <feOffset
         id="feOffset4678-6-0-9-4-1"
         dx="-2.3696682464454994"
         dy="3.1000000000000001"
         result="offset" />
      <feComposite
         id="feComposite4680-4-9-2-7-8"
         in2="offset"
         in="fbSourceGraphic"
         operator="over"
         result="composite2" />
    </filter>
    <filter
       style="color-interpolation-filters:sRGB"
       id="filter4375-4-1-1-1-9-5-8-8-3-2-9"
       inkscape:label="Drop Shadow"
       x="-0.01715553"
       y="-0.0044975116"
       width="1.01903"
       height="1.0569605">
      <feFlood
         id="feFlood4377-7-9-0-8-1-7-3-1-6-6-6"
         flood-opacity="1"
         flood-color="rgb(224,116,57)"
         result="flood"
         radius="5.0999999999999996" />
      <feComposite
         id="feComposite4379-3-8-8-2-77-4-1-0-7-1-4"
         in2="SourceGraphic"
         in="flood"
         operator="in"
         result="composite1"
         baseFrequency="0.053999999999999999 0.053999999999999999" />
      <feMorphology
         id="feMorphology4393-1-0-49-8-9-3-0-1-5-8-3"
         operator="dilate"
         radius="5.1272503082614058"
         result="result3" />
      <feComposite
         id="feComposite4385-9-5-7-0-8-8-7-5-3-7-33"
         in2="result3"
         in="SourceGraphic"
         operator="over"
         result="fbSourceGraphic"
         numOctaves="4" />
      <feColorMatrix
         result="fbSourceGraphicAlpha"
         in="fbSourceGraphic"
         values="0 0 0 -1 0 0 0 0 -1 0 0 0 0 -1 0 0 0 0 1 0"
         id="feColorMatrix4544-9-5-9-8" />
      <feTurbulence
         id="feTurbulence4546-3-6-2-6"
         type="fractalNoise"
         numOctaves="4.4123222748815163"
         seed="172"
         baseFrequency="0.062 0.054054054054054057"
         result="turbulence" />
      <feDisplacementMap
         id="feDisplacementMap4548-8-2-0-0"
         in2="turbulence"
         in="fbSourceGraphic"
         scale="10.781991"
         yChannelSelector="G"
         xChannelSelector="R"
         result="fbSourceGraphic" />
      <feColorMatrix
         result="fbSourceGraphicAlpha"
         in="fbSourceGraphic"
         values="0 0 0 -1 0 0 0 0 -1 0 0 0 0 -1 0 0 0 0 1 0"
         id="feColorMatrix4670-7-9-2-4"
         scale="10.800000000000001" />
      <feFlood
         id="feFlood4672-4-1-3-8"
         flood-opacity="1"
         flood-color="rgb(45,8,0)"
         result="flood"
         in="fbSourceGraphic"
         dx="-2.3999999999999999" />
      <feComposite
         id="feComposite4674-8-2-7-8"
         in2="fbSourceGraphic"
         in="flood"
         operator="in"
         result="composite1" />
      <feGaussianBlur
         id="feGaussianBlur4676-3-7-5-8"
         in="composite1"
         stdDeviation="0"
         result="blur" />
      <feOffset
         id="feOffset4678-6-0-9-9"
         dx="-2.3696682464454994"
         dy="3.1000000000000001"
         result="offset" />
      <feComposite
         id="feComposite4680-4-9-2-77"
         in2="offset"
         in="fbSourceGraphic"
         operator="over"
         result="composite2" />
    </filter>
    <filter
       style="color-interpolation-filters:sRGB"
       id="filter4375-4-1-1-1-9-5-8-8-3-2-2-7-6"
       inkscape:label="Drop Shadow"
       x="-0.089999999999999997"
       y="-0.099999999999999992"
       width="1.1600000000000001"
       height="1.1600000000000001"
       inkscape:auto-region="false">
      <feFlood
         id="feFlood4377-7-9-0-8-1-7-3-1-6-6-8-4-4"
         flood-opacity="1"
         flood-color="rgb(224,116,57)"
         result="flood"
         radius="5.0999999999999996" />
      <feComposite
         id="feComposite4379-3-8-8-2-77-4-1-0-7-1-9-1-3"
         in2="SourceGraphic"
         in="flood"
         operator="in"
         result="composite1"
         baseFrequency="0.053999999999999999 0.053999999999999999" />
      <feMorphology
         id="feMorphology4393-1-0-49-8-9-3-0-1-5-8-7-8-0"
         operator="dilate"
         radius="5.1272503082614058"
         result="result3" />
      <feComposite
         id="feComposite4385-9-5-7-0-8-8-7-5-3-7-3-5-3"
         in2="result3"
         in="SourceGraphic"
         operator="over"
         result="fbSourceGraphic"
         numOctaves="4" />
      <feColorMatrix
         result="fbSourceGraphicAlpha"
         in="fbSourceGraphic"
         values="0 0 0 -1 0 0 0 0 -1 0 0 0 0 -1 0 0 0 0 1 0"
         id="feColorMatrix4544-9-5-9-6-9-0" />
      <feTurbulence
         id="feTurbulence4546-3-6-2-1-7-9"
         type="fractalNoise"
         numOctaves="4.4123222748815163"
         seed="172"
         baseFrequency="0.062 0.054054054054054057"
         result="turbulence" />
      <feDisplacementMap
         id="feDisplacementMap4548-8-2-0-2-5-2"
         in2="turbulence"
         in="fbSourceGraphic"
         scale="10.781991"
         yChannelSelector="G"
         xChannelSelector="R"
         result="fbSourceGraphic" />
      <feColorMatrix
         result="fbSourceGraphicAlpha"
         in="fbSourceGraphic"
         values="0 0 0 -1 0 0 0 0 -1 0 0 0 0 -1 0 0 0 0 1 0"
         id="feColorMatrix4670-7-9-2-9-3-5"
         scale="10.800000000000001" />
      <feFlood
         id="feFlood4672-4-1-3-3-8-4"
         flood-opacity="1"
         flood-color="rgb(45,8,0)"
         result="flood"
         in="fbSourceGraphic"
         dx="-2.3999999999999999" />
      <feComposite
         id="feComposite4674-8-2-7-1-8-0"
         in2="fbSourceGraphic"
         in="flood"
         operator="in"
         result="composite1" />
      <feGaussianBlur
         id="feGaussianBlur4676-3-7-5-9-3-5"
         in="composite1"
         stdDeviation="0"
         result="blur" />
      <feOffset
         id="feOffset4678-6-0-9-4-1-9"
         dx="-2.3696682464454994"
         dy="3.1000000000000001"
         result="offset" />
      <feComposite
         id="feComposite4680-4-9-2-7-8-4"
         in2="offset"
         in="fbSourceGraphic"
         operator="over"
         result="composite2" />
    </filter>
    <filter
       style="color-interpolation-filters:sRGB"
       id="filter4375-4-1-1-1-9-5-8-8-3-2-9-6"
       inkscape:label="Drop Shadow"
       x="-0.080000000000000002"
       y="-0.080000000000000002"
       width="1.1600000000000001"
       height="1.1600000000000001"
       inkscape:auto-region="false">
      <feFlood
         id="feFlood4377-7-9-0-8-1-7-3-1-6-6-6-9"
         flood-opacity="1"
         flood-color="rgb(224,116,57)"
         result="flood"
         radius="5.0999999999999996" />
      <feComposite
         id="feComposite4379-3-8-8-2-77-4-1-0-7-1-4-2"
         in2="SourceGraphic"
         in="flood"
         operator="in"
         result="composite1"
         baseFrequency="0.053999999999999999 0.053999999999999999" />
      <feMorphology
         id="feMorphology4393-1-0-49-8-9-3-0-1-5-8-3-2"
         operator="dilate"
         radius="5.1272503082614058"
         result="result3" />
      <feComposite
         id="feComposite4385-9-5-7-0-8-8-7-5-3-7-33-4"
         in2="result3"
         in="SourceGraphic"
         operator="over"
         result="fbSourceGraphic"
         numOctaves="4" />
      <feColorMatrix
         result="fbSourceGraphicAlpha"
         in="fbSourceGraphic"
         values="0 0 0 -1 0 0 0 0 -1 0 0 0 0 -1 0 0 0 0 1 0"
         id="feColorMatrix4544-9-5-9-8-7" />
      <feTurbulence
         id="feTurbulence4546-3-6-2-6-7"
         type="fractalNoise"
         numOctaves="4.4123222748815163"
         seed="172"
         baseFrequency="0.062 0.054054054054054057"
         result="turbulence" />
      <feDisplacementMap
         id="feDisplacementMap4548-8-2-0-0-5"
         in2="turbulence"
         in="fbSourceGraphic"
         scale="10.781991"
         yChannelSelector="G"
         xChannelSelector="R"
         result="fbSourceGraphic" />
      <feColorMatrix
         result="fbSourceGraphicAlpha"
         in="fbSourceGraphic"
         values="0 0 0 -1 0 0 0 0 -1 0 0 0 0 -1 0 0 0 0 1 0"
         id="feColorMatrix4670-7-9-2-4-4"
         scale="10.800000000000001" />
      <feFlood
         id="feFlood4672-4-1-3-8-8"
         flood-opacity="1"
         flood-color="rgb(45,8,0)"
         result="flood"
         in="fbSourceGraphic"
         dx="-2.3999999999999999" />
      <feComposite
         id="feComposite4674-8-2-7-8-1"
         in2="fbSourceGraphic"
         in="flood"
         operator="in"
         result="composite1" />
      <feGaussianBlur
         id="feGaussianBlur4676-3-7-5-8-2"
         in="composite1"
         stdDeviation="0"
         result="blur" />
      <feOffset
         id="feOffset4678-6-0-9-9-8"
         dx="-2.3696682464454994"
         dy="3.1000000000000001"
         result="offset" />
      <feComposite
         id="feComposite4680-4-9-2-77-9"
         in2="offset"
         in="fbSourceGraphic"
         operator="over"
         result="composite2" />
    </filter>
    <filter
       style="color-interpolation-filters:sRGB"
       id="filter4375-4-1-1-1-9-6-9-2-1-5-4-3"
       inkscape:label="deevad outline effect"
       x="-0.0043668413"
       y="-0.011977643"
       width="1.0087337"
       height="1.0239553">
      <feFlood
         id="feFlood4377-7-9-0-8-1-0-2-2-06-5-3-6"
         flood-opacity="1"
         flood-color="rgb(23,27,52)"
         result="flood" />
      <feComposite
         id="feComposite4379-3-8-8-2-77-6-0-8-3-8-64-8"
         in2="SourceGraphic"
         in="flood"
         operator="in"
         result="composite1" />
      <feMorphology
         id="feMorphology4393-1-0-49-8-9-2-2-9-2-7-3-0"
         operator="dilate"
         radius="4"
         result="result3" />
      <feComposite
         id="feComposite4385-9-5-7-0-8-6-3-7-0-1-1-2"
         in2="result3"
         in="SourceGraphic"
         operator="over"
         result="composite2" />
    </filter>
    <filter
       y="0"
       height="1"
       x="0"
       width="1"
       inkscape:menu-tooltip="Aquarelle paper effect which can be used for pictures as for objects"
       inkscape:menu="Textures"
       inkscape:label="Rough Paper"
       style="color-interpolation-filters:sRGB;"
       id="filter23720">
      <feTurbulence
         type="fractalNoise"
         baseFrequency="0.043586711411187022"
         numOctaves="5"
         seed="0"
         result="result4"
         id="feTurbulence23706" />
      <feDisplacementMap
         in="SourceGraphic"
         in2="result4"
         yChannelSelector="G"
         xChannelSelector="R"
         scale="10"
         result="result3"
         id="feDisplacementMap23708" />
      <feComposite
         operator="in"
         in="result3"
         in2="result3"
         result="result2"
         id="feComposite23714" />
      <feComposite
         in2="result2"
         result="result5"
         operator="arithmetic"
         k1="1.7"
         id="feComposite23716" />
      <feBlend
         in="result5"
         in2="result3"
         mode="normal"
         id="feBlend23718" />
    </filter>
    <filter
       y="0"
       height="1"
       x="0"
       width="1"
       inkscape:menu-tooltip="Aquarelle paper effect which can be used for pictures as for objects"
       inkscape:menu="Textures"
       inkscape:label="Rough Paper"
       style="color-interpolation-filters:sRGB;"
       id="filter23754">
      <feTurbulence
         type="fractalNoise"
         baseFrequency="0.04"
         numOctaves="5"
         seed="0"
         result="result4"
         id="feTurbulence23740" />
      <feDisplacementMap
         in="SourceGraphic"
         in2="result4"
         yChannelSelector="G"
         xChannelSelector="R"
         scale="10"
         result="result3"
         id="feDisplacementMap23742" />
      <feComposite
         operator="in"
         in="result3"
         in2="result3"
         result="result2"
         id="feComposite23748" />
      <feComposite
         in2="result2"
         result="result5"
         operator="arithmetic"
         k1="1.7"
         id="feComposite23750" />
      <feBlend
         in="result5"
         in2="result3"
         mode="normal"
         id="feBlend23752" />
    </filter>
    <filter
       y="0"
       height="1"
       x="0"
       width="1"
       inkscape:menu-tooltip="Aquarelle paper effect which can be used for pictures as for objects"
       inkscape:menu="Textures"
       inkscape:label="Rough Paper"
       style="color-interpolation-filters:sRGB"
       id="filter23754-3">
      <feTurbulence
         type="fractalNoise"
         baseFrequency="0.04"
         numOctaves="5"
         seed="0"
         result="result4"
         id="feTurbulence23740-6" />
      <feDisplacementMap
         in="SourceGraphic"
         in2="result4"
         yChannelSelector="G"
         xChannelSelector="R"
         scale="10"
         result="result3"
         id="feDisplacementMap23742-7" />
      <feComposite
         operator="in"
         in="result3"
         in2="result3"
         result="result2"
         id="feComposite23748-5" />
      <feComposite
         in2="result2"
         result="result5"
         operator="arithmetic"
         k1="1.7"
         id="feComposite23750-3"
         k2="0"
         k3="0"
         k4="0" />
      <feBlend
         in="result5"
         in2="result3"
         mode="normal"
         id="feBlend23752-5" />
    </filter>
    <filter
       inkscape:label="Torn Edges"
       inkscape:menu="Distort"
       inkscape:menu-tooltip="Displace the outside of shapes and pictures without altering their content"
       height="1"
       y="0"
       width="1"
       x="0"
       style="color-interpolation-filters:sRGB;"
       id="filter47349">
      <feTurbulence
         baseFrequency="0.068539926478437235"
         numOctaves="5"
         type="fractalNoise"
         result="result91"
         id="feTurbulence47343" />
      <feDisplacementMap
         scale="5.5822522063377376"
         result="result5"
         xChannelSelector="R"
         in="SourceGraphic"
         in2="result91"
         id="feDisplacementMap47345" />
      <feComposite
         in="SourceGraphic"
         operator="atop"
         in2="result5"
         id="feComposite47347" />
    </filter>
  </defs>
  <sodipodi:namedview
     pagecolor="#1e1e1e"
     bordercolor="#111111"
     borderopacity="1"
     objecttolerance="10"
     gridtolerance="10"
     guidetolerance="10"
     inkscape:pageopacity="0"
     inkscape:pageshadow="2"
     inkscape:window-width="1920"
     inkscape:window-height="967"
     id="namedview4"
     showgrid="false"
     inkscape:zoom="0.43016843"
     inkscape:cx="1177.4458"
     inkscape:cy="2674.5338"
     inkscape:window-x="0"
     inkscape:window-y="72"
     inkscape:window-maximized="1"
     inkscape:current-layer="layer3"
     inkscape:pagecheckerboard="0"
     inkscape:snap-global="false" />
  <g
     inkscape:groupmode="layer"
     id="layer2"
     inkscape:label="artwork"
     sodipodi:insensitive="true">
    <image
       xlink:href="../gfx_Pepper-and-Carrot_by-David-Revoy_E36P08.png"
       y="0"
       x="0"
       id="image10"
       height="3503"
       width="2481" />
  </g>
  <g
     inkscape:groupmode="layer"
     id="layer3"
     inkscape:label="speechbubbles"
     style="display:inline">
    <path
       style="fill:#ffffff;stroke:none;stroke-width:1.14809"
       d="m 909.30025,124.2793 c -51.21127,1.45853 -102.38974,4.33544 -153.55764,7.30673 -27.22855,1.61151 -54.72787,3.99807 -81.05097,13.5619 -12.81209,4.80382 -25.60739,10.94594 -36.16691,21.58124 -14.02051,13.53656 -24.72979,33.17806 -27.84209,55.35596 -4.75787,30.93229 6.95481,75.32694 26.00675,96.09055 19.74242,23.07494 42.83861,23.62167 68.90928,28.775 40.0104,8.18967 80.66655,7.28238 121.05995,7.47238 21.93249,0.73621 43.86922,1.17143 65.80763,1.47163 55.09437,1.20962 110.24055,3.48751 165.31435,0.012 36.0133,-2.21971 72.0338,-6.33977 107.5024,-14.71576 21.0446,-5.77102 42.1434,-5.9368 57.7512,-25.31024 19.2135,-24.74441 26.1029,-74.76168 14.6491,-106.70409 -8.1101,-22.55473 -24.4784,-38.6456 -42.1065,-48.33536 -25.6179,-14.55422 -53.3001,-22.2356 -80.982,-27.29885 -47.9118,-8.06129 -96.3548,-5.65508 -144.53073,-8.14825 -20.247,-0.71806 -40.50695,-1.70655 -60.76382,-1.11481 z"
       id="path3280-8-0-3"
       inkscape:connector-curvature="0"
       sodipodi:nodetypes="csssccccccccccccsc" />
    <path
       style="color:#000000;display:inline;overflow:visible;visibility:visible;fill:#ffffff;fill-opacity:1;fill-rule:nonzero;stroke:none;stroke-width:1.00626px;marker:none;enable-background:accumulate"
       d="m 1079.6202,470.36987 c 36.2399,-33.05001 12.1081,-79.99657 -19.0717,-99.99148 -42.9428,-27.53838 -40.7325,-40.47907 -40.7325,-40.47907 0,0 -13.2061,24.99718 25.677,3.68046 38.8831,-21.31673 102.981,107.99336 34.1272,136.79009 z"
       id="path3072-6"
       inkscape:connector-curvature="0"
       sodipodi:nodetypes="csczc" />
    <path
       style="display:inline;fill:#ffffff;fill-rule:evenodd;stroke:none;stroke-width:0.681559px;stroke-linecap:butt;stroke-linejoin:miter;stroke-opacity:1"
       d="m 321.30527,2086.2296 c 68.25654,56.7188 102.28215,30.56 97.89058,-8.8603 23.88008,36.6115 42.07566,49.3415 55.21223,23.717 15.96473,26.0262 48.58755,30.5666 53.69157,1.1194 14.5818,30.2796 32.29971,31.4313 51.34577,-3.2245 3.81177,31.0436 21.00311,30.9726 48.53854,-6.14 0.61913,36.3784 17.52335,32.8407 43.30306,-1.2019 -10.51315,53.4492 28.04695,23.1714 56.80253,-4.3843 -24.45273,49.7573 -0.43081,39.8093 22.00873,21.9125 -13.81242,29.4295 22.828,12.5142 79.82266,-24.4122 -29.41423,27.4952 -93.47915,69.5947 -46.60047,66.4225 -7.30778,8.127 -42.38176,18.7715 25.178,32.8733 -54.22901,8.3113 -30.99525,25.1166 -4.92314,32.7693 -29.1686,1.9951 -54.40177,0.3748 -11.90439,37.0378 -41.88109,-19.1799 -60.29052,-31.1553 -46.99861,-5.1147 -34.21822,-25.7001 -67.60485,-22.9906 -64.35732,6.5149 -13.77457,-30.925 -58.84509,-31.0914 -73.10887,4.6181 -3.29292,-34.188 -24.40803,-44.6319 -78.72625,-6.8909 12.50521,-39.4122 -32.96335,-25.5755 -57.87361,-2.041 18.27648,-27.5545 -19.28132,-30.3862 -55.23874,2.0186 22.86762,-33.0989 -14.97759,-45.5768 -61.53669,4.9886 24.09364,-79.1217 -36.1828,-47.2832 -71.81955,-37.4818 28.91758,-24.1313 82.53558,-41.4795 20.40443,-52.5458 70.26104,-21.7999 58.19231,-15.2019 24.32097,-31.9251 36.92596,7.0561 28.05527,-10.0749 -5.43143,-49.7695 z"
       id="path4508-2"
       inkscape:connector-curvature="0"
       sodipodi:nodetypes="ccccccccccccccccccccccccc" />
    <path
       style="color:#000000;display:inline;overflow:visible;visibility:visible;fill:#ffffff;fill-opacity:1;fill-rule:nonzero;stroke:none;stroke-width:1.46762px;marker:none;enable-background:accumulate"
       d="m 1701.3998,1145.0066 c -56.8308,-4.1789 -152.8803,-24.8445 -217.9407,-22.7474 -37.3022,-0.7062 -140.2183,20.0059 -160.7769,29.8526 -56.3421,-12.3402 -128.9672,-1.1373 -212.6526,16.1438 70.158,-33.5076 163.4843,-43.3509 213.0711,-33.8074 8.0419,-7.4822 87.8347,-27.1136 143.3863,-30.2389 25.0474,-1.2389 207.6828,8.2831 281.7856,9.889 107.5665,2.3312 -46.8728,30.9083 -46.8728,30.9083 z"
       id="path5901"
       inkscape:connector-curvature="0"
       sodipodi:nodetypes="ccccccsc" />
    <path
       style="fill:#ffffff;fill-rule:evenodd;stroke:none;stroke-width:0.785074px;stroke-linecap:butt;stroke-linejoin:miter;stroke-opacity:1"
       d="m 1968.5304,1106.7585 c 16.0266,46.1047 21.5631,42.0553 23.316,19.9163 4.2543,7.6378 5.7035,30.8477 16.5902,1.66 7.6816,20.0541 13.3918,17.0031 17.487,-4.9792 13.426,38.0911 20.4453,15.0047 26.9031,5.809 4.3497,5.1447 4.4503,9.078 11.5552,11.5011 7.1048,2.4231 15.1085,-7.2419 20.3938,-15.6968 1.792,17.3221 9.4972,16.1964 16.7759,0.819 1.4429,18.1822 13.846,8.754 16.7374,-1.7918 6.5244,22.1528 13.043,3.4457 17.9372,-3.9599 4.5492,9.714 10.9902,23.6328 14.3482,2.4895 6.2008,8.3276 13.8294,-4.4858 22.4193,-31.5344 -0.7903,17.2403 -6.3301,46.9328 6.2773,29.0449 1.8179,12.1449 1.0344,28.4481 28.2483,0 -7.2289,35.5184 15.3369,-1.7513 37.216,-37.3434 -13.582,30.6315 -32.2394,68.4577 -8.071,54.7702 -13.1316,25.791 -12.9995,42.3077 27.3514,30.7046 -26.0992,17.7435 -45.887,35.9837 -16.5902,58.0899 -17.9037,0.6733 -22.0814,8.4917 -1.7934,29.0448 -28.2453,-12.501 -30.3082,-5.6188 -22.8677,8.2984 -5.6972,0.6636 -16.0567,-10.8037 -14.3483,9.1285 -15.9468,-11.465 -38.0883,-37.0922 -34.9741,-4.9791 -16.8897,-23.5778 -19.4397,-14.4917 -21.0739,-3.3194 -29.8231,-35.3156 -25.5234,-13.2192 -30.9387,-7.4688 -8.6993,-13.2365 -8.2016,-1.8859 -6.2772,13.2778 -8.3996,-15.5993 -15.7971,-21.3068 -20.6258,-1.6599 -5.231,-8.5366 -10.4623,-20.7925 -15.6934,-1.6594 -7.1535,-9.7021 -14.5295,-13.226 -22.8677,9.9581 -4.1307,-13.3335 -9.9666,-22.7225 -28.2481,-3.3194 -4.2677,-28.9463 -20.1897,-23.0497 -39.9063,-5.809 0.1851,-17.2061 -1.6876,-28.3632 -21.5224,13.2777 3.889,-17.847 8.3559,-36.6874 -4.0356,-26.5553 7.0762,-34.1191 -21.5153,-2.2263 -38.561,8.2985 18.9772,-29.5949 46.9193,-65.9157 23.7645,-63.8989 15.4273,-20.6562 16.8559,-30.5174 3.587,-29.0446 0.9355,-6.1016 16.8031,-18.3445 -1.3451,-16.5972 9.383,-8.9058 23.5887,-7.587 18.8321,-46.4718 z"
       id="path4656"
       inkscape:connector-curvature="0"
       sodipodi:nodetypes="cccccsccccccccccccccccccccccccccccccc" />
    <path
       style="fill:#ffffff;fill-rule:evenodd;stroke:none;stroke-width:0.925051px;stroke-linecap:butt;stroke-linejoin:miter;stroke-opacity:1"
       d="m 2013.8226,1243.6612 c -25.8043,-49.4337 -34.4718,-44.9504 -36.9584,-21.0207 -6.7927,-8.1568 -9.3617,-33.177 -26.1428,-1.4538 -12.3426,-21.4874 -21.296,-18.0782 -27.4726,5.7299 -21.6103,-40.8373 -32.3777,-15.7778 -42.432,-5.7215 -27.6498,-21.8567 -100.7465,-20.8192 -131.2042,11.5503 -7.283,-10.3916 -17.5965,-25.2826 -22.623,-2.3948 -9.8662,-8.8616 -21.7196,5.123 -34.9106,34.4907 1.0314,-18.623 9.3872,-50.7823 -10.2431,-31.2195 -3.0123,-13.0708 -1.9798,-30.6822 -44.4783,0.5752 10.9434,-38.4817 -24.1269,2.2023 -58.137,41.0615 21.007,-33.3364 49.9167,-74.5411 12.0314,-59.2766 20.3578,-28.103 19.9457,-45.9263 -43.4456,-32.5818 40.8754,-19.6815 71.8069,-39.7707 25.4045,-63.033 28.182,-1.0912 34.6635,-9.6143 2.4651,-31.3836 44.628,12.9167 47.7912,5.4469 35.9038,-9.4221 8.9623,-0.8322 25.4154,11.3333 22.4793,-10.1442 25.2507,12.0491 60.4303,39.2572 55.13,4.6616 26.8852,25.1031 30.7881,15.2448 33.2231,3.1533 29.0119,33.9302 54.9189,6.9538 58.5267,-7.0271 13.4184,16.6651 25.1364,22.6743 32.4968,1.3714 8.3421,9.1069 16.7304,22.2278 24.7307,1.4717 11.3835,10.3255 23.041,13.9784 35.8832,-11.2135 6.6689,14.3068 15.974,24.3209 44.5193,3.0074 7.0774,31.1543 32.0747,24.4659 62.9063,5.4571 -0.079,18.5738 3.0079,30.5773 33.7242,-14.7686 -5.9029,19.341 -12.7037,39.766 6.6823,28.5783 -10.7202,36.9683 33.9045,1.9647 60.6139,-9.7416 -29.5148,32.3275 -73.0624,72.0968 -36.6288,69.4485 -24.0361,22.6081 -26.1636,33.2803 -5.2893,31.4204 -1.3974,6.6044 -26.2307,20.1409 2.3231,17.8854 -14.6641,9.8031 -37.0481,8.6688 -29.078,50.5397 z"
       id="path4656-2"
       inkscape:connector-curvature="0"
       sodipodi:nodetypes="cccccccccccccccccccccccccccccccc" />
    <path
       style="fill:#ffffff;fill-rule:evenodd;stroke:none;stroke-width:0.992393px;stroke-linecap:butt;stroke-linejoin:miter;stroke-opacity:1"
       d="m 1015.1849,2189.4608 -175.18817,23.6245 19.87046,-24.9089 -120.20022,14.1736 10.11593,-22.9029 144.18035,-9.7054 -21.18671,28.732 z"
       id="path4667"
       inkscape:connector-curvature="0" />
    <path
       style="color:#000000;display:inline;overflow:visible;visibility:visible;fill:#ffffff;fill-opacity:1;fill-rule:nonzero;stroke:none;stroke-width:1.02389px;marker:none;enable-background:accumulate"
       d="m 142.3347,2464.0911 c 25.28591,-33.0947 161.70268,-28.6319 208.57774,-20.4961 53.21583,9.2363 62.78614,36.8797 64.91439,45.437 2.12825,8.5566 -3.19243,48.5841 -26.60432,56.9525 -23.41169,8.3684 -90.45453,13.8383 -113.86632,14.3824 -23.41179,0.5441 -98.1474,-2.6987 -117.05905,-13.7105 -18.09101,-10.5331 -41.24847,-49.4705 -15.96244,-82.5653 z"
       id="path3330-06"
       inkscape:connector-curvature="0"
       sodipodi:nodetypes="zsssssz" />
    <path
       style="color:#000000;display:inline;overflow:visible;visibility:visible;fill:#ffffff;fill-opacity:1;fill-rule:nonzero;stroke:none;stroke-width:0.802499px;marker:none;enable-background:accumulate"
       d="m 1206.3029,2535.1606 c 16.9842,-34.0356 109.3631,-34.4691 140.0993,-21.0788 30.7359,13.3904 42.1727,37.9282 43.6023,46.7289 1.4296,8.7999 -2.1444,49.9655 -17.8698,58.5719 -15.7254,8.6064 -60.7573,14.2317 -76.4828,14.7913 -15.7255,0.5596 -65.9245,-2.7753 -78.6273,-14.1003 -12.1515,-10.8325 -27.706,-50.8771 -10.7217,-84.913 z"
       id="path3330-06-7"
       inkscape:connector-curvature="0"
       sodipodi:nodetypes="zsssssz" />
    <path
       style="color:#000000;display:inline;overflow:visible;visibility:visible;fill:#ffffff;fill-opacity:1;fill-rule:nonzero;stroke:none;stroke-width:0.761295px;marker:none;enable-background:accumulate"
       d="m 363.56045,2517.0781 c -21.81209,1.3331 -43.94283,3.2314 -64.87793,12.7599 -13.36526,7.9697 -26.25635,18.7602 -36.02166,34.2482 -4.58593,9.369 -4.27912,21.3666 -3.9963,32.2716 0.29854,11.3477 2.45062,23.6494 8.86666,31.15 8.19876,10.0811 19.12484,13.2791 29.38334,16.6118 22.84529,6.8341 46.12216,10.3587 69.40491,12.2941 35.66328,2.6745 71.52986,3.5333 107.09236,-1.8822 10.92398,-1.891 22.06161,-4.2599 32.10064,-11.0193 11.21468,-8.0402 20.30863,-23.4205 21.92904,-41.5303 1.49746,-14.9548 -2.21308,-30.4149 -9.1518,-41.6699 -9.29025,-16.1375 -23.32404,-25.3614 -37.54882,-28.7421 -18.48355,-5.1196 -37.34181,-6.2388 -56.01677,-9.2586 -19.61219,-2.614 -39.25799,-6.004 -58.9892,-5.3572 -0.72483,0.041 -1.44965,0.083 -2.17447,0.124 z"
       id="path4040-4-5-3"
       inkscape:connector-curvature="0"
       sodipodi:nodetypes="zssssz" />
    <path
       style="fill:#ffffff;stroke:none;stroke-width:0.68186"
       d="m 408.21026,2756.4434 c 41.49541,-14.9397 69.63369,-74.7389 44.97759,-106.2013 -12.48911,-15.9367 -15.19836,-7.3949 -15.19836,-7.3949 l 22.4898,-40.1282 c 0,0 -1.8972,-18.2704 14.44816,13.5807 16.34544,31.8513 14.09086,113.2048 -66.71719,140.1437 z"
       id="path3063-5"
       inkscape:connector-curvature="0"
       sodipodi:nodetypes="cscczc" />
    <path
       style="fill:#ffffff;stroke:none;stroke-width:1.05222"
       d="m 1321.7873,2788.7879 c -16.5258,-31.9571 -12.7678,-43.095 -7.7551,-55.2841 5.0127,-12.1894 10.5127,-22.4678 8.7649,-31.311 -1.7478,-8.8431 -7.4039,-18.0835 -12.2478,-24.1391 -4.8437,-6.0556 1.8748,-12.9996 4.0955,-22.2048 2.2206,-9.2053 1.3101,-62.0823 1.3101,-62.0823 0,0 -19.4788,28.1128 -23.4595,39.3728 -3.9808,11.26 -5.4762,15.3478 -6.2014,20.4652 -0.7252,5.1175 -1.222,18.0964 2.6109,26.1588 3.8329,8.0624 10.1541,12.9445 14.005,18.0924 3.8509,5.1479 0.876,15.4465 -1.5463,25.8514 -2.4223,10.405 -3.0096,18.5368 2.5674,35.2227 4.7806,14.3032 17.8563,29.858 17.8563,29.858 z"
       id="path3023-2"
       inkscape:connector-curvature="0"
       sodipodi:nodetypes="csssscssssssc" />
    <path
       style="color:#000000;font-variation-settings:normal;display:inline;overflow:visible;visibility:visible;opacity:1;vector-effect:none;fill:#b5a898;fill-opacity:1;fill-rule:nonzero;stroke:none;stroke-width:0.787691px;stroke-linecap:butt;stroke-linejoin:miter;stroke-miterlimit:4;stroke-dasharray:none;stroke-dashoffset:0;stroke-opacity:1;-inkscape-stroke:none;marker:none;filter:url(#filter23754);enable-background:accumulate;stop-color:#000000;stop-opacity:1"
       d="m 1520.2101,306.67106 c -34.4703,-26.32907 -102.0792,38.51758 -76.1251,79.72636 -29.1408,-21.44933 -28.4418,-101.10367 88.8819,-122.29745 53.071,-9.58682 -8.5044,28.1115 -8.5044,28.1115 z"
       id="path4035-4"
       inkscape:connector-curvature="0"
       sodipodi:nodetypes="ccscc" />
    <path
       style="color:#000000;display:inline;overflow:visible;visibility:visible;fill:#b6a898;fill-opacity:1;fill-rule:nonzero;stroke:none;stroke-width:0.764131px;marker:none;filter:url(#filter23754);enable-background:accumulate"
       d="m 1414.0907,262.7903 c 3.0074,-38.40157 45.0979,-67.03407 155.5164,-61.30336 59.1462,3.06909 126.2852,4.70066 122.5653,60.94651 -3.72,56.24586 -100.195,56.10016 -120.0926,57.68185 -19.8978,1.58247 -123.68,-2.91327 -142.0412,-21.78215 -11.4935,-11.81125 -16.1339,-23.65991 -15.9479,-35.54285 z"
       id="path4546-6-21"
       inkscape:connector-curvature="0"
       sodipodi:nodetypes="cssssc"
       transform="matrix(1.0626161,0,0,1,-97.255437,0)" />
    <path
       style="fill:#ddbc9a;fill-rule:evenodd;stroke:none;stroke-width:1px;stroke-linecap:butt;stroke-linejoin:miter;stroke-opacity:1;fill-opacity:1"
       d="m 1445.6874,307.01836 0.3946,-1.8904 2.4969,-2.27063 13.7884,2.6873 6.4833,3.4624 0.3146,2.10394 -0.01,0.39526 -4.889,1.37827 -12.2504,-0.92906 z"
       id="path1202" />
  </g>
  <g
     inkscape:groupmode="layer"
     id="layer1"
     inkscape:label="txt"
     style="display:inline">
    <text
       id="text4246-4-2-7"
       y="197.58015"
       x="929.33594"
       style="font-style:normal;font-variant:normal;font-weight:normal;font-stretch:normal;line-height:0%;font-family:Lavi;-inkscape-font-specification:Lavi;text-align:center;letter-spacing:0px;word-spacing:0px;text-anchor:middle;fill:#000000;fill-opacity:1;stroke:none"
       xml:space="preserve"><tspan
         y="197.58015"
         x="929.33594"
         style="font-size:45px;line-height:1.25;fill:#000000"
         sodipodi:role="line"
         id="tspan10101">La oss feira den nye</tspan><tspan
         y="253.83015"
         x="929.33594"
         style="font-size:45px;line-height:1.25;fill:#000000"
         sodipodi:role="line"
         id="tspan14787">alliansen vår ved å jamna</tspan><tspan
         y="310.08014"
         x="929.33594"
         style="font-size:45px;line-height:1.25;fill:#000000"
         sodipodi:role="line"
         id="tspan82862">heile tempelet med jorda.</tspan></text>
    <text
       xml:space="preserve"
       style="font-style:normal;font-variant:normal;font-weight:normal;font-stretch:normal;line-height:0%;font-family:Lavi;-inkscape-font-specification:Lavi;letter-spacing:0px;word-spacing:0px;display:inline;fill:#ffffff;fill-opacity:1;stroke:#ffffff;stroke-width:1.6559;stroke-miterlimit:4;stroke-dasharray:none;stroke-opacity:1;filter:url(#filter4375-4-1-1-1-9-6-9-2-1-5-4-3)"
       x="787.65729"
       y="1584.5073"
       id="text4580-1-7-3-6-91"
       transform="matrix(0.56312247,-0.2879856,-0.10396071,0.76310836,937.20169,-487.48536)"><tspan
         sodipodi:role="line"
         id="tspan4582-8-5-6-1-0"
         x="787.65729"
         y="1584.5073"
         style="font-size:70px;line-height:1.25;letter-spacing:2.96623px;fill:#ffffff;stroke:#ffffff;stroke-width:1.6559;stroke-miterlimit:4;stroke-dasharray:none;stroke-opacity:1">Klapp</tspan></text>
    <text
       id="text4246-4-2-7-3"
       y="275.71851"
       x="1551.519"
       style="font-style:normal;font-variant:normal;font-weight:normal;font-stretch:normal;line-height:0%;font-family:Lavi;-inkscape-font-specification:Lavi;text-align:center;letter-spacing:0px;word-spacing:0px;text-anchor:middle;fill:#000000;fill-opacity:1;stroke:none;filter:url(#filter47349)"
       xml:space="preserve"><tspan
         y="275.71851"
         x="1551.519"
         style="font-size:45px;line-height:1.25;fill:#000000"
         sodipodi:role="line"
         id="tspan2289-5"><tspan
   style="font-size:50px;fill:#680000;fill-opacity:1"
   id="tspan52047">G</tspan>odt sagt!</tspan></text>
    <text
       xml:space="preserve"
       style="font-style:normal;font-variant:normal;font-weight:normal;font-stretch:normal;font-size:8.2448px;line-height:0%;font-family:Lavi;-inkscape-font-specification:Lavi;letter-spacing:1.83751px;word-spacing:0px;display:inline;opacity:0.708356;fill:#b3cfde;fill-opacity:1;stroke:#302820;stroke-width:6.24756;stroke-miterlimit:4;stroke-dasharray:none;stroke-opacity:1;paint-order:stroke fill markers;filter:url(#filter1058)"
       x="1302.3322"
       y="1954.6715"
       id="use4516-8"
       transform="matrix(0.57277918,-0.25843304,-0.10574349,0.93181927,1758.4142,-777.05116)"><tspan
         sodipodi:role="line"
         id="tspan4370-3"
         x="1302.3322"
         y="1954.6715"
         style="font-style:normal;font-variant:normal;font-weight:normal;font-stretch:normal;font-size:48.0947px;line-height:1.25;font-family:Lavi;-inkscape-font-specification:Lavi;fill:#ded5c0;fill-opacity:1;stroke:#302820;stroke-width:6.24756;stroke-miterlimit:4;stroke-dasharray:none;stroke-opacity:1;paint-order:stroke fill markers">Bra!</tspan></text>
    <text
       xml:space="preserve"
       style="font-style:normal;font-variant:normal;font-weight:normal;font-stretch:normal;font-size:8.2448px;line-height:0%;font-family:Lavi;-inkscape-font-specification:Lavi;letter-spacing:1.83751px;word-spacing:0px;display:inline;opacity:0.369456;fill:#b3cfde;fill-opacity:1;stroke:#302820;stroke-width:10.8167;stroke-miterlimit:4;stroke-dasharray:none;stroke-opacity:1;paint-order:stroke fill markers;filter:url(#filter987)"
       x="1302.3322"
       y="1954.6715"
       id="use4516-8-2-7"
       transform="matrix(0.50551861,-0.22852645,-0.0933262,0.82398656,714.66224,-518.61465)"><tspan
         sodipodi:role="line"
         id="tspan4370-3-6-5"
         x="1302.3322"
         y="1954.6715"
         style="font-style:normal;font-variant:normal;font-weight:normal;font-stretch:normal;font-size:48.0947px;line-height:1.25;font-family:Lavi;-inkscape-font-specification:Lavi;fill:#ded5c0;fill-opacity:1;stroke:#302820;stroke-width:10.8167;stroke-miterlimit:4;stroke-dasharray:none;stroke-opacity:1;paint-order:stroke fill markers">Bra!</tspan></text>
    <text
       transform="matrix(0.6170271,-0.27711716,-0.11391231,0.99918767,-444.05439,-799.07752)"
       id="use4516-8-2"
       y="1954.6715"
       x="1302.3322"
       style="font-style:normal;font-variant:normal;font-weight:normal;font-stretch:normal;font-size:8.2448px;line-height:0%;font-family:Lavi;-inkscape-font-specification:Lavi;letter-spacing:1.83751px;word-spacing:0px;display:inline;opacity:0.708356;fill:#b3cfde;fill-opacity:1;stroke:#302820;stroke-width:6.24756;stroke-miterlimit:4;stroke-dasharray:none;stroke-opacity:1;paint-order:stroke fill markers;filter:url(#filter1058-6)"
       xml:space="preserve"><tspan
         style="font-style:normal;font-variant:normal;font-weight:normal;font-stretch:normal;font-size:48.0947px;line-height:1.25;font-family:Lavi;-inkscape-font-specification:Lavi;fill:#ded5c0;fill-opacity:1;stroke:#302820;stroke-width:6.24756;stroke-miterlimit:4;stroke-dasharray:none;stroke-opacity:1;paint-order:stroke fill markers"
         y="1954.6715"
         x="1302.3322"
         id="tspan4370-3-6"
         sodipodi:role="line">Bra!</tspan></text>
    <text
       transform="matrix(0.52113112,-0.20283488,-0.16142443,0.86646806,-243.4331,-693.49526)"
       id="use4516-8-2-7-1"
       y="1954.6715"
       x="1302.3322"
       style="font-style:normal;font-variant:normal;font-weight:normal;font-stretch:normal;font-size:8.2448px;line-height:0%;font-family:Lavi;-inkscape-font-specification:Lavi;letter-spacing:1.83751px;word-spacing:0px;display:inline;opacity:0.369456;fill:#b3cfde;fill-opacity:1;stroke:#302820;stroke-width:10.8167;stroke-miterlimit:4;stroke-dasharray:none;stroke-opacity:1;paint-order:stroke fill markers;filter:url(#filter987-9)"
       xml:space="preserve"><tspan
         style="font-style:normal;font-variant:normal;font-weight:normal;font-stretch:normal;font-size:48.0947px;line-height:1.25;font-family:Lavi;-inkscape-font-specification:Lavi;fill:#ded5c0;fill-opacity:1;stroke:#302820;stroke-width:10.8167;stroke-miterlimit:4;stroke-dasharray:none;stroke-opacity:1;paint-order:stroke fill markers"
         y="1954.6715"
         x="1302.3322"
         id="tspan4370-3-6-5-2"
         sodipodi:role="line">Ja!</tspan></text>
    <text
       transform="matrix(0.50551861,-0.22852645,-0.0933262,0.82398656,764.68038,-479.50636)"
       id="use4516-8-2-7-1-1-7"
       y="1954.6715"
       x="1302.3322"
       style="font-style:normal;font-variant:normal;font-weight:normal;font-stretch:normal;font-size:8.2448px;line-height:0%;font-family:Lavi;-inkscape-font-specification:Lavi;letter-spacing:1.83751px;word-spacing:0px;display:inline;opacity:0.369456;fill:#b3cfde;fill-opacity:1;stroke:#302820;stroke-width:10.8167;stroke-miterlimit:4;stroke-dasharray:none;stroke-opacity:1;paint-order:stroke fill markers;filter:url(#filter987-2)"
       xml:space="preserve"><tspan
         style="font-style:normal;font-variant:normal;font-weight:normal;font-stretch:normal;font-size:48.0947px;line-height:1.25;font-family:Lavi;-inkscape-font-specification:Lavi;fill:#ded5c0;fill-opacity:1;stroke:#302820;stroke-width:10.8167;stroke-miterlimit:4;stroke-dasharray:none;stroke-opacity:1;paint-order:stroke fill markers"
         y="1954.6715"
         x="1302.3322"
         id="tspan4370-3-6-5-2-5-1"
         sodipodi:role="line">Heia!</tspan></text>
    <text
       transform="matrix(0.50551861,-0.22852645,-0.0933262,0.82398656,562.8032,-481.04936)"
       id="use4516-8-2-7-1-1-7-9"
       y="1954.6715"
       x="1302.3322"
       style="font-style:normal;font-variant:normal;font-weight:normal;font-stretch:normal;font-size:8.2448px;line-height:0%;font-family:Lavi;-inkscape-font-specification:Lavi;letter-spacing:1.83751px;word-spacing:0px;display:inline;opacity:0.369456;fill:#b3cfde;fill-opacity:1;stroke:#302820;stroke-width:10.8167;stroke-miterlimit:4;stroke-dasharray:none;stroke-opacity:1;paint-order:stroke fill markers;filter:url(#filter987-2-7)"
       xml:space="preserve"><tspan
         style="font-style:normal;font-variant:normal;font-weight:normal;font-stretch:normal;font-size:48.0947px;line-height:1.25;font-family:Lavi;-inkscape-font-specification:Lavi;fill:#ded5c0;fill-opacity:1;stroke:#302820;stroke-width:10.8167;stroke-miterlimit:4;stroke-dasharray:none;stroke-opacity:1;paint-order:stroke fill markers"
         y="1954.6715"
         x="1302.3322"
         sodipodi:role="line"
         id="tspan518">Juurrr!</tspan></text>
    <text
       transform="matrix(0.50551861,-0.22852645,-0.0933262,0.82398656,-252.35708,-555.13582)"
       id="use4516-8-2-7-1-1-7-2"
       y="1954.6715"
       x="1302.3322"
       style="font-style:normal;font-variant:normal;font-weight:normal;font-stretch:normal;font-size:8.2448px;line-height:0%;font-family:Lavi;-inkscape-font-specification:Lavi;letter-spacing:1.83751px;word-spacing:0px;display:inline;opacity:0.369456;fill:#b3cfde;fill-opacity:1;stroke:#302820;stroke-width:10.8167;stroke-miterlimit:4;stroke-dasharray:none;stroke-opacity:1;paint-order:stroke fill markers;filter:url(#filter987-2-0)"
       xml:space="preserve"><tspan
         style="font-style:normal;font-variant:normal;font-weight:normal;font-stretch:normal;font-size:48.0947px;line-height:1.25;font-family:Lavi;-inkscape-font-specification:Lavi;fill:#ded5c0;fill-opacity:1;stroke:#302820;stroke-width:10.8167;stroke-miterlimit:4;stroke-dasharray:none;stroke-opacity:1;paint-order:stroke fill markers"
         y="1954.6715"
         x="1302.3322"
         id="tspan4370-3-6-5-2-5-1-6"
         sodipodi:role="line">Hepp!</tspan></text>
    <text
       transform="matrix(0.50551861,-0.22852645,-0.0933262,0.82398656,1768.3946,-530.09893)"
       id="use4516-8-2-7-1-1-7-2-7"
       y="1954.6715"
       x="1302.3322"
       style="font-style:normal;font-variant:normal;font-weight:normal;font-stretch:normal;font-size:8.2448px;line-height:0%;font-family:Lavi;-inkscape-font-specification:Lavi;letter-spacing:1.83751px;word-spacing:0px;display:inline;opacity:0.369456;fill:#b3cfde;fill-opacity:1;stroke:#302820;stroke-width:10.8167;stroke-miterlimit:4;stroke-dasharray:none;stroke-opacity:1;paint-order:stroke fill markers;filter:url(#filter987-2-0-1)"
       xml:space="preserve"><tspan
         style="font-style:normal;font-variant:normal;font-weight:normal;font-stretch:normal;font-size:48.0947px;line-height:1.25;font-family:Lavi;-inkscape-font-specification:Lavi;fill:#ded5c0;fill-opacity:1;stroke:#302820;stroke-width:10.8167;stroke-miterlimit:4;stroke-dasharray:none;stroke-opacity:1;paint-order:stroke fill markers"
         y="1954.6715"
         x="1302.3322"
         id="tspan4370-3-6-5-2-5-1-6-9"
         sodipodi:role="line">Jihaa!</tspan></text>
    <text
       transform="matrix(0.47108436,-0.22117434,-0.08696913,0.79747739,663.40779,-413.07426)"
       id="use4516-8-2-7-1-3"
       y="1954.6715"
       x="1302.3322"
       style="font-style:normal;font-variant:normal;font-weight:normal;font-stretch:normal;font-size:8.2448px;line-height:0%;font-family:Lavi;-inkscape-font-specification:Lavi;letter-spacing:1.83751px;word-spacing:0px;display:inline;opacity:0.369456;fill:#b3cfde;fill-opacity:1;stroke:#302820;stroke-width:10.8167;stroke-miterlimit:4;stroke-dasharray:none;stroke-opacity:1;paint-order:stroke fill markers;filter:url(#filter987-9-0)"
       xml:space="preserve"><tspan
         style="font-style:normal;font-variant:normal;font-weight:normal;font-stretch:normal;font-size:48.0947px;line-height:1.25;font-family:Lavi;-inkscape-font-specification:Lavi;fill:#ded5c0;fill-opacity:1;stroke:#302820;stroke-width:10.8167;stroke-miterlimit:4;stroke-dasharray:none;stroke-opacity:1;paint-order:stroke fill markers"
         y="1954.6715"
         x="1302.3322"
         id="tspan4370-3-6-5-2-6"
         sodipodi:role="line">Jaaah!</tspan></text>
    <text
       transform="matrix(0.47108436,-0.22117434,-0.08696913,0.79747739,1747.7441,-548.18239)"
       id="use4516-8-2-7-1-3-2"
       y="1954.6715"
       x="1302.3322"
       style="font-style:normal;font-variant:normal;font-weight:normal;font-stretch:normal;font-size:8.2448px;line-height:0%;font-family:Lavi;-inkscape-font-specification:Lavi;letter-spacing:1.83751px;word-spacing:0px;display:inline;opacity:0.369456;fill:#b3cfde;fill-opacity:1;stroke:#302820;stroke-width:10.8167;stroke-miterlimit:4;stroke-dasharray:none;stroke-opacity:1;paint-order:stroke fill markers;filter:url(#filter987-9-0-2)"
       xml:space="preserve"><tspan
         style="font-style:normal;font-variant:normal;font-weight:normal;font-stretch:normal;font-size:48.0947px;line-height:1.25;font-family:Lavi;-inkscape-font-specification:Lavi;fill:#ded5c0;fill-opacity:1;stroke:#302820;stroke-width:10.8167;stroke-miterlimit:4;stroke-dasharray:none;stroke-opacity:1;paint-order:stroke fill markers"
         y="1954.6715"
         x="1302.3322"
         id="tspan4370-3-6-5-2-6-3"
         sodipodi:role="line">Hurra!</tspan></text>
    <text
       transform="matrix(0.9493189,0,-0.25523766,1.0533868,0,0)"
       id="text4246-6-9-8-8-3-6"
       y="1110.9082"
       x="2205.1069"
       style="font-style:normal;font-variant:normal;font-weight:normal;font-stretch:normal;font-size:16.5593px;line-height:0%;font-family:Lavi;-inkscape-font-specification:Lavi;text-align:center;letter-spacing:0px;word-spacing:0px;text-anchor:middle;fill:#000000;fill-opacity:1;stroke:#000000;stroke-width:2.15702;stroke-miterlimit:4;stroke-dasharray:none;stroke-opacity:1"
       xml:space="preserve"><tspan
         y="1110.9082"
         x="2205.1069"
         style="font-size:59.266px;line-height:1.25;stroke:#000000;stroke-width:2.15702;stroke-miterlimit:4;stroke-dasharray:none;stroke-opacity:1"
         sodipodi:role="line"
         id="tspan59386">KATAPULTAR!</tspan></text>
    <text
       transform="matrix(0.95446031,0,-0.25662,1.0477125,0,0)"
       id="text4246-6-9-8-8-3-6-0"
       y="1164.4611"
       x="2509.1147"
       style="font-style:normal;font-variant:normal;font-weight:normal;font-stretch:normal;font-size:17.4097px;line-height:0%;font-family:Lavi;-inkscape-font-specification:Lavi;text-align:center;letter-spacing:0px;word-spacing:0px;text-anchor:middle;fill:#000000;fill-opacity:1;stroke:#000000;stroke-width:2.26779;stroke-miterlimit:4;stroke-dasharray:none;stroke-opacity:1"
       xml:space="preserve"><tspan
         y="1164.4611"
         x="2509.1147"
         style="font-size:62.3093px;line-height:1.25;stroke:#000000;stroke-width:2.26779;stroke-miterlimit:4;stroke-dasharray:none;stroke-opacity:1"
         sodipodi:role="line"
         id="tspan59386-3">FYR!!!</tspan></text>
    <text
       y="1608.6935"
       x="128.4707"
       id="text4580-6-0"
       style="font-style:normal;font-variant:normal;font-weight:normal;font-stretch:normal;font-size:85.3333px;line-height:0%;font-family:Lavi;-inkscape-font-specification:Lavi;letter-spacing:4.62069px;word-spacing:0px;display:inline;fill:#ffffff;fill-opacity:1;stroke:#98b9ca;stroke-width:1.20695;stroke-miterlimit:4;stroke-dasharray:none;stroke-opacity:1;filter:url(#filter4375-4-1-1-1-9-5-8)"
       xml:space="preserve"
       transform="matrix(0.64745355,-0.05501211,-0.16702718,0.70842118,1818.4946,261.88116)"><tspan
         id="tspan884"
         style="font-style:normal;font-variant:normal;font-weight:normal;font-stretch:normal;font-size:106.667px;font-family:Drukah;-inkscape-font-specification:Drukah;stroke-width:1.20695">huUVOOOOOOOOOOO</tspan><tspan
         id="tspan892"
         style="font-style:normal;font-variant:normal;font-weight:normal;font-stretch:normal;font-size:134.669px;font-family:Drukah;-inkscape-font-specification:Drukah;stroke-width:1.20695">!</tspan></text>
    <text
       xml:space="preserve"
       style="font-style:normal;font-variant:normal;font-weight:normal;font-stretch:normal;line-height:0%;font-family:Lavi;-inkscape-font-specification:Lavi;letter-spacing:0px;word-spacing:0px;display:inline;fill:#ffebb6;fill-opacity:1;stroke:#ffe260;stroke-width:0.581347;stroke-miterlimit:4;stroke-dasharray:none;stroke-opacity:1;filter:url(#filter4375-4-1-1-1-9-5-8-8-3-2-9-6)"
       x="787.65729"
       y="1584.5073"
       id="text4580-6-0-0-3-2"
       transform="matrix(0.80736426,-0.15328736,-0.38136223,1.1044228,492.22746,187.47585)"><tspan
         sodipodi:role="line"
         id="tspan4582-1-1-0-6-8"
         x="787.65729"
         y="1584.5073"
         style="font-style:normal;font-variant:normal;font-weight:bold;font-stretch:normal;font-size:70px;line-height:1.25;font-family:Lavi;-inkscape-font-specification:'Lavi Bold';fill:#ffebb6;fill-opacity:1;stroke:#ffe260;stroke-width:0.581347;stroke-opacity:1">Vooosj!</tspan></text>
    <text
       xml:space="preserve"
       style="font-style:normal;font-variant:normal;font-weight:normal;font-stretch:normal;line-height:0%;font-family:Lavi;-inkscape-font-specification:Lavi;letter-spacing:0px;word-spacing:0px;display:inline;fill:#ffebb6;fill-opacity:1;stroke:#ffe260;stroke-width:0.581347;stroke-miterlimit:4;stroke-dasharray:none;stroke-opacity:1;filter:url(#filter4375-4-1-1-1-9-5-8-8-3-2-2-7-6)"
       x="787.65729"
       y="1584.5073"
       id="text4580-6-0-0-3-2-8"
       transform="matrix(0.84316171,-0.1466852,-0.46022255,1.1584968,1031.7825,127.93152)"><tspan
         sodipodi:role="line"
         id="tspan4582-1-1-0-6-8-4"
         x="787.65729"
         y="1584.5073"
         style="font-style:normal;font-variant:normal;font-weight:bold;font-stretch:normal;font-size:70px;line-height:1.25;font-family:Lavi;-inkscape-font-specification:'Lavi Bold';fill:#ffebb6;fill-opacity:1;stroke:#ffe260;stroke-width:0.581347;stroke-opacity:1">Vooosj!</tspan></text>
    <text
       transform="matrix(0.9493189,0,-0.25523766,1.0533868,0,0)"
       id="text4246-6-9-8-8-3"
       y="2082.8389"
       x="1140.3259"
       style="font-style:normal;font-variant:normal;font-weight:normal;font-stretch:normal;font-size:12.8473px;line-height:0%;font-family:Lavi;-inkscape-font-specification:Lavi;text-align:center;letter-spacing:0px;word-spacing:0px;text-anchor:middle;fill:#000000;fill-opacity:1;stroke:#000000;stroke-width:1.6735;stroke-miterlimit:4;stroke-dasharray:none;stroke-opacity:1"
       xml:space="preserve"><tspan
         id="tspan4395-0-6"
         y="2082.8389"
         x="1140.3259"
         style="font-size:45.9806px;line-height:1.25;stroke:#000000;stroke-width:1.6735;stroke-miterlimit:4;stroke-dasharray:none;stroke-opacity:1"
         sodipodi:role="line">TIL ÅÅÅTAAAK!!!</tspan></text>
    <text
       id="text4246-4-2-7-0"
       y="2513.3108"
       x="271.82642"
       style="font-style:normal;font-variant:normal;font-weight:normal;font-stretch:normal;line-height:0%;font-family:Lavi;-inkscape-font-specification:Lavi;text-align:center;letter-spacing:0px;word-spacing:0px;text-anchor:middle;fill:#000000;fill-opacity:1;stroke:none"
       xml:space="preserve"><tspan
         y="2513.3108"
         x="271.82642"
         style="font-size:45px;line-height:1.25;fill:#000000"
         sodipodi:role="line"
         id="tspan144968">Kva skjer?</tspan></text>
    <text
       id="text4246-4-2-7-0-9"
       y="2610.2725"
       x="395.25748"
       style="font-style:normal;font-variant:normal;font-weight:normal;font-stretch:normal;line-height:0%;font-family:Lavi;-inkscape-font-specification:Lavi;text-align:center;letter-spacing:0px;word-spacing:0px;text-anchor:middle;fill:#000000;fill-opacity:1;stroke:none"
       xml:space="preserve"><tspan
         y="2610.2725"
         x="395.25748"
         style="font-size:45px;line-height:1.25;fill:#000000"
         sodipodi:role="line"
         id="tspan116891-9">Eit åtak?!</tspan></text>
    <text
       xml:space="preserve"
       style="font-style:normal;font-variant:normal;font-weight:normal;font-stretch:normal;line-height:0%;font-family:Lavi;-inkscape-font-specification:Lavi;letter-spacing:0px;word-spacing:0px;display:inline;opacity:0.903052;fill:#cab1e6;fill-opacity:1;stroke:#ffe260;stroke-width:0.320995;stroke-miterlimit:4;stroke-dasharray:none;stroke-opacity:1;filter:url(#filter4375-4-1-1-1-9-5-8-8-1-1)"
       x="787.65729"
       y="1584.5073"
       id="text4580-6-0-0-7"
       transform="matrix(1.0300873,-0.55928084,0.20243365,1.5973987,-691.55404,793.41882)"><tspan
         sodipodi:role="line"
         id="tspan4582-1-1-0-4"
         x="787.65729"
         y="1584.5073"
         style="font-style:normal;font-variant:normal;font-weight:bold;font-stretch:normal;font-size:70px;line-height:1.25;font-family:Lavi;-inkscape-font-specification:'Lavi Bold';fill:#cab1e6;fill-opacity:1;stroke:#ffe260;stroke-width:0.320995;stroke-opacity:1"><tspan
   style="font-size:88.8128px;fill:#cab1e6;fill-opacity:1"
   id="tspan855">DRØNN</tspan>!</tspan></text>
    <text
       xml:space="preserve"
       style="font-style:normal;font-variant:normal;font-weight:normal;font-stretch:normal;line-height:0%;font-family:Lavi;-inkscape-font-specification:Lavi;letter-spacing:0px;word-spacing:0px;display:inline;opacity:0.900558;fill:#cab1e6;fill-opacity:1;stroke:#ffe260;stroke-width:0.320995;stroke-miterlimit:4;stroke-dasharray:none;stroke-opacity:1;filter:url(#filter4375-4-1-1-1-9-5-8-8-1-0-1)"
       x="787.65729"
       y="1584.5073"
       id="text4580-6-0-0-7-5"
       transform="matrix(1.0300873,-0.55928084,0.20243365,1.5973987,-311.76713,768.17996)"><tspan
         sodipodi:role="line"
         id="tspan4582-1-1-0-4-2"
         x="787.65729"
         y="1584.5073"
         style="font-style:normal;font-variant:normal;font-weight:bold;font-stretch:normal;font-size:70px;line-height:1.25;font-family:Lavi;-inkscape-font-specification:'Lavi Bold';fill:#cab1e6;fill-opacity:1;stroke:#ffe260;stroke-width:0.320995;stroke-opacity:1"><tspan
           style="font-size:88.8128px;fill:#cab1e6;fill-opacity:1"
           id="tspan855-5">DRØNN!</tspan></tspan></text>
    <text
       id="text4246-4-2-7-0-9-1"
       y="2587.4041"
       x="1294.5649"
       style="font-style:normal;font-variant:normal;font-weight:normal;font-stretch:normal;line-height:0%;font-family:Lavi;-inkscape-font-specification:Lavi;text-align:center;letter-spacing:0px;word-spacing:0px;text-anchor:middle;fill:#000000;fill-opacity:1;stroke:none"
       xml:space="preserve"><tspan
         y="2587.4041"
         x="1294.5649"
         style="font-size:45px;line-height:1.25;fill:#000000"
         sodipodi:role="line"
         id="tspan116891-9-7">Kva?!</tspan></text>
    <text
       xml:space="preserve"
       style="font-style:normal;font-variant:normal;font-weight:normal;font-stretch:normal;line-height:0%;font-family:Lavi;-inkscape-font-specification:Lavi;letter-spacing:0px;word-spacing:0px;display:inline;opacity:0.860477;fill:#b9c4f2;fill-opacity:1;stroke:#ffe260;stroke-width:0.320995;stroke-miterlimit:4;stroke-dasharray:none;stroke-opacity:1;filter:url(#filter4375-4-1-1-1-9-5-8-8-1-0-7-1)"
       x="787.65729"
       y="1584.5073"
       id="text4580-6-0-0-7-5-9"
       transform="matrix(1.2924676,-0.34273768,-0.02047252,1.7400925,729.73035,202.46741)"><tspan
         sodipodi:role="line"
         id="tspan4582-1-1-0-4-2-2"
         x="787.65729"
         y="1584.5073"
         style="font-style:normal;font-variant:normal;font-weight:bold;font-stretch:normal;font-size:70px;line-height:1.25;font-family:Lavi;-inkscape-font-specification:'Lavi Bold';fill:#b9c4f2;fill-opacity:1;stroke:#ffe260;stroke-width:0.320995;stroke-opacity:1"><tspan
   style="font-size:58.6346px;fill:#b9c4f2;fill-opacity:1;stroke-width:0.320995"
   id="tspan853-4-6"><tspan
   style="font-size:58.94px;fill:#b9c4f2;fill-opacity:1"
   id="tspan78295-8">KA-<tspan
   style="font-size:52.6906px"
   id="tspan161341">B</tspan></tspan><tspan
   style="font-size:52.6906px"
   id="tspan161343">O</tspan>O</tspan>M!</tspan></text>
    <text
       xml:space="preserve"
       style="font-style:normal;font-variant:normal;font-weight:normal;font-stretch:normal;line-height:0%;font-family:Lavi;-inkscape-font-specification:Lavi;letter-spacing:0px;word-spacing:0px;display:inline;opacity:0.860477;fill:#b9c4f2;fill-opacity:1;stroke:#ffe260;stroke-width:0.320995;stroke-miterlimit:4;stroke-dasharray:none;stroke-opacity:1;filter:url(#filter4375-4-1-1-1-9-5-8-8-1-0-7-9-4)"
       x="787.65729"
       y="1584.5073"
       id="text4580-6-0-0-7-5-9-7"
       transform="matrix(1.1220561,-0.26848231,-0.01777323,1.3630951,881.66789,1232.096)"><tspan
         sodipodi:role="line"
         id="tspan4582-1-1-0-4-2-2-2"
         x="787.65729"
         y="1584.5073"
         style="font-style:normal;font-variant:normal;font-weight:bold;font-stretch:normal;font-size:70px;line-height:1.25;font-family:Lavi;-inkscape-font-specification:'Lavi Bold';fill:#b9c4f2;fill-opacity:1;stroke:#ffe260;stroke-width:0.320995;stroke-opacity:1">BRAK!</tspan></text>
    <text
       xml:space="preserve"
       style="font-size:40px;line-height:1.25;font-family:sans-serif;letter-spacing:0px;word-spacing:0px"
       x="263.978"
       y="2456.5515"
       id="text142304"><tspan
         sodipodi:role="line"
         id="tspan142302" /></text>
  </g>
</svg>
