<?xml version="1.0" encoding="UTF-8" standalone="no"?>
<!-- Created with Inkscape (http://www.inkscape.org/) -->

<svg
   xmlns:dc="http://purl.org/dc/elements/1.1/"
   xmlns:cc="http://creativecommons.org/ns#"
   xmlns:rdf="http://www.w3.org/1999/02/22-rdf-syntax-ns#"
   xmlns:svg="http://www.w3.org/2000/svg"
   xmlns="http://www.w3.org/2000/svg"
   xmlns:xlink="http://www.w3.org/1999/xlink"
   xmlns:sodipodi="http://sodipodi.sourceforge.net/DTD/sodipodi-0.dtd"
   xmlns:inkscape="http://www.inkscape.org/namespaces/inkscape"
   id="svg2"
   version="1.1"
   inkscape:version="0.92.1 r15371"
   width="2481"
   height="3503"
   sodipodi:docname="E28P08.svg"
   inkscape:export-filename="/home/dash/Downloads/pepper carrot EPS/ep28_The-Festivities_lang-pack/lang/ph/E28P08.svg.png"
   inkscape:export-xdpi="96"
   inkscape:export-ydpi="96">
  <metadata
     id="metadata8">
    <rdf:RDF>
      <cc:Work
         rdf:about="">
        <dc:format>image/svg+xml</dc:format>
        <dc:type
           rdf:resource="http://purl.org/dc/dcmitype/StillImage" />
        <dc:title />
      </cc:Work>
    </rdf:RDF>
  </metadata>
  <defs
     id="defs6" />
  <sodipodi:namedview
     pagecolor="#ffffff"
     bordercolor="#666666"
     borderopacity="1"
     objecttolerance="10"
     gridtolerance="10"
     guidetolerance="10"
     inkscape:pageopacity="0"
     inkscape:pageshadow="2"
     inkscape:window-width="1920"
     inkscape:window-height="997"
     id="namedview4"
     showgrid="false"
     inkscape:zoom="0.18207545"
     inkscape:cx="470.21078"
     inkscape:cy="1726.4303"
     inkscape:window-x="0"
     inkscape:window-y="0"
     inkscape:window-maximized="1"
     inkscape:current-layer="layer1" />
  <g
     inkscape:groupmode="layer"
     id="layer2"
     inkscape:label="artwork"
     sodipodi:insensitive="true">
    <image
       sodipodi:absref="/home/dash/Downloads/pepper carrot EPS/ep28_The-Festivities_lang-pack/lang/ph/../gfx_Pepper-and-Carrot_by-David-Revoy_E28P08.png"
       xlink:href="../gfx_Pepper-and-Carrot_by-David-Revoy_E28P08.png"
       y="0"
       x="0"
       id="image10"
       height="3503"
       width="2481" />
  </g>
  <g
     inkscape:groupmode="layer"
     id="layer3"
     inkscape:label="speechbubbles">
    <path
       style="fill:#ffffff;fill-rule:evenodd;stroke:none;stroke-width:1.18917358px;stroke-linecap:butt;stroke-linejoin:miter;stroke-opacity:1"
       d="m 338.56373,1161.1444 c 55.42256,18.5463 78.59919,56.7299 84.64524,68.7304 6.04606,12.0006 17.13058,68.7304 17.13058,86.1858 0,17.4553 5.03845,171.2805 -2.01536,201.8274 -7.0538,30.5468 -28.21508,87.2767 -57.43777,104.732 -29.22268,17.4554 -83.6375,39.2746 -117.89864,30.5469 -34.26128,-8.7277 -80.61454,-13.0915 -109.83723,-61.0937 -29.22268,-48.0022 -37.28424,-211.646 -35.26889,-255.2844 2.01536,-43.6383 5.03831,-100.3682 29.22269,-136.3698 24.18438,-36.0017 77.59159,-58.9118 111.85273,-57.8209 34.26099,1.091 79.60665,18.5463 79.60665,18.5463 z"
       id="path1079"
       inkscape:connector-curvature="0" />
    <path
       style="fill:#ffffff;fill-rule:evenodd;stroke:none;stroke-width:1px;stroke-linecap:butt;stroke-linejoin:miter;stroke-opacity:1"
       d="m 227.53576,1416.2623 c -20.60902,44.7713 -22.74099,55.4311 -24.1623,72.4869 -1.42132,17.0557 14.92377,43.35 35.5328,50.4565 20.60902,7.1066 33.40083,29.8476 24.1623,45.482 -9.23853,15.6345 -46.19264,77.4615 23.45165,96.6493 -66.80167,-29.1369 -24.16231,-76.7509 -17.05575,-87.4107 7.10656,-10.6599 19.89837,-34.8222 -8.52787,-60.4058 -28.42624,-25.5836 -38.37542,-39.7967 0,-89.5427 38.37542,-49.7459 -33.40083,-27.7155 -33.40083,-27.7155 z"
       id="path1081"
       inkscape:connector-curvature="0"
       sodipodi:nodetypes="ccccccssc" />
    <path
       style="fill:#ffffff;fill-rule:evenodd;stroke:none;stroke-width:1.21947634px;stroke-linecap:butt;stroke-linejoin:miter;stroke-opacity:1"
       d="m 222.2347,1829.5818 c -55.17937,15.6631 -75.93354,44.9316 -75.66438,73.1602 0.26915,28.2286 -7.9443,93.3079 -8.58318,109.2726 -0.63887,15.9645 6.23977,89.0991 7.71744,122.0791 1.47781,32.98 20.16504,55.3615 44.92727,65.7584 24.76177,10.3968 55.22272,18.2 95.87279,16.0644 40.65006,-2.1357 91.8276,-22.6619 105.74922,-55.9662 13.92192,-33.3043 17.68001,-127.2134 21.03078,-175.9902 3.3508,-48.7769 -15.19219,-109.717 -43.65529,-132.4897 -28.46293,-22.7728 -72.47611,-41.4647 -147.39465,-21.8886 z"
       id="path1083"
       inkscape:connector-curvature="0"
       sodipodi:nodetypes="cssccccscc" />
    <path
       style="fill:#ffffff;fill-rule:evenodd;stroke:none;stroke-width:0.99999994px;stroke-linecap:butt;stroke-linejoin:miter;stroke-opacity:1"
       d="m 1196.7567,1374.4067 c -2.0612,-17.5917 -18.7863,-50.2645 -51.4246,-16.1368 13.4861,-40.6864 -2.0483,-45.8436 -20.2475,-47.7381 14.3275,-14.6662 26.8461,-29.914 8.3492,-55.134 24.1301,-8.2443 29.8524,-28.7456 21.6847,-58.496 24.2775,23.2401 46.106,36.0759 52.4648,-16.8093 7.8988,41.4017 36.9104,48.8809 51.4071,4.7067 -2.1364,34.4681 6.0078,43.2805 21.8243,32.946 -9.212,21.6913 -6.6421,38.149 8.3629,49.0828 -25.8737,22.9443 -22.3046,36.8913 4.6106,43.7038 -43.282,5.9825 -37.4678,34.4558 -39.319,55.8065 -20.9277,-33.2159 -62.9528,-0.075 -57.7125,8.0684 z"
       id="path1087"
       inkscape:connector-curvature="0"
       sodipodi:nodetypes="cccccccccccc" />
    <path
       style="fill:#ffffff;fill-rule:evenodd;stroke:none;stroke-width:1px;stroke-linecap:butt;stroke-linejoin:miter;stroke-opacity:1"
       d="m 1191.0392,1352.1713 c -8.4109,39.2505 -9.8127,49.5304 -9.8127,58.8758 0,9.3453 7.2361,5.602 12.611,1.6262 3.5164,-2.5819 16.3596,-20.7842 5.6125,8.1864 -10.7472,28.9706 -24.2979,69.1557 -28.0361,81.7719 10.2799,-22.4289 27.5688,-57.474 32.7088,-68.6884 5.1399,-11.2144 13.3039,-31.7117 15.4198,-37.8487 2.574,-7.4657 2.2967,-14.9288 -5.6521,-13.2604 -12.5951,3.9915 -24.253,31.4839 -4.6278,-16.1775 19.6253,-47.6613 11.2144,-117.2842 11.2144,-117.2842 z"
       id="path1089"
       inkscape:connector-curvature="0"
       sodipodi:nodetypes="csccccscccc" />
    <path
       style="fill:#ffffff;fill-rule:evenodd;stroke:none;stroke-width:1.0803169px;stroke-linecap:butt;stroke-linejoin:miter;stroke-opacity:1"
       d="m 1708.0423,1128.5788 c 13.8588,-5.0871 174.6917,9.4592 201.5946,3.2313 26.9027,-6.2278 48.099,24.5604 57.8818,73.0203 9.7828,48.4596 25.7355,142.1557 -6.874,206.065 -32.6094,63.9094 -128.4553,61.9768 -165.1411,66.712 -36.6854,4.7349 -103.1819,-14.2512 -112.9647,-64.5897 -21.2408,-33.5731 -36.8384,-253.0628 25.5034,-284.4389 z"
       id="path1109"
       inkscape:connector-curvature="0"
       sodipodi:nodetypes="csccccc" />
    <path
       style="fill:#ffffff;fill-rule:evenodd;stroke:none;stroke-width:1px;stroke-linecap:butt;stroke-linejoin:miter;stroke-opacity:1"
       d="m 1814.8535,1419.4296 c 28.8571,40.8435 26.6189,25.6966 26.5416,34.158 -0.077,8.4613 15.3409,77.8921 -45.8821,48.9071 78.9225,45.5883 99.6432,5.7382 75.0741,-47.402 -9.4685,-14.8706 -55.7336,-35.6631 -55.7336,-35.6631 z"
       id="path1111"
       inkscape:connector-curvature="0"
       sodipodi:nodetypes="ccccc" />
    <path
       style="fill:#ffffff;fill-rule:evenodd;stroke:none;stroke-width:1.12832463px;stroke-linecap:butt;stroke-linejoin:miter;stroke-opacity:1"
       d="m 2300.0425,2259.7729 c 22.5321,4.538 47.6224,-2.4469 64.2166,-20.9897 23.511,-25.8889 32.2906,-63.3891 32.5279,-98.3035 0.1289,-16.6019 -2.4229,-33.0379 -6.8726,-48.7097 -7.6046,-52.0625 6.9629,-106.1503 -4.6097,-157.6671 -5.0211,-21.6609 -16.8489,-42.264 -34.931,-53.1659 -40.5994,-19.1132 -86.3917,-17.9349 -130.278,-15.974 -12.4445,0.8638 -24.9632,0.5637 -37.3591,1.9841 -30.1683,5.4502 -57.1103,27.6497 -71.7001,57.034 -15.0424,29.407 -20.1348,63.8738 -16.8756,96.574 -2.7768,51.6996 -6.0344,105.1728 8.9862,154.5444 9.8917,31.7162 29.068,61.7156 57.7811,75.5351 33.6159,16.8994 72.1992,14.3988 108.7006,11.4387 10.1358,-0.8252 20.2701,-1.7198 30.4137,-2.3004 z"
       id="path1113"
       inkscape:connector-curvature="0" />
    <path
       style="fill:#ffffff;fill-rule:evenodd;stroke:none;stroke-width:0.65746576px;stroke-linecap:butt;stroke-linejoin:miter;stroke-opacity:1"
       d="m 2065.8009,2167.0244 c 19.5937,17.5774 53.0891,9.0494 70.0794,-38.6784 24.5778,-69.0421 35.5069,-79.604 35.5069,-79.604 0,0 -1.4016,51.6369 -25.2286,98.3146 -23.827,46.6775 -61.06,106.4307 -80.3577,19.9678 z"
       id="path1128"
       inkscape:connector-curvature="0"
       sodipodi:nodetypes="csccc" />
    <flowRoot
       xml:space="preserve"
       id="flowRoot4733"
       style="font-style:normal;font-weight:normal;font-size:40px;line-height:1.25;font-family:sans-serif;letter-spacing:0px;word-spacing:0px;fill:#000000;fill-opacity:1;stroke:none"
       transform="matrix(1.0872975,0,-0.4810606,2.1980001,596.72487,-1526.6187)"><flowRegion
         id="flowRegion4735"><rect
           id="rect4737"
           width="226.31726"
           height="78.574989"
           x="843.05707"
           y="1248.4402" /></flowRegion><flowPara
         id="flowPara4739"
         style="font-style:normal;font-variant:normal;font-weight:normal;font-stretch:normal;font-family:Lavi;-inkscape-font-specification:Lavi;fill:#ffffff">&quot;SPECIAL&quot;</flowPara><flowPara
         style="font-style:normal;font-variant:normal;font-weight:normal;font-stretch:normal;font-family:Lavi;-inkscape-font-specification:Lavi;fill:#ffffff"
         id="flowPara4741">&quot;&quot;</flowPara></flowRoot>  </g>
  <g
     inkscape:groupmode="layer"
     id="layer1"
     inkscape:label="txt">
    <text
       xml:space="preserve"
       style="font-style:normal;font-variant:normal;font-weight:normal;font-stretch:normal;line-height:0%;font-family:Lavi;-inkscape-font-specification:Lavi;text-align:center;letter-spacing:0px;word-spacing:0px;text-anchor:middle;fill:#000000;fill-opacity:1;stroke:none"
       x="281.3588"
       y="1267.9097"
       id="text4246"><tspan
         sodipodi:role="line"
         style="font-size:45px;line-height:1.20000005"
         x="289.26895"
         y="1267.9097"
         id="tspan823">Oo nga </tspan><tspan
         sodipodi:role="line"
         style="font-size:45px;line-height:1.20000005"
         x="289.26895"
         y="1321.9097"
         id="tspan827">pala Pepper, </tspan><tspan
         sodipodi:role="line"
         style="font-size:45px;line-height:1.20000005"
         x="289.26895"
         y="1375.9097"
         id="tspan4691">Nakilala ko </tspan><tspan
         sodipodi:role="line"
         style="font-size:45px;line-height:1.20000005"
         x="289.26895"
         y="1429.9097"
         id="tspan4693">narin yung </tspan><tspan
         sodipodi:role="line"
         style="font-size:45px;line-height:1.20000005"
         x="289.26895"
         y="1483.9097"
         id="tspan4709">mga lola </tspan><tspan
         sodipodi:role="line"
         style="font-size:45px;line-height:1.20000005"
         x="289.26895"
         y="1537.9097"
         id="tspan4695">mo sa </tspan><tspan
         sodipodi:role="line"
         style="font-size:45px;line-height:1.20000005"
         x="281.3588"
         y="1591.9097"
         id="tspan4711">wakas.</tspan></text>
    <text
       xml:space="preserve"
       style="font-style:normal;font-variant:normal;font-weight:normal;font-stretch:normal;line-height:0%;font-family:Lavi;-inkscape-font-specification:Lavi;text-align:center;letter-spacing:0px;word-spacing:0px;text-anchor:middle;fill:#000000;fill-opacity:1;stroke:none"
       x="276.66852"
       y="1923.2231"
       id="text4246-3"><tspan
         sodipodi:role="line"
         style="font-size:45px;line-height:1.20000005"
         x="284.57867"
         y="1923.2231"
         id="tspan872">Medio </tspan><tspan
         sodipodi:role="line"
         style="font-size:45px;line-height:1.20000005"
         x="276.66852"
         y="1977.2231"
         id="tspan4723">may</tspan><tspan
         sodipodi:role="line"
         style="font-size:45px;line-height:1.20000005"
         x="276.66852"
         y="2031.2231"
         id="tspan4715"> pagka-</tspan><tspan
         sodipodi:role="line"
         style="font-size:45px;line-height:1.20000005"
         x="284.57867"
         y="2085.2231"
         id="tspan4731">&quot;special&quot; </tspan><tspan
         sodipodi:role="line"
         style="font-size:45px;line-height:1.20000005"
         x="276.66852"
         y="2139.2231"
         id="tspan4721">nga sila</tspan></text>
    <text
       xml:space="preserve"
       style="font-style:normal;font-variant:normal;font-weight:normal;font-stretch:normal;font-size:24.34302139px;line-height:0%;font-family:Lavi;-inkscape-font-specification:Lavi;text-align:center;letter-spacing:0px;word-spacing:0px;text-anchor:middle;fill:#000000;fill-opacity:1;stroke:none;stroke-width:0.99999994"
       x="1522.0032"
       y="1199.5613"
       id="text4246-3-5"
       transform="matrix(0.91106211,0,-0.15422983,1.09762,0,0)"><tspan
         sodipodi:role="line"
         style="font-size:91.28633118px;line-height:1.20000005;stroke-width:0.99999994"
         x="1522.0032"
         y="1199.5613"
         id="tspan872-2">?!!</tspan></text>
    <text
       xml:space="preserve"
       style="font-style:normal;font-variant:normal;font-weight:normal;font-stretch:normal;line-height:0%;font-family:Lavi;-inkscape-font-specification:Lavi;text-align:center;letter-spacing:0px;word-spacing:0px;text-anchor:middle;fill:#000000;fill-opacity:1;stroke:none"
       x="1818.6262"
       y="1230.6375"
       id="text4246-3-9"><tspan
         sodipodi:role="line"
         style="font-size:45px;line-height:1.20000005"
         x="1818.6262"
         y="1230.6375"
         id="tspan872-27">I mean,</tspan><tspan
         sodipodi:role="line"
         style="font-size:45px;line-height:1.20000005"
         x="1818.6262"
         y="1284.6375"
         id="tspan920">Ang swerte</tspan><tspan
         sodipodi:role="line"
         style="font-size:45px;line-height:1.20000005"
         x="1826.5364"
         y="1338.6375"
         id="tspan4774">-swerte </tspan><tspan
         sodipodi:role="line"
         style="font-size:45px;line-height:1.20000005"
         x="1826.5364"
         y="1392.6375"
         id="tspan4743">mo siguro </tspan><tspan
         sodipodi:role="line"
         style="font-size:45px;line-height:1.20000005"
         x="1818.6262"
         y="1446.6375"
         id="tspan4776">no?</tspan></text>
    <text
       xml:space="preserve"
       style="font-style:normal;font-variant:normal;font-weight:normal;font-stretch:normal;line-height:1.10000002;font-family:Lavi;-inkscape-font-specification:Lavi;text-align:center;letter-spacing:0px;word-spacing:0px;text-anchor:middle;fill:#000000;fill-opacity:1;stroke:none"
       x="2245.8604"
       y="1962.3864"
       id="text4246-3-9-0"><tspan
         sodipodi:role="line"
         style="font-size:45px;line-height:1.10000002"
         x="2245.8604"
         y="1962.3864"
         id="tspan920-3">I'm sure,</tspan><tspan
         sodipodi:role="line"
         style="font-size:45px;line-height:1.10000002"
         x="2253.7705"
         y="2011.8864"
         id="tspan949">pinapayagan </tspan><tspan
         sodipodi:role="line"
         style="font-size:45px;line-height:1.10000002"
         x="2253.7705"
         y="2061.3865"
         id="tspan4750">ka nila sa </tspan><tspan
         sodipodi:role="line"
         style="font-size:45px;line-height:1.10000002"
         x="2253.7705"
         y="2110.8865"
         id="tspan4758">lahat ng </tspan><tspan
         sodipodi:role="line"
         style="font-size:45px;line-height:1.10000002"
         x="2253.7705"
         y="2160.3865"
         id="tspan4752">gusto mong </tspan><tspan
         sodipodi:role="line"
         style="font-size:45px;line-height:1.10000002"
         x="2253.7705"
         y="2209.8865"
         id="tspan4772">gawin </tspan></text>
    <text
       xml:space="preserve"
       style="font-style:normal;font-variant:normal;font-weight:normal;font-stretch:normal;line-height:0%;font-family:Lavi;-inkscape-font-specification:Lavi;text-align:center;letter-spacing:0px;word-spacing:0px;text-anchor:middle;fill:#000000;fill-opacity:1;stroke:none"
       x="607.23407"
       y="2372.322"
       id="text4246-3-9-0-6"><tspan
         sodipodi:role="line"
         style="font-size:45px;line-height:1.20000005"
         x="607.23407"
         y="2372.322"
         id="tspan4832">Tulad ng hindi na</tspan><tspan
         sodipodi:role="line"
         style="font-size:45px;line-height:1.20000005"
         x="607.23407"
         y="2426.322"
         id="tspan4840">magpanggap</tspan><tspan
         sodipodi:role="line"
         style="font-size:45px;line-height:1.20000005"
         x="607.23407"
         y="2480.322"
         id="tspan4836">na gusto mong</tspan><tspan
         sodipodi:role="line"
         style="font-size:45px;line-height:1.20000005"
         x="607.23407"
         y="2534.322"
         id="tspan4838">makipag plastikan</tspan></text>
    <text
       xml:space="preserve"
       style="font-style:normal;font-variant:normal;font-weight:normal;font-stretch:normal;line-height:0%;font-family:Lavi;-inkscape-font-specification:Lavi;text-align:center;letter-spacing:0px;word-spacing:0px;text-anchor:middle;fill:#000000;fill-opacity:1;stroke:none"
       x="1380.0146"
       y="2340.3127"
       id="text4246-3-9-0-6-1"><tspan
         sodipodi:role="line"
         style="font-size:45px;line-height:1.20000005"
         x="1387.9248"
         y="2340.3127"
         id="tspan869">O magsayaw at </tspan><tspan
         sodipodi:role="line"
         style="font-size:45px;line-height:1.20000005"
         x="1387.9248"
         y="2394.3127"
         id="tspan4862">mag-enjoy lang </tspan><tspan
         sodipodi:role="line"
         style="font-size:45px;line-height:1.20000005"
         x="1387.9248"
         y="2448.3127"
         id="tspan4856">ng walang ni </tspan><tspan
         sodipodi:role="line"
         style="font-size:45px;line-height:1.20000005"
         x="1387.9248"
         y="2502.3127"
         id="tspan4860">isang pakialam </tspan><tspan
         sodipodi:role="line"
         style="font-size:45px;line-height:1.20000005"
         x="1380.0146"
         y="2556.3127"
         id="tspan4858">sa mundo</tspan></text>
    <text
       xml:space="preserve"
       style="font-style:normal;font-variant:normal;font-weight:normal;font-stretch:normal;line-height:0%;font-family:Lavi;-inkscape-font-specification:Lavi;text-align:center;letter-spacing:0px;word-spacing:0px;text-anchor:middle;fill:#000000;fill-opacity:1;stroke:none"
       x="1855.5475"
       y="2357.2849"
       id="text4246-3-9-0-6-1-0"><tspan
         sodipodi:role="line"
         style="font-size:45px;line-height:1.20000005"
         x="1863.4576"
         y="2357.2849"
         id="tspan881">O kaya naman </tspan><tspan
         sodipodi:role="line"
         style="font-size:45px;line-height:1.20000005"
         x="1855.5475"
         y="2411.2849"
         id="tspan4796">kumain ng kumain</tspan><tspan
         sodipodi:role="line"
         style="font-size:45px;line-height:1.20000005"
         x="1863.4576"
         y="2465.2849"
         id="tspan4794">tapos walang </tspan><tspan
         sodipodi:role="line"
         style="font-size:45px;line-height:1.20000005"
         x="1863.4576"
         y="2519.2849"
         id="tspan4800">sisita sayo </tspan></text>
    <flowRoot
       xml:space="preserve"
       id="flowRoot4612"
       style="fill:black;fill-opacity:1;stroke:none;font-family:sans-serif;font-style:normal;font-weight:normal;font-size:40px;line-height:1.25;letter-spacing:0px;word-spacing:0px"><flowRegion
         id="flowRegion4614"><rect
           id="rect4616"
           width="722.22803"
           height="214.19691"
           x="1782.2281"
           y="1377.5076" /></flowRegion><flowPara
         id="flowPara4618"></flowPara></flowRoot>    <text
       xml:space="preserve"
       style="font-style:normal;font-weight:normal;font-size:40px;line-height:1.25;font-family:sans-serif;letter-spacing:0px;word-spacing:0px;fill:#000000;fill-opacity:1;stroke:none"
       x="281.47672"
       y="2101.1086"
       id="text4727"><tspan
         sodipodi:role="line"
         id="tspan4725"
         x="281.47672"
         y="2137.5034"></tspan><tspan
         sodipodi:role="line"
         x="281.47672"
         y="2187.5034"
         id="tspan4729" /></text>
  </g>
</svg>
