<?xml version="1.0" encoding="UTF-8" standalone="no"?>
<!-- Created with Inkscape (http://www.inkscape.org/) -->

<svg
   xmlns:dc="http://purl.org/dc/elements/1.1/"
   xmlns:cc="http://creativecommons.org/ns#"
   xmlns:rdf="http://www.w3.org/1999/02/22-rdf-syntax-ns#"
   xmlns:svg="http://www.w3.org/2000/svg"
   xmlns="http://www.w3.org/2000/svg"
   xmlns:xlink="http://www.w3.org/1999/xlink"
   xmlns:sodipodi="http://sodipodi.sourceforge.net/DTD/sodipodi-0.dtd"
   xmlns:inkscape="http://www.inkscape.org/namespaces/inkscape"
   id="svg2"
   version="1.1"
   inkscape:version="0.92.1 r15371"
   width="2481"
   height="3503"
   sodipodi:docname="E28P07.svg"
   inkscape:export-filename="/home/dash/Downloads/pepper carrot EPS/ep28_The-Festivities_lang-pack/lang/ph/E28P07.svg.png"
   inkscape:export-xdpi="96"
   inkscape:export-ydpi="96">
  <metadata
     id="metadata8">
    <rdf:RDF>
      <cc:Work
         rdf:about="">
        <dc:format>image/svg+xml</dc:format>
        <dc:type
           rdf:resource="http://purl.org/dc/dcmitype/StillImage" />
        <dc:title />
      </cc:Work>
    </rdf:RDF>
  </metadata>
  <defs
     id="defs6">
    <inkscape:perspective
       sodipodi:type="inkscape:persp3d"
       inkscape:vp_x="0 : 1751.5 : 1"
       inkscape:vp_y="0 : 1000 : 0"
       inkscape:vp_z="2481 : 1751.5 : 1"
       inkscape:persp3d-origin="1240.5 : 1167.6667 : 1"
       id="perspective5132" />
  </defs>
  <sodipodi:namedview
     pagecolor="#ffffff"
     bordercolor="#666666"
     borderopacity="1"
     objecttolerance="10"
     gridtolerance="10"
     guidetolerance="10"
     inkscape:pageopacity="0"
     inkscape:pageshadow="2"
     inkscape:window-width="1920"
     inkscape:window-height="997"
     id="namedview4"
     showgrid="false"
     inkscape:zoom="0.1767767"
     inkscape:cx="633.1006"
     inkscape:cy="1913.8086"
     inkscape:window-x="0"
     inkscape:window-y="0"
     inkscape:window-maximized="1"
     inkscape:current-layer="layer1" />
  <g
     inkscape:groupmode="layer"
     id="layer2"
     inkscape:label="artwork"
     sodipodi:insensitive="true">
    <image
       sodipodi:absref="/home/dash/Downloads/pepper carrot EPS/ep28_The-Festivities_lang-pack/lang/ph/../gfx_Pepper-and-Carrot_by-David-Revoy_E28P07.png"
       xlink:href="../gfx_Pepper-and-Carrot_by-David-Revoy_E28P07.png"
       y="0"
       x="0"
       id="image10"
       height="3503"
       width="2481" />
  </g>
  <g
     inkscape:groupmode="layer"
     id="layer3"
     inkscape:label="speechbubbles">
    <path
       style="fill:#ffffff;fill-rule:evenodd;stroke:none;stroke-width:1.06057203px;stroke-linecap:butt;stroke-linejoin:miter;stroke-opacity:1"
       d="m 115.06912,119.38529 c 65.46846,-38.453819 180.11864,-38.34134 242.97385,-37.378358 62.8552,0.962982 216.35957,0.0267 252.88721,23.602808 36.52763,23.57612 60.52866,25.58786 59.50919,78.18134 -1.01945,52.59349 -16.31865,78.66366 -59.34808,104.30897 -43.02943,25.64532 -213.26751,31.25733 -261.36512,32.16448 -48.0976,0.90715 -168.19823,-4.22094 -204.75775,-26.15351 -36.55949,-21.93255 -69.071179,-61.88749 -66.58534,-94.7301 2.48585,-32.8426 16.063794,-65.51527 36.68604,-79.99563 z"
       id="path1035"
       inkscape:connector-curvature="0" />
    <path
       style="fill:#ffffff;fill-rule:evenodd;stroke:none;stroke-width:1px;stroke-linecap:butt;stroke-linejoin:miter;stroke-opacity:1"
       d="m 130.35844,964.16004 c 21.57561,-58.77799 57.24044,-64.43345 111.48553,-68.49367 54.24509,-4.06022 250.01301,-11.09272 297.68294,4.54269 47.66992,15.63538 60.9673,35.48167 74.75356,74.88863 12.01477,34.34331 15.49807,106.82091 3.99153,131.38631 -11.50653,24.5657 -31.32227,56.117 -80.63599,58.6079 -49.31371,2.4909 -291.42364,3.8921 -321.01187,3.4063 -29.58823,-0.4858 -87.21106,-16.391 -98.71767,-61.1381 -11.50654,-44.7468 -9.12363,-84.4221 12.45197,-143.20006 z"
       id="path1039"
       inkscape:connector-curvature="0"
       sodipodi:nodetypes="zsssccssz" />
    <path
       style="fill:#ffffff;fill-rule:evenodd;stroke:none;stroke-width:1px;stroke-linecap:butt;stroke-linejoin:miter;stroke-opacity:1"
       d="m 523.81969,960.77583 c 17.7664,-36.95411 18.47706,-61.82707 3.55328,-69.64429 -14.92378,-7.81721 -21.31968,-12.7918 -12.79181,-21.31968 8.52787,-8.52787 16.34509,-27.71558 9.94919,-39.08608 -6.39591,-11.37049 -16.34509,-17.05574 -26.29428,-18.47705 15.63444,9.23852 19.89837,17.05574 19.18772,25.58361 -0.71066,8.52787 -2.84263,19.18771 -12.79181,25.58362 -9.94919,6.3959 -23.45165,22.74099 -2.13197,39.08608 21.31968,16.34509 -43.35002,66.09101 -43.35002,66.09101 z"
       id="path1041"
       inkscape:connector-curvature="0" />
    <path
       style="fill:#ffffff;fill-rule:evenodd;stroke:none;stroke-width:1.10108638px;stroke-linecap:butt;stroke-linejoin:miter;stroke-opacity:1"
       d="m 591.49391,1351.2662 c 31.12025,37.228 29.04563,50.0252 32.15761,65.1491 3.11187,15.1238 7.26132,130.298 5.18671,152.4022 -2.07484,22.1041 -10.37341,120.9911 -39.41894,152.4023 -29.04563,31.4111 -53.94169,61.6589 -97.50997,58.1688 -43.56828,-3.4902 -122.40626,-12.7972 -148.33958,-33.738 -25.93354,-20.9407 -43.5684,-66.3124 -52.90445,-117.5009 -9.33605,-51.1886 4.14935,-198.9373 6.22407,-221.0415 2.07462,-22.1041 21.7842,-75.6194 47.71763,-93.07 25.93354,-17.4507 84.02458,-43.045 122.40615,-34.9013 38.38147,8.1436 90.24865,27.921 124.48077,72.1293 z"
       id="path1047"
       inkscape:connector-curvature="0" />
    <path
       style="fill:#ffffff;fill-rule:evenodd;stroke:none;stroke-width:1.30150509px;stroke-linecap:butt;stroke-linejoin:miter;stroke-opacity:1"
       d="m 576.24107,1757.9472 c 38.79929,44.9132 43.64898,72.6256 46.88233,98.4267 3.23335,25.8012 -1.61651,84.0928 -22.63275,111.8051 -21.01623,27.7124 -61.43205,46.8244 -82.44828,53.5136 -21.01607,6.6892 -88.91447,12.4228 -119.63058,1.9112 -30.71576,-10.5116 -75.98142,-45.8688 -90.53114,-66.892 -14.54971,-21.0231 -19.39956,-113.7163 0,-151.9402 19.39958,-38.224 50.11551,-65.9364 93.76449,-75.4924 43.64898,-9.5559 139.03014,-9.5559 174.59593,28.668 z"
       id="path1049"
       inkscape:connector-curvature="0" />
    <path
       style="fill:#ffffff;fill-rule:evenodd;stroke:none;stroke-width:1.1808008px;stroke-linecap:butt;stroke-linejoin:miter;stroke-opacity:1"
       d="m 224.82015,2308.0134 c -0.9643,-76.8089 18.32165,-103.3969 34.7147,-112.2594 16.39305,-8.8626 73.28658,-8.8626 82.92955,-2.9541 9.64297,5.9081 66.5365,0 78.10807,2.9541 11.57156,2.954 49.17915,23.6335 55.92924,76.8091 6.75007,53.1755 16.39304,67.9465 6.75007,118.168 -9.64297,50.2214 -21.21453,94.5343 -60.75072,106.351 -39.53618,11.817 -124.39433,2.9542 -160.07332,-26.5878 -35.67899,-29.5418 -37.60759,-88.6258 -37.60759,-162.4809 z"
       id="path1053"
       inkscape:connector-curvature="0" />
    <path
       style="fill:#ffffff;fill-rule:evenodd;stroke:none;stroke-width:1.03244364px;stroke-linecap:butt;stroke-linejoin:miter;stroke-opacity:1"
       d="m 1147.8203,2099.6836 c 56.0517,25.5325 62.3488,53.5261 71.2097,91.7295 10.2925,82.7898 -3.3537,153.0926 -0.3209,232.523 1.6485,41.1247 -21.4316,97.2884 -51.1059,115.6921 -29.6744,18.404 -118.6975,46.8394 -146.7232,40.321 -28.02587,-6.5184 -102.21192,-18.5233 -121.9947,-46.1203 -19.78289,-27.597 -37.91738,-47.9854 -42.86313,-94.6021 -4.94565,-46.6167 -8.24288,-223.474 -6.59426,-244.8262 1.64861,-21.3522 26.37726,-82.8026 77.48316,-100.3168 51.1058,-17.5142 171.45183,-19.6588 220.90923,5.5998 z"
       id="path1057"
       inkscape:connector-curvature="0"
       sodipodi:nodetypes="cccscssssc" />
    <path
       style="fill:#ffffff;fill-rule:evenodd;stroke:none;stroke-width:0.87683493px;stroke-linecap:butt;stroke-linejoin:miter;stroke-opacity:1"
       d="m 890.29235,2494.292 c 9.97681,3.7788 2.87923,-11.1046 -11.0058,-0.9428 -13.88494,10.1616 -9.82311,111.9366 60.5019,80.3414 -42.89329,2.0969 1.05502,-77.5813 -34.18295,-73.6575 -0.39675,-34.8098 -29.03102,-52.2852 -15.31315,-5.7411 z"
       id="path1059"
       inkscape:connector-curvature="0"
       sodipodi:nodetypes="csccc" />
    <path
       style="opacity:1;fill:#ffffff;fill-rule:evenodd;stroke:none;stroke-width:1.1137706px;stroke-linecap:butt;stroke-linejoin:miter;stroke-opacity:1"
       d="m 2145.4065,120.22165 c 48.7809,56.91594 48.6382,156.58863 47.4166,211.23268 -1.2216,54.64395 -0.034,188.09515 -29.9415,219.85094 -29.9075,31.75579 -32.4597,52.62142 -99.1774,51.73508 -66.7177,-0.88625 -99.7893,-14.18686 -132.3218,-51.59505 -5.2567,-6.04458 -13.7335,-10.60759 -17.7452,-21.51256 44.6462,-32.46945 24.2085,-70.68947 -17.5355,-120.73898 -3.2806,-34.96771 -5.0812,-68.96278 -5.5218,-84.96982 -1.1506,-41.81427 5.3547,-146.22543 33.1773,-178.0089 27.8227,-31.78347 78.5077,-60.047967 120.1704,-57.886871 41.6626,2.161096 83.1098,13.965281 101.4789,31.893481 z"
       id="path1035-3"
       inkscape:connector-curvature="0"
       sodipodi:nodetypes="cssccccccsc" />
    <text
       xml:space="preserve"
       style="font-style:normal;font-weight:normal;font-size:40px;line-height:1.25;font-family:sans-serif;letter-spacing:0px;word-spacing:0px;fill:#000000;fill-opacity:1;stroke:none"
       x="-111.65327"
       y="767.0094"
       id="text4845"><tspan
         sodipodi:role="line"
         id="tspan4843"
         x="-111.65327"
         y="767.0094">              </tspan></text>
  </g>
  <g
     inkscape:groupmode="layer"
     id="layer1"
     inkscape:label="txt"
     style="opacity:1">
    <text
       xml:space="preserve"
       style="font-style:normal;font-variant:normal;font-weight:normal;font-stretch:normal;line-height:0%;font-family:Lavi;-inkscape-font-specification:Lavi;text-align:center;letter-spacing:0px;word-spacing:0px;text-anchor:middle;fill:#000000;fill-opacity:1;stroke:none"
       x="2043.9952"
       y="269.83017"
       id="text4246-3-3"><tspan
         sodipodi:role="line"
         style="font-size:45px;line-height:1.20000005"
         x="2051.9053"
         y="269.83017"
         id="tspan868-9">Oi! </tspan><tspan
         sodipodi:role="line"
         style="font-size:45px;line-height:1.20000005"
         x="2043.9952"
         y="323.83017"
         id="tspan4532">Hello guys!</tspan><tspan
         sodipodi:role="line"
         style="font-size:45px;line-height:1.20000005"
         x="2051.9053"
         y="377.83017"
         id="tspan4530">andito lang </tspan><tspan
         sodipodi:role="line"
         style="font-size:45px;line-height:1.20000005"
         x="2043.9952"
         y="431.83017"
         id="tspan4536">pala kayo</tspan><tspan
         sodipodi:role="line"
         style="font-size:64px;line-height:1.20000005;fill:#ff80b2;fill-opacity:1"
         x="2043.9952"
         y="502.38254"
         id="tspan4841">♥</tspan></text>
    <text
       xml:space="preserve"
       style="font-style:normal;font-variant:normal;font-weight:normal;font-stretch:normal;line-height:0%;font-family:Lavi;-inkscape-font-specification:Lavi;text-align:center;letter-spacing:0px;word-spacing:0px;text-anchor:middle;fill:#000000;fill-opacity:1;stroke:none"
       x="457.44666"
       y="1419.5306"
       id="text4246-3-3-1"><tspan
         sodipodi:role="line"
         style="font-size:45px;line-height:1.20000005"
         x="457.44666"
         y="1419.5306"
         id="tspan924">Sa wakas!</tspan><tspan
         sodipodi:role="line"
         style="font-size:45px;line-height:1.20000005"
         x="465.35681"
         y="1473.5306"
         id="tspan926">Nakapunta </tspan><tspan
         sodipodi:role="line"
         style="font-size:45px;line-height:1.20000005"
         x="457.44666"
         y="1527.5306"
         id="tspan5009">rin kung</tspan><tspan
         sodipodi:role="line"
         style="font-size:45px;line-height:1.20000005"
         x="457.44666"
         y="1581.5306"
         id="tspan928">saan walang</tspan><tspan
         sodipodi:role="line"
         style="font-size:45px;line-height:1.20000005"
         x="457.44666"
         y="1635.5306"
         id="tspan5003">photo-</tspan><tspan
         sodipodi:role="line"
         style="font-size:45px;line-height:1.20000005"
         x="457.44666"
         y="1689.5306"
         id="tspan5011">graphers.</tspan></text>
    <text
       xml:space="preserve"
       style="font-style:normal;font-variant:normal;font-weight:normal;font-stretch:normal;line-height:0%;font-family:Lavi;-inkscape-font-specification:Lavi;text-align:center;letter-spacing:0px;word-spacing:0px;text-anchor:middle;fill:#000000;fill-opacity:1;stroke:none"
       x="459.1416"
       y="1884.907"
       id="text4246-3-3-1-7"><tspan
         sodipodi:role="line"
         style="font-size:45px;line-height:1.20000005"
         x="459.1416"
         y="1884.907"
         id="tspan966">Nakaka-stress</tspan><tspan
         sodipodi:role="line"
         style="font-size:45px;line-height:1.20000005"
         x="459.1416"
         y="1938.907"
         id="tspan5007">na sila</tspan></text>
    <text
       xml:space="preserve"
       style="font-style:normal;font-variant:normal;font-weight:normal;font-stretch:normal;line-height:0%;font-family:Lavi;-inkscape-font-specification:Lavi;text-align:center;letter-spacing:0px;word-spacing:0px;text-anchor:middle;fill:#000000;fill-opacity:1;stroke:none"
       x="357.71518"
       y="2301.3699"
       id="text4246-3-3-1-7-0"><tspan
         sodipodi:role="line"
         style="font-size:45px;line-height:1.20000005"
         x="357.71518"
         y="2301.3699"
         id="tspan966-2">Photo-</tspan><tspan
         sodipodi:role="line"
         style="font-size:45px;line-height:1.20000005"
         x="357.71518"
         y="2355.3699"
         id="tspan5062">graphers</tspan><tspan
         sodipodi:role="line"
         style="font-size:45px;line-height:1.20000005"
         x="357.71518"
         y="2372.7783"
         id="tspan5064"></tspan><tspan
         sodipodi:role="line"
         style="font-size:45px;line-height:1.20000005"
         x="357.71518"
         y="2409.3699"
         id="tspan5066">ba kamo?</tspan></text>
    <text
       xml:space="preserve"
       style="font-style:normal;font-variant:normal;font-weight:normal;font-stretch:normal;line-height:0%;font-family:Lavi;-inkscape-font-specification:Lavi;text-align:center;letter-spacing:0px;word-spacing:0px;text-anchor:middle;fill:#000000;fill-opacity:1;stroke:none"
       x="1031.1484"
       y="2263.1924"
       id="text4246-3-3-1-7-0-6"><tspan
         sodipodi:role="line"
         style="font-size:45px;line-height:1.20000005"
         x="1039.0586"
         y="2263.1924"
         id="tspan1023">subukan mong </tspan><tspan
         sodipodi:role="line"
         style="font-size:45px;line-height:1.20000005"
         x="1039.0586"
         y="2317.1924"
         id="tspan5118">umiwas sa mga </tspan><tspan
         sodipodi:role="line"
         style="font-size:45px;line-height:1.20000005"
         x="1039.0586"
         y="2371.1924"
         id="tspan5114">politiko pag may </tspan><tspan
         sodipodi:role="line"
         style="font-size:45px;line-height:1.20000005"
         x="1039.0586"
         y="2425.1924"
         id="tspan5112">suot ka nito </tspan><tspan
         sodipodi:role="line"
         style="font-size:45px;line-height:1.20000005"
         x="1031.1484"
         y="2479.1924"
         id="tspan5130">sa ulo!</tspan></text>
    <text
       xml:space="preserve"
       style="font-style:normal;font-variant:normal;font-weight:normal;font-stretch:normal;font-size:13.67166328px;line-height:0%;font-family:Lavi;-inkscape-font-specification:Lavi;text-align:center;letter-spacing:0px;word-spacing:0px;text-anchor:middle;fill:#ffffff;fill-opacity:0.43137255;stroke:#ffffff;stroke-width:0.41015574;stroke-miterlimit:4;stroke-dasharray:none;stroke-opacity:1;"
       x="1673.4884"
       y="2527.4509"
       id="text4246-8"
       transform="matrix(0.89761483,-0.24846861,0.02683826,1.1066345,0,0)"><tspan
         sodipodi:role="line"
         style="font-size:35.04694366px;line-height:1.25;fill:#ffffff;stroke:#ffffff;stroke-width:0.41015574;stroke-miterlimit:4;stroke-dasharray:none;stroke-opacity:1;fill-opacity:0.43137255;"
         x="1673.4884"
         y="2527.4509"
         id="tspan4150-8">scratch</tspan><tspan
         sodipodi:role="line"
         style="font-size:35.04694366px;line-height:1.25;fill:#ffffff;stroke:#ffffff;stroke-width:0.41015574;stroke-miterlimit:4;stroke-dasharray:none;stroke-opacity:1;fill-opacity:0.43137255;"
         x="1673.4884"
         y="2571.2595"
         id="tspan1033">scratch</tspan></text>
    <text
       xml:space="preserve"
       style="font-style:normal;font-variant:normal;font-weight:normal;font-stretch:normal;font-size:39.48421097px;line-height:1;font-family:Lavi;-inkscape-font-specification:Lavi;text-align:center;letter-spacing:0px;word-spacing:0px;text-anchor:middle;opacity:1;fill:#000000;fill-opacity:1;stroke:none;stroke-width:0.92541116"
       x="355.24646"
       y="947.1217"
       id="text4246-3-6"><tspan
         sodipodi:role="line"
         style="font-size:39.48421097px;line-height:1;stroke-width:0.92541116"
         x="362.18704"
         y="947.1217"
         id="tspan4896">Sabi kasi ng teachers </tspan><tspan
         sodipodi:role="line"
         style="font-size:39.48421097px;line-height:1;stroke-width:0.92541116"
         x="362.18704"
         y="986.6059"
         id="tspan4900">ko, kailangan namin </tspan><tspan
         sodipodi:role="line"
         style="font-size:39.48421097px;line-height:1;stroke-width:0.92541116"
         x="362.18704"
         y="1026.0901"
         id="tspan4939">magmukhang wala ng </tspan><tspan
         sodipodi:role="line"
         style="font-size:39.48421097px;line-height:1;stroke-width:0.92541116"
         x="362.18704"
         y="1065.5743"
         id="tspan4937">pangangailangan ng mga </tspan><tspan
         sodipodi:role="line"
         style="font-size:39.48421097px;line-height:1;stroke-width:0.92541116"
         x="362.18704"
         y="1105.0586"
         id="tspan4941">makamundong bagay </tspan><tspan
         sodipodi:role="line"
         style="font-size:39.48421097px;line-height:1;stroke-width:0.92541116"
         x="355.24646"
         y="1144.5427"
         id="tspan4949"><tspan
   style="font-style:italic;fill:#999999"
   id="tspan4953">(daw)</tspan> ...</tspan></text>
    <text
       xml:space="preserve"
       style="font-style:normal;font-variant:normal;font-weight:normal;font-stretch:normal;line-height:0%;font-family:Lavi;-inkscape-font-specification:Lavi;text-align:center;letter-spacing:0px;word-spacing:0px;text-anchor:middle;opacity:1;fill:#000000;fill-opacity:1;stroke:none"
       x="384.18344"
       y="167.84772"
       id="text4246-3-6-6"><tspan
         sodipodi:role="line"
         style="font-size:45px;line-height:1.20000005"
         x="392.0936"
         y="167.84772"
         id="tspan4902-1">Hassle kailangan </tspan><tspan
         sodipodi:role="line"
         style="font-size:45px;line-height:1.20000005"
         x="392.0936"
         y="221.84772"
         id="tspan4933">ko pang magtago  </tspan><tspan
         sodipodi:role="line"
         style="font-size:45px;line-height:1.20000005"
         x="384.18344"
         y="275.84772"
         id="tspan4935">para lang makakain...</tspan></text>
    <text
       xml:space="preserve"
       style="font-style:normal;font-variant:normal;font-weight:normal;font-stretch:normal;font-size:20.72634697px;line-height:0%;font-family:Lavi;-inkscape-font-specification:Lavi;text-align:center;letter-spacing:0px;word-spacing:0px;text-anchor:middle;opacity:1;fill:#ffffff;fill-opacity:1;stroke:none;stroke-width:1.7271955"
       x="2086.3909"
       y="1651.3671"
       id="text4246-3-3-1-7-6"><tspan
         sodipodi:role="line"
         style="font-size:77.72380066px;line-height:1.20000005;fill:#ffffff;stroke-width:1.7271955"
         x="2086.3909"
         y="1651.3671"
         id="tspan966-6">?</tspan></text>
    <path
       style="fill:none;stroke:#ffffff;stroke-width:6;stroke-linecap:round;stroke-linejoin:miter;stroke-miterlimit:4;stroke-dasharray:none;stroke-opacity:1;paint-order:stroke fill markers"
       d="m 348.50575,2525.635 -7.13826,73.965 -7.96366,14.7103 8.90626,16.6509 -9.4871,6.9701"
       id="path4997"
       inkscape:connector-curvature="0"
       sodipodi:nodetypes="ccccc" />
    <ellipse
       style="opacity:1;fill:#ffffff;fill-opacity:1;stroke:#ffffff;stroke-width:6;stroke-miterlimit:4;stroke-dasharray:none"
       id="path4999"
       cx="331.86011"
       cy="2650.7603"
       rx="2.1904957"
       ry="2.3274019" />
    <flowRoot
       xml:space="preserve"
       id="flowRoot5013"
       style="fill:black;fill-opacity:1;stroke:none;font-family:sans-serif;font-style:normal;font-weight:normal;font-size:40px;line-height:1.25;letter-spacing:0px;word-spacing:0px"><flowRegion
         id="flowRegion5015"><rect
           id="rect5017"
           width="13.94023"
           height="52.66309"
           x="340.76117"
           y="1517.2917" /></flowRegion><flowPara
         id="flowPara5019"></flowPara></flowRoot>    <text
       xml:space="preserve"
       style="font-style:normal;font-variant:normal;font-weight:normal;font-stretch:normal;font-size:20.72634697px;line-height:0%;font-family:Lavi;-inkscape-font-specification:Lavi;text-align:center;letter-spacing:0px;word-spacing:0px;text-anchor:middle;opacity:1;fill:#ffffff;fill-opacity:1;stroke:none;stroke-width:1.7271955"
       x="2219.3235"
       y="-253.3857"
       id="text4246-3-3-1-7-6-8"
       transform="rotate(44.807484)"><tspan
         sodipodi:role="line"
         style="font-size:77.72380066px;line-height:1.20000005;fill:#ffffff;stroke-width:1.7271955"
         x="2219.3235"
         y="-253.3857"
         id="tspan966-6-7">^ ^</tspan></text>
  </g>
</svg>
