<?xml version="1.0" encoding="UTF-8" standalone="no"?>
<!-- Created with Inkscape (http://www.inkscape.org/) -->

<svg
   xmlns:dc="http://purl.org/dc/elements/1.1/"
   xmlns:cc="http://creativecommons.org/ns#"
   xmlns:rdf="http://www.w3.org/1999/02/22-rdf-syntax-ns#"
   xmlns:svg="http://www.w3.org/2000/svg"
   xmlns="http://www.w3.org/2000/svg"
   xmlns:xlink="http://www.w3.org/1999/xlink"
   xmlns:sodipodi="http://sodipodi.sourceforge.net/DTD/sodipodi-0.dtd"
   xmlns:inkscape="http://www.inkscape.org/namespaces/inkscape"
   id="svg2"
   version="1.1"
   inkscape:version="0.92.3 (2405546, 2018-03-11)"
   width="2481"
   height="3503"
   sodipodi:docname="E25P09.svg">
  <metadata
     id="metadata8">
    <rdf:RDF>
      <cc:Work
         rdf:about="">
        <dc:format>image/svg+xml</dc:format>
        <dc:type
           rdf:resource="http://purl.org/dc/dcmitype/StillImage" />
        <dc:title />
      </cc:Work>
    </rdf:RDF>
  </metadata>
  <defs
     id="defs6" />
  <sodipodi:namedview
     pagecolor="#ffffff"
     bordercolor="#666666"
     borderopacity="1"
     objecttolerance="10"
     gridtolerance="10"
     guidetolerance="10"
     inkscape:pageopacity="0"
     inkscape:pageshadow="2"
     inkscape:window-width="1920"
     inkscape:window-height="1058"
     id="namedview4"
     showgrid="false"
     inkscape:zoom="1.29373"
     inkscape:cx="1165.7546"
     inkscape:cy="275.88215"
     inkscape:window-x="1358"
     inkscape:window-y="-8"
     inkscape:window-maximized="1"
     inkscape:current-layer="layer1" />
  <g
     inkscape:groupmode="layer"
     id="layer2"
     inkscape:label="artwork"
     sodipodi:insensitive="true">
    <image
       sodipodi:absref="C:\Users\QuentinLipeck\Downloads\lang\de\../gfx_Pepper-and-Carrot_by-David-Revoy_E25P09.png"
       xlink:href="../gfx_Pepper-and-Carrot_by-David-Revoy_E25P09.png"
       width="2481"
       height="3503"
       id="image10"
       x="0"
       y="0" />
  </g>
  <g
     inkscape:groupmode="layer"
     id="layer3"
     inkscape:label="speechbubbles" />
  <g
     inkscape:groupmode="layer"
     id="layer1"
     inkscape:label="txt">
    <text
       xml:space="preserve"
       style="font-style:normal;font-variant:normal;font-weight:normal;font-stretch:normal;line-height:0%;font-family:Lavi;-inkscape-font-specification:Lavi;text-align:center;letter-spacing:0px;word-spacing:0px;text-anchor:middle;display:inline;opacity:1;fill:#241c1c;fill-opacity:1;stroke:#000000;stroke-width:4.32200003;stroke-miterlimit:4;stroke-dasharray:none;stroke-opacity:1"
       x="2414.1099"
       y="3323.9915"
       id="text4213"
       transform="matrix(0.95719015,0,-0.32603671,1.0447245,0,0)"><tspan
         sodipodi:role="line"
         id="tspan3562"
         x="2414.1099"
         y="3323.9915"
         style="font-size:72.18077087px;line-height:1.25;stroke-width:4.32200003;stroke-miterlimit:4;stroke-dasharray:none">- ENDE -</tspan></text>
    <text
       xml:space="preserve"
       style="font-style:normal;font-variant:normal;font-weight:normal;font-stretch:normal;font-size:24.03244591px;line-height:0%;font-family:Lavi;-inkscape-font-specification:Lavi;text-align:center;letter-spacing:0px;word-spacing:0px;text-anchor:middle;display:inline;fill:#6c5d53;fill-opacity:1;stroke:none;stroke-width:1"
       x="2194.207"
       y="348.15305"
       id="text4246-7-6-2-0"
       transform="matrix(1.0166729,0,-0.14474245,0.98360055,0,0)"><tspan
         sodipodi:role="line"
         style="font-size:90.12167358px;line-height:1.25;fill:#6c5d53;stroke-width:1"
         x="2194.207"
         y="348.15305"
         id="tspan4434">?</tspan></text>
    <text
       xml:space="preserve"
       style="font-style:normal;font-variant:normal;font-weight:normal;font-stretch:normal;font-size:18.84607506px;line-height:0%;font-family:Lavi;-inkscape-font-specification:Lavi;text-align:center;letter-spacing:0px;word-spacing:0px;text-anchor:middle;display:inline;fill:#6c5d53;fill-opacity:1;stroke:none;stroke-width:1"
       x="2107.9875"
       y="215.39224"
       id="text4246-7-6-2-0-3"
       transform="skewX(-8.1026777)"><tspan
         sodipodi:role="line"
         style="font-size:70.6727829px;line-height:1.25;fill:#6c5d53;stroke-width:1"
         x="2107.9875"
         y="215.39224"
         id="tspan4434-6">?</tspan></text>
    <text
       xml:space="preserve"
       style="font-style:normal;font-variant:normal;font-weight:normal;font-stretch:normal;font-size:16.53988457px;line-height:0%;font-family:Lavi;-inkscape-font-specification:Lavi;text-align:center;letter-spacing:0px;word-spacing:0px;text-anchor:middle;display:inline;fill:#6c5d53;fill-opacity:1;stroke:none;stroke-width:0.99999994"
       x="1934.1464"
       y="322.08286"
       id="text4246-7-6-2-0-7"
       transform="matrix(1.0268344,0,-0.14618914,0.97386687,0,0)"><tspan
         sodipodi:role="line"
         style="font-size:62.02456665px;line-height:1.25;fill:#6c5d53;stroke-width:0.99999994"
         x="1934.1464"
         y="322.08286"
         id="tspan4434-5">?</tspan></text>
    <text
       xml:space="preserve"
       style="font-style:normal;font-variant:normal;font-weight:normal;font-stretch:normal;font-size:18.84607506px;line-height:0%;font-family:Lavi;-inkscape-font-specification:Lavi;text-align:center;letter-spacing:0px;word-spacing:0px;text-anchor:middle;display:inline;fill:#6c5d53;fill-opacity:1;stroke:none;stroke-width:1"
       x="2117.4392"
       y="455.46783"
       id="text4246-7-6-2-0-35"
       transform="skewX(-8.1026777)"><tspan
         sodipodi:role="line"
         style="font-size:70.6727829px;line-height:1.25;fill:#6c5d53;stroke-width:1"
         x="2117.4392"
         y="455.46783"
         id="tspan4434-62">?</tspan></text>
    <text
       xml:space="preserve"
       style="font-style:normal;font-variant:normal;font-weight:normal;font-stretch:normal;font-size:18.84607506px;line-height:0%;font-family:Lavi;-inkscape-font-specification:Lavi;text-align:center;letter-spacing:0px;word-spacing:0px;text-anchor:middle;display:inline;fill:#6c5d53;fill-opacity:1;stroke:none;stroke-width:1"
       x="1803.7524"
       y="933.7287"
       id="text4246-7-6-2-0-35-9"
       transform="skewX(-8.1026777)"><tspan
         sodipodi:role="line"
         style="font-size:70.6727829px;line-height:1.25;fill:#6c5d53;stroke-width:1"
         x="1803.7524"
         y="933.7287"
         id="tspan4434-62-1">?</tspan></text>
    <text
       xml:space="preserve"
       style="font-style:normal;font-variant:normal;font-weight:normal;font-stretch:normal;font-size:24.03244591px;line-height:0%;font-family:Lavi;-inkscape-font-specification:Lavi;text-align:center;letter-spacing:0px;word-spacing:0px;text-anchor:middle;display:inline;fill:#6c5d53;fill-opacity:1;stroke:none;stroke-width:1"
       x="1907.7261"
       y="1055.0443"
       id="text4246-7-6-2-0-35-2"
       transform="matrix(1.0166729,0,-0.14474245,0.98360055,0,0)"><tspan
         sodipodi:role="line"
         style="font-size:90.12167358px;line-height:1.25;fill:#6c5d53;stroke-width:1"
         x="1907.7261"
         y="1055.0443"
         id="tspan4434-62-7">?</tspan></text>
    <text
       xml:space="preserve"
       style="font-style:normal;font-variant:normal;font-weight:normal;font-stretch:normal;font-size:18.84607506px;line-height:0%;font-family:Lavi;-inkscape-font-specification:Lavi;text-align:center;letter-spacing:0px;word-spacing:0px;text-anchor:middle;display:inline;fill:#6c5d53;fill-opacity:1;stroke:none;stroke-width:1"
       x="1701.615"
       y="1052.8213"
       id="text4246-7-6-2-0-35-0"
       transform="skewX(-8.1026777)"><tspan
         sodipodi:role="line"
         style="font-size:70.6727829px;line-height:1.25;fill:#6c5d53;stroke-width:1"
         x="1701.615"
         y="1052.8213"
         id="tspan4434-62-9">?</tspan></text>
    <text
       xml:space="preserve"
       style="font-style:normal;font-variant:normal;font-weight:normal;font-stretch:normal;font-size:13.25901604px;line-height:0%;font-family:Lavi;-inkscape-font-specification:Lavi;text-align:center;letter-spacing:0px;word-spacing:0px;text-anchor:middle;display:inline;fill:#6c5d53;fill-opacity:1;stroke:none;stroke-width:1"
       x="1805.6163"
       y="1124.2996"
       id="text4246-7-6-2-0-35-3"
       transform="skewX(-8.1026778)"><tspan
         sodipodi:role="line"
         style="font-size:49.72130966px;line-height:1.25;fill:#6c5d53;stroke-width:1"
         x="1805.6163"
         y="1124.2996"
         id="tspan4434-62-6">?</tspan></text>
    <text
       xml:space="preserve"
       style="font-style:normal;font-variant:normal;font-weight:normal;font-stretch:normal;font-size:18.84607506px;line-height:0%;font-family:Lavi;-inkscape-font-specification:Lavi;text-align:center;letter-spacing:0px;word-spacing:0px;text-anchor:middle;display:inline;fill:#6c5d53;fill-opacity:1;stroke:none;stroke-width:1"
       x="445.20239"
       y="221.06328"
       id="text4246-7-6-2-0-35-9-0"
       transform="skewX(-8.1026777)"><tspan
         sodipodi:role="line"
         style="font-size:70.6727829px;line-height:1.25;fill:#6c5d53;stroke-width:1"
         x="445.20239"
         y="221.06328"
         id="tspan4434-62-1-6">?</tspan></text>
    <text
       xml:space="preserve"
       style="font-style:normal;font-variant:normal;font-weight:normal;font-stretch:normal;font-size:22.761446px;line-height:0%;font-family:Lavi;-inkscape-font-specification:Lavi;text-align:center;letter-spacing:0px;word-spacing:0px;text-anchor:middle;display:inline;fill:#6c5d53;fill-opacity:1;stroke:none;stroke-width:1"
       x="571.84967"
       y="301.72791"
       id="text4246-7-6-2-0-35-9-0-2"
       transform="matrix(0.99162337,0,-0.14117619,1.0084474,0,0)"><tspan
         sodipodi:role="line"
         style="font-size:85.35542297px;line-height:1.25;fill:#6c5d53;stroke-width:1"
         x="571.84967"
         y="301.72791"
         id="tspan4434-62-1-6-6">?</tspan></text>
    <text
       xml:space="preserve"
       style="font-style:normal;font-variant:normal;font-weight:normal;font-stretch:normal;font-size:15.27145863px;line-height:0%;font-family:Lavi;-inkscape-font-specification:Lavi;text-align:center;letter-spacing:0px;word-spacing:0px;text-anchor:middle;display:inline;fill:#6c5d53;fill-opacity:1;stroke:none;stroke-width:1"
       x="360.87628"
       y="304.96155"
       id="text4246-7-6-2-0-35-9-0-2-1"
       transform="matrix(0.99017188,0,-0.14096954,1.0099257,0,0)"><tspan
         sodipodi:role="line"
         style="font-size:57.26797104px;line-height:1.25;fill:#6c5d53;stroke-width:1"
         x="360.87628"
         y="304.96155"
         id="tspan4434-62-1-6-6-8">?</tspan></text>
    <text
       xml:space="preserve"
       style="font-style:normal;font-variant:normal;font-weight:normal;font-stretch:normal;font-size:20.33082581px;line-height:0%;font-family:Lavi;-inkscape-font-specification:Lavi;text-align:center;letter-spacing:0px;word-spacing:0px;text-anchor:middle;display:inline;fill:#6c5d53;fill-opacity:1;stroke:none;stroke-width:0.99999988"
       x="499.1864"
       y="390.67615"
       id="text4246-7-6-2-0-35-9-0-2-1-7"
       transform="matrix(0.97277155,0,-0.13849228,1.0279906,0,0)"><tspan
         sodipodi:role="line"
         style="font-size:76.24060059px;line-height:1.25;fill:#6c5d53;stroke-width:0.99999988"
         x="499.1864"
         y="390.67615"
         id="tspan4434-62-1-6-6-8-9">?</tspan></text>
  </g>
</svg>
