<?xml version="1.0" encoding="UTF-8" standalone="no"?>
<!-- Created with Inkscape (http://www.inkscape.org/) -->

<svg
   xmlns:dc="http://purl.org/dc/elements/1.1/"
   xmlns:cc="http://creativecommons.org/ns#"
   xmlns:rdf="http://www.w3.org/1999/02/22-rdf-syntax-ns#"
   xmlns:svg="http://www.w3.org/2000/svg"
   xmlns="http://www.w3.org/2000/svg"
   xmlns:xlink="http://www.w3.org/1999/xlink"
   xmlns:sodipodi="http://sodipodi.sourceforge.net/DTD/sodipodi-0.dtd"
   xmlns:inkscape="http://www.inkscape.org/namespaces/inkscape"
   id="svg2"
   version="1.1"
   inkscape:version="0.92.2 2405546, 2018-03-11"
   width="2481"
   height="3503"
   sodipodi:docname="E06P08.svg">
  <metadata
     id="metadata8">
    <rdf:RDF>
      <cc:Work
         rdf:about="">
        <dc:format>image/svg+xml</dc:format>
        <dc:type
           rdf:resource="http://purl.org/dc/dcmitype/StillImage" />
        <dc:title />
      </cc:Work>
    </rdf:RDF>
  </metadata>
  <defs
     id="defs6">
    <filter
       color-interpolation-filters="sRGB"
       id="filter4375-4-1-1-15-1-3-3"
       inkscape:label="deevad outline effect">
      <feFlood
         id="feFlood4377-7-9-0-4-4-4-7"
         flood-opacity="1"
         flood-color="rgb(0,0,0)"
         result="flood" />
      <feComposite
         id="feComposite4379-3-8-8-6-0-7-4"
         in2="SourceGraphic"
         in="flood"
         operator="in"
         result="composite1" />
      <feMorphology
         id="feMorphology4393-1-0-49-8-2-7-3"
         operator="dilate"
         radius="0.69999999999999996"
         result="result3" />
      <feComposite
         id="feComposite4385-9-5-7-2-1-2-9"
         in2="result3"
         in="SourceGraphic"
         operator="over"
         result="composite2" />
    </filter>
    <filter
       color-interpolation-filters="sRGB"
       id="filter3639"
       inkscape:label="deevad outline effect">
      <feFlood
         id="feFlood3641"
         flood-opacity="1"
         flood-color="rgb(0,0,0)"
         result="flood" />
      <feComposite
         id="feComposite3643"
         in2="SourceGraphic"
         in="flood"
         operator="in"
         result="composite1" />
      <feMorphology
         id="feMorphology3645"
         operator="dilate"
         radius="0.69999999999999996"
         result="result3" />
      <feComposite
         id="feComposite3647"
         in2="result3"
         in="SourceGraphic"
         operator="over"
         result="composite2" />
    </filter>
    <filter
       color-interpolation-filters="sRGB"
       id="filter3649"
       inkscape:label="deevad outline effect">
      <feFlood
         id="feFlood3651"
         flood-opacity="1"
         flood-color="rgb(0,0,0)"
         result="flood" />
      <feComposite
         id="feComposite3653"
         in2="SourceGraphic"
         in="flood"
         operator="in"
         result="composite1" />
      <feMorphology
         id="feMorphology3655"
         operator="dilate"
         radius="0.69999999999999996"
         result="result3" />
      <feComposite
         id="feComposite3657"
         in2="result3"
         in="SourceGraphic"
         operator="over"
         result="composite2" />
    </filter>
  </defs>
  <sodipodi:namedview
     pagecolor="#ffffff"
     bordercolor="#666666"
     borderopacity="1"
     objecttolerance="10"
     gridtolerance="10"
     guidetolerance="10"
     inkscape:pageopacity="0"
     inkscape:pageshadow="2"
     inkscape:window-width="1920"
     inkscape:window-height="1033"
     id="namedview4"
     showgrid="false"
     inkscape:zoom="1.2098299"
     inkscape:cx="1793.9172"
     inkscape:cy="96.54496"
     inkscape:window-x="0"
     inkscape:window-y="47"
     inkscape:window-maximized="0"
     inkscape:current-layer="layer1" />
  <g
     inkscape:groupmode="layer"
     id="layer2"
     inkscape:label="artwork"
     sodipodi:insensitive="true">
    <image
       sodipodi:absref="/home/midgard/git/peppercarrot/comics/ep06_The-Potion-Contest/lang/nl/../gfx_Pepper-and-Carrot_by-David-Revoy_E06P08.png"
       xlink:href="../gfx_Pepper-and-Carrot_by-David-Revoy_E06P08.png"
       y="0"
       x="0"
       id="image10"
       height="3503"
       width="2481" />
  </g>
  <g
     inkscape:groupmode="layer"
     id="layer3"
     inkscape:label="speechbubbles" />
  <g
     inkscape:groupmode="layer"
     id="layer1"
     inkscape:label="txt">
    <path
       style="color:#000000;fill:#ffffff;fill-opacity:1;fill-rule:nonzero;stroke:none;stroke-width:1px;marker:none;visibility:visible;display:inline;overflow:visible;enable-background:accumulate"
       d="m 524.44684,1977.3621 c -14.01377,-46.3951 -40.00882,-95.7772 -45.79925,-144.3988 l -11.44029,45.6542 c -62.91152,-129.7986 -216.9307,-210.2683 -37.93418,5.9274 l 4.61436,-21.5395 c 6.85365,14.1808 24.60331,28.6882 28.47492,44.653 l 15.40082,-17.4241 c 13.28656,38.1411 31.12227,58.0858 46.68362,87.1278 z"
       id="path4032-9"
       inkscape:connector-curvature="0"
       sodipodi:nodetypes="cccccccc" />
    <path
       style="color:#000000;fill:#ffffff;fill-opacity:1;fill-rule:nonzero;stroke:none;stroke-width:1px;marker:none;visibility:visible;display:inline;overflow:visible;enable-background:accumulate"
       d="m 734.33747,2852.147 c 34.68316,-42.7494 111.27433,-68.3456 171.06944,-6.0348 45.90017,-4.9397 81.26643,-4.2641 125.92729,48.6318 -41.84055,-33.4484 -69.35796,-47.6353 -136.48501,-35.9449 -35.82358,-28.4476 -90.54377,-19.0565 -121.82817,39.1849 -31.28451,58.2414 -17.69437,44.59 -17.69437,44.59 l -30.80741,-73.5852 z"
       id="path5074-3-6"
       inkscape:connector-curvature="0"
       sodipodi:nodetypes="ccccsccc" />
    <path
       style="color:#000000;fill:#ffffff;fill-opacity:1;fill-rule:nonzero;stroke:none;stroke-width:1px;marker:none;visibility:visible;display:inline;overflow:visible;enable-background:accumulate"
       d="m 921.73639,1713.3647 c 38.32906,18.6277 26.56293,53.657 -17.25459,29.5292 30.4647,35.9116 50.91128,52.0261 35.37649,66.5249 113.16101,-28.688 40.12509,17.6202 12.35589,45.6958 25.2138,-11.1892 65.39632,-42.7141 50.24712,0.9326 8.0165,-2.0071 17.4491,-7.7553 21.4169,0.9326 10.2141,-5.9994 17.8025,-7.54 22.2405,-3.7303 10.0387,-10.9178 16.5252,-13.7923 16.4745,-1.865 9.4908,-8.9943 12.4136,-5.8987 14.827,-1.8652 16.2884,-19.3104 22.3718,-13.8628 28.8303,-9.3257 9.2223,-11.5941 20.0147,-8.9681 32.1252,5.5954 12.3911,-19.7186 25.706,-18.519 39.5387,-5.5954 4.0629,-4.8576 7.7526,-13.0937 13.1796,-5.5954 5.4916,-2.5937 10.9829,-9.2401 16.4744,-2.7977 57.96,-25.5257 83.2408,-3.9641 110.3791,14.921 15.1317,-8.3376 26.0358,-24.4528 51.8945,-13.0558 2.4173,-11.638 16.2824,-16.3634 40.3625,-14.9211 -24.6985,-14.0451 -25.9691,-22.0409 31.3015,-14.9211 -39.9179,-11.5016 -76.7041,-23.0032 -14.8271,-34.5049 -14.4922,-4.5662 -61.8613,6.1755 -9.8847,-48.4933 -36.9085,12.0657 -70.4145,15.2007 -80.7249,-33.5725 -19.9115,12.8266 -41.9579,19.1806 -59.3081,-10.2582 -15.8027,13.7936 -37.9137,10.4819 -49.4234,3.7302 -3.114,15.1069 -26.6303,38.2752 -58.4843,-3.7302 6.989,23.8751 1.6991,61.9029 -35.4201,-0.9326 -0.7362,10.9306 14.5493,70.3734 -88.9621,-0.9326 12.9121,47.8406 -21.4561,20.0035 -48.59972,3.7302 13.46032,29.9949 -6.7969,32.3145 -51.0709,14.9211 34.1543,28.4805 -0.96419,20.6172 -23.06429,19.584 z"
       id="path3549-2"
       inkscape:connector-curvature="0"
       sodipodi:nodetypes="ccccccccccccccccccccccccccccc" />
    <path
       style="color:#000000;display:inline;overflow:visible;visibility:visible;fill:#ffffff;fill-opacity:1;fill-rule:nonzero;stroke:none;stroke-width:1px;marker:none;enable-background:accumulate"
       d="m 635.45489,1756.655 c 77.68327,15.425 156.862,30.5991 24.64521,81.2353 127.96603,-16.2519 51.0576,11.8906 20.74972,29.935 227.61028,-41.4052 83.1768,17.8474 29.19191,52.6287 50.28839,-14.8404 129.21448,-54.5176 102.28122,-2.3845 59.33909,-26.6335 152.41046,-74.8686 43.64297,-0.39 91.52082,-45.8924 93.55468,-41.119 44.90382,-5.9045 59.89834,-31.4082 70.14926,-25.9232 63.33298,-6.5312 37.72038,-40.6127 46.04528,-22.5251 57.80968,-12.9095 17.7269,-14.208 39.911,-11.8811 65.8373,4.3267 23.4499,-23.9364 50.6377,1.4801 50.7648,24.3218 19.3753,-34.413 51.4248,-39.2878 81.3815,-0.9563 0.5853,-22.9435 0.1464,-71.9868 46.217,-0.077 -12.0551,-65.7771 137.5099,-37.9895 209.6299,3.324 -42.449,-48.2731 -6.2824,-79.0486 81.7119,-56.8129 3.882,-13.7886 31.6627,-20.2784 80.7677,-20.2561 -51.483,-14.7301 -54.7779,-24.0007 62.3386,-19.6293 -82.2119,-10.7004 -158.0541,-21.6174 -33.2235,-39.3597 -29.8819,-4.3417 -125.2719,11.5073 -24.4144,-56.0738 -73.9967,16.6752 -141.8664,22.6623 -167.1712,-33.7096 -39.3586,16.3899 -83.6343,25.3519 -121.5392,-7.9038 -30.9158,17.2375 -76.1817,14.8911 -100.1916,7.7849 -4.991,17.8968 -50.7621,46.6403 -119.2836,-0.3202 16.3367,27.4604 8.9574,72.3351 -72.1244,1.3589 -0.5256,12.8442 35.8462,81.36 -181.02427,5.0624 30.51401,55.1004 -41.86192,24.8968 -98.51616,7.7278 30.04286,34.1756 -10.9524,38.2919 -102.54761,20.9969 71.99803,30.9716 -0.12888,24.1975 -45.17027,24.517 z"
       id="path3549"
       inkscape:connector-curvature="0"
       sodipodi:nodetypes="ccccccccccccccccccccccccccccc" />
    <path
       style="color:#000000;fill:#ffffff;fill-opacity:1;fill-rule:nonzero;stroke:none;stroke-width:1px;marker:none;visibility:visible;display:inline;overflow:visible;enable-background:accumulate"
       d="m 448.79463,432.81297 c 33.78023,-32.37434 217.51407,-29.61063 278.64573,-15.58448 61.13139,14.02598 83.878,38.182 86.7213,46.75353 2.84317,8.57145 -4.26493,48.31195 -35.5416,56.10428 -31.27649,7.79224 -120.8411,11.68836 -152.11776,11.68836 -31.27649,0 -131.11816,-4.95974 -156.38296,-16.36377 -24.16828,-10.90916 -55.10508,-50.22366 -21.32471,-82.59792 z"
       id="path3330"
       inkscape:connector-curvature="0"
       sodipodi:nodetypes="zsssssz" />
    <path
       style="color:#000000;display:inline;overflow:visible;visibility:visible;fill:#ffffff;fill-opacity:1;fill-rule:nonzero;stroke:none;stroke-width:1px;marker:none;enable-background:accumulate"
       d="M 354.57888,707.74073 C 342.12032,652.02308 375.34309,504.02319 630.7444,516.21148 886.14552,528.39955 915.8611,592.92685 933.90347,618.9407 943.18093,636.21463 1022.333,753.07229 821.60333,775.09524 618.43413,797.38583 416.87192,787.8347 354.57888,707.74073 Z"
       id="path3525"
       inkscape:connector-curvature="0"
       sodipodi:nodetypes="cscsc" />
    <flowRoot
       transform="translate(198.43199,172.69514)"
       style="font-style:normal;font-variant:normal;font-weight:normal;font-stretch:normal;line-height:0.01%;font-family:Lavi;-inkscape-font-specification:Lavi;text-align:center;letter-spacing:0px;word-spacing:0px;text-anchor:middle;fill:#000000;fill-opacity:1;stroke:none"
       id="flowRoot3045"
       xml:space="preserve"><flowRegion
         id="flowRegion3047"><rect
           style="font-style:normal;font-variant:normal;font-weight:normal;font-stretch:normal;font-family:Lavi;-inkscape-font-specification:Lavi;text-align:center;text-anchor:middle"
           y="265.53046"
           x="120.55251"
           height="310.73996"
           width="602.40173"
           id="rect3049" /></flowRegion><flowPara
         id="flowPara3055"
         style="font-size:48px;line-height:1.25;text-align:center;text-anchor:middle">Moet je zien …</flowPara></flowRoot>    <path
       style="color:#000000;fill:#ffffff;fill-opacity:1;fill-rule:nonzero;stroke:none;stroke-width:1px;marker:none;visibility:visible;display:inline;overflow:visible;enable-background:accumulate"
       d="m 900.08615,716.05926 c 42.51329,20.49356 123.80235,14.32923 138.26235,-30.35733 -49.15569,36.55167 -109.63611,20.90132 -120.75593,10.89767 -11.11981,-10.00366 -17.50642,19.45966 -17.50642,19.45966 z"
       id="path3978"
       inkscape:connector-curvature="0" />
    <path
       style="color:#000000;display:inline;overflow:visible;visibility:visible;fill:#ffffff;fill-opacity:1;fill-rule:nonzero;stroke:none;stroke-width:1px;marker:none;enable-background:accumulate"
       d="m 1554.1833,792.03144 c 57.092,-89.14415 339.289,-81.53416 431.105,-42.91255 91.8153,38.62116 122.9796,105.1358 125.9955,128.7379 3.0158,23.60185 -14.214,133.02901 -63.5608,154.48561 -49.3464,21.4563 -187.7395,32.1844 -235.8518,32.1844 -48.1123,0 -200.9113,-13.6569 -237.9692,-45.0585 -35.4494,-30.03876 -76.8111,-138.29292 -19.7187,-227.43686 z"
       id="path3330-3"
       inkscape:connector-curvature="0"
       sodipodi:nodetypes="zsssssz" />
    <path
       style="color:#000000;fill:#ffffff;fill-opacity:1;fill-rule:nonzero;stroke:none;stroke-width:1px;marker:none;visibility:visible;display:inline;overflow:visible;enable-background:accumulate"
       d="m 1441.4333,792.86046 c 1.8123,17.9111 3.4719,36.60072 12.514,52.57918 2.6665,4.48827 5.7379,8.94714 9.7431,12.29849 4.9422,2.55729 10.902,0.92324 14.9972,-2.48609 6.2588,-4.50938 10.9613,-11.84776 18.8831,-13.58596 5.7972,-1.12556 10.4379,3.16953 14.6457,6.42604 10.5623,8.51108 20.0337,18.50261 31.8998,25.28467 12.8634,8.50453 27.0155,16.51979 42.7488,17.47511 6.2316,0.27366 12.7888,-0.31154 18.2031,-3.68195 14.2818,-8.01643 24.173,-24.34511 22.834,-40.90808 -1.8569,-10.48428 -12.9332,-19.03038 -23.5991,-16.39316 -5.6511,1.30784 -9.507,6.21921 -11.5244,11.3814 -5.4816,8.7963 -15.7551,13.86937 -26.0014,13.88113 -8.456,0.14805 -16.8709,-2.36044 -24.0764,-6.73748 -11.3704,-3.36484 -18.2685,-13.64874 -26.3598,-21.52774 -3.7502,-3.54453 -7.9795,-7.06083 -13.0234,-8.42848 -7.6564,-0.23923 -13.3775,5.76673 -17.631,11.40618 -4.5368,5.70318 -9.1549,12.83128 -16.9484,14.04463 -5.2949,1.57023 -8.0628,-4.3141 -11.2198,-7.42808 -8.8564,-11.35341 -14.0534,-25.32791 -16.0433,-39.50562 -0.089,-1.36474 -0.067,-2.72787 -0.042,-4.09419 z"
       id="path4496"
       inkscape:connector-curvature="0"
       inkscape:transform-center-x="-99.717282"
       inkscape:transform-center-y="101.38562" />
    <path
       style="color:#000000;display:inline;overflow:visible;visibility:visible;fill:#ffffff;fill-opacity:1;fill-rule:nonzero;stroke:none;stroke-width:1px;marker:none;enable-background:accumulate"
       d="m 1823.6184,1103.8725 c 41.6606,-81.8368 273.7295,-91.7664 349.1222,-56.3108 75.3922,35.4553 92.4997,87.7037 96.0062,109.3711 3.5064,21.6672 5.6858,106.0434 -35.6236,148.2546 -31.7385,32.4313 -151.7677,48.8434 -190.3408,48.8434 -38.5727,0 -161.7058,-12.5373 -192.8645,-41.3648 -29.8065,-27.5766 -67.9603,-126.9567 -26.2995,-208.7935 z"
       id="path3330-7"
       inkscape:connector-curvature="0"
       sodipodi:nodetypes="zsssssz" />
    <path
       style="color:#000000;fill:#ffffff;fill-opacity:1;fill-rule:nonzero;stroke:none;stroke-width:1px;marker:none;visibility:visible;display:inline;overflow:visible;enable-background:accumulate"
       d="m 799.55794,2061.6662 c 41.54476,-24.9583 79.49671,-56.3087 125.21587,-73.8403 l -43.51369,-5.8567 c 12.70794,-14.5474 33.04403,-20.2182 50.79008,-28.9032 l -26.26055,-7.9369 c 30.43962,-33.9774 70.07719,-50.7411 105.26895,-75.8248 l -46.93148,-10.2988 c -32.40962,29.4099 -59.34882,63.5475 -97.91175,87.6396 l 24.81802,10.2865 c -12.06842,10.1205 -24.58698,19.7921 -39.1159,27.4588 l 32.36116,10.2326 z"
       id="path4032"
       inkscape:connector-curvature="0"
       sodipodi:nodetypes="cccccccccccc" />
    <path
       style="fill:#ffffff;fill-opacity:1;stroke:none;stroke-width:1"
       d="m 826.84882,2875.6026 c -25.71479,-6.8708 -35.61647,-13.258 -31.01675,-17.1941 -10.54712,-1.9615 -14.6568,-53.0973 -4.80324,-62.4448 0.65585,-0.984 5.25842,-3.9365 3.28046,-4.4272 -1.97786,-0.4907 -13.83197,0.9903 -15.81443,-0.9754 -1.98246,-1.9659 17.69601,-30.0034 15.05779,-30.9856 -2.63842,-0.9819 -43.52424,-5.0755 -52.10224,-9.4966 -8.57815,-4.421 -23.66877,7.0768 -26.30553,6.5863 3.11175,-14.2548 -27.0037,2.4724 -30.29933,1.9824 -3.2954,-0.4902 -9.26987,-15.2384 -12.56542,-15.7283 -3.29564,-0.4901 -18.42724,6.4014 -21.064,5.9112 -2.63677,-0.4904 -1.3567,-12.7839 -4.65233,-13.2737 -3.29555,-0.4902 -17.75624,10.3348 -19.7342,9.8442 -1.97791,-0.4908 -9.30031,-25.0727 -12.59885,-26.5461 -3.2986,-1.4734 -24.29309,27.0565 -26.26809,27.5493 -1.97483,0.4927 -14.59624,-33.429 -17.23309,-33.9195 -2.63675,-0.4903 -15.74054,23.1187 -17.71855,22.628 -1.97794,-0.4907 -14.53754,-14.2524 -17.17573,-15.2344 -2.63827,-0.982 -19.67095,30.496 -22.30613,30.4975 -2.63534,0 -25.07554,-13.2635 -27.05959,-15.721 -1.98398,-2.4575 -3.91357,12.7865 -6.54884,12.7879 -2.63528,0 -32.96766,-8.8341 -33.62508,-8.3421 -0.65723,0.4922 4.64193,9.832 2.6655,9.8331 -1.97642,0 -32.97823,-12.2763 -34.28846,-9.8169 -1.30995,2.4592 -67.23636,-12.2585 -71.84202,-10.2894 -4.60566,1.9693 29.77015,40.3052 26.48525,43.2571 -3.28504,2.952 -15.15439,-0.4839 -15.80862,0.9915 -0.65423,1.4756 7.27108,7.8637 5.30084,9.8316 -1.97056,1.9678 -24.34603,9.8467 -26.31483,12.306 -1.96897,2.4598 9.90925,8.8459 7.2786,10.3225 -2.63082,1.4765 -41.47216,10.8388 -42.12338,13.2977 -0.65122,2.4588 19.80804,14.2493 17.18342,17.6927 -2.62471,3.4433 -9.86713,4.9221 -9.20076,7.3804 0.66638,2.4583 13.19289,5.4021 12.54159,7.861 -0.65138,2.459 -7.20172,14.755 -9.17211,16.7229 -1.97041,1.9678 13.83805,0.9763 13.84408,2.9431 0.005,1.9669 10.46012,14.234 -25.19118,43.8839 54.77089,-22.9118 58.92324,-0.6303 80.67598,3.2922 21.75297,3.9227 13.26366,28.5125 16.56218,29.986 3.29863,1.4735 27.64458,-8.3732 30.94922,-4.933 3.30457,3.4405 4.64175,9.8319 7.27709,9.8306 2.63512,0 24.49585,-10.0372 27.79131,-9.5472 27.26827,-6.974 37.67,15.227 32.18914,18.8592 4.61311,0.4893 22.37388,-8.3706 26.3253,-8.8643 3.95137,-0.4937 7.28304,11.7973 10.57412,10.8123 3.29109,-0.9849 24.34587,-9.8467 27.64282,-8.8649 3.29712,0.9818 5.94444,4.9141 8.57677,3.9292 2.63206,-0.9846 14.47873,-4.9244 14.47873,-4.9244 0,0 8.57357,2.9459 12.52644,2.9439 3.95284,0 18.81598,-12.4678 22.10704,-13.453 3.29106,-0.985 33.75392,4.329 47.91763,34.6438 -8.01661,-35.735 23.47222,-38.94 28.07941,-40.4175 4.6071,-1.4775 18.45583,2.9408 19.76875,1.465 1.31316,-1.4759 5.24189,-9.3451 9.19334,-9.8389 3.95137,-0.4937 13.16864,-2.4651 13.16864,-2.4651 l -1.32658,-2.9497 c 0,0 27.69411,7.8532 30.99726,10.8018 3.30306,2.9486 -2.01567,-12.7833 -4.00417,-16.7161 11.87055,3.9278 46.81328,12.269 49.45598,14.7262 2.64282,2.4572 -4.63864,-8.8486 -8.60214,-12.2885 5.27498,1.4726 9.88819,1.962 9.88819,1.962 l -15.18884,-11.7934 4.60873,-0.9858 c 0,0 -9.89874,-5.4039 -9.9063,-7.8625 -0.007,-2.4584 25.67696,-5.4219 25.67696,-5.4219 0,0 -10.55459,-4.42 -7.9269,-6.8798 2.62789,-2.46 9.2114,-3.9384 9.2114,-3.9384 l 1.29799,-6.3929 z"
       id="path5888"
       inkscape:connector-curvature="0"
       sodipodi:nodetypes="ccccccccccsccccsccccccsccsccscsccccscccscccccscccccsccccscccccccccccc" />
    <path
       style="fill:#ffffff;fill-opacity:1;stroke:none;stroke-width:1"
       d="m 1863.0689,3272.8431 c 49.9024,9.2899 16.7499,-22.8312 13.5712,-27.3199 12.1536,7.5325 32.8615,-0.7552 11.3212,-26.9739 30.605,10.5241 15.6237,5.5615 -2.1838,-22.661 26.9577,14.3509 43.9572,5.2735 24.8086,-14.6222 27.5053,25.5824 37.198,17.4152 19.6555,-14.3518 34.5894,32.904 28.1168,20.5118 19.6876,4.2631 28.8054,29.6572 7.3984,-14.4768 9.601,-14.7157 2.2025,-0.2392 11.5225,7.7676 13.2934,7.4784 1.7707,-0.2891 1.9986,-12.6297 4.2012,-12.8687 2.2025,-0.2392 10.7413,11.6344 12.0804,11.2952 5.1949,4.1671 10.6653,-21.4717 10.5616,-25.4873 -2.2143,3.4825 10.4693,32.0233 14.8265,29.4224 1.2517,0.6397 16.0007,-32.8626 14.2391,-32.4809 -3.2855,0.7117 6.6581,24.5415 9.6498,23.8752 2.3789,4.4146 12.2034,-6.5227 12.58,-13.8756 -0.9254,2.0805 7.2401,34.9966 11.9738,32.0594 2.1366,6.1738 17.9434,-6.1096 19.1004,-13.6136 1.5137,-2.2977 1.4556,13.0306 3.1826,13.231 -3.0475,7.5536 19.1682,-1.3681 22.7634,-5.7684 0.3882,0.5398 -2.1431,8.0277 -2.6003,9.592 -2.4644,8.4305 17.846,0.9132 23.3261,-7.1872 -21.1347,40.4232 40.5577,0.8276 47.9817,-4.8212 2.8479,2.3094 -23.0106,37.8939 -21.1137,41.0821 1.897,3.1883 9.975,0.6628 10.2757,2.1825 0.3007,1.5189 -5.4483,7.2828 -4.3278,9.3915 1.1209,2.1086 15.103,11.646 16.1801,14.2442 1.0771,2.5985 -7.2627,8.0617 -5.6665,9.731 1.5962,1.6694 26.2421,13.9278 26.4555,16.4258 0.2135,2.4982 -14.2197,12.6958 -12.7981,16.3235 1.4216,3.6278 6.0402,5.6476 5.3901,8.0457 -0.6501,2.398 -9.116,4.3837 -8.9026,6.8819 0.2136,2.4983 3.4398,15.2396 4.5606,17.3481 1.1207,2.1089 -9.1548,-0.073 -9.3293,1.8857 -0.1786,1.9581 -27.6296,8.9695 14.9071,45.786 -46.2003,-23.5119 -40.7704,-5.2549 -55.3687,-2.9914 -14.5984,2.2638 -11.1681,27.3957 -13.4579,28.6142 -2.2899,1.2182 -17.3928,-10.4277 -19.8575,-7.251 -2.4646,3.1768 -3.8956,9.4417 -5.623,9.2412 -1.727,-0.199 -15.1845,-11.8471 -17.387,-11.6081 -17.2677,-9.0054 -26.0121,12.3201 -22.7349,16.3517 -3.0662,0.139 -13.9387,-10.0269 -16.4857,-10.8171 -2.5471,-0.7902 -5.7975,11.1997 -7.8691,9.9701 -2.0716,-1.2297 -15.1029,-11.6462 -17.3491,-10.9173 -2.2464,0.7287 -4.3228,4.4454 -5.9626,3.2654 -1.6398,-1.1794 -9.0627,-5.9981 -9.0627,-5.9981 0,0 -5.8752,2.2864 -8.4659,1.9858 -2.5909,-0.2986 -18.8532,-18.5118 -20.9247,-19.7416 -2.0717,-1.2297 -30.0744,16.1211 -29.041,19.2092 1.0335,3.0882 -9.7764,-24.2078 -12.6679,-26.0274 -2.8914,-1.8196 -12.352,1.5349 -13.0844,-0.034 -0.7328,-1.569 -2.6249,-9.7032 -5.172,-10.4935 -2.5471,-0.7903 -8.4174,-3.45 -8.4174,-3.45 l 1.1255,-2.8377 c 0,0 -18.8336,5.7298 -21.2545,8.417 -2.421,2.687 2.4305,-12.5797 4.0753,-16.3465 5.1579,-9.9063 9.67,-20.7578 -18.4159,-29.8926 50.6618,1.3577 13.92,-16.6897 -5.851,-22.4454 z"
       id="path5888-2"
       inkscape:connector-curvature="0"
       sodipodi:nodetypes="ccccccccsccccsccccccsccsccscsccccscccscccccscccccsccccscccc" />
    <path
       style="color:#000000;display:inline;overflow:visible;visibility:visible;fill:#ffffff;fill-opacity:1;fill-rule:nonzero;stroke:none;stroke-width:1px;marker:none;enable-background:accumulate"
       d="m 1958.929,3341.1229 c -80.496,39.622 -224.9322,50.5336 -284.8694,47.132 -187.7765,-10.657 -357.4654,-88.7841 -367.078,-172.9205 -40.1351,-22.8124 -89.9311,-67.1699 -95.2654,-136.1926 14.4093,51.5928 49.9408,102.3286 111.2465,132.0662 6.5136,62.4317 178.3365,143.1008 353.3003,143.1008 101.8317,0 228.252,-21.198 286.8247,-88.1833 z"
       id="path5074-3"
       inkscape:connector-curvature="0"
       sodipodi:nodetypes="cscccscc" />
    <path
       style="color:#000000;fill:#ffffff;fill-opacity:1;fill-rule:nonzero;stroke:none;stroke-width:1px;marker:none;visibility:visible;display:inline;overflow:visible;enable-background:accumulate"
       d="m 432.9877,1582.757 c -4.62527,14.1556 -29.80658,59.4538 -38.06244,16.2093 -42.3877,66.8706 -90.94164,55.4388 -139.14497,48.4577 -9.52731,19.5362 -7.09875,46.1647 -46.96241,47.7053 7.95498,15.9183 -3.45476,30.2003 -32.14335,43.0229 40.98017,2.4517 49.77676,11.6093 -21.84737,37.5242 55.93525,-9.943 108.31222,-17.9855 48.57741,33.848 20.66662,-3.1249 64.61473,-45.2102 55.82445,54.2176 30.8443,-37.3814 66.03449,-61.6079 122.59982,-7.3014 10.83096,-28.0111 30.03942,-49.2804 76.82521,-23.2543 5.27288,-26.7184 55.3579,-38.7619 74.64488,-37.3629 -41.4714,-20.5081 -42.72921,-38.0996 7.62637,-50.843 -92.48457,-33.4472 -21.82215,-39.6374 -9.97409,-55.1095 -69.36813,-4.1008 -42.62685,-31.5667 -33.87821,-55.3999 -76.91874,14.4742 -56.82784,-24.9365 -64.0853,-51.714 z"
       id="path3549-3"
       inkscape:connector-curvature="0"
       sodipodi:nodetypes="ccccccccccccccc" />
    <flowRoot
       xml:space="preserve"
       id="flowRoot4133-6-9-4-8-5-3"
       style="color:#000000;font-style:normal;font-variant:normal;font-weight:normal;font-stretch:normal;line-height:0.01%;font-family:Arial;-inkscape-font-specification:Arial;letter-spacing:0.00204969px;word-spacing:0px;display:inline;overflow:visible;visibility:visible;fill:#ffffff;fill-opacity:1;fill-rule:nonzero;stroke:#ffffff;stroke-width:0.0836072;stroke-linecap:butt;stroke-linejoin:miter;stroke-miterlimit:4;stroke-dasharray:none;stroke-dashoffset:0;stroke-opacity:1;marker:none;filter:url(#filter4375-4-1-1-15-1-3-3);enable-background:accumulate"
       transform="matrix(8.3099216,-5.4900388,-0.26452567,16.18078,-7093.1327,-9087.3999)"><flowRegion
         id="flowRegion4135-2-9-3-5-2-6"
         style="stroke-width:0.86646658"><rect
           id="rect4137-1-7-1-2-1-4"
           width="200.00224"
           height="39.051064"
           x="1125.3193"
           y="1078.5308"
           style="color:#000000;letter-spacing:0.00204969px;display:inline;overflow:visible;visibility:visible;fill:#ffffff;fill-opacity:1;fill-rule:nonzero;stroke:#ffffff;stroke-width:0.0836072;stroke-linecap:butt;stroke-linejoin:miter;stroke-miterlimit:4;stroke-dasharray:none;stroke-dashoffset:0;stroke-opacity:1;marker:none;filter:url(#filter4375-4-1-1-15-1-3-3);enable-background:accumulate" /></flowRegion><flowPara
         id="flowPara4139-2-8-6-8-6-3"
         style="color:#000000;font-style:normal;font-variant:normal;font-weight:normal;font-stretch:normal;font-size:17.85409164px;line-height:125%;font-family:Lavi;-inkscape-font-specification:Lavi;letter-spacing:0.00204969px;word-spacing:0.00204969px;display:inline;overflow:visible;visibility:visible;fill:#ffffff;fill-opacity:1;fill-rule:nonzero;stroke:#ffffff;stroke-width:0.0836072;stroke-linecap:butt;stroke-linejoin:miter;stroke-miterlimit:4;stroke-dasharray:none;stroke-dashoffset:0;stroke-opacity:1;marker:none;enable-background:accumulate">K<flowSpan
   style="font-size:13.08514309px"
   id="flowSpan3116">R</flowSpan><flowSpan
   id="flowSpan3122"
   style="font-size:8.7063818px">AA</flowSpan><flowSpan
   id="flowSpan3126"
   style="font-size:7.83930063px">K!</flowSpan></flowPara></flowRoot>    <text
       xml:space="preserve"
       style="font-style:normal;font-variant:normal;font-weight:normal;font-stretch:normal;font-size:48px;line-height:1.25;font-family:Lavi;-inkscape-font-specification:'Lavi, Normal';font-variant-ligatures:normal;font-variant-caps:normal;font-variant-numeric:normal;font-feature-settings:normal;text-align:center;letter-spacing:0px;word-spacing:0px;writing-mode:lr-tb;text-anchor:middle;fill:#000000;fill-opacity:1;stroke:none"
       x="657.72919"
       y="604.09314"
       id="text91"><tspan
         sodipodi:role="line"
         id="tspan89"
         x="657.72919"
         y="604.09314">… zoals gebruikelijk</tspan><tspan
         sodipodi:role="line"
         x="657.72919"
         y="664.09314"
         id="tspan93">vertrekt iedereen net</tspan><tspan
         sodipodi:role="line"
         x="657.72919"
         y="724.09314"
         id="tspan95">als je aan de beurt bent.</tspan></text>
    <text
       xml:space="preserve"
       style="font-style:normal;font-variant:normal;font-weight:normal;font-stretch:normal;font-size:48px;line-height:1.25;font-family:Lavi;-inkscape-font-specification:'Lavi, Normal';font-variant-ligatures:normal;font-variant-caps:normal;font-variant-numeric:normal;font-feature-settings:normal;text-align:center;letter-spacing:0px;word-spacing:0px;writing-mode:lr-tb;text-anchor:middle;fill:#000000;fill-opacity:1;stroke:none"
       x="1815.9231"
       y="814.24249"
       id="text99"><tspan
         sodipodi:role="line"
         x="1815.9231"
         y="814.24249"
         id="tspan101">Ik weet nu</tspan><tspan
         sodipodi:role="line"
         x="1815.9231"
         y="874.24249"
         id="tspan105">tenminste wat ik</tspan><tspan
         sodipodi:role="line"
         x="1815.9231"
         y="934.24249"
         id="tspan107">met jouw “toverdrank&quot;</tspan><tspan
         sodipodi:role="line"
         x="1815.9231"
         y="994.24249"
         id="tspan109">moet doen, Carrot …</tspan></text>
    <text
       xml:space="preserve"
       style="font-style:normal;font-variant:normal;font-weight:normal;font-stretch:normal;font-size:48px;line-height:0.01%;font-family:Lavi;-inkscape-font-specification:'Lavi, Normal';font-variant-ligatures:normal;font-variant-caps:normal;font-variant-numeric:normal;font-feature-settings:normal;text-align:center;letter-spacing:0px;word-spacing:0px;writing-mode:lr-tb;text-anchor:middle;fill:#000000;fill-opacity:1;stroke:none"
       x="2030.9955"
       y="1124.9661"
       id="text125"><tspan
         sodipodi:role="line"
         id="tspan123"
         x="2030.9955"
         y="1124.9661"
         style="line-height:1.25">… hier alles weer</tspan><tspan
         sodipodi:role="line"
         x="2030.9955"
         y="1184.9661"
         id="tspan127"
         style="line-height:1.25">in orde maken</tspan><tspan
         sodipodi:role="line"
         x="2030.9955"
         y="1244.9661"
         style="line-height:1.25"
         id="tspan129">en terug naar</tspan><tspan
         sodipodi:role="line"
         x="2030.9955"
         y="1304.9661"
         style="line-height:1.25"
         id="tspan131">huis gaan!</tspan></text>
    <text
       xml:space="preserve"
       style="font-style:normal;font-variant:normal;font-weight:normal;font-stretch:normal;font-size:48px;line-height:1.25;font-family:Lavi;-inkscape-font-specification:'Lavi, Normal';font-variant-ligatures:normal;font-variant-caps:normal;font-variant-numeric:normal;font-feature-settings:normal;text-align:center;letter-spacing:0px;word-spacing:0px;writing-mode:lr-tb;text-anchor:middle;fill:#000000;fill-opacity:1;stroke:none"
       x="1157.9808"
       y="1759.827"
       id="text135"><tspan
         sodipodi:role="line"
         id="tspan133"
         x="1157.9808"
         y="1759.827">Jij</tspan><tspan
         sodipodi:role="line"
         x="1157.9808"
         y="1819.827"
         id="tspan137"
         style="font-weight:bold;font-size:53.33333333px;letter-spacing:0px">overmaatse <tspan
   style="letter-spacing:3px"
   id="tspan139">l</tspan><tspan
   style="letter-spacing:1.1px"
   id="tspan201">u</tspan><tspan
   style="letter-spacing:-2.5px"
   id="tspan225">x</tspan><tspan
   id="tspan341"
   style="letter-spacing:2.9px">e</tspan><tspan
   style="letter-spacing:1.2px"
   id="tspan277">-</tspan>zombi<tspan
   style="letter-spacing:3.8px"
   id="tspan339">e</tspan>-kanarie!</tspan></text>
    <text
       xml:space="preserve"
       style="font-style:normal;font-variant:normal;font-weight:bold;font-stretch:normal;font-size:85.33333588px;line-height:0.01%;font-family:Lavi;-inkscape-font-specification:'Lavi, Bold';font-variant-ligatures:normal;font-variant-caps:normal;font-variant-numeric:normal;font-feature-settings:normal;text-align:center;letter-spacing:0px;word-spacing:0px;writing-mode:lr-tb;text-anchor:middle;fill:#000000;fill-opacity:1;stroke:none;stroke-width:2.71217394;stroke-miterlimit:4;stroke-dasharray:none;stroke-opacity:1"
       x="360.48083"
       y="1772.4459"
       id="text460"><tspan
         sodipodi:role="line"
         id="tspan458"
         x="360.48083"
         y="1772.4459">HÉ!</tspan></text>
    <text
       xml:space="preserve"
       style="font-style:normal;font-variant:normal;font-weight:normal;font-stretch:normal;font-size:48px;line-height:1.25;font-family:Lavi;-inkscape-font-specification:'Lavi, Normal';font-variant-ligatures:normal;font-variant-caps:normal;font-variant-numeric:normal;font-feature-settings:normal;text-align:center;letter-spacing:0px;word-spacing:0px;writing-mode:lr-tb;text-anchor:middle;fill:#000000;fill-opacity:1;stroke:none"
       x="565.81281"
       y="2839.4233"
       id="text464"><tspan
         sodipodi:role="line"
         id="tspan462"
         x="565.81281"
         y="2839.4233">Nog één drankje</tspan><tspan
         sodipodi:role="line"
         x="565.81281"
         y="2899.4233"
         id="tspan466">proberen?</tspan></text>
    <text
       xml:space="preserve"
       style="font-style:normal;font-variant:normal;font-weight:normal;font-stretch:normal;font-size:48px;line-height:1.25;font-family:Lavi;-inkscape-font-specification:'Lavi, Normal';font-variant-ligatures:normal;font-variant-caps:normal;font-variant-numeric:normal;font-feature-settings:normal;text-align:center;letter-spacing:0px;word-spacing:0px;writing-mode:lr-tb;text-anchor:middle;fill:#000000;fill-opacity:1;stroke:none"
       x="2032.8085"
       y="3250.7119"
       id="text476"><tspan
         sodipodi:role="line"
         id="tspan474"
         x="2032.8085"
         y="3250.7119">… liever</tspan><tspan
         sodipodi:role="line"
         x="2032.8085"
         y="3310.7119"
         id="tspan478">niet, hè?</tspan></text>
  </g>
</svg>
