<?xml version="1.0" encoding="UTF-8" standalone="no"?>
<svg
   sodipodi:docname="E35P10.svg"
   height="3503"
   width="2481"
   inkscape:version="1.2.1 (9c6d41e410, 2022-07-14)"
   version="1.1"
   id="svg2"
   xmlns:inkscape="http://www.inkscape.org/namespaces/inkscape"
   xmlns:sodipodi="http://sodipodi.sourceforge.net/DTD/sodipodi-0.dtd"
   xmlns:xlink="http://www.w3.org/1999/xlink"
   xmlns="http://www.w3.org/2000/svg"
   xmlns:svg="http://www.w3.org/2000/svg"
   xmlns:rdf="http://www.w3.org/1999/02/22-rdf-syntax-ns#"
   xmlns:cc="http://creativecommons.org/ns#"
   xmlns:dc="http://purl.org/dc/elements/1.1/">
  <metadata
     id="metadata8">
    <rdf:RDF>
      <cc:Work
         rdf:about="">
        <dc:format>image/svg+xml</dc:format>
        <dc:type
           rdf:resource="http://purl.org/dc/dcmitype/StillImage" />
        <dc:title />
      </cc:Work>
    </rdf:RDF>
  </metadata>
  <defs
     id="defs6" />
  <sodipodi:namedview
     inkscape:pagecheckerboard="0"
     inkscape:snap-global="false"
     inkscape:document-rotation="0"
     inkscape:current-layer="layer3"
     inkscape:window-maximized="1"
     inkscape:window-y="36"
     inkscape:window-x="1283"
     inkscape:cy="1544.7917"
     inkscape:cx="1253.125"
     inkscape:zoom="0.48"
     showgrid="false"
     id="namedview4"
     inkscape:window-height="1388"
     inkscape:window-width="1261"
     inkscape:pageshadow="2"
     inkscape:pageopacity="0"
     guidetolerance="10"
     gridtolerance="10"
     objecttolerance="10"
     borderopacity="1"
     bordercolor="#666666"
     pagecolor="#ffffff"
     inkscape:showpageshadow="2"
     inkscape:deskcolor="#d1d1d1" />
  <g
     sodipodi:insensitive="true"
     inkscape:label="artwork"
     id="layer2"
     inkscape:groupmode="layer">
    <image
       xlink:href="../gfx_Pepper-and-Carrot_by-David-Revoy_E35P10.png"
       y="0"
       x="0"
       id="image10"
       height="3503"
       width="2481" />
  </g>
  <g
     inkscape:label="speechbubbles"
     id="layer3"
     inkscape:groupmode="layer">
    <path
       sodipodi:nodetypes="zsssssz"
       inkscape:connector-curvature="0"
       id="path3100-98"
       d="m 1250.0091,138.42305 c -55.1137,0.31175 -110.831,-0.50856 -165.0137,11.58855 -22.529,4.89309 -45.4585,10.69765 -65.2474,23.41568 -23.43766,15.24431 -42.89042,38.36842 -51.15571,66.11874 -6.75215,24.16222 -2.51039,50.41079 7.69242,72.83818 12.03549,27.81338 33.91919,51.13706 60.99359,63.10461 27.7719,13.58307 57.2862,22.83112 86.9856,30.58657 43.1387,10.28844 87.5762,11.99197 131.6575,12.83089 53.2564,1.60678 106.7977,4.71814 159.8597,-2.02471 32.8008,-3.98496 65.4833,-9.32328 97.7134,-16.85615 32.2543,-7.75524 64.3982,-19.13631 91.5154,-39.39911 12.4438,-8.9574 21.7892,-21.91188 28.1678,-36.07522 4.3985,-9.74611 7.5641,-20.03238 10.6491,-30.29027 5.6467,-20.07916 7.3272,-41.86303 1.6305,-62.14812 -7.2228,-27.03191 -26.5574,-50.0597 -51.0958,-61.55514 -24.9006,-12.74971 -52.4518,-18.08065 -79.5619,-23.05315 -39.4487,-6.5177 -79.4752,-7.3745 -119.3245,-8.46922 -47.9573,-0.75958 -95.9224,-0.58344 -143.8834,-0.62373 -0.5276,0.004 -1.0551,0.008 -1.5826,0.0116 z"
       style="fill:#ffffff;stroke:none;stroke-width:1.00122" />
    <path
       sodipodi:nodetypes="csscscsssc"
       inkscape:connector-curvature="0"
       id="path4538-8"
       d="m 1448.7795,517.63055 c 2.403,-24.32977 -9.2766,-33.6163 -20.6628,-38.28253 -11.3869,-4.66626 -19.0826,-5.58729 -28.1978,-26.0826 -9.1142,-20.49521 -0.7357,-41.29642 -4.8853,-52.46499 -11.4569,-16.24953 -34.9307,-26.06627 -44.5289,-30.51513 -21.6856,-10.05119 11.3091,-23.29909 11.3091,-23.29909 8.77,-0.30545 47.7455,23.68713 57.7575,33.72157 14.4084,14.44054 -4.0636,48.20741 4.0399,65.52593 7.5675,16.17219 18.2749,17.40774 23.9472,28.63593 5.6729,11.22843 4.8219,31.66667 1.2211,42.76091 z"
       style="color:#000000;display:inline;overflow:visible;visibility:visible;fill:#ffffff;fill-opacity:1;fill-rule:nonzero;stroke:none;stroke-width:0.83737px;marker:none;enable-background:accumulate" />
    <path
       sodipodi:nodetypes="cssssssscc"
       inkscape:connector-curvature="0"
       id="path4546-6-2-0"
       d="m 111.08343,1513.2338 c 4.3077,-51.438 4.92606,-101.1291 61.90412,-130.8314 56.97794,-29.7011 157.35777,-37.1638 283.44164,-28.5241 67.53723,4.6274 152.6167,10.812 206.47237,32.1904 53.85567,21.3784 76.48766,57.9506 70.96103,133.2959 -5.52663,75.3452 -35.35087,108.017 -97.56357,126.8224 -62.21262,18.8069 -156.81394,23.7478 -179.5938,25.6947 -22.77984,1.9468 -93.43287,-0.5439 -163.53096,-9.8815 -70.09796,-9.3376 -118.04472,-15.8581 -138.60474,-41.3038 -32.23118,-32.28 -45.44614,-70.0132 -43.48609,-107.4626 z"
       style="color:#000000;display:inline;overflow:visible;visibility:visible;fill:#ffffff;fill-opacity:1;fill-rule:nonzero;stroke:none;stroke-width:1.23377px;marker:none;enable-background:accumulate" />
    <path
       sodipodi:nodetypes="cccccccc"
       inkscape:connector-curvature="0"
       id="path1303"
       d="m 566.83527,1651.6586 c 4.43847,-15.3188 61.8645,41.4938 43.56991,104.2767 2.42387,27.4208 22.18027,42.2423 21.12076,57.0045 -1.05963,24.2524 -9.53608,35.8508 -36.02508,55.8848 33.90594,-15.8168 54.23301,-33.7608 55.29264,-58.0121 1.05951,-24.2524 -17.71625,-25.1329 -17.14842,-60.0829 1.05952,-10.5449 25.79381,-65.3353 -26.69151,-120.7385 19.07205,-20.0341 -40.1183,21.6675 -40.1183,21.6675 z"
       style="fill:#ffffff;fill-rule:evenodd;stroke:none;stroke-width:1.12465px;stroke-linecap:butt;stroke-linejoin:miter;stroke-opacity:1" />
    <path
       sodipodi:nodetypes="cssssssscc"
       inkscape:connector-curvature="0"
       id="path4546-6-2-0-3"
       d="m 1281.8209,1541.7467 c 2.4753,-37.3903 2.8306,-73.5107 35.5721,-95.1015 32.7413,-21.5896 90.4228,-27.0143 162.8745,-20.7341 38.8092,3.3636 87.6985,7.8593 118.6458,23.3992 30.9472,15.54 43.9521,42.1243 40.7764,96.8929 -3.1756,54.7685 -20.3136,78.5176 -56.063,92.1873 -35.7495,13.6708 -90.1104,17.2623 -103.2004,18.6775 -13.09,1.4151 -53.6897,-0.3954 -93.9703,-7.1829 -40.2806,-6.7874 -67.8322,-11.5272 -79.6466,-30.0237 -18.521,-23.4644 -26.1149,-50.8927 -24.9885,-78.1147 z"
       style="color:#000000;display:inline;overflow:visible;visibility:visible;fill:#ffffff;fill-opacity:1;fill-rule:nonzero;stroke:none;stroke-width:0.79738px;marker:none;enable-background:accumulate" />
    <path
       sodipodi:nodetypes="cssssssscc"
       inkscape:connector-curvature="0"
       id="path4546-6-2-0-3-6"
       d="m 1336.3245,1759.375 c 2.447,-41.1512 2.7982,-80.9047 35.1658,-104.6672 32.3673,-23.7613 89.3901,-29.7316 161.0141,-22.8197 38.366,3.702 86.6968,8.6498 117.2907,25.7529 30.5937,17.1029 43.4503,46.3614 40.3107,106.6388 -3.1395,60.2772 -20.0818,86.415 -55.4228,101.4599 -35.3409,15.0458 -89.0812,18.9986 -102.0217,20.556 -12.9405,1.5576 -53.0764,-0.4349 -92.8967,-7.9053 -39.8205,-7.4703 -67.0575,-12.6866 -78.737,-33.0436 -18.3096,-25.8245 -25.8166,-56.0116 -24.7031,-85.9718 z"
       style="color:#000000;display:inline;overflow:visible;visibility:visible;fill:#ffffff;fill-opacity:1;fill-rule:nonzero;stroke:none;stroke-width:0.831731px;marker:none;enable-background:accumulate" />
    <path
       sodipodi:nodetypes="ccsc"
       inkscape:connector-curvature="0"
       id="path5010-4"
       d="m 1474.8245,1844.8292 c 6.1533,73.3287 -47.1663,130.4434 -118.01,146.3855 114.7363,-9.2052 166.2605,-106.0374 160.9588,-137.1332 -5.191,-30.4467 -42.9488,-9.2523 -42.9488,-9.2523 z"
       style="color:#000000;display:inline;overflow:visible;visibility:visible;fill:#ffffff;fill-opacity:1;fill-rule:nonzero;stroke:none;stroke-width:1.47843px;marker:none;enable-background:accumulate" />
  </g>
  <g
     inkscape:label="txt"
     id="layer1"
     inkscape:groupmode="layer">
    <text
       id="text4246-3-2-2"
       y="212.86652"
       x="1306.0781"
       style="font-style:normal;font-variant:normal;font-weight:normal;font-stretch:normal;font-size:45px;line-height:1.25;font-family:Lavi;-inkscape-font-specification:Lavi;text-align:center;letter-spacing:0px;word-spacing:0px;text-anchor:middle;fill:#000000;fill-opacity:1;stroke:none"
       xml:space="preserve"><tspan
         y="212.86652"
         x="1306.0781"
         sodipodi:role="line"
         style="font-size:45px"
         id="tspan299">Je snapt natuurlijk wel dat</tspan><tspan
         y="269.11652"
         x="1306.0781"
         sodipodi:role="line"
         style="font-size:45px"
         id="tspan301">jezelf overgeven aan Meester</tspan><tspan
         y="325.36652"
         x="1306.0781"
         sodipodi:role="line"
         style="font-size:45px"
         id="tspan305">Wasabi niet goed voor je</tspan><tspan
         y="381.61652"
         x="1306.0781"
         sodipodi:role="line"
         style="font-size:45px"
         id="tspan307">zal eindigen, toch?</tspan></text>
    <text
       id="text4246-3-2-2-3"
       y="1454.652"
       x="426.10352"
       style="font-style:normal;font-variant:normal;font-weight:normal;font-stretch:normal;font-size:45px;line-height:1.25;font-family:Lavi;-inkscape-font-specification:Lavi;text-align:center;letter-spacing:0px;word-spacing:0px;text-anchor:middle;fill:#000000;fill-opacity:1;stroke:none"
       xml:space="preserve"><tspan
         y="1454.652"
         x="426.10352"
         sodipodi:role="line"
         style="font-size:45px"
         id="tspan7423">Dat weet ik, maar ik voel</tspan><tspan
         y="1510.902"
         x="426.10352"
         sodipodi:role="line"
         style="font-size:45px"
         id="tspan386">dat er een manier moet zijn</tspan><tspan
         y="1567.152"
         x="426.10352"
         sodipodi:role="line"
         style="font-size:45px"
         id="tspan392">om tot haar door te dringen,</tspan><tspan
         y="1623.402"
         x="426.10352"
         sodipodi:role="line"
         style="font-size:45px"
         id="tspan388">om begrip te kweken.</tspan></text>
    <text
       id="text4246-3-2-2-3-3"
       y="1490.1573"
       x="1460.6498"
       style="font-style:normal;font-variant:normal;font-weight:normal;font-stretch:normal;font-size:45px;line-height:1.25;font-family:Lavi;-inkscape-font-specification:Lavi;text-align:center;letter-spacing:0px;word-spacing:0px;text-anchor:middle;fill:#000000;fill-opacity:1;stroke:none"
       xml:space="preserve"><tspan
         id="tspan912"
         y="1490.1573"
         x="1460.6498"
         sodipodi:role="line"
         style="font-size:45px">Want niets</tspan><tspan
         y="1546.4073"
         x="1460.6498"
         sodipodi:role="line"
         style="font-size:45px"
         id="tspan432">is immers</tspan><tspan
         y="1602.6573"
         x="1460.6498"
         sodipodi:role="line"
         style="font-size:45px"
         id="tspan434">onherstelbaar.</tspan></text>
    <text
       id="text4246-3-2-2-3-3-1"
       y="1717.9688"
       x="1516.4325"
       style="font-style:normal;font-variant:normal;font-weight:normal;font-stretch:normal;font-size:45px;line-height:1.25;font-family:Lavi;-inkscape-font-specification:Lavi;text-align:center;letter-spacing:0px;word-spacing:0px;text-anchor:middle;fill:#000000;fill-opacity:1;stroke:none"
       xml:space="preserve"><tspan
         y="1717.9688"
         x="1516.4325"
         sodipodi:role="line"
         style="font-size:45px"
         id="tspan445">Dat heeft een</tspan><tspan
         y="1774.2188"
         x="1516.4325"
         sodipodi:role="line"
         style="font-size:45px"
         id="tspan449">goede vriendin</tspan><tspan
         y="1830.4688"
         x="1516.4325"
         sodipodi:role="line"
         style="font-size:45px"
         id="tspan451">mij geleerd.</tspan></text>
  </g>
</svg>
