<?xml version="1.0" encoding="UTF-8" standalone="no"?>
<svg
   id="svg2"
   version="1.1"
   inkscape:version="1.1 (c68e22c387, 2021-05-23)"
   width="2481"
   height="3503"
   sodipodi:docname="E06P02.svg"
   xmlns:inkscape="http://www.inkscape.org/namespaces/inkscape"
   xmlns:sodipodi="http://sodipodi.sourceforge.net/DTD/sodipodi-0.dtd"
   xmlns:xlink="http://www.w3.org/1999/xlink"
   xmlns="http://www.w3.org/2000/svg"
   xmlns:svg="http://www.w3.org/2000/svg"
   xmlns:rdf="http://www.w3.org/1999/02/22-rdf-syntax-ns#"
   xmlns:cc="http://creativecommons.org/ns#"
   xmlns:dc="http://purl.org/dc/elements/1.1/">
  <sodipodi:namedview
     pagecolor="#ffffff"
     bordercolor="#666666"
     inkscape:pageopacity="0"
     inkscape:pageshadow="2"
     inkscape:window-width="1366"
     inkscape:window-height="745"
     id="namedview70"
     showgrid="false"
     inkscape:zoom="0.74811898"
     inkscape:cx="1378.7914"
     inkscape:cy="3333.026"
     inkscape:current-layer="layer1"
     inkscape:window-x="-8"
     inkscape:window-y="-8"
     inkscape:window-maximized="1"
     inkscape:document-rotation="0"
     borderopacity="1.0"
     inkscape:pagecheckerboard="0" />
  <metadata
     id="metadata8">
    <rdf:RDF>
      <cc:Work
         rdf:about="">
        <dc:format>image/svg+xml</dc:format>
        <dc:type
           rdf:resource="http://purl.org/dc/dcmitype/StillImage" />
        <dc:title />
      </cc:Work>
    </rdf:RDF>
  </metadata>
  <defs
     id="defs6" />
  <sodipodi:namedview
     pagecolor="#ffffff"
     bordercolor="#666666"
     borderopacity="1"
     objecttolerance="10"
     gridtolerance="10"
     guidetolerance="10"
     inkscape:pageopacity="0"
     inkscape:pageshadow="2"
     inkscape:window-width="1920"
     inkscape:window-height="1025"
     id="namedview4"
     showgrid="false"
     inkscape:zoom="0.46000001"
     inkscape:cx="1098.6967"
     inkscape:cy="1053.5964"
     inkscape:window-x="0"
     inkscape:window-y="26"
     inkscape:window-maximized="1"
     inkscape:current-layer="layer1" />
  <g
     inkscape:groupmode="layer"
     id="layer2"
     inkscape:label="artwork"
     sodipodi:insensitive="true">
    <image
       xlink:href="../gfx_Pepper-and-Carrot_by-David-Revoy_E06P02.png"
       y="0"
       x="0"
       id="image10"
       height="3503"
       width="2481" />
  </g>
  <g
     inkscape:groupmode="layer"
     id="layer3"
     inkscape:label="speechbubbles" />
  <g
     inkscape:groupmode="layer"
     id="layer1"
     inkscape:label="txt">
    <path
       style="fill:#ffffff;stroke:none"
       d="m 1126.196,2721.2257 c 135.5001,-128.2224 200.0239,-172.4369 303.2622,-190.1228 103.2381,-17.6857 394.8711,-0.1516 477.4766,95.0614 86.8277,100.0797 139.8017,280.7627 139.8017,446.5675 4.3016,48.636 -10.7539,55.2682 -10.7539,55.2682 l -53.7699,-39.7932 c 0,0 32.2619,64.1112 19.3571,-59.6896 -12.9047,-123.801 -70.7991,-330.2166 -143.9262,-400.96 -73.1271,-70.7432 -343.8302,-98.6292 -458.2966,-69.9255 -92.6876,23.2424 -148.1467,52.739 -273.151,163.594 z"
       id="path3187"
       inkscape:connector-curvature="0"
       sodipodi:nodetypes="csscccsssc" />
    <path
       style="color:#000000;display:inline;overflow:visible;visibility:visible;fill:#ffffff;fill-opacity:1;fill-rule:nonzero;stroke:none;stroke-width:0.809484px;marker:none;enable-background:accumulate"
       d="m 1505.8029,2516.7957 c 6.7672,-48.1341 76.9989,-70.6089 100.3666,-67.1054 23.3678,3.5033 83.4734,18.5965 97.8818,19.2121 14.4084,0.6156 66.7996,-5.9136 85.7566,-7.6087 18.957,-1.6951 41.5441,44.3607 39.3987,63.0569 -2.1455,18.6961 -17.5182,70.6452 -67.1619,74.7867 -49.6437,4.1417 -116.1449,-6.2147 -129.7675,-0.5341 -13.6228,5.6805 -72.2717,9.4373 -93.5629,-9.0076 -21.2913,-18.445 -39.6785,-24.6656 -32.9114,-72.7999 z"
       id="path4554"
       inkscape:connector-curvature="0"
       sodipodi:nodetypes="zsssssssz" />
    <path
       style="fill:#ffffff;stroke:none"
       d="m 706.53061,2094.6531 c 32.49339,16.5242 72.42333,19.9541 106.2476,5.336 23.96413,-10.3507 43.10596,-30.6877 52.91016,-54.7891 8.92889,-20.7111 16.5495,-42.0215 22.47953,-63.786 0.77355,-2.3842 0.88866,-7.4394 3.09046,-3.05 8.8548,11.2521 17.70955,22.5043 26.56434,33.7565 -5.7459,16.0518 -11.49177,32.1038 -17.23768,48.1556 -17.14629,23.8307 -40.98411,43.1432 -68.48595,53.6675 -24.8489,9.3177 -52.6556,10.0407 -78.07188,2.5211 -16.83814,-4.7653 -32.73171,-12.4853 -47.49658,-21.8116 z"
       id="path3063"
       inkscape:connector-curvature="0" />
    <path
       style="color:#000000;display:inline;overflow:visible;visibility:visible;fill:#ffffff;fill-opacity:1;fill-rule:nonzero;stroke:none;stroke-width:1.17446px;marker:none;enable-background:accumulate"
       d="m 589.90917,829.5108 c 7.07661,-11.23353 37.66068,-44.16554 33.16212,-3.34547 49.13702,-47.10082 83.4118,-22.84023 118.53124,-2.63585 12.17093,-14.59014 16.97158,-38.95448 47.84369,-28.744 -2.10377,-16.45377 10.19315,-25.82897 35.3396,-28.88832 -30.72783,-14.0819 -35.16551,-24.77347 26.09062,-26.99346 -45.26421,-7.41363 -87.33181,-15.48217 -28.68787,-44.1839 -16.58671,-3.22674 -60.72005,21.39952 -29.13733,-64.387 -32.93556,24.25334 -65.90576,35.55633 -95.58742,-29.12495 -15.28687,21.74127 -35.29519,35.05914 -64.56861,-1.65468 -10.71301,22.20714 -52.02823,18.35935 -66.4288,11.51392 26.58888,30.26741 23.15243,46.26256 -18.5448,42.95784 62.36749,56.58166 6.77853,41.55593 -6.15106,51.86113 52.02592,23.79309 24.70739,40.4285 12.05759,59.06257 62.44481,9.4829 37.2258,38.66272 36.08103,64.56217 z"
       id="path3549"
       inkscape:connector-curvature="0"
       sodipodi:nodetypes="ccccccccccccccc" />
    <path
       style="color:#000000;display:inline;overflow:visible;visibility:visible;fill:#ffffff;fill-opacity:1;fill-rule:nonzero;stroke:none;stroke-width:1px;marker:none;enable-background:accumulate"
       d="m 976.44338,847.56589 c -30.6895,-33.22336 -66.9003,-62.08779 -91.17475,-100.37564 l 1.54948,40.35805 c -15.99714,-8.96132 -24.76055,-26.36164 -35.9803,-40.89653 l -3.27371,25.12109 c -37.48833,-21.61613 -60.02929,-54.53911 -89.79475,-81.99702 l -2.13576,44.21988 c 33.44478,24.19089 70.51094,42.61441 99.88228,73.29247 l 5.75736,-24.2252 c 11.65945,9.15239 22.96362,18.78968 32.68105,30.59298 l 4.46649,-31.03554 z"
       id="path4032"
       inkscape:connector-curvature="0"
       sodipodi:nodetypes="cccccccccccc" />
    <flowRoot
       xml:space="preserve"
       id="flowRoot2987-4-9"
       style="font-style:normal;font-variant:normal;font-weight:normal;font-stretch:normal;line-height:0.01%;font-family:'linja sike';-inkscape-font-specification:'linja sike';text-align:center;letter-spacing:0px;word-spacing:0px;text-anchor:middle;fill:#000000;fill-opacity:1;stroke:none"
       transform="matrix(2.0639129,0,-0.41696688,1.8332873,-50.565342,142.77136)"><flowRegion
         id="flowRegion2989-5-4"><rect
           id="rect2991-7-9"
           width="602.40173"
           height="310.73996"
           x="120.55251"
           y="265.53046"
           style="font-style:normal;font-variant:normal;font-weight:normal;font-stretch:normal;font-family:'linja sike';-inkscape-font-specification:'linja sike';text-align:center;text-anchor:middle" /></flowRegion><flowPara
         style="font-size:66.6667px;line-height:1.25;text-align:center;text-anchor:middle"
         id="flowPara3030">a&gt;__</flowPara></flowRoot>
    <path
       style="fill:#ffffff;stroke:none;stroke-width:0.960961"
       d="m 738.02885,1829.7473 c 21.6861,-83.1378 151.05809,-69.6017 166.22732,-75.7487 15.16924,-6.1471 57.74862,-3.8313 67.54238,-1.852 9.79378,1.9792 63.14985,-9.2277 75.38915,5.2981 7.3975,8.7795 157.0805,-0.9008 179.9846,13.062 22.904,13.9628 25.3307,123.9026 21.8185,154.8311 -3.5122,30.9285 -38.1992,91.3164 -107.5683,114.0265 -69.3692,22.7102 -198.84482,35.5761 -276.45658,23.0427 -77.61178,-12.5334 -92.59527,-18.2031 -119.01611,-36.2996 -42.08391,-28.8247 -24.50881,-155.9505 -7.92096,-196.3601 z"
       id="path3061"
       inkscape:connector-curvature="0"
       sodipodi:nodetypes="cssssssssc" />
    <flowRoot
       xml:space="preserve"
       id="flowRoot2987-4-9-3"
       style="font-style:normal;font-variant:normal;font-weight:normal;font-stretch:normal;font-size:69.251px;line-height:0.01%;font-family:'linja sike';-inkscape-font-specification:'linja sike';text-align:center;letter-spacing:0px;word-spacing:0px;text-anchor:middle;fill:#000000;fill-opacity:1;stroke:none"
       transform="matrix(0.96268194,0,0,0.96268194,621.99314,1539.0659)"><flowRegion
         id="flowRegion2989-5-4-0"
         style="font-size:69.251px"><rect
           id="rect2991-7-9-6"
           width="553.52673"
           height="276.31055"
           x="94.465561"
           y="254.66089"
           style="font-style:normal;font-variant:normal;font-weight:normal;font-stretch:normal;font-family:'linja sike';-inkscape-font-specification:'linja sike';text-align:center;text-anchor:middle;font-size:69.25097885px" /></flowRegion><flowPara
         style="font-size:69.251px;line-height:1.25;text-align:center;text-anchor:middle"
         id="flowPara3130">soweli[_kili+anpa_wile+awen] o! </flowPara><flowPara
         style="font-size:69.251px;line-height:1.25;text-align:center;text-anchor:middle"
         id="flowPara11087">sina wile tawa e mi </flowPara><flowPara
         style="font-size:69.251px;line-height:1.25;text-align:center;text-anchor:middle"
         id="flowPara15177">tawa utala pi+__pali __telo  lasina suwi a!</flowPara><flowPara
         style="font-size:69.251px;line-height:1.25;text-align:center;text-anchor:middle"
         id="flowPara3075"> </flowPara></flowRoot>
    <flowRoot
       xml:space="preserve"
       id="flowRoot2987-4-9-1"
       style="font-style:normal;font-variant:normal;font-weight:normal;font-stretch:normal;line-height:0.01%;font-family:'linja sike';-inkscape-font-specification:'linja sike';text-align:center;letter-spacing:0px;word-spacing:0px;text-anchor:middle;fill:#000000;fill-opacity:1;stroke:none"
       transform="matrix(1.1668178,0,0,1.1668178,1168.4025,2171.1931)"><flowRegion
         id="flowRegion2989-5-4-5"><rect
           id="rect2991-7-9-8"
           width="602.40173"
           height="310.73996"
           x="120.55251"
           y="265.53046"
           style="font-style:normal;font-variant:normal;font-weight:normal;font-stretch:normal;font-family:'linja sike';-inkscape-font-specification:'linja sike';text-align:center;text-anchor:middle" /></flowRegion><flowPara
         style="font-size:66.6667px;line-height:1.25;text-align:center;text-anchor:middle"
         id="flowPara3030-6">pona a&gt;__</flowPara></flowRoot>
    <path
       style="color:#000000;display:inline;overflow:visible;visibility:visible;fill:#ffffff;fill-opacity:1;fill-rule:nonzero;stroke:none;stroke-width:0.876148px;marker:none;enable-background:accumulate"
       d="m 1783.8606,2781.2408 c 5.9789,-68.5872 17.8002,-100.4107 53.674,-111.6086 35.8735,-11.198 340.5381,-14.8433 362.9592,1.9535 22.421,16.7972 56.7999,29.3946 47.0843,146.9728 -9.716,117.5784 -54.235,130.2734 -96.8351,133.0731 -42.5999,2.7994 -294.0387,32.0962 -329.9124,-32.2917 -35.8736,-64.388 -38.4648,-61.1133 -36.97,-138.0991 z"
       id="path4010"
       inkscape:connector-curvature="0"
       sodipodi:nodetypes="csssssc" />
    <flowRoot
       xml:space="preserve"
       id="flowRoot2987-4-9-1-3"
       style="font-style:normal;font-variant:normal;font-weight:normal;font-stretch:normal;line-height:0.01%;font-family:'linja sike';-inkscape-font-specification:'linja sike';text-align:center;letter-spacing:0px;word-spacing:0px;text-anchor:middle;fill:#000000;fill-opacity:1;stroke:none"
       transform="translate(1633.7214,2395.0796)"><flowRegion
         id="flowRegion2989-5-4-5-4"><rect
           id="rect2991-7-9-8-8"
           width="538.37994"
           height="261.2291"
           x="120.55251"
           y="285.09567"
           style="font-style:normal;font-variant:normal;font-weight:normal;font-stretch:normal;font-family:'linja sike';-inkscape-font-specification:'linja sike';text-align:center;text-anchor:middle" /></flowRegion><flowPara
         style="font-size:66.6667px;line-height:1.25;text-align:center;text-anchor:middle"
         id="flowPara48">sina pana kin e </flowPara><flowPara
         style="font-size:66.6667px;line-height:1.25;text-align:center;text-anchor:middle"
         id="flowPara50">telo wane len mie </flowPara><flowPara
         style="font-size:66.6667px;line-height:1.25;text-align:center;text-anchor:middle"
         id="flowPara17326">len lawa mi… </flowPara><flowPara
         style="font-size:66.6667px;line-height:1.25;text-align:center;text-anchor:middle"
         id="flowPara3124"> </flowPara></flowRoot>
    <path
       style="color:#000000;display:inline;overflow:visible;visibility:visible;fill:#ffffff;fill-opacity:1;fill-rule:nonzero;stroke:none;stroke-width:0.845584px;marker:none;enable-background:accumulate"
       d="m 1865.0063,3133.0925 c 6.6397,-84.0852 105.0039,-106.8278 184.5271,-100.6177 79.5232,6.2101 191.8322,33.9851 189.8186,94.4256 -2.0136,60.4406 -27.0348,115.2502 -48.4517,124.4138 -21.4168,9.1635 -132.4777,17.9947 -165.4167,15.8393 -32.9388,-2.1555 -167.1605,20.4542 -160.4773,-134.061 z"
       id="path4974"
       inkscape:connector-curvature="0" />
    <flowRoot
       xml:space="preserve"
       id="flowRoot2987-4-9-1-3-4"
       style="font-style:normal;font-variant:normal;font-weight:normal;font-stretch:normal;line-height:0.01%;font-family:'linja sike';-inkscape-font-specification:'linja sike';text-align:center;letter-spacing:0px;word-spacing:0px;text-anchor:middle;fill:#000000;fill-opacity:1;stroke:none"
       transform="translate(1647.8478,2782.1771)"><flowRegion
         id="flowRegion2989-5-4-5-4-1"><rect
           id="rect2991-7-9-8-8-4"
           width="494.9017"
           height="291.66379"
           x="148.81339"
           y="289.44351"
           style="font-style:normal;font-variant:normal;font-weight:normal;font-stretch:normal;font-family:'linja sike';-inkscape-font-specification:'linja sike';text-align:center;text-anchor:middle" /></flowRegion><flowPara
         style="font-size:66.6667px;line-height:1.25;text-align:center;text-anchor:middle"
         id="flowPara3124-1">… mi kama lukin</flowPara><flowPara
         style="font-size:66.6667px;line-height:1.25;text-align:center;text-anchor:middle"
         id="flowPara42">e telo ni…</flowPara></flowRoot>
  </g>
</svg>
