{
   "id": 34,
   "original-language": "en",
   "supporters": 1096,
   "published": "2021-03-31",
   "pluxmlID": 467,
   "background-color": "#FFFFFF",
   "credits": {
      "art":[
         "David Revoy <https://framagit.org/Deevad>"
      ],
      "scenario":[
         "David Revoy <https://framagit.org/Deevad>"
      ],
      "beta-readers":[
         "Arlo James Barnes <https://framagit.org/ArloJamesBarnes>",
         "Carotte <https://framagit.org/Carotte>",
         "Craig Maloney <https://framagit.org/craigmaloney>",
         "Efrat b <https://framagit.org/efratb418>",
         "GunChleoc <https://framagit.org/gunchleoc>",
         "Karl Ove Hufthammer <https://framagit.org/huftis>",
         "Martin Disch <https://framagit.org/martindisch>",
         "Nicolas Artance <https://framagit.org/Nartance>",
         "Parnikkapore <https://framagit.org/parnikkapore>",
         "Valvin <https://framagit.org/valvin>"
      ]
   },
   "software":[
      {
         "name": "Krita",
         "version": "4.4.1appimage"
      },
      {
         "name": "Inkscape",
         "version": "1.0.2"
      },
      {
         "name": "Kubuntu",
         "version": "20.04"
      }
   ]
}
