<?xml version="1.0" encoding="UTF-8" standalone="no"?>
<!-- Created with Inkscape (http://www.inkscape.org/) -->

<svg
   id="svg2"
   version="1.1"
   inkscape:version="1.2.1 (9c6d41e410, 2022-07-14)"
   width="2481"
   height="3503"
   sodipodi:docname="E37P05.svg"
   xmlns:inkscape="http://www.inkscape.org/namespaces/inkscape"
   xmlns:sodipodi="http://sodipodi.sourceforge.net/DTD/sodipodi-0.dtd"
   xmlns:xlink="http://www.w3.org/1999/xlink"
   xmlns="http://www.w3.org/2000/svg"
   xmlns:svg="http://www.w3.org/2000/svg"
   xmlns:rdf="http://www.w3.org/1999/02/22-rdf-syntax-ns#"
   xmlns:cc="http://creativecommons.org/ns#"
   xmlns:dc="http://purl.org/dc/elements/1.1/">
  <metadata
     id="metadata8">
    <rdf:RDF>
      <cc:Work
         rdf:about="">
        <dc:format>image/svg+xml</dc:format>
        <dc:type
           rdf:resource="http://purl.org/dc/dcmitype/StillImage" />
        <dc:title />
      </cc:Work>
    </rdf:RDF>
  </metadata>
  <defs
     id="defs6">
    <filter
       inkscape:label="Magmah-FX"
       inkscape:menu="Distort"
       inkscape:menu-tooltip="Horizontal rippling of edges"
       style="color-interpolation-filters:sRGB"
       id="filter4265-7"
       y="0"
       x="0"
       width="1"
       height="1">
      <feTurbulence
         numOctaves="1"
         baseFrequency="0.002 0.107"
         id="feTurbulence4267-7" />
      <feColorMatrix
         values="5 0 0 0 0 0 0 0 0 0 0 0 0 0 0 0 0 0 4 0 "
         result="result91"
         id="feColorMatrix4269-1" />
      <feDisplacementMap
         yChannelSelector="A"
         xChannelSelector="R"
         scale="14.3"
         in="SourceGraphic"
         in2="result91"
         id="feDisplacementMap4271-2" />
    </filter>
    <filter
       style="color-interpolation-filters:sRGB"
       inkscape:label="Magmah-spell-glow"
       id="filter4751"
       x="-0.033441791"
       y="-0.12562146"
       width="1.0668836"
       height="1.2512429">
      <feFlood
         flood-opacity="1"
         flood-color="rgb(255,255,255)"
         result="flood"
         id="feFlood4753" />
      <feComposite
         in="flood"
         in2="SourceGraphic"
         operator="in"
         result="composite1"
         id="feComposite4755" />
      <feGaussianBlur
         in="composite1"
         stdDeviation="5.4"
         result="blur"
         id="feGaussianBlur4757" />
      <feOffset
         dx="0"
         dy="0"
         result="offset"
         id="feOffset4759" />
      <feComposite
         in="SourceGraphic"
         in2="offset"
         operator="over"
         result="composite2"
         id="feComposite4761" />
    </filter>
    <filter
       inkscape:label="Magmah-FX"
       inkscape:menu="Distort"
       inkscape:menu-tooltip="Horizontal rippling of edges"
       style="color-interpolation-filters:sRGB"
       id="filter4265-7-5"
       y="0"
       x="0"
       width="1"
       height="1">
      <feTurbulence
         numOctaves="1"
         baseFrequency="0.002 0.107"
         id="feTurbulence4267-7-3" />
      <feColorMatrix
         values="5 0 0 0 0 0 0 0 0 0 0 0 0 0 0 0 0 0 4 0 "
         result="result91"
         id="feColorMatrix4269-1-5" />
      <feDisplacementMap
         yChannelSelector="A"
         xChannelSelector="R"
         scale="14.3"
         in="SourceGraphic"
         in2="result91"
         id="feDisplacementMap4271-2-6" />
    </filter>
  </defs>
  <sodipodi:namedview
     pagecolor="#ffffff"
     bordercolor="#666666"
     borderopacity="1"
     objecttolerance="10"
     gridtolerance="10"
     guidetolerance="10"
     inkscape:pageopacity="0"
     inkscape:pageshadow="2"
     inkscape:window-width="1920"
     inkscape:window-height="1056"
     id="namedview4"
     showgrid="false"
     inkscape:zoom="0.4"
     inkscape:cx="970"
     inkscape:cy="1388.75"
     inkscape:window-x="1920"
     inkscape:window-y="0"
     inkscape:window-maximized="1"
     inkscape:current-layer="layer1"
     inkscape:pagecheckerboard="0"
     inkscape:showpageshadow="0"
     inkscape:deskcolor="#d1d1d1" />
  <g
     inkscape:groupmode="layer"
     id="layer2"
     inkscape:label="artwork"
     sodipodi:insensitive="true">
    <image
       xlink:href="../gfx_Pepper-and-Carrot_by-David-Revoy_E37P05.png"
       y="0"
       x="0"
       id="image10"
       height="3503"
       width="2481" />
  </g>
  <g
     inkscape:groupmode="layer"
     id="layer3"
     inkscape:label="speechbubbles"
     style="display:inline">
    <path
       style="fill:#ffffff;stroke:none;stroke-width:0.802294"
       d="m 397.30272,328.05131 c -36.32737,0.87745 -72.49264,8.371 -105.45199,22.08176 -22.11843,11.41744 -33.77928,37.57841 -24.89309,59.25867 5.79901,14.84132 19.82723,26.07636 35.61862,32.32604 26.99548,11.55249 57.28652,14.65106 86.85272,15.65341 29.51742,0.9798 59.25395,0.5484 88.46133,-3.70855 19.03039,-3.36159 37.56336,-10.74126 51.77108,-22.73243 12.76424,-10.95627 21.22813,-26.80807 19.49969,-42.85162 -1.27529,-12.02368 -9.21922,-22.76664 -19.68428,-30.09633 -10.99569,-7.70344 -24.01121,-12.65095 -36.96448,-17.07836 -30.39802,-9.84809 -63.05465,-12.8829 -95.2096,-12.85259 z"
       id="path3280-81"
       inkscape:connector-curvature="0"
       sodipodi:nodetypes="csssc" />
    <path
       style="display:inline;fill:#ffffff;stroke:none;stroke-width:0.75896"
       d="M 339.75781 240.44336 C 316.76682 241.59346 293.35873 243.73316 271.79149 252.3479 C 261.04266 256.56779 250.57807 263.17755 244.69984 273.41776 C 236.67359 286.63596 235.41939 304.26229 243.15686 317.89554 C 250.33906 330.05605 263.57624 337.74013 277.2832 340.10938 C 302.49359 345.87739 328.25165 348.6627 353.9245 351.44115 C 382.54722 353.18337 411.89595 348.71169 437.84365 336.18651 C 448.11578 330.86655 457.14717 322.1337 460.67966 310.89345 C 465.82522 296.53591 462.54628 279.11265 451.45945 268.39097 C 444.09492 261.38539 434.68407 257.12625 425.46638 253.14042 C 408.77591 246.38017 390.85196 243.35064 373.01797 241.54703 C 361.9629 240.55842 350.85195 240.33192 339.75781 240.44336 z "
       id="path3280-81-3"
       inkscape:connector-curvature="0"
       sodipodi:nodetypes="csssc" />
    <path
       style="color:#000000;display:inline;overflow:visible;visibility:visible;fill:#ffffff;fill-opacity:1;fill-rule:nonzero;stroke:none;stroke-width:2.28331px;marker:none;enable-background:accumulate"
       d="m 2010.6417,247.24505 c -73.0654,0.65986 -146.9419,6.46541 -217.0609,28.15062 -34.5441,11.01004 -68.298,28.52696 -91.84,56.67741 -23.58,30.06176 -35.8266,69.73506 -29.7703,107.7199 6.7337,25.92192 26.5095,46.53518 49.0474,60.07525 34.3118,21.43524 74.6543,30.26753 114.3006,35.65112 54.1564,6.79546 108.6947,10.02856 163.208,12.27374 80.2813,1.87674 162.2706,-2.20171 238.7765,-28.56954 31.4057,-10.86618 62.3309,-25.25763 87.3099,-47.51455 13.5541,-12.28266 25.6161,-28.0228 27.6785,-46.70731 2.3105,-18.7913 -1.983,-37.72989 -8.012,-55.45486 -10.5621,-29.35911 -31.618,-54.75571 -58.5524,-70.65627 -41.3821,-25.4014 -89.4388,-37.32403 -137.0975,-44.25415 -45.6753,-6.47793 -91.9163,-7.64399 -137.9878,-7.39136 z"
       id="path5026-3"
       inkscape:connector-curvature="0"
       sodipodi:nodetypes="csssc" />
    <path
       style="color:#000000;display:inline;overflow:visible;visibility:visible;fill:#ffffff;fill-opacity:1;fill-rule:nonzero;stroke:none;stroke-width:1.01768px;marker:none;enable-background:accumulate"
       d="m 1549.2006,908.91728 c -37.0277,0.0609 -75.0721,5.45924 -107.1493,20.96152 -16.2496,7.65903 -29.6974,19.17214 -37.3811,33.02507 -15.7966,27.44384 -10.488,60.90533 10.1757,85.77703 14.6095,18.1163 37.6037,31.2304 62.9137,38.1314 37.7309,10.2245 77.892,12.8118 117.4836,13.184 36.2167,-0.026 73.1259,0.2779 108.2552,-7.7905 18.9086,-4.3568 37.3954,-11.275 51.3507,-22.6492 17.1805,-13.4338 28.1135,-31.7331 30.6443,-50.853 3.9562,-25.32706 -6.0831,-52.36124 -29.0327,-70.40922 -23.8479,-19.63649 -57.0295,-30.31137 -90.3992,-34.30462 -38.5889,-5.25812 -77.8688,-4.71539 -116.8609,-5.07248 z"
       id="path4040-40"
       inkscape:connector-curvature="0"
       sodipodi:nodetypes="zssssz" />
    <path
       style="color:#000000;display:inline;overflow:visible;visibility:visible;fill:#ffffff;fill-opacity:1;fill-rule:nonzero;stroke:none;stroke-width:0.999998px;marker:none;enable-background:accumulate"
       d="m 496.15677,1011.893 c 34.73321,-33.49717 31.89314,-53.50347 31.44376,-68.11357 -4.7651,-0.9949 -12.85059,-4.2577 -12.85059,-4.2577 0,0 1.90835,-28.8086 -1.17233,-39.94541 -3.08071,-11.13686 -17.53582,-8.20897 -17.53582,-8.20897 0,0 -5.18065,55.93348 -10.00914,67.69208 13.18767,2.2293 19.31591,4.9084 24.41808,3.8748 3.16059,8.1805 -2.4061,36.7502 -14.29396,48.95877 z"
       id="path4456-3"
       inkscape:connector-curvature="0" />
    <path
       style="color:#000000;display:inline;overflow:visible;visibility:visible;fill:#ffffff;fill-opacity:1;fill-rule:nonzero;stroke:none;stroke-width:0.709513px;marker:none;enable-background:accumulate"
       d="M 1196.6465 2294.5039 C 1169.9865 2295.1229 1142.3972 2297.684 1118.3609 2310.1812 C 1100.7903 2319.4917 1086.3734 2336.5938 1083.8898 2356.7507 C 1082.2566 2378.8745 1097.7157 2400.1092 1118.2056 2407.5917 C 1135.4014 2414.2964 1153.9896 2415.8578 1171.6668 2420.8505 C 1232.6808 2434.3702 1295.744 2436.81 1357.9409 2432.3061 C 1388.0071 2429.7939 1417.9432 2424.446 1446.6662 2415.1151 C 1464.0776 2408.968 1481.6519 2400.6004 1493.6345 2386.0843 C 1505.5235 2370.3813 1504.515 2346.4376 1491.1849 2331.8872 C 1480.4143 2319.0923 1464.069 2313.15 1448.3646 2309.0049 C 1420.2444 2301.4384 1391.0121 2299.8968 1362.1099 2297.6968 C 1307.0228 2294.4071 1251.8087 2294.4963 1196.6465 2294.5039 z "
       id="path4546-6-21"
       inkscape:connector-curvature="0"
       sodipodi:nodetypes="cssssc" />
    <path
       style="color:#000000;display:inline;overflow:visible;visibility:visible;fill:#ffffff;fill-opacity:1;fill-rule:nonzero;stroke:none;stroke-width:0.758121px;marker:none;enable-background:accumulate"
       d="m 649.06357,2264.4761 c -31.35615,0.4961 -63.47626,9.3662 -86.67198,28.3762 -25.16471,21.9967 -38.83888,52.6125 -41.91379,83.3297 -5.27143,37.7827 8.74945,77.1602 37.18864,105.8728 17.64128,15.2221 41.44247,22.7478 64.13248,30.2909 37.26409,11.8813 78.23648,14.0614 117.05163,7.2514 28.25059,-4.2043 56.52608,-14.1162 76.45185,-32.7122 16.32309,-15.5566 23.05718,-36.8488 25.27181,-57.4445 2.52743,-25.3342 0.25515,-50.847 -3.67297,-75.9774 -3.49802,-19.3764 -11.64363,-38.8334 -27.65226,-53.0074 -14.40358,-13.153 -34.10305,-20.4807 -53.85856,-25.1968 -22.59082,-5.3553 -45.92688,-7.7846 -69.17666,-9.6925 -12.3593,-0.8151 -24.75599,-1.1937 -37.15019,-1.0902 z"
       id="path4546-6-21-2"
       inkscape:connector-curvature="0"
       sodipodi:nodetypes="cssssc" />
    <path
       style="color:#000000;display:inline;overflow:visible;visibility:visible;fill:#ffffff;fill-opacity:1;fill-rule:nonzero;stroke:none;stroke-width:1.24776px;marker:none;enable-background:accumulate"
       d="m 459.6053,1891.1682 c -25.78503,-0.1843 -51.98226,-1.2113 -77.35414,8.2206 -14.89066,5.503 -29.5287,16.4906 -39.23287,34.6389 -11.30434,20.7888 -13.8777,49.4611 -9.45774,74.2333 2.0847,11.4957 5.45637,22.5261 10.13464,32.1648 5.10112,10.2673 12.34551,18.2476 20.71394,21.9272 23.99002,13.3419 49.94142,17.2374 75.56787,19.3922 26.83283,1.912 53.77615,1.5576 80.67395,-0.5068 22.72476,-2.2076 45.79131,-6.821 67.10421,-19.9956 12.9036,-8.3042 25.31276,-21.1158 32.03119,-39.8433 9.35157,-25.8894 8.31707,-59.5895 -4.03458,-82.094 -9.94251,-17.2808 -24.8812,-26.0068 -39.56322,-31.5062 -24.26146,-8.935 -49.44455,-11.2556 -74.40874,-14.0389 -14.02766,-1.3934 -28.08049,-2.6936 -42.17451,-2.5922 z"
       id="path4546-6-21-1"
       inkscape:connector-curvature="0"
       sodipodi:nodetypes="cssssc" />
    <path
       style="color:#000000;display:inline;overflow:visible;visibility:visible;fill:#ffffff;fill-opacity:1;fill-rule:nonzero;stroke:none;stroke-width:0.90167px;marker:none;enable-background:accumulate"
       d="m 509.23732,2164.6298 c 3.17414,-79.0368 47.59866,-137.9672 164.14038,-126.1726 62.42608,6.3168 133.28819,9.6749 129.36198,125.4379 -3.92628,115.7632 -105.75118,115.4633 -126.75223,118.7187 -21.00112,3.2572 -130.53858,-5.9959 -149.91784,-44.8311 -12.13101,-24.3097 -17.02871,-48.6962 -16.83229,-73.1529 z"
       id="path4546-6-21-1-9"
       inkscape:connector-curvature="0"
       sodipodi:nodetypes="cssssc" />
    <path
       style="color:#000000;display:inline;overflow:visible;visibility:visible;fill:#ffffff;fill-opacity:1;fill-rule:nonzero;stroke:none;stroke-width:1.1971px;marker:none;enable-background:accumulate"
       d="m 1341.4929,1909.2595 c -27.5618,0.4582 -55.9462,3.1632 -81.2588,17.1764 -12.5256,7.0164 -24.1142,19.5093 -27.0289,36.1571 -2.011,16.5978 7.3755,32.6541 19.5753,39.8816 12.5575,7.4302 26.7271,9.125 40.3274,12.2488 47.3844,8.8731 95.695,12.5507 143.5404,7.2714 16.7633,-2.1389 34.1059,-5.7216 48.5019,-16.7585 9.0671,-7.2007 15.462,-19.0016 16.6354,-31.9393 1.7823,-14.8825 -2.914,-31.5687 -14.0178,-39.759 -14.2163,-11.4438 -31.7223,-14.0896 -48.3325,-16.8855 -29.1521,-4.3915 -58.5332,-6.3032 -87.8924,-7.3341 -3.3497,-0.069 -6.6998,-0.078 -10.05,-0.059 z"
       id="path4546-6-21-1-9-4"
       inkscape:connector-curvature="0"
       sodipodi:nodetypes="cssssc" />
    <path
       style="color:#000000;display:inline;overflow:visible;visibility:visible;fill:#ffffff;fill-opacity:1;fill-rule:nonzero;stroke:none;stroke-width:0.96193px;marker:none;enable-background:accumulate"
       d="m 1217.0653,1985.7656 c -48.72,0.882 -98.2182,2.8713 -145.1541,18.4889 -16.7841,6.8173 -29.3374,22.7322 -35.6945,40.6654 -10.5597,27.1823 -9.0909,60.755 7.3726,84.8351 9.6728,13.9915 24.9653,22.1407 40.5818,24.9674 20.6129,4.8894 41.5345,8.1831 62.4995,10.6435 37.7541,3.8894 75.7096,2.0101 113.5403,1.0065 54.1568,-0.3976 108.4394,2.4619 162.4735,-2.8587 20.189,-1.8225 40.4778,-3.8181 60.2654,-8.678 26.1011,-8.9227 46.4535,-36.1747 47.4467,-66.2485 1.4018,-24.676 -9.4442,-49.1571 -26.8658,-64.6853 -22.3692,-21.3445 -51.9346,-31.1597 -80.9693,-35.023 -38.4737,-4.6848 -77.1542,0.8942 -115.7178,-0.9675 -29.9261,-0.7004 -59.8367,-2.493 -89.7783,-2.1458 z"
       id="path4546-6-21-1-9-4-7"
       inkscape:connector-curvature="0"
       sodipodi:nodetypes="cssssc" />
    <path
       style="color:#000000;display:inline;overflow:visible;visibility:visible;fill:#ffffff;fill-opacity:1;fill-rule:nonzero;stroke:none;stroke-width:1.18598px;marker:none;enable-background:accumulate"
       d="m 995.12526,3066.8417 c 6.12164,-41.6532 66.12794,-70.7879 219.46754,-59.2238 82.1369,6.1939 175.4672,11.2087 167.4539,72.2502 -8.0135,61.0415 -142.2346,56.2289 -169.9986,56.9907 -27.7642,0.7627 -171.9327,-9.1373 -196.5271,-30.561 -15.3956,-13.4105 -21.25412,-26.5311 -20.39574,-39.4561 z"
       id="path4546-6-21-1-9-4-7-8"
       inkscape:connector-curvature="0"
       sodipodi:nodetypes="cssssc" />
    <path
       style="color:#000000;display:inline;overflow:visible;visibility:visible;fill:#ffffff;fill-opacity:1;fill-rule:nonzero;stroke:none;stroke-width:0.624175px;marker:none;enable-background:accumulate"
       d="m 2225.7983,3151.2322 c 1.6004,-29.4598 24.0001,-51.4252 82.7628,-47.029 31.4764,2.3544 67.2066,3.6062 65.2269,46.7553 -1.9798,43.1489 -53.3219,43.0372 -63.9111,44.2506 -10.5891,1.2141 -65.82,-2.2349 -75.5915,-16.7102 -6.1167,-9.061 -8.5862,-18.1508 -8.4871,-27.2667 z"
       id="path4546-6-21-1-9-4-7-8-4"
       inkscape:connector-curvature="0"
       sodipodi:nodetypes="cssssc" />
    <path
       style="color:#000000;display:inline;overflow:visible;visibility:visible;fill:#ffffff;fill-opacity:1;fill-rule:nonzero;stroke:none;stroke-width:1px;marker:none;enable-background:accumulate"
       d="m 1284.7327,2502.3184 c -35.7282,-19.4322 -47.354,-28.3515 -44.071,-75.6186 3.2834,-47.2663 -14.2412,-48.0483 -14.2412,-48.0483 l -19.1468,25.8436 c 0,0 -0.01,101.2711 77.459,97.8233 z"
       id="path3072-56-6"
       inkscape:connector-curvature="0" />
    <path
       style="color:#000000;display:inline;overflow:visible;visibility:visible;fill:#ffffff;fill-opacity:1;fill-rule:nonzero;stroke:none;stroke-width:1px;marker:none;enable-background:accumulate"
       d="m 1468.6848,2848.0015 c 26.25,171.1132 -108.5575,232.9592 -156.9646,205.9986 -41.3932,-23.0541 -36.6132,25.372 -36.6132,25.372 0,0 -184.8377,-79.9742 -48.5243,-12.9007 136.3134,67.0735 295.373,-29.4851 242.1021,-218.4699 z"
       id="path3072-56-6-7"
       inkscape:connector-curvature="0"
       sodipodi:nodetypes="csczc" />
    <path
       style="color:#000000;display:inline;overflow:visible;visibility:visible;fill:#ffffff;fill-opacity:1;fill-rule:nonzero;stroke:none;stroke-width:1.32718px;marker:none;enable-background:accumulate"
       d="m 1605.7395,765.40053 c -36.824,0.86526 -73.5849,3.58573 -110.4098,4.48299 -15.9351,0.62196 -32.0407,0.0262 -47.7296,3.51014 -21.2976,4.31918 -42.3506,13.30038 -58.1788,29.02405 -16.9932,17.4464 -25.5378,44.10691 -19.5561,68.40731 6.9361,31.51403 32.7339,57.2258 63.1101,64.15009 31.3574,9.19976 64.009,11.87233 96.3549,14.64772 42.5947,2.71002 85.7515,3.36655 127.8155,-5.1805 25.6267,-5.37305 51.4763,-12.62287 73.8358,-27.1101 18.3377,-12.95287 28.3531,-36.15118 28.2376,-58.81308 1.0385,-21.61 -5.9621,-44.44698 -21.8782,-59.07887 -17.7019,-17.08795 -41.4131,-25.62943 -64.9087,-29.71727 -22.018,-3.81306 -44.4102,-4.52487 -66.6927,-4.32248 z"
       id="path4546-3"
       inkscape:connector-curvature="0"
       sodipodi:nodetypes="cssssc" />
    <path
       style="color:#000000;display:inline;overflow:visible;visibility:visible;fill:#ffffff;fill-opacity:1;fill-rule:nonzero;stroke:none;stroke-width:0.999998px;marker:none;enable-background:accumulate"
       d="m 2200.3678,3236.6589 c 19.412,3.2287 21.8531,2.1451 26.087,-6.1508 4.2336,-8.2965 7.4345,-21.3989 24.2674,-27.0612 16.8328,-5.6629 26.4772,-1.2243 33.0349,1.2943 -1.1679,-11.6566 8.131,-31.9623 0.9277,-37.4845 -7.2032,-5.5223 17.0343,2.8574 17.0343,2.8574 0,0 12.1095,28.3527 3.5098,41.2194 -8.5996,12.8666 -35.9866,3.6351 -48.1953,5.9287 -12.2087,2.2936 -17.7187,20.2054 -26.9698,23.8183 -9.2511,3.6136 -20.9523,-1.0637 -29.696,-4.4216 z"
       id="path4538-7-1"
       inkscape:connector-curvature="0"
       sodipodi:nodetypes="ccscccsscc" />
    <path
       style="fill:#ffffff;fill-rule:evenodd;stroke:none;stroke-width:0.989952px;stroke-linecap:butt;stroke-linejoin:miter;stroke-opacity:1"
       d="m 563.82903,2593.7899 c 63.64415,46.5419 99.6802,37.8628 99.27382,22.0538 -0.73279,-28.5061 -23.68426,-45.5161 -20.14693,-49.7569 56.87331,-68.1838 45.61583,-44.4564 42.02712,-78.3168 -3.58863,-33.8596 -32.82515,9.9982 -43.47048,25.9957 -10.64526,15.9984 -23.23393,28.0821 -24.13067,46.0989 -0.89678,18.0167 30.31994,32.2197 26.20251,52.3883 -4.11738,20.1676 -79.75537,-18.463 -79.75537,-18.463 z"
       id="path4324-2"
       inkscape:connector-curvature="0"
       sodipodi:nodetypes="cssssssc" />
    <path
       style="fill:#ffffff;fill-rule:evenodd;stroke:none;stroke-width:1px;stroke-linecap:butt;stroke-linejoin:miter;stroke-opacity:1"
       d="m 1641.3607,1592.1712 c 22.6649,-9.5896 43.3488,-24.3392 44.2472,-33.5648 0.8985,-9.2259 -11.1673,-38.3407 15.3399,-36.3802 44.753,7.0521 59.1413,-17.435 71.8681,-40.1028 -10.4456,44.0867 -37.326,59.8862 -66.9409,56.1082 -20.4331,0.5043 27.1628,20.802 -14.1238,65.6767 -34.0791,18.4121 -50.3905,-11.7371 -50.3905,-11.7371 z"
       id="path1085"
       inkscape:connector-curvature="0"
       sodipodi:nodetypes="csccccc" />
    <path
       style="display:inline;fill:#ffffff;fill-rule:evenodd;stroke:none;stroke-width:1px;stroke-linecap:butt;stroke-linejoin:miter;stroke-opacity:1"
       d="m 602.38281,413.81836 c -16.46145,0.69234 -32.53906,10.64863 -39.37482,25.82696 -1.5098,2.80001 -5.28273,3.60587 -7.9531,2.02233 -5.98863,-2.1906 -11.2243,-5.98508 -17.1572,-8.31055 -9.42582,-4.50612 -18.97461,-9.76783 -29.57769,-10.58241 -9.00662,0.914 -17.21994,8.38612 -18.31844,17.45517 0.90457,4.28518 5.9133,5.81752 9.78437,5.505 14.04596,1.22391 26.26568,8.99968 37.96354,16.2261 7.48461,4.90408 17.2879,7.91388 25.94154,4.3397 8.81339,-3.63103 14.02032,-12.22106 18.30372,-20.27104 3.62722,-6.5902 7.0618,-13.9609 13.65799,-18.08996 6.18392,-3.01805 13.32935,-0.5356 18.89819,2.69485 6.80555,3.74446 18.82609,7.48219 26.68995,6.1183 5.30212,-0.83429 11.53306,0.83552 40.82961,-10.13109 -31.99063,6.29792 -54.18708,-2.32452 -64.55229,-8.18195 -4.64584,-2.56145 -9.72444,-4.75296 -15.13537,-4.62141 z"
       id="path1090"
       inkscape:connector-curvature="0"
       sodipodi:nodetypes="cscsccsssssscccc" />
    <path
       style="display:inline;fill:#ffffff;fill-rule:evenodd;stroke:none;stroke-width:1px;stroke-linecap:butt;stroke-linejoin:miter;stroke-opacity:1"
       d="m 1632.1958,496.27144 c -12.9658,3.52999 -22.7273,13.2725 -33.0295,21.31481 -10.56,8.22528 -23.222,15.13886 -36.9698,14.8702 -12.354,-0.48323 -23.8452,-5.64876 -34.869,-10.8028 4.8969,5.51905 11.4884,9.07502 17.4852,13.22715 9.8915,6.03376 21.2993,11.19668 33.1646,9.85413 13.7356,-1.82473 25.2428,-10.16894 36.6713,-17.35003 9.2631,-5.89601 19.3995,-11.88555 30.7279,-11.84241 11.2199,0.46193 21.09,7.36067 28.069,15.7517 16.1165,16.07554 40.6983,22.00557 62.7241,17.44391 18.4525,-3.77253 34.5407,-14.70036 48.0397,-27.44861 7.4725,-7.02323 14.7519,-14.32675 21.1143,-22.37986 2.8972,-4.06459 5.7878,-8.70444 5.7898,-13.83941 -1.3294,-7.64777 -9.2775,-12.55259 -16.6906,-12.40095 -15.99,-1.92544 -32.0375,9.08542 -37.0028,24.21972 -6.8813,13.76612 -18.3165,26.13815 -33.3597,30.75119 -13.1078,4.184 -28.2984,-0.43593 -37.2218,-10.81739 -8.1607,-7.6165 -16.4492,-16.15889 -27.6395,-18.99131 -8.68,-2.75282 -18.0697,-3.47368 -27.0032,-1.56004 z"
       id="path1090-9"
       inkscape:connector-curvature="0"
       sodipodi:nodetypes="cscsccsssssscccccc" />
    <path
       style="display:inline;fill:#ffffff;stroke:none;stroke-width:0.99135"
       d="m 1547.4141,1550.2764 c -17.67,0.1166 -35.4329,-0.07 -52.9368,3.292 -19.8455,3.7615 -39.4884,10.8354 -56.9828,22.906 -18.6005,12.8062 -34.0149,33.3542 -40.6004,58.1366 -3.1628,11.5442 -3.6782,24.1008 -1.1535,35.8965 4.3888,21.7063 17.2832,40.5391 34.0359,50.0978 19.5973,12.8338 42.3897,15.7674 64.3587,15.63 42.4852,1.7866 85.0497,2.4618 127.5088,-0.5599 24.7199,-1.5475 50.1179,-5.003 72.5165,-18.5957 15.7195,-9.6892 28.7409,-27.3953 31.8592,-48.7269 5.6837,-34.942 -10.2089,-72.4285 -36.0792,-89.0728 -23.0999,-15.9276 -49.7016,-22.1458 -75.8476,-25.8622 -22.1291,-2.9982 -44.4342,-3.3164 -66.6788,-3.1414 z"
       id="path3280-8-3"
       inkscape:connector-curvature="0"
       sodipodi:nodetypes="csssc" />
    <path
       style="fill:#ffffff;fill-rule:evenodd;stroke:none;stroke-width:1.23648px;stroke-linecap:butt;stroke-linejoin:miter;stroke-opacity:1"
       d="m 365.74716,761.5608 c -40.44128,1.79515 -81.0869,2.66681 -121.13924,7.95082 -17.90227,3.09291 -36.41041,6.90855 -51.17032,16.1815 -12.7256,10.44655 -21.6241,23.50187 -29.55303,36.60688 -6.80054,14.74002 -5.03744,30.97601 -0.95174,46.04545 2.92617,13.89024 9.64155,28.04855 23.24947,37.26767 14.07787,10.7655 31.45978,20.01048 51.17183,21.18155 18.88402,1.20679 37.82996,-0.23472 56.73427,0.45828 89.10124,0.13516 178.47062,0.71935 267.17899,-7.12753 14.42388,-1.85695 28.0527,-8.77888 35.32143,-19.26913 8.21807,-9.54595 17.47771,-19.57176 18.38737,-31.6715 1.02353,-11.36805 0.064,-22.77495 0.10688,-34.15923 -0.31589,-7.3192 0.42619,-14.82565 -2.04172,-21.94938 -2.85282,-8.29822 -9.48026,-15.33835 -17.39058,-20.88675 -16.1504,-12.17325 -37.42933,-18.96153 -58.98719,-21.42492 -38.24396,-5.90031 -77.15456,-8.4944 -116.04286,-8.93815 -18.28864,-0.30084 -36.58216,-0.27893 -54.8736,-0.26556 z"
       id="path1299"
       inkscape:connector-curvature="0" />
    <path
       style="fill:#ffffff;fill-opacity:1;fill-rule:evenodd;stroke:none;stroke-width:1.04462px;stroke-linecap:butt;stroke-linejoin:miter;stroke-opacity:1"
       d="m 909.78274,922.38419 c -8.88598,0.86734 -15.56985,7.06793 -20.42784,13.30501 -4.42219,5.15329 -12.28133,6.20817 -19.09116,6.08783 -9.30506,0.22173 -17.07309,6.16177 -21.89038,12.8845 -2.82165,3.55077 -3.66181,8.00224 -3.40531,12.27282 -0.52252,6.67297 -6.26483,11.93324 -7.02664,18.52713 0.16576,6.3875 6.79665,10.535 8.18405,16.59892 1.44642,4.5169 2.2739,9.9862 7.04247,12.7515 6.70723,3.1882 15.03271,-0.2253 21.55785,3.5487 4.69316,2.9316 8.68459,6.6895 13.28484,9.748 4.83401,3.4669 10.44854,6.0294 16.49733,7.2675 13.76254,3.3373 28.1478,0.9185 41.74431,-1.867 18.76732,-3.5707 37.92475,-5.4628 57.10834,-5.6211 5.6825,-0.3583 10.6135,-3.1437 15.1753,-5.9562 5.2046,-2.8443 11.5125,-4.4438 17.5719,-3.1727 6.2979,0.7524 13.2606,2.4968 19.206,-0.3939 7.9322,-4.7571 11.1759,-13.1958 15.6251,-20.35492 3.5538,-6.1287 7.5389,-12.97344 5.8307,-20.0904 -2.3862,-5.88049 -9.4081,-8.27678 -14.2621,-12.17595 -8.227,-7.58527 -7.2225,-19.54532 -14.9182,-27.42615 -7.4163,-7.78732 -19.3521,-10.83932 -30.4548,-10.57648 -8.6181,0.18336 -16.9504,2.5898 -24.71838,5.78799 -5.81053,1.83563 -13.02641,1.6179 -17.61488,-2.47125 -4.557,-3.22883 -10.07828,-6.67829 -16.21579,-5.53162 -8.54935,0.94699 -16.05478,6.65075 -24.95627,5.44371 -8.69151,-1.16006 -14.72069,-8.87024 -23.84644,-8.58594 z"
       id="path4367-3"
       inkscape:connector-curvature="0"
       sodipodi:nodetypes="ccccccccccccccccccccccc" />
    <path
       style="color:#000000;display:inline;overflow:visible;visibility:visible;fill:#ffffff;fill-opacity:1;fill-rule:nonzero;stroke:none;stroke-width:1px;marker:none;enable-background:accumulate"
       d="m 925.04404,987.51508 c 0.43093,17.40692 10.57358,33.58462 24.60302,43.46732 4.0486,3.4474 7.8177,7.2049 11.522,11.0151 -9.5441,6.7343 -21.87387,8.4934 -30.69728,16.3868 -3.00333,7.8153 2.07856,16.9291 9.5442,19.9766 7.90108,4.1347 17.55078,5.3387 23.93238,12.0527 5.8472,7.0001 1.9231,19.0861 -6.6504,21.789 -11.2727,5.778 -17.95023,20.1486 -13.54258,32.3069 4.13098,10.8528 14.58748,18.0402 25.44518,21.0937 5.2942,1.6139 10.7387,2.647 16.1286,3.8787 -10.8778,-5.5071 -22.4207,-11.1561 -29.8066,-21.25 -5.866,-8.2804 -2.1755,-21.8742 7.6733,-25.1751 6.0663,-1.8597 13.149,-3.1903 17.0207,-8.7544 8.18221,-11.235 4.0413,-29.3207 -8.5309,-35.4929 -6.8306,-3.5643 -14.777,-5.4022 -20.3877,-10.9819 -1.6954,-3.9526 2.6275,-8.2401 6.5884,-7.513 7.4263,-1.7714 15.8041,-2.1777 21.7723,-7.5012 4.4591,-5.1824 3.2488,-13.2448 -0.7338,-18.3354 -8.0405,-15.3899 -15.424,-31.1229 -23.8906,-46.28912 -6.1584,-1.4328 -12.54059,-0.9451 -18.78997,-1.6404 -3.73928,-0.2117 -7.47855,-0.4233 -11.21782,-0.635 0.006,0.5339 0.0117,1.0677 0.0176,1.6016 z"
       id="path5058"
       inkscape:connector-curvature="0"
       sodipodi:nodetypes="cscsssssccsssccsccccc" />
    <path
       style="display:inline;fill:#ffffff;stroke:none;stroke-width:1"
       d="m 1571.4018,1191.6392 c 13.4807,-8.3202 19.4484,-23.3927 17.65,-33.0755 -8.8182,-22.1676 -14.651,-36.255 -2.7595,-61.9827 4.6158,-9.7523 4.136,-55.5565 4.136,-55.5565 0,0 -27.4173,28.8158 -35.0946,40.6428 -7.678,11.8285 -3.0663,7.9917 -4.8155,13.4555 -1.7483,5.4625 -1.3553,24.9485 0.8987,35.296 4.6362,17.6704 24.7701,36.2388 6.7072,51.624 -38.2054,28.7903 -15.6246,82.4307 39.9278,44.9299 -67.6745,16.2702 -41.7605,-26.0079 -26.6503,-35.3336 z"
       id="path3023-0"
       inkscape:connector-curvature="0"
       sodipodi:nodetypes="scccsscccss" />
    <path
       style="display:inline;fill:#ffffff;fill-rule:evenodd;stroke:none;stroke-width:1px;stroke-linecap:butt;stroke-linejoin:miter;stroke-opacity:1"
       d="m 464.88133,1910.6914 c -28.8926,-2.0653 -70.7911,12.6625 -46.4898,55.1642 -53.0586,-27.852 -127.5213,-37.8514 -145.041,8.545 -2.9485,-56.7468 -38.5111,-41.338 -67.8631,-27.673 27.9346,-23.2981 -23.4398,-34.7771 -50.9437,-35.2783 56.996,-50.2966 26.119,-64.931 2.7943,-82.6311 57.4315,11.9803 42.9826,-15.1235 49.4459,-30.8559 49.812,33.8557 85.2527,24.5077 112.648,-9.0266 15.1349,17.4028 20.6066,54.0871 73.5776,-4.0088 -18.8313,49.4071 7.2124,43.5524 49.0134,18.2945 -6.2541,16.8237 -45.124,43.2233 21.271,38.72 -41.1448,16.9717 -49.3548,38.642 1.5874,68.75 z"
       id="path4584-8"
       inkscape:connector-curvature="0"
       sodipodi:nodetypes="cccccccccccc" />
    <path
       style="fill:#ffffff;fill-rule:evenodd;stroke:none;stroke-width:0.999993px;stroke-linecap:butt;stroke-linejoin:miter;stroke-opacity:1"
       d="m 1088.4402,1861.1551 c 12.6082,4.62 30.6985,12.1275 32.8912,20.213 2.1928,8.0848 13.7047,23.1004 9.8674,36.3833 -3.8373,13.2822 -14.8011,26.5651 -25.2166,34.0733 -10.4157,7.5075 -30.1504,13.2822 -42.7587,14.4376 -12.6083,1.1553 -44.9513,-6.9301 -54.2706,-4.6201 -9.3192,2.31 -43.30683,3.4647 -60.30065,-2.31 -16.99383,-5.7755 -36.1804,-27.1432 -38.92135,-40.4262 -2.74096,-13.2829 9.31917,-39.848 11.51191,-46.7781 2.1928,-6.9308 11.51198,-9.2409 11.51198,-9.2409 26.0186,-3.9635 117.34611,-7.6933 155.68541,-1.7319 z"
       id="path1099"
       inkscape:connector-curvature="0"
       sodipodi:nodetypes="ccccccccccc" />
    <path
       style="color:#000000;display:inline;overflow:visible;visibility:visible;fill:#ffffff;fill-opacity:1;fill-rule:nonzero;stroke:none;stroke-width:1.07037px;marker:none;enable-background:accumulate"
       d="m 1461.174,2087.7856 c -7.0729,8.184 -14.7319,16.2326 -24.4756,22.099 -8.1657,-1.1163 -13.8042,-8.9165 -11.8305,-15.9508 -13.4778,2.4784 -22.1998,12.8652 -33.7818,18.5837 -17.7791,10.4746 -37.7473,19.4958 -59.2962,20.6376 -19.9909,-2.9573 -35.0833,-20.4697 -32.9184,-38.21 -5.8986,-0.5144 -9.6691,4.6022 -11.9685,8.654 -6.6851,7.3999 -13.6027,15.4871 -23.9214,19.1227 -9.1946,-0.4701 -15.1959,-10.5798 -10.3672,-17.5861 -2.6937,-3.2332 -8.4966,-0.7158 -9.7426,2.541 -14.3573,10.8003 -29.2236,22.4055 -47.8661,26.7535 -21.5105,3.3629 -42.9497,-2.4989 -61.8601,-10.5178 -4.5406,-1.6612 -9.3009,-2.8262 -13.9991,-4.1179 -7.7628,8.1966 -9.755,20.0171 -20.1726,26.3766 -11.2655,6.7045 -25.6583,8.3502 -38.5773,5.9304 -6.4515,2.4652 -6.7237,9.3438 -9.9506,14.0021 -8.6367,11.8724 -24.9018,17.8896 -40.3382,18.6319 -6.1724,0.876 -12.3449,1.752 -18.51729,2.628 11.65859,5.1134 24.49919,8.4801 34.90099,15.5169 -3.255,7.3147 -12.7449,10.2607 -20.8898,11.1579 -16.33292,1.6483 -32.83366,1.3367 -49.06467,4.0232 -2.87791,0.3119 -5.7563,0.6275 -8.61906,1.0544 30.60886,2.3376 61.30983,6.7137 89.67673,16.8463 5.6675,10.2562 -4.2423,23.813 -17.0778,24.9571 -6.9973,3.1243 -13.9944,6.2486 -20.99159,9.3731 16.97179,-0.4069 34.18879,-1.9657 50.90019,0.8714 10.6506,11.9053 7.6318,31.2932 -6.2565,40.9481 0.8768,3.8038 6.8232,3.4691 9.6213,1.384 13.4185,-2.8171 28.3792,-4.5873 40.9322,1.0138 19.5134,10.9924 30.1849,29.944 47.7905,42.7659 1.4383,1.1009 2.9799,3.1686 4.9349,3.0253 15.4924,-24.3477 51.0203,-36.7839 80.9861,-29.7393 10.1596,1.8519 19.7569,5.3099 29.2018,8.8867 13.3014,-3.8059 22.2437,-14.9282 35.992,-17.8717 14.5246,-5.178 31.5444,-7.2731 45.9488,-1.6084 7.8595,4.6924 12.0309,13.0548 20.8218,16.7191 8.6056,-2.0013 11.2412,-10.7676 18.6501,-14.3724 17.6822,-11.6466 42.8034,-11.992 61.3081,-2.8723 6.9739,1.9222 13.9094,-2.3093 18.4841,-6.7112 15.5879,-11.0395 36.0126,-14.4727 55.3185,-15.1561 5.8838,-0.2187 11.764,-0.1103 17.6379,0.013 1.4957,-3.774 -3.2597,-5.9112 -5.7133,-8.1497 -5.9136,-4.481 -12.0999,-10.6747 -10.6595,-18.1559 1.8717,-9.7377 12.144,-16.4517 22.3222,-19.3861 6.5177,-2.1201 13.3137,-3.55 19.6383,-6.1436 -6.2591,-4.9211 -14.1986,-7.7776 -21.0462,-11.996 -6.6966,-3.7714 -13.6472,-7.6549 -19.0427,-12.7134 -0.5093,-10.8992 9.5737,-20.5759 21.0799,-23.8643 5.3309,-2.9265 10.5608,-6.0563 15.1714,-9.8323 -12.5443,-1.3838 -25.7586,-2.0907 -36.841,-7.7195 -6.9687,-10.9967 -4.1896,-25.4188 4.5268,-35.4526 0.7872,-2.5644 -2.9494,-3.358 -5.1161,-2.7567 -13.5011,-0.3029 -28.1648,-0.6588 -39.3352,-7.8337 -11.3679,-8.3966 -14.7808,-22.431 -13.2724,-35.113 0.4683,-4.7338 1.5359,-9.5214 0.6989,-14.2409 -1.0114,1.185 -2.0227,2.3698 -3.0342,3.5548 z"
       id="path3549-3-7-5"
       inkscape:connector-curvature="0"
       sodipodi:nodetypes="cccccccccccccccccccc" />
    <path
       style="color:#000000;display:inline;overflow:visible;visibility:visible;fill:#ffffff;fill-opacity:1;fill-rule:nonzero;stroke:none;stroke-width:1.0154px;marker:none;enable-background:accumulate"
       d="m 1220.4947,3102.4019 c -36.5921,1.0127 -73.6075,2.3026 -109.2329,13.293 -13.6485,4.504 -26.9622,13.6969 -34.3299,28.54 -10.8517,20.9979 -11.3632,48.1413 -3.5105,70.6368 7.2527,21.7902 21.6343,40.9136 40.389,48.9857 24.6675,10.5885 51.2463,10.9262 77.149,11.303 14.7656,0.09 29.5262,0.5429 44.2889,0.8295 41.792,0.5215 83.7689,-3.0065 124.7273,-13.2119 10.4994,-3.132 20.9481,-9.7458 26.6008,-21.1583 7.8362,-14.4665 10.7018,-31.6967 13.048,-48.4189 1.6252,-15.0588 -0.6304,-31.1141 -8.0873,-43.6735 -10.9037,-19.9832 -29.5744,-32.7789 -49.0832,-36.7438 -21.1624,-4.8818 -42.8224,-4.3959 -64.2027,-6.9623 -19.2211,-1.7278 -38.4625,-3.6794 -57.7565,-3.4193 z"
       id="path3330-06"
       inkscape:connector-curvature="0"
       sodipodi:nodetypes="zsssssz" />
    <path
       style="color:#000000;display:inline;overflow:visible;visibility:visible;fill:#ffffff;fill-opacity:1;fill-rule:nonzero;stroke:none;stroke-width:0.999999px;marker:none;enable-background:accumulate"
       d="m 1291.0012,3245.8924 c -35.7534,0.7733 -71.9204,1.7584 -106.729,10.1515 -13.3359,3.4395 -26.3444,10.4599 -33.5434,21.7952 -10.6028,16.0354 -11.1028,36.7641 -3.4299,53.9432 7.0864,16.6406 21.1384,31.2445 39.4632,37.409 24.1022,8.0861 50.0718,8.344 75.3808,8.6317 14.4271,0.068 28.8494,0.4146 43.2738,0.6335 40.834,0.3982 81.8488,-2.296 121.8686,-10.0896 10.2588,-2.3918 20.4678,-7.4425 25.9909,-16.158 7.6568,-11.0476 10.4565,-24.2057 12.7489,-36.976 1.588,-11.5 -0.6159,-23.761 -7.9017,-33.3522 -10.6539,-15.2605 -28.8967,-25.0322 -47.9584,-28.0602 -20.6772,-3.728 -41.8409,-3.357 -62.7309,-5.3169 -18.7808,-1.3194 -37.5811,-2.8098 -56.4329,-2.6112 z"
       id="path3330-06-3"
       inkscape:connector-curvature="0"
       sodipodi:nodetypes="zsssssz" />
    <path
       style="color:#000000;display:inline;overflow:visible;visibility:visible;fill:#ffffff;fill-opacity:1;fill-rule:nonzero;stroke:none;stroke-width:1px;marker:none;enable-background:accumulate"
       d="m 1039.2669,1903.8172 c 12.9493,3.5313 53.5872,20.5771 12.2952,22.1787 58.4932,34.8788 36.4599,48.5856 29.0728,56.6372 16.1722,-2.9028 43.2767,3.6912 37.948,25.997 15.5796,-3.3105 37.1138,30.9541 46.9488,47.7121 5.4751,-22.5128 14.7633,-26.7531 33.5882,14.6671 -5.0222,-31.6407 -8.5325,-61.1815 35.5765,-24.5631 -1.3396,-11.6529 -37.505,-38.8648 55.2875,-27.1762 -32.7571,-19.6367 -52.8115,-40.7758 2.6164,-68.3558 -25.4958,-7.917 -44.0058,-20.0077 -15.9196,-44.1161 -24.7104,-4.752 -32.1598,-33.2989 -29.3536,-43.8776 -22.4857,21.5457 -39.1208,21.0346 -47.2071,-7.7103 -38.5962,48.8917 -38.9502,9.3578 -52.5793,1.7385 -9.2198,38.1114 -32.9734,21.426 -54.7012,14.9485 7.6586,43.5652 -27.838,29.7409 -53.5726,31.92 z"
       id="path3549-3-8"
       inkscape:connector-curvature="0"
       sodipodi:nodetypes="ccccccccccccccc" />
  </g>
  <g
     inkscape:groupmode="layer"
     id="layer1"
     inkscape:label="txt"
     style="display:inline">
    <text
       xml:space="preserve"
       style="font-style:normal;font-variant:normal;font-weight:normal;font-stretch:normal;font-size:45.3333px;line-height:125%;font-family:Lavi;-inkscape-font-specification:Lavi;text-align:center;letter-spacing:0px;word-spacing:0px;text-anchor:middle;fill:#000000;fill-opacity:1;stroke:none"
       x="352.83478"
       y="308.57437"
       id="text4246-70-2-2-2-7-4-9-6"><tspan
         sodipodi:role="line"
         style="font-size:45.3333px"
         x="352.83478"
         y="308.57437"
         id="tspan9933-2-7">Hmm...</tspan></text>
    <text
       xml:space="preserve"
       style="font-style:normal;font-variant:normal;font-weight:normal;font-stretch:normal;font-size:45.3333px;line-height:125%;font-family:Lavi;-inkscape-font-specification:Lavi;text-align:center;letter-spacing:0px;word-spacing:0px;text-anchor:middle;fill:#000000;fill-opacity:1;stroke:none"
       x="415.25522"
       y="407.0365"
       id="text4246-70-2-2-2-7-4-9"><tspan
         sodipodi:role="line"
         style="font-size:45.3333px"
         x="415.25522"
         y="407.0365"
         id="tspan9933-2">My a wel...</tspan></text>
    <text
       xml:space="preserve"
       style="font-style:normal;font-variant:normal;font-weight:normal;font-stretch:normal;font-size:45.3333px;line-height:125%;font-family:Lavi;-inkscape-font-specification:Lavi;text-align:center;letter-spacing:0px;word-spacing:0px;text-anchor:middle;fill:#000000;fill-opacity:1;stroke:none"
       x="2003.085"
       y="328.43054"
       id="text4246-70-2-2-2-7-4-9-7"><tspan
         sodipodi:role="line"
         style="font-size:45.3333px"
         x="2003.085"
         y="328.43054"
         id="tspan1083">...hag yth esos omma</tspan><tspan
         sodipodi:role="line"
         style="font-size:45.3333px"
         x="2003.085"
         y="385.09717"
         id="tspan1348">lemmyn drefen bos edhom</tspan><tspan
         sodipodi:role="line"
         style="font-size:45.3333px"
         x="2003.085"
         y="441.76379"
         id="tspan1352">dhis a dhagrow Feniks rag</tspan><tspan
         sodipodi:role="line"
         style="font-size:45.3333px"
         x="2003.085"
         y="498.43042"
         id="tspan1354">dha yaghhe, gwir?</tspan></text>
    <text
       xml:space="preserve"
       style="font-style:normal;font-variant:normal;font-weight:normal;font-stretch:normal;font-size:45.3333px;line-height:125%;font-family:Lavi;-inkscape-font-specification:Lavi;text-align:center;letter-spacing:0px;word-spacing:0px;text-anchor:middle;fill:#000000;fill-opacity:1;stroke:none"
       x="388.54419"
       y="826.83826"
       id="text4246-70-2-2-2-7-4-9-9"><tspan
         sodipodi:role="line"
         style="font-style:normal;font-variant:normal;font-weight:bold;font-stretch:normal;font-size:45.3333px;font-family:Lavi;-inkscape-font-specification:'Lavi Bold'"
         x="388.54419"
         y="826.83826"
         id="tspan1215"><tspan
   id="tspan1060"
   style="font-weight:normal;font-size:45.3333px;-inkscape-font-specification:Lavi">Gwir, </tspan>nyns eus</tspan><tspan
         sodipodi:role="line"
         style="font-style:normal;font-variant:normal;font-weight:bold;font-stretch:normal;font-size:45.3333px;font-family:Lavi;-inkscape-font-specification:'Lavi Bold'"
         x="388.54419"
         y="883.50488"
         id="tspan1062">dewis aral dhymm.</tspan></text>
    <text
       xml:space="preserve"
       style="font-style:normal;font-variant:normal;font-weight:normal;font-stretch:normal;font-size:45.3333px;line-height:125%;font-family:Lavi;-inkscape-font-specification:Lavi;text-align:center;letter-spacing:0px;word-spacing:0px;text-anchor:middle;fill:#000000;fill-opacity:1;stroke:none"
       x="956.3031"
       y="994.32025"
       id="text4246-70-2-2-2-7-4-9-9-3"><tspan
         sodipodi:role="line"
         style="font-style:italic;font-variant:normal;font-weight:normal;font-stretch:normal;font-size:45.3333px;font-family:Lavi;-inkscape-font-specification:'Lavi Italic'"
         x="956.3031"
         y="994.32025"
         id="tspan12869-7">*hanas*</tspan></text>
    <text
       xml:space="preserve"
       style="font-style:normal;font-variant:normal;font-weight:normal;font-stretch:normal;font-size:45.3333px;line-height:125%;font-family:Lavi;-inkscape-font-specification:Lavi;text-align:center;letter-spacing:0px;word-spacing:0px;text-anchor:middle;fill:#000000;fill-opacity:1;stroke:none"
       x="1562.6672"
       y="832.2207"
       id="text4246-70-2-2-2-7-4-9-9-6-6"><tspan
         sodipodi:role="line"
         style="font-size:45.3333px"
         x="1562.6672"
         y="832.2207"
         id="tspan1351">...well, pandr'a</tspan><tspan
         sodipodi:role="line"
         style="font-size:45.3333px"
         x="1562.6672"
         y="888.88733"
         id="tspan1359">wortydh?</tspan></text>
    <text
       xml:space="preserve"
       style="font-style:normal;font-variant:normal;font-weight:normal;font-stretch:normal;font-size:45.3333px;line-height:125%;font-family:Lavi;-inkscape-font-specification:Lavi;text-align:center;letter-spacing:0px;word-spacing:0px;text-anchor:middle;fill:#000000;fill-opacity:1;stroke:none"
       x="1593.8657"
       y="981.48041"
       id="text4246-70-2-2-2-7-4-9-9-6"><tspan
         sodipodi:role="line"
         style="font-size:45.3333px"
         x="1593.8657"
         y="981.48041"
         id="tspan1358">Assay dhe</tspan><tspan
         sodipodi:role="line"
         style="font-size:45.3333px"
         x="1593.8657"
         y="1038.1471"
         id="tspan1363">wul dhymm ola.</tspan></text>
    <text
       xml:space="preserve"
       style="font-style:normal;font-variant:normal;font-weight:normal;font-stretch:normal;font-size:45.3333px;line-height:125%;font-family:Lavi;-inkscape-font-specification:Lavi;text-align:center;letter-spacing:0px;word-spacing:0px;text-anchor:middle;fill:#000000;fill-opacity:1;stroke:none"
       x="1564.7095"
       y="1636.3534"
       id="text4246-70-2-2-2-7-4-9-9-6-5"><tspan
         sodipodi:role="line"
         style="font-size:45.3333px"
         x="1564.7095"
         y="1636.3534"
         id="tspan29603">My a re dhis</tspan><tspan
         sodipodi:role="line"
         style="font-style:normal;font-variant:normal;font-weight:bold;font-stretch:normal;font-size:45.3333px;font-family:Lavi;-inkscape-font-specification:'Lavi Bold'"
         x="1564.7095"
         y="1693.02"
         id="tspan1669">mynysen!</tspan></text>
    <text
       xml:space="preserve"
       style="font-style:normal;font-variant:normal;font-weight:normal;font-stretch:normal;font-size:55.9581px;line-height:125%;font-family:Lavi;-inkscape-font-specification:Lavi;text-align:center;letter-spacing:0px;word-spacing:0px;text-anchor:middle;fill:#000000;fill-opacity:1;stroke:none;stroke-width:1"
       x="311.79352"
       y="1889.1261"
       id="text4246-70-2-2-2-7-4-9-9-6-1"><tspan
         sodipodi:role="line"
         style="font-style:normal;font-variant:normal;font-weight:bold;font-stretch:normal;font-size:55.9581px;font-family:Lavi;-inkscape-font-specification:'Lavi Bold';stroke-width:1"
         x="311.79352"
         y="1889.1261"
         id="tspan40668">Pyth?!</tspan></text>
    <text
       xml:space="preserve"
       style="font-style:normal;font-variant:normal;font-weight:normal;font-stretch:normal;font-size:49.2216px;line-height:125%;font-family:Lavi;-inkscape-font-specification:Lavi;text-align:center;letter-spacing:0px;word-spacing:0px;text-anchor:middle;fill:#000000;fill-opacity:1;stroke:none;stroke-width:1"
       x="472.64255"
       y="1972.0665"
       id="text4246-70-2-2-2-7-4-9-9-6-1-2-2"><tspan
         sodipodi:role="line"
         style="font-style:normal;font-variant:normal;font-weight:bold;font-stretch:normal;font-size:49.2216px;font-family:Lavi;-inkscape-font-specification:'Lavi Bold';stroke-width:1"
         x="472.64255"
         y="1972.0665"
         id="tspan1798">Gul dhis</tspan><tspan
         sodipodi:role="line"
         style="font-style:normal;font-variant:normal;font-weight:bold;font-stretch:normal;font-size:49.2216px;font-family:Lavi;-inkscape-font-specification:'Lavi Bold';stroke-width:1"
         x="472.64255"
         y="2033.5935"
         id="tspan1367">ola?!</tspan></text>
    <text
       xml:space="preserve"
       style="font-style:normal;font-variant:normal;font-weight:normal;font-stretch:normal;font-size:45.3333px;line-height:125%;font-family:Lavi;-inkscape-font-specification:Lavi;text-align:center;letter-spacing:0px;word-spacing:0px;text-anchor:middle;fill:#000000;fill-opacity:1;stroke:none"
       x="663.1972"
       y="2124.0947"
       id="text4246-70-2-2-2-7-4-9-9-6-1-2"><tspan
         sodipodi:role="line"
         style="font-size:45.3333px"
         x="663.1972"
         y="2124.0947"
         id="tspan53928">Mes ny </tspan><tspan
         sodipodi:role="line"
         style="font-size:45.3333px"
         x="663.1972"
         y="2180.7615"
         id="tspan1809">wodhvev</tspan><tspan
         sodipodi:role="line"
         style="font-size:45.3333px"
         x="663.1972"
         y="2237.428"
         id="tspan1813"> henna...</tspan></text>
    <text
       xml:space="preserve"
       style="font-style:normal;font-variant:normal;font-weight:normal;font-stretch:normal;font-size:49.2681px;line-height:125%;font-family:Lavi;-inkscape-font-specification:Lavi;text-align:center;letter-spacing:0px;word-spacing:0px;text-anchor:middle;fill:#000000;fill-opacity:1;stroke:none;stroke-width:1"
       x="707.3999"
       y="2316.5879"
       id="text4246-70-2-2-2-7-4-9-9-6-1-2-27"
       transform="scale(0.98652379,1.0136603)"><tspan
         sodipodi:role="line"
         style="font-size:49.2681px;stroke-width:1"
         x="707.3999"
         y="2316.5879"
         id="tspan1134">My a styr...</tspan><tspan
         sodipodi:role="line"
         style="font-size:49.2681px;stroke-width:1"
         x="707.3999"
         y="2378.1731"
         id="tspan1823"><tspan
           style="font-style:normal;font-variant:normal;font-weight:bold;font-stretch:normal;font-family:Lavi;-inkscape-font-specification:'Lavi Bold'"
           id="tspan1827">Saw unn </tspan></tspan><tspan
         sodipodi:role="line"
         style="font-style:normal;font-variant:normal;font-weight:bold;font-stretch:normal;font-size:49.2681px;font-family:Lavi;-inkscape-font-specification:'Lavi Bold';stroke-width:1"
         x="707.3999"
         y="2439.7581"
         id="tspan1825">vynysen?!</tspan></text>
    <text
       xml:space="preserve"
       style="font-style:normal;font-variant:normal;font-weight:normal;font-stretch:normal;font-size:48.1157px;line-height:125%;font-family:Lavi;-inkscape-font-specification:Lavi;text-align:center;letter-spacing:0px;word-spacing:0px;text-anchor:middle;fill:#000000;fill-opacity:1;stroke:none;stroke-width:1"
       x="1017.1918"
       y="1924.8142"
       id="text4246-70-2-2-2-7-4-9-9-6-1-2-3"><tspan
         sodipodi:role="line"
         style="font-size:48.1157px;stroke-width:1"
         x="1017.1918"
         y="1924.8142"
         id="tspan44044-5">Um...</tspan></text>
    <text
       xml:space="preserve"
       style="font-style:normal;font-variant:normal;font-weight:normal;font-stretch:normal;font-size:51.9425px;line-height:125%;font-family:Lavi;-inkscape-font-specification:Lavi;text-align:center;letter-spacing:0px;word-spacing:0px;text-anchor:middle;fill:#000000;fill-opacity:1;stroke:none;stroke-width:1"
       x="1187.4293"
       y="1953.7235"
       id="text4246-70-2-2-2-7-4-9-9-6-1-2-3-9-6"><tspan
         sodipodi:role="line"
         style="font-style:normal;font-variant:normal;font-weight:bold;font-stretch:normal;font-size:51.9425px;font-family:Lavi;-inkscape-font-specification:'Lavi Bold';stroke-width:1"
         x="1187.4293"
         y="1953.7235"
         id="tspan62775-6">OK!</tspan></text>
    <text
       xml:space="preserve"
       style="font-style:normal;font-variant:normal;font-weight:normal;font-stretch:normal;font-size:40.5417px;line-height:125%;font-family:Lavi;-inkscape-font-specification:Lavi;text-align:center;letter-spacing:0px;word-spacing:0px;text-anchor:middle;fill:#000000;fill-opacity:1;stroke:none;stroke-width:1"
       x="1377.374"
       y="1972.0564"
       id="text4246-70-2-2-2-7-4-9-9-6-1-2-3-9-6-0"><tspan
         sodipodi:role="line"
         style="font-size:40.5417px;stroke-width:1"
         x="1377.374"
         y="1972.0564"
         id="tspan62775-6-2">Gwelyn.</tspan></text>
    <text
       xml:space="preserve"
       style="font-style:normal;font-variant:normal;font-weight:normal;font-stretch:normal;font-size:45.3333px;line-height:125%;font-family:Lavi;-inkscape-font-specification:Lavi;text-align:center;letter-spacing:0px;word-spacing:0px;text-anchor:middle;fill:#000000;fill-opacity:1;stroke:none"
       x="1277.869"
       y="2055.957"
       id="text4246-70-2-2-2-7-4-9-9-6-1-2-3-9"><tspan
         sodipodi:role="line"
         style="font-size:45.3333px"
         x="1277.869"
         y="2055.957"
         id="tspan85354">Hmm... Tyb a-dro</tspan><tspan
         sodipodi:role="line"
         style="font-size:45.3333px"
         x="1277.869"
         y="2112.6238"
         id="tspan2077">dhe <tspan
   style="font-style:normal;font-variant:normal;font-weight:bold;font-stretch:normal;font-family:Lavi;-inkscape-font-specification:'Lavi Bold'"
   id="tspan2079">nown bysel.</tspan></tspan></text>
    <text
       xml:space="preserve"
       style="font-style:normal;font-variant:normal;font-weight:normal;font-stretch:normal;font-size:45.3333px;line-height:125%;font-family:Lavi;-inkscape-font-specification:Lavi;text-align:center;letter-spacing:0px;word-spacing:0px;text-anchor:middle;fill:#000000;fill-opacity:1;stroke:none"
       x="1275.8167"
       y="2191.9316"
       id="text4246-70-2-2-2-7-4-9-9-6-1-2-3-9-2"><tspan
         sodipodi:role="line"
         style="font-size:45.3333px"
         x="1275.8167"
         y="2191.9316"
         id="tspan62775-9">Er, gortagorta!</tspan></text>
    <text
       xml:space="preserve"
       style="font-style:normal;font-variant:normal;font-weight:normal;font-stretch:normal;font-size:45.3333px;line-height:125%;font-family:Lavi;-inkscape-font-specification:Lavi;text-align:center;letter-spacing:0px;word-spacing:0px;text-anchor:middle;fill:#000000;fill-opacity:1;stroke:none"
       x="1276.9706"
       y="2252.7942"
       id="text4246-70-2-2-2-7-4-9-9-6-1-2-3-9-2-2"><tspan
         sodipodi:role="line"
         style="font-size:45.3333px"
         x="1276.9706"
         y="2252.7942"
         id="tspan2204">My a'm beus neppyth</tspan><tspan
         sodipodi:role="line"
         style="font-size:45.3333px"
         x="1276.9706"
         y="2309.4609"
         id="tspan2208"> gwell:</tspan></text>
    <text
       xml:space="preserve"
       style="font-style:normal;font-variant:normal;font-weight:normal;font-stretch:normal;font-size:45.3333px;line-height:125%;font-family:Lavi;-inkscape-font-specification:Lavi;text-align:center;letter-spacing:0px;word-spacing:0px;text-anchor:middle;fill:#000000;fill-opacity:1;stroke:none"
       x="1293.4883"
       y="2378.7439"
       id="text4246-70-2-2-2-7-4-9-9-6-1-2-3-9-2-7-6"><tspan
         sodipodi:role="line"
         style="font-style:normal;font-variant:normal;font-weight:bold;font-stretch:normal;font-size:45.3333px;font-family:Lavi;-inkscape-font-specification:'Lavi Bold'"
         x="1293.4883"
         y="2378.7439"
         id="tspan70880-2">An re a gelsys.</tspan></text>
    <text
       xml:space="preserve"
       style="font-style:normal;font-variant:normal;font-weight:normal;font-stretch:normal;font-size:45.3333px;line-height:125%;font-family:Lavi;-inkscape-font-specification:Lavi;text-align:center;letter-spacing:0px;word-spacing:0px;text-anchor:middle;fill:#000000;fill-opacity:1;stroke:none"
       x="1184.426"
       y="3080.6577"
       id="text4246-70-2-2-2-7-4-9-9-6-1-2-3-9-2-7"><tspan
         sodipodi:role="line"
         style="font-size:45.3333px"
         x="1184.426"
         y="3080.6577"
         id="tspan70880">Tra vyth hwath?</tspan></text>
    <text
       xml:space="preserve"
       style="font-style:normal;font-variant:normal;font-weight:normal;font-stretch:normal;font-size:45.3333px;line-height:125%;font-family:Lavi;-inkscape-font-specification:Lavi;text-align:center;letter-spacing:0px;word-spacing:0px;text-anchor:middle;fill:#000000;fill-opacity:1;stroke:none"
       x="1237.2577"
       y="3176.5801"
       id="text4246-70-2-2-2-7-4-9-9-6-1-2-3-9-2-7-9"><tspan
         sodipodi:role="line"
         style="font-style:normal;font-variant:normal;font-weight:bold;font-stretch:normal;font-size:45.3333px;font-family:Lavi;-inkscape-font-specification:'Lavi Bold'"
         x="1237.2577"
         y="3176.5801"
         id="tspan80607">Enevales dov</tspan><tspan
         sodipodi:role="line"
         style="font-style:normal;font-variant:normal;font-weight:bold;font-stretch:normal;font-size:45.3333px;font-family:Lavi;-inkscape-font-specification:'Lavi Bold'"
         x="1237.2577"
         y="3233.2468"
         id="tspan2463">forsakyes?!</tspan></text>
    <text
       xml:space="preserve"
       style="font-style:normal;font-variant:normal;font-weight:normal;font-stretch:normal;font-size:31.9991px;line-height:125%;font-family:Lavi;-inkscape-font-specification:Lavi;text-align:center;letter-spacing:0px;word-spacing:0px;text-anchor:middle;fill:#000000;fill-opacity:1;stroke:none;stroke-width:0.999999"
       x="1309.0375"
       y="3310.5249"
       id="text4246-70-2-2-2-7-4-9-9-6-1-2-3-9-2-7-9-1"><tspan
         sodipodi:role="line"
         style="font-size:31.9991px;stroke-width:0.999999"
         x="1309.0375"
         y="3310.5249"
         id="tspan1820">Ass yw forsakyans</tspan><tspan
         sodipodi:role="line"
         style="font-size:31.9991px;stroke-width:0.999999"
         x="1309.0375"
         y="3350.5237"
         id="tspan1371">eneval dov trist...</tspan></text>
    <text
       xml:space="preserve"
       style="font-style:normal;font-variant:normal;font-weight:normal;font-stretch:normal;font-size:45.3333px;line-height:125%;font-family:Lavi;-inkscape-font-specification:Lavi;text-align:center;letter-spacing:0px;word-spacing:0px;text-anchor:middle;fill:#000000;fill-opacity:1;stroke:none"
       x="2305.2185"
       y="3151.553"
       id="text4246-70-2-2-2-7-4-9-9-6-1-2-3-9-2-7-9-5"><tspan
         sodipodi:role="line"
         style="font-size:45.3333px"
         x="2305.2185"
         y="3151.553"
         id="tspan80607-3">...</tspan></text>
  </g>
</svg>
