<?xml version="1.0" encoding="UTF-8" standalone="no"?>
<!-- Created with Inkscape (http://www.inkscape.org/) -->

<svg
   xmlns:dc="http://purl.org/dc/elements/1.1/"
   xmlns:cc="http://creativecommons.org/ns#"
   xmlns:rdf="http://www.w3.org/1999/02/22-rdf-syntax-ns#"
   xmlns:svg="http://www.w3.org/2000/svg"
   xmlns="http://www.w3.org/2000/svg"
   xmlns:sodipodi="http://sodipodi.sourceforge.net/DTD/sodipodi-0.dtd"
   xmlns:inkscape="http://www.inkscape.org/namespaces/inkscape"
   id="svg2"
   version="1.1"
   inkscape:version="0.92.3 (2405546, 2018-03-11)"
   width="2481"
   height="663"
   sodipodi:docname="E03P00.svg">
  <sodipodi:namedview
     pagecolor="#ffffff"
     bordercolor="#666666"
     inkscape:pageopacity="0"
     inkscape:pageshadow="2"
     inkscape:window-width="1813"
     inkscape:window-height="955"
     id="namedview70"
     showgrid="false"
     inkscape:zoom="0.46"
     inkscape:cx="821.63449"
     inkscape:cy="182.50545"
     inkscape:current-layer="layer1"
     inkscape:window-x="0"
     inkscape:window-y="28"
     inkscape:window-maximized="0" />
  <metadata
     id="metadata8">
    <rdf:RDF>
      <cc:Work
         rdf:about="">
        <dc:format>image/svg+xml</dc:format>
        <dc:type
           rdf:resource="http://purl.org/dc/dcmitype/StillImage" />
        <dc:title></dc:title>
      </cc:Work>
    </rdf:RDF>
  </metadata>
  <defs
     id="defs6" />
  <sodipodi:namedview
     pagecolor="#ffffff"
     bordercolor="#666666"
     borderopacity="1"
     objecttolerance="10"
     gridtolerance="10"
     guidetolerance="10"
     inkscape:pageopacity="0"
     inkscape:pageshadow="2"
     inkscape:window-width="1130"
     inkscape:window-height="765"
     id="namedview4"
     showgrid="false"
     inkscape:zoom="0.40071843"
     inkscape:cx="1369.5999"
     inkscape:cy="323.2049"
     inkscape:window-x="387"
     inkscape:window-y="93"
     inkscape:window-maximized="0"
     inkscape:current-layer="layer1" />
  <g
     inkscape:groupmode="layer"
     id="layer2"
     inkscape:label="artwork" />
  <g
     inkscape:groupmode="layer"
     id="layer1"
     inkscape:label="txt"
     style="display:inline">
    <flowRoot
       xml:space="preserve"
       id="episode-title"
       style="font-style:normal;font-variant:normal;font-weight:normal;font-stretch:normal;line-height:0.01%;font-family:Arial;-inkscape-font-specification:Arial;letter-spacing:0px;word-spacing:0px;display:inline;fill:#301b0b;fill-opacity:1;stroke:none"
       transform="matrix(1.3433447,0,0,1.4332496,-1368.4408,-459.87103)"><flowRegion
         id="flowRegion2989"><rect
           id="rect2991"
           width="2405.8"
           height="107.55731"
           x="739.22333"
           y="644.36664"
           style="fill:#301b0b;fill-opacity:1" /></flowRegion><flowPara
         id="flowPara2993"
         style="font-style:normal;font-variant:normal;font-weight:bold;font-stretch:normal;font-size:69.18573761px;line-height:1.25;font-family:'XP Ziba';-inkscape-font-specification:'XP Ziba Bold';text-align:center;direction:rtl;text-anchor:middle;fill:#301b0b;fill-opacity:1">قسمت سوم: مواد اولیه محرمانه</flowPara></flowRoot>    <flowRoot
       xml:space="preserve"
       id="flowRoot3371-1"
       style="font-style:normal;font-variant:normal;font-weight:bold;font-stretch:normal;line-height:0.01%;font-family:'XP Ziba';-inkscape-font-specification:'XP Ziba Bold';letter-spacing:0px;word-spacing:0px;display:inline;opacity:1;fill:#301b0b;fill-opacity:1;stroke:none;stroke-width:1px;stroke-linecap:butt;stroke-linejoin:miter;stroke-opacity:1"
       transform="translate(160.47949,59.265207)"><flowRegion
         id="flowRegion3373-6"
         style="fill:#301b0b;fill-opacity:1"><rect
           id="rect3375-0"
           width="1548.4232"
           height="424.68536"
           x="267.07019"
           y="-5.405139"
           style="font-style:normal;font-variant:normal;font-weight:bold;font-stretch:normal;font-size:312.5px;font-family:'XP Ziba';-inkscape-font-specification:'XP Ziba Bold';fill:#301b0b;fill-opacity:1" /></flowRegion><flowPara
         id="flowPara3377-9"
         style="font-style:normal;font-variant:normal;font-weight:bold;font-stretch:normal;font-size:312.5px;line-height:1.25;font-family:'XP Ziba';-inkscape-font-specification:'XP Ziba Bold';direction:rtl;fill:#301b0b;fill-opacity:1">فلفل و هویج</flowPara></flowRoot>  </g>
</svg>
