<?xml version="1.0" encoding="UTF-8" standalone="no"?>
<!-- Created with Inkscape (http://www.inkscape.org/) -->

<svg
   id="svg2"
   version="1.1"
   inkscape:version="1.2 (dc2aedaf03, 2022-05-15)"
   width="2481"
   height="3503"
   sodipodi:docname="E37P04.svg"
   xmlns:inkscape="http://www.inkscape.org/namespaces/inkscape"
   xmlns:sodipodi="http://sodipodi.sourceforge.net/DTD/sodipodi-0.dtd"
   xmlns:xlink="http://www.w3.org/1999/xlink"
   xmlns="http://www.w3.org/2000/svg"
   xmlns:svg="http://www.w3.org/2000/svg"
   xmlns:rdf="http://www.w3.org/1999/02/22-rdf-syntax-ns#"
   xmlns:cc="http://creativecommons.org/ns#"
   xmlns:dc="http://purl.org/dc/elements/1.1/">
  <metadata
     id="metadata8">
    <rdf:RDF>
      <cc:Work
         rdf:about="">
        <dc:format>image/svg+xml</dc:format>
        <dc:type
           rdf:resource="http://purl.org/dc/dcmitype/StillImage" />
        <dc:title />
      </cc:Work>
    </rdf:RDF>
  </metadata>
  <defs
     id="defs6">
    <filter
       inkscape:label="Ripple"
       inkscape:menu="Distort"
       inkscape:menu-tooltip="Horizontal rippling of edges"
       style="color-interpolation-filters:sRGB"
       id="filter4265-7-37"
       y="0"
       x="0"
       width="1"
       height="1">
      <feTurbulence
         numOctaves="1"
         baseFrequency="0.002 0.107"
         id="feTurbulence4267-7-7" />
      <feColorMatrix
         values="5 0 0 0 0 0 0 0 0 0 0 0 0 0 0 0 0 0 4 0 "
         result="result91"
         id="feColorMatrix4269-1-2" />
      <feDisplacementMap
         yChannelSelector="A"
         xChannelSelector="R"
         scale="14.3"
         in="SourceGraphic"
         in2="result91"
         id="feDisplacementMap4271-2-64" />
    </filter>
    <filter
       inkscape:label="Magmah-FX"
       inkscape:menu="Distort"
       inkscape:menu-tooltip="Horizontal rippling of edges"
       style="color-interpolation-filters:sRGB"
       id="filter4265-7"
       y="0"
       x="0"
       width="1"
       height="1">
      <feTurbulence
         numOctaves="1"
         baseFrequency="0.002 0.107"
         id="feTurbulence4267-7" />
      <feColorMatrix
         values="5 0 0 0 0 0 0 0 0 0 0 0 0 0 0 0 0 0 4 0 "
         result="result91"
         id="feColorMatrix4269-1" />
      <feDisplacementMap
         yChannelSelector="A"
         xChannelSelector="R"
         scale="14.3"
         in="SourceGraphic"
         in2="result91"
         id="feDisplacementMap4271-2" />
    </filter>
    <filter
       style="color-interpolation-filters:sRGB"
       inkscape:label="Magmah-spell-glow"
       id="filter4751"
       x="-0.035967053"
       y="-0.17833759"
       width="1.0719341"
       height="1.3566752">
      <feFlood
         flood-opacity="1"
         flood-color="rgb(255,255,255)"
         result="flood"
         id="feFlood4753" />
      <feComposite
         in="flood"
         in2="SourceGraphic"
         operator="in"
         result="composite1"
         id="feComposite4755" />
      <feGaussianBlur
         in="composite1"
         stdDeviation="5.4"
         result="blur"
         id="feGaussianBlur4757" />
      <feOffset
         dx="0"
         dy="0"
         result="offset"
         id="feOffset4759" />
      <feComposite
         in="SourceGraphic"
         in2="offset"
         operator="over"
         result="composite2"
         id="feComposite4761" />
    </filter>
  </defs>
  <sodipodi:namedview
     pagecolor="#ffffff"
     bordercolor="#666666"
     borderopacity="1"
     objecttolerance="10"
     gridtolerance="10"
     guidetolerance="10"
     inkscape:pageopacity="0"
     inkscape:pageshadow="2"
     inkscape:window-width="1920"
     inkscape:window-height="1056"
     id="namedview4"
     showgrid="false"
     inkscape:zoom="0.39687771"
     inkscape:cx="943.6156"
     inkscape:cy="2267.701"
     inkscape:window-x="1920"
     inkscape:window-y="0"
     inkscape:window-maximized="1"
     inkscape:current-layer="layer3"
     inkscape:pagecheckerboard="0"
     inkscape:showpageshadow="0"
     inkscape:deskcolor="#d1d1d1" />
  <g
     inkscape:groupmode="layer"
     id="layer2"
     inkscape:label="artwork"
     sodipodi:insensitive="true">
    <image
       xlink:href="../gfx_Pepper-and-Carrot_by-David-Revoy_E37P04.png"
       y="0"
       x="0"
       id="image10"
       height="3503"
       width="2481" />
  </g>
  <g
     inkscape:groupmode="layer"
     id="layer3"
     inkscape:label="speechbubbles">
    <path
       style="color:#000000;display:inline;overflow:visible;visibility:visible;fill:#ffffff;fill-opacity:1;fill-rule:nonzero;stroke:none;stroke-width:0.999999px;marker:none;enable-background:accumulate"
       d="m 182.76397,1473.9937 c 37.53875,-26.5709 362.53007,-42.6341 448.61167,1.0333 71.85106,36.4487 43.81709,127.2195 -20.08298,148.127 -63.89995,20.9074 -276.47185,18.4806 -369.63728,9.0012 -88.70635,-9.0246 -103.6015,-36.2667 -107.96492,-91.116 -1.78087,-22.3873 11.53453,-40.4747 49.07351,-67.0455 z"
       id="path4040-4-4"
       inkscape:connector-curvature="0"
       sodipodi:nodetypes="zssssz" />
    <path
       style="color:#000000;display:inline;overflow:visible;visibility:visible;fill:#ffffff;fill-opacity:1;fill-rule:nonzero;stroke:none;stroke-width:1.10661px;marker:none;enable-background:accumulate"
       d="m 232.88521,1829.6545 c -15.49911,-4.3258 -30.36527,-25.9083 -39.85487,-45.1151 -2.6023,-5.5279 -4.9768,-11.4623 -5.91137,-17.7034 0.23014,-6.7406 4.6456,-11.9989 9.68489,-14.2208 7.08756,-3.8231 15.87763,-4.2925 21.36573,-11.5454 3.88883,-5.3975 2.44347,-12.8787 1.69304,-19.2745 -2.17932,-16.2588 -6.20379,-32.2732 -6.21379,-48.8483 -1.02235,-18.6687 -0.97071,-38.3918 6.06435,-55.4786 2.87848,-6.7043 6.67303,-13.2274 12.33892,-16.8574 14.17763,-10.1059 33.45012,-10.5499 47.30692,0.9314 8.26682,8.3259 10.21944,25.1454 2.569,34.7308 -3.97524,5.1331 -10.21215,6.1902 -15.7493,5.1661 -10.4586,0.3997 -20.04905,8.0914 -25.18673,18.8336 -4.36159,8.7814 -6.37218,19.1354 -6.13892,29.3576 -2.73879,13.9759 2.82926,27.469 5.69121,40.7504 1.23215,6.0908 2.19987,12.6668 0.87478,18.791 -3.62099,8.1775 -11.75152,10.5256 -18.8271,11.5577 -7.27261,1.2901 -15.83507,1.7981 -20.79951,9.2364 -4.02698,4.5998 -0.25135,11.0835 0.90045,16.2897 5.52666,16.1978 15.18264,30.1517 26.62182,40.8647 1.15331,0.9227 2.35952,1.7296 3.57048,2.5341 z"
       id="path4496-8"
       inkscape:connector-curvature="0"
       sodipodi:nodetypes="ccccccccccccccccccccc" />
    <path
       style="fill:#ffffff;stroke:none;stroke-width:0.999997"
       d="m 2079.0654,3138.6462 c -56.4634,0.1923 -113.7372,2.4797 -168.2237,17.2777 -25.988,7.3238 -51.631,19.1526 -69.0393,38.8741 -18.1174,21.3698 -25.0246,49.4057 -22.9838,76.1068 2.1847,25.7603 12.1101,51.6609 31.4031,70.8404 15.1541,14.9351 35.4406,24.4759 56.3019,30.8571 47.4974,14.7657 98.3047,14.6477 147.865,14.4651 48.111,-0.5375 96.2694,0.95 144.3399,-1.472 27.0181,-1.5776 54.222,-3.8031 80.411,-10.4256 23.3447,-5.9798 46.521,-16.2579 61.8384,-34.0656 10.9194,-12.2548 17.673,-27.2173 21.1907,-42.6306 5.1979,-21.908 5.1121,-44.7713 0.8308,-66.7999 -4.3638,-19.7815 -15.445,-38.7612 -33.1052,-51.1344 -22.7015,-16.6832 -50.9864,-25.1802 -79.0303,-30.7871 -39.6206,-7.6183 -80.2207,-9.0829 -120.549,-10.5505 -17.0785,-0.4392 -34.1649,-0.5782 -51.2495,-0.5555 z"
       id="path3280-10"
       inkscape:connector-curvature="0"
       sodipodi:nodetypes="csssc" />
    <path
       style="color:#000000;display:inline;overflow:visible;visibility:visible;fill:#ffffff;fill-opacity:1;fill-rule:nonzero;stroke:none;stroke-width:1px;marker:none;enable-background:accumulate"
       d="m 2241.4933,3042.882 c 29.4607,39.0283 37.4962,54.495 5.4884,103.1911 -32.008,48.6949 -12.3313,58.5128 -12.3313,58.5128 l 37.4463,-17.7293 c 0,0 60.5024,-107.9345 -30.6034,-143.9746 z"
       id="path3072-56"
       inkscape:connector-curvature="0" />
    <path
       style="display:inline;fill:#ffffff;stroke:none;stroke-width:0.870791"
       d="M 845.77734 1498.666 C 814.71753 1499.4818 783.23142 1504.3012 754.82852 1517.4115 C 732.4865 1528.1456 714.90323 1548.8815 709.16406 1573.127 C 704.54294 1592.0371 705.09744 1611.6749 705.55585 1630.9873 C 706.26246 1648.3769 709.38049 1666.2483 718.66212 1681.261 C 730.48691 1700.633 750.56588 1714.057 772.23544 1720.0465 C 802.08157 1729.2822 833.60613 1730.484 864.62107 1730.6689 C 901.17151 1730.6851 938.06474 1731.0519 974.08758 1723.9739 C 994.64553 1719.0635 1014.4759 1708.4841 1027.6522 1691.6347 C 1039.0322 1676.5187 1043.7824 1657.5749 1045.6683 1639.0352 C 1047.8913 1613.8773 1043.898 1588.3546 1035.3809 1564.6488 C 1026.7953 1543.6014 1009.1265 1526.8483 988.279 1518.1017 C 969.75362 1509.9732 949.71435 1506.1538 929.82114 1503.1157 C 901.99724 1499.1986 873.83496 1498.5763 845.77734 1498.666 z "
       id="path3280-8-1"
       inkscape:connector-curvature="0"
       sodipodi:nodetypes="csssc" />
    <path
       style="display:inline;fill:#ffffff;stroke:none;stroke-width:0.87079"
       d="m 1298.8013,1554.771 c -47.1865,0.2345 -95.1192,3.4428 -140.1501,18.6104 -28.0701,9.9681 -54.2573,27.7358 -70.4235,53.199 -4.1914,7.8007 -6.3109,16.5384 -8.2122,25.1335 -6.5964,33.5115 1.6257,70.4999 24.6847,96.1413 21.2745,23.9132 51.0428,38.7643 81.7035,46.5213 37.6959,9.6376 76.8924,11.3217 115.6197,10.0945 55.5507,-0.9097 110.6592,-8.6533 165.6783,-15.7124 25.495,-3.6481 51.2773,-8.5647 74.6229,-19.884 25.6178,-13.0195 46.9323,-36.3502 53.6646,-64.7696 8.0189,-32.3274 0.2454,-68.767 -22.0188,-93.8044 -11.7842,-13.0267 -27.8677,-21.0366 -44.1955,-26.7837 -20.6805,-7.2637 -42.221,-11.6572 -63.6833,-15.8758 -55.1243,-10.1513 -111.3264,-13.1409 -167.2903,-12.8701 z"
       id="path3280-8-1-0"
       inkscape:connector-curvature="0"
       sodipodi:nodetypes="csssc" />
    <path
       style="display:inline;fill:#ffffff;stroke:none;stroke-width:0.87079"
       d="m 1862.2363,1628.9439 c -50.8635,0.6966 -101.994,2.1765 -152.2572,11.6571 -26.6456,6.2059 -52.6926,22.5014 -66.6355,49.636 -16.1469,29.6411 -16.2568,65.8337 -14.059,99.4055 2.325,29.6802 8.081,59.5102 19.9364,86.2813 14.7896,28.0661 41.8202,45.4966 69.793,51.4892 44.4643,12.7429 90.5407,14.8769 136.094,18.6261 89.9381,4.7663 180.0083,2.5136 269.9903,1.0799 62.4055,-2.657 125.8801,-8.9526 184.7244,-34.0821 32.0542,-17.4294 51.5346,-56.5544 54.0341,-95.741 4.5436,-44.1417 -2.4156,-90.9225 -24.0863,-128.5542 -16.7415,-27.239 -43.8018,-45.7127 -72.8689,-50.4183 -40.2898,-8.7107 -81.512,-4.3401 -122.2119,-7.4661 -85.9869,-2.5593 -172.0135,-0.8182 -258.0155,-1.9813 -8.1462,-0.014 -16.2921,-0.036 -24.4379,0.068 z"
       id="path3280-8-1-0-6"
       inkscape:connector-curvature="0"
       sodipodi:nodetypes="csssc" />
    <path
       style="color:#000000;display:inline;overflow:visible;visibility:visible;fill:#ffffff;fill-opacity:1;fill-rule:nonzero;stroke:none;stroke-width:0.999999px;marker:none;enable-background:accumulate"
       d="m 1778.817,1868.4621 c -12.833,-0.6526 -23.8662,8.7491 -27.831,19.5381 -19.6036,19.4059 -1.839,-8.6641 -6.4214,4.8364 -13.5019,11.0957 -15.4266,35.2523 -15.8537,65.4931 -5.2817,5.1994 -14.9376,-8.1861 -19.6475,-2.164 -4.937,10.3078 -6.0593,21.8252 -6.4897,33.0281 -0.3179,32.1806 14.1211,63.8185 37.0812,87.8622 7.5298,8.5773 15.2692,16.9924 22.966,25.4398 -17.5595,-23.2829 -32.5888,-49.3497 -36.2923,-77.8541 -1.1276,-8.6692 1.6106,-30.4788 3.0954,-39.0712 10.4198,2.2428 18.5432,14.1601 29.054,13.5885 -3.9254,-39.033 12.0854,-78.9568 32.5429,-100.807 3.2112,-8.5188 -4.1806,-18.0085 -1.2971,-26.6329 -3.0138,-2.4158 -7.0942,-3.0258 -10.9068,-3.257 z"
       id="path4456-8"
       inkscape:connector-curvature="0"
       inkscape:transform-center-x="-13.453102"
       inkscape:transform-center-y="80.02882"
       sodipodi:nodetypes="cccccccccccccc" />
    <path
       style="color:#000000;display:inline;overflow:visible;visibility:visible;fill:#ffffff;fill-opacity:1;fill-rule:nonzero;stroke:none;stroke-width:1px;marker:none;enable-background:accumulate"
       d="m 820.0369,1693.3353 c -3.48578,39.7252 -1.62886,86.2092 5.54134,93.7569 -12.06557,-4.746 -23.61413,-7.3843 -32.58824,-9.1289 -2.74679,19.0391 9.33544,52.9316 19.75971,79.3624 -34.85384,-28.0115 -46.11754,-83.8349 -45.91311,-113.8427 11.20297,7.5747 21.79689,11.4361 28.26889,11.3872 1.30177,-15.339 -8.85591,-66.1714 -9.7642,-66.4676 z"
       id="path5066-6"
       inkscape:connector-curvature="0"
       sodipodi:nodetypes="cccccccc" />
    <path
       style="display:inline;fill:#ffffff;stroke:none;stroke-width:1"
       d="m 1204.2177,1950.0192 c -44.4885,-30.4335 -65.5015,-120.9246 -25.0786,-163.4599 23.8495,-25.0955 36.2779,-40.3926 36.2779,-40.3926 l -33.7128,-17.199 c -98.5183,93.7979 -30.177,190.842 22.5135,221.0515 z"
       id="path3063-1-0"
       inkscape:connector-curvature="0"
       sodipodi:nodetypes="csccc" />
  </g>
  <g
     inkscape:groupmode="layer"
     id="layer1"
     inkscape:label="txt">
    <text
       xml:space="preserve"
       style="font-style:normal;font-variant:normal;font-weight:normal;font-stretch:normal;font-size:48.2957px;line-height:125%;font-family:Lavi;-inkscape-font-specification:Lavi;text-align:center;letter-spacing:0px;word-spacing:0px;text-anchor:middle;fill:#000000;fill-opacity:1;stroke:none;stroke-width:0.999999"
       x="408.42657"
       y="1530.5175"
       id="text4246-70-2-2-2-7-4"><tspan
         sodipodi:role="line"
         style="font-size:48.2957px;stroke-width:0.999999"
         x="408.42657"
         y="1530.5175"
         id="tspan56812">Pourquoi viens-tu me</tspan><tspan
         sodipodi:role="line"
         style="font-size:48.2957px;stroke-width:0.999999"
         x="408.42657"
         y="1590.8871"
         id="tspan2734">déranger, humaine ?</tspan></text>
    <text
       xml:space="preserve"
       style="font-style:normal;font-variant:normal;font-weight:normal;font-stretch:normal;font-size:49.0523px;line-height:125%;font-family:Lavi;-inkscape-font-specification:Lavi;text-align:center;letter-spacing:0px;word-spacing:0px;text-anchor:middle;fill:#000000;fill-opacity:1;stroke:none;stroke-width:1"
       x="885.45935"
       y="1575.3798"
       id="text4246-70-2-2-2-7-4-3"><tspan
         sodipodi:role="line"
         style="font-style:normal;font-variant:normal;font-weight:bold;font-stretch:normal;font-size:49.0523px;font-family:Lavi;-inkscape-font-specification:'Lavi Bold';stroke-width:1"
         x="885.45935"
         y="1575.3798"
         id="tspan6941">Salutations,</tspan><tspan
         sodipodi:role="line"
         style="font-style:normal;font-variant:normal;font-weight:bold;font-stretch:normal;font-size:49.0523px;font-family:Lavi;-inkscape-font-specification:'Lavi Bold';stroke-width:1"
         x="885.45935"
         y="1636.6952"
         id="tspan4891">Ô grand</tspan><tspan
         sodipodi:role="line"
         style="font-style:normal;font-variant:normal;font-weight:bold;font-stretch:normal;font-size:49.0523px;font-family:Lavi;-inkscape-font-specification:'Lavi Bold';stroke-width:1"
         x="885.45935"
         y="1698.0105"
         id="tspan989">Phénix !</tspan></text>
    <text
       xml:space="preserve"
       style="font-style:normal;font-variant:normal;font-weight:normal;font-stretch:normal;font-size:45.3333px;line-height:125%;font-family:Lavi;-inkscape-font-specification:Lavi;text-align:center;letter-spacing:0px;word-spacing:0px;text-anchor:middle;fill:#000000;fill-opacity:1;stroke:none"
       x="1339.7142"
       y="1638.9146"
       id="text4246-70-2-2-2-7-4-3-5"><tspan
         sodipodi:role="line"
         style="font-size:45.3333px"
         x="1339.7142"
         y="1638.9146"
         id="tspan6941-5">Je m'appelle Pepper,</tspan><tspan
         sodipodi:role="line"
         style="font-size:45.3333px"
         x="1339.7142"
         y="1695.5812"
         id="tspan11202">et je suis une sorcière</tspan><tspan
         sodipodi:role="line"
         style="font-size:45.3333px"
         x="1339.7142"
         y="1752.2478"
         id="tspan11204">de Chaosah.</tspan></text>
    <text
       xml:space="preserve"
       style="font-style:normal;font-variant:normal;font-weight:normal;font-stretch:normal;font-size:45.3333px;line-height:125%;font-family:Lavi;-inkscape-font-specification:Lavi;text-align:center;letter-spacing:0px;word-spacing:0px;text-anchor:middle;fill:#000000;fill-opacity:1;stroke:none"
       x="1993.803"
       y="1689.134"
       id="text4246-70-2-2-2-7-4-3-5-6"><tspan
         sodipodi:role="line"
         style="font-size:45.3333px"
         x="1993.803"
         y="1689.134"
         id="tspan14928">J'ai récemment reçu une</tspan><tspan
         sodipodi:role="line"
         style="font-size:45.3333px"
         x="1993.803"
         y="1745.8007"
         id="tspan450">énorme dose de Réa de dragon,</tspan><tspan
         sodipodi:role="line"
         style="font-size:45.3333px"
         x="1993.803"
         y="1802.4673"
         id="tspan452">et depuis, j'ai cette chose qui est</tspan><tspan
         sodipodi:role="line"
         style="font-size:45.3333px"
         x="1993.803"
         y="1859.1339"
         id="tspan454"> apparue et qui progresse </tspan><tspan
         sodipodi:role="line"
         style="font-size:45.3333px"
         x="1993.803"
         y="1915.8005"
         id="tspan5788">de jour en jour...</tspan></text>
    <text
       xml:space="preserve"
       style="font-style:normal;font-variant:normal;font-weight:normal;font-stretch:normal;font-size:45.3333px;line-height:125%;font-family:Lavi;-inkscape-font-specification:Lavi;text-align:center;letter-spacing:0px;word-spacing:0px;text-anchor:middle;fill:#000000;fill-opacity:1;stroke:none"
       x="2090.5232"
       y="3216.4944"
       id="text4246-70-2-2-2-7-4-3-5-6-2"><tspan
         sodipodi:role="line"
         style="font-size:45.3333px"
         x="2090.5232"
         y="3216.4944"
         id="tspan18871">Ça neutralise tous</tspan><tspan
         sodipodi:role="line"
         style="font-size:45.3333px"
         x="2090.5232"
         y="3273.1611"
         id="tspan515"> mes pouvoirs et risque</tspan><tspan
         sodipodi:role="line"
         style="font-size:45.3333px"
         x="2090.5232"
         y="3329.8276"
         id="tspan517"> à terme de me tuer.</tspan></text>
  </g>
</svg>
