<?xml version="1.0" encoding="UTF-8" standalone="no"?>
<!-- Created with Inkscape (http://www.inkscape.org/) -->

<svg
   id="svg2"
   version="1.1"
   inkscape:version="1.1 (c68e22c387, 2021-05-23)"
   width="2481"
   height="3503"
   sodipodi:docname="E31P06.svg"
   xmlns:inkscape="http://www.inkscape.org/namespaces/inkscape"
   xmlns:sodipodi="http://sodipodi.sourceforge.net/DTD/sodipodi-0.dtd"
   xmlns:xlink="http://www.w3.org/1999/xlink"
   xmlns="http://www.w3.org/2000/svg"
   xmlns:svg="http://www.w3.org/2000/svg"
   xmlns:rdf="http://www.w3.org/1999/02/22-rdf-syntax-ns#"
   xmlns:cc="http://creativecommons.org/ns#"
   xmlns:dc="http://purl.org/dc/elements/1.1/">
  <metadata
     id="metadata8">
    <rdf:RDF>
      <cc:Work
         rdf:about="">
        <dc:format>image/svg+xml</dc:format>
        <dc:type
           rdf:resource="http://purl.org/dc/dcmitype/StillImage" />
        <dc:title />
      </cc:Work>
    </rdf:RDF>
  </metadata>
  <defs
     id="defs6">
    <filter
       style="color-interpolation-filters:sRGB"
       id="filter4375-4-1-1-1-9-5-8-3-8"
       inkscape:label="Drop Shadow"
       x="-0.00064928628"
       y="-0.0028912956"
       width="1.0174807"
       height="1.077842">
      <feFlood
         id="feFlood4377-7-9-0-8-1-7-3-8-3"
         flood-opacity="1"
         flood-color="rgb(39,39,39)"
         result="flood" />
      <feComposite
         id="feComposite4379-3-8-8-2-77-4-1-8-7"
         in2="SourceGraphic"
         in="flood"
         operator="in"
         result="composite1" />
      <feMorphology
         id="feMorphology4393-1-0-49-8-9-3-0-31-8"
         operator="dilate"
         radius="6.2000000000000002"
         result="result3" />
      <feComposite
         id="feComposite4385-9-5-7-0-8-8-7-8-2"
         in2="result3"
         in="SourceGraphic"
         operator="over"
         result="fbSourceGraphic" />
      <feColorMatrix
         result="fbSourceGraphicAlpha"
         in="fbSourceGraphic"
         values="0 0 0 -1 0 0 0 0 -1 0 0 0 0 -1 0 0 0 0 1 0"
         id="feColorMatrix4544-96-1" />
      <feTurbulence
         id="feTurbulence4546-4-0"
         type="fractalNoise"
         numOctaves="3"
         seed="37"
         baseFrequency="0.129 0.0050000000000000001"
         result="turbulence" />
      <feDisplacementMap
         id="feDisplacementMap4548-3-5"
         in2="turbulence"
         in="fbSourceGraphic"
         scale="6.6"
         yChannelSelector="G"
         xChannelSelector="R"
         result="fbSourceGraphic" />
      <feColorMatrix
         result="fbSourceGraphicAlpha"
         in="fbSourceGraphic"
         values="0 0 0 -1 0 0 0 0 -1 0 0 0 0 -1 0 0 0 0 1 0"
         id="feColorMatrix4670-33-8" />
      <feFlood
         id="feFlood4672-8-5"
         flood-opacity="0.40999999999999998"
         flood-color="rgb(0,0,0)"
         result="flood"
         in="fbSourceGraphic" />
      <feComposite
         id="feComposite4674-6-5"
         in2="fbSourceGraphic"
         in="flood"
         operator="in"
         result="composite1" />
      <feGaussianBlur
         id="feGaussianBlur4676-0-0"
         in="composite1"
         stdDeviation="0"
         result="blur" />
      <feOffset
         id="feOffset4678-4-7"
         dx="6"
         dy="6"
         result="offset" />
      <feComposite
         id="feComposite4680-8-3"
         in2="offset"
         in="fbSourceGraphic"
         operator="over"
         result="composite2" />
    </filter>
    <filter
       style="color-interpolation-filters:sRGB"
       id="filter4375-4-1-1-1-9-0"
       inkscape:label="deevad outline effect"
       x="-0.008630671"
       y="-0.02234534"
       width="1.0172613"
       height="1.0446907">
      <feFlood
         id="feFlood4377-7-9-0-8-1-9"
         flood-opacity="1"
         flood-color="rgb(0,0,0)"
         result="flood" />
      <feComposite
         id="feComposite4379-3-8-8-2-77-1"
         in2="SourceGraphic"
         in="flood"
         operator="in"
         result="composite1" />
      <feMorphology
         id="feMorphology4393-1-0-49-8-9-9"
         operator="dilate"
         radius="3"
         result="result3" />
      <feComposite
         id="feComposite4385-9-5-7-0-8-6"
         in2="result3"
         in="SourceGraphic"
         operator="over"
         result="composite2" />
    </filter>
    <filter
       style="color-interpolation-filters:sRGB"
       id="filter4375-4-1-1-1-9-0-5"
       inkscape:label="deevad outline effect"
       x="-0.0072267324"
       y="-0.035423714"
       width="1.0144535"
       height="1.0708474">
      <feFlood
         id="feFlood4377-7-9-0-8-1-9-6"
         flood-opacity="1"
         flood-color="rgb(0,0,0)"
         result="flood" />
      <feComposite
         id="feComposite4379-3-8-8-2-77-1-2"
         in2="SourceGraphic"
         in="flood"
         operator="in"
         result="composite1" />
      <feMorphology
         id="feMorphology4393-1-0-49-8-9-9-9"
         operator="dilate"
         radius="3"
         result="result3" />
      <feComposite
         id="feComposite4385-9-5-7-0-8-6-1"
         in2="result3"
         in="SourceGraphic"
         operator="over"
         result="composite2" />
    </filter>
  </defs>
  <sodipodi:namedview
     pagecolor="#ffffff"
     bordercolor="#666666"
     borderopacity="1"
     objecttolerance="10"
     gridtolerance="10"
     guidetolerance="10"
     inkscape:pageopacity="0"
     inkscape:pageshadow="2"
     inkscape:window-width="1285"
     inkscape:window-height="745"
     id="namedview4"
     showgrid="false"
     inkscape:zoom="0.2287013"
     inkscape:cx="1770.8688"
     inkscape:cy="2625.6956"
     inkscape:window-x="73"
     inkscape:window-y="-8"
     inkscape:window-maximized="1"
     inkscape:current-layer="layer1"
     inkscape:snap-global="false"
     inkscape:pagecheckerboard="0" />
  <g
     inkscape:groupmode="layer"
     id="layer2"
     inkscape:label="artwork"
     sodipodi:insensitive="true">
    <image
       xlink:href="../gfx_Pepper-and-Carrot_by-David-Revoy_E31P06.png"
       y="0"
       x="0"
       id="image10"
       height="3503"
       width="2481" />
  </g>
  <g
     inkscape:groupmode="layer"
     id="layer3"
     inkscape:label="speechbubbles">
    <path
       style="color:#000000;display:inline;overflow:visible;visibility:visible;fill:#ffffff;fill-opacity:1;fill-rule:nonzero;stroke:none;stroke-width:1.13598561px;marker:none;enable-background:accumulate"
       d="m 859.75494,2925.6926 c -14.80028,-3.0753 -58.45766,-31.0327 -6.72605,-31.992 -38.6631,-10.7706 -34.90211,-36.1548 -4.41813,-52.3649 -40.82017,5.0058 -71.54896,0.2287 -51.76978,-26.7489 -59.75395,19.5804 -86.47836,24.2844 -75.75637,-12.7729 -26.37374,31.4363 -53.44242,27.1345 -62.14965,-7.7042 -4.94369,26.527 -45.87541,36.8922 -94.6941,4.185 16.63089,30.8416 26.07486,46.8938 -60.70537,42.3823 33.65993,16.7365 55.04665,27.4574 -0.22941,37.9391 28.79808,6.861 47.46713,17.1507 4.1581,37.0684 28.9419,4.2054 74.18851,0.3429 20.88649,36.9929 35.46738,-17.8244 96.60337,-9.1912 71.84071,17.9721 69.62268,-32.5667 83.69967,-25.4803 95.5098,-5.1642 24.87407,-31.8112 76.75374,-37.7434 99.89334,-21.0916 -12.19597,-26.5151 31.503,-17.1146 64.16042,-18.7011 z"
       id="path3549-3-78-5-3"
       inkscape:connector-curvature="0"
       sodipodi:nodetypes="ccccccccccccccc" />
    <path
       style="color:#000000;display:inline;overflow:visible;visibility:visible;fill:#ffffff;fill-opacity:1;fill-rule:nonzero;stroke:none;stroke-width:1.13598561px;marker:none;enable-background:accumulate"
       d="m 843.02907,2994.1713 c -11.89713,-2.9785 -24.17157,-22.306 -4.83933,-35.2868 -16.04099,-0.688 -25.22109,-7.3316 -10.09016,-20.9326 -33.63592,17.0282 -42.55262,-6.109 -31.54836,-33.2935 -49.36943,13.0575 -71.28017,15.72 -61.02027,-12.9191 -22.7425,23.6321 -44.55674,19.2215 -50.17625,-8.4238 -5.12498,20.6058 -16.0656,31.8674 -48.67807,5.9229 -2.4006,7.5606 8.64658,32.4271 -61.67596,25.5615 26.65036,14.4116 42.6399,17.0575 -2.71109,23.1541 23.11252,6.4833 53.82905,16.2056 17.80741,30.1585 23.34031,4.4069 45.22812,8.7539 0.38797,35.4404 29.56268,-12.6127 61.01949,-4.4394 39.76453,15.9049 57.9305,-22.8594 69.07237,-16.7642 77.8197,-0.3847 21.53965,-23.9836 52.66833,-21.2672 70.7742,-7.3256 -8.80189,-21.2539 37.58447,-17.5851 64.18568,-17.5762 z"
       id="path3549-3-78-5"
       inkscape:connector-curvature="0"
       sodipodi:nodetypes="ccccccccccccccc" />
    <path
       style="fill:#ffffff;fill-opacity:1;stroke:none;stroke-width:1.05602"
       d="m 2336.0954,607.49643 c -17.5678,3.86007 -24.3298,7.46431 -21.1842,9.6977 -7.2061,1.09817 -9.9821,30.03928 -3.2426,35.3413 0.4485,0.55806 3.5958,2.23433 2.2442,2.50979 -1.351,0.27548 -9.4524,-0.5762 -10.8057,0.53413 -1.3536,1.11089 12.1113,17.00347 10.3089,17.5563 -1.8021,0.55338 -43.1927,-10.10974 -49.0516,-7.61678 -5.859,2.49298 -2.7241,8.9012 -4.5255,9.17575 -1.8013,0.27454 -18.4545,-1.42978 -20.706,-1.15616 -2.2518,0.2736 -6.325,8.61487 -8.5765,8.88847 -2.252,0.27362 -12.5962,-3.64446 -14.3976,-3.36991 -1.8016,0.27454 -0.9192,7.23467 -3.1707,7.50829 -2.2518,0.2736 -12.1402,-5.86981 -13.4916,-5.59434 -1.3512,0.27548 -6.3393,14.1817 -8.5923,15.01188 -2.2533,0.83018 -16.6175,-15.34253 -17.9676,-15.62363 -1.3498,-0.28165 -9.953,18.90564 -11.7543,19.18018 -1.8019,0.27454 -10.771,-13.1041 -12.1224,-12.82862 -1.3514,0.27548 -9.925,8.05138 -11.7272,8.60421 -1.8021,0.55283 -13.4611,-17.28455 -15.2621,-17.28829 -1.8007,-0.004 -17.1266,7.47929 -18.4808,8.86791 -1.3543,1.38917 -2.6825,-7.24215 -4.4832,-7.24589 -1.8007,-0.004 -22.5227,4.96349 -22.9721,4.68427 -0.4495,-0.27923 3.1658,-5.56029 1.8152,-5.56309 -1.3504,-0.003 -22.5274,6.9115 -23.4245,5.5182 6.1771,-20.42315 -45.6734,6.15199 -49.0859,5.74316 -3.1486,-1.12024 20.3176,-22.78124 18.0711,-24.45617 -2.2469,-1.6744 -10.3555,0.25676 -10.8036,-0.57903 -0.4478,-0.83579 4.9639,-4.44284 3.6162,-5.55878 -1.3477,-1.1165 -16.6427,-5.60143 -17.9897,-6.99566 -1.347,-1.3948 6.7658,-4.99624 4.9671,-5.83483 -1.7987,-0.83915 -28.3464,-6.18233 -28.793,-7.57524 -0.4465,-1.39237 13.5269,-8.04334 11.731,-9.99509 -1.7956,-1.95229 -6.7458,-2.79743 -6.2919,-4.18848 0.4539,-1.39049 9.0117,-3.04299 8.5653,-4.43535 -0.4466,-1.39238 -4.9307,-8.36054 -6.2783,-9.47648 -1.3478,-1.11595 9.4555,-0.53694 9.4583,-1.65008 0,-1.11369 -2.0821,-23.5183 -18.0504,-33.66701 27.9577,6.75864 39.7402,3.53587 54.6025,1.34045 14.8622,-2.19598 9.0454,-16.12464 11.2986,-16.95484 9.1424,5.17921 23.7912,27.89768 26.1184,1.91714 -0.4623,-1.85524 16.098,11.16727 18.3496,10.89366 2.2517,-0.27361 20.8126,-14.7864 23.9647,-15.05814 3.152,-0.27174 15.2944,4.76377 17.9946,5.04767 2.7006,0.2839 4.9694,-6.66969 7.2191,-6.10843 2.2496,0.56124 16.6426,5.60143 18.8949,5.04953 2.2525,-0.55245 4.059,-2.775 5.8585,-2.21468 1.799,0.56031 9.8969,2.80399 9.8969,2.80399 0,0 5.857,-1.65812 8.558,-1.65251 2.7011,0.006 21.1353,9.22905 23.3848,9.79031 2.2495,0.56124 25.3848,-9.43403 24.0386,-11.10655 2.8492,7.31416 16.6971,0.65375 19.6273,1.02589 3.1489,0.84196 12.6096,-1.64353 13.5079,-0.80679 0.898,0.83672 3.5878,5.29601 6.2882,5.57991 2.7006,0.2839 9.0002,1.41013 9.0002,1.41013 l -0.9045,1.6684 c 0,0 18.9194,6.87013 21.175,5.20508 8.102,-0.92566 7.7421,1.56665 28.5398,-6.34533 -16.6594,16.83134 -27.7176,35.87639 6.9689,28.12884 -28.8433,7.40389 -16.0701,13.68463 8.072,12.26364 z"
       id="path5888-3-2"
       inkscape:connector-curvature="0"
       sodipodi:nodetypes="cccsccsscccccccsccscscsccsccccccsccscsccccsccscsccccccccccc" />
    <path
       style="fill:#ffffff;fill-opacity:1;stroke:none;stroke-width:1.06779"
       d="m 2204.7571,377.07827 c -0.051,0.006 -0.1036,0.0224 -0.1548,0.0522 -1.6404,0.9545 -7.7707,10.06432 -9.411,9.10983 -1.6404,-0.95544 -9.1413,-9.42624 -10.4537,-8.47175 -1.3122,0.95449 -6.1243,14.08009 -6.1243,14.08009 0,0 -7.956,-6.31896 -16.2623,-14.02233 -2.45,7.52243 -4.6626,21.73922 -6.3031,22.69371 -1.6403,0.9545 -18.4812,-16.26824 -25.1416,-22.23428 -2.4542,7.87927 -4.5461,23.51547 -6.6821,24.14324 -2.2965,1.43269 -16.831,-16.82504 -17.487,-15.39329 -0.6562,1.43173 5.0194,23.03156 3.0509,23.50881 -1.9685,0.47725 -6.5612,2.38618 -6.5612,2.38618 l 0.6553,2.86342 c 0,0 -13.7794,-7.63823 -15.4198,-10.5017 -1.6403,-2.86441 0.9849,12.41211 1.9692,16.23102 -5.9056,-3.81891 -23.2935,-11.9349 -24.6057,-14.32208 -1.3123,-2.38622 2.2968,8.59272 4.2652,11.93341 -2.6246,-1.43171 -4.9221,-1.90894 -4.9221,-1.90894 l 7.5465,11.45617 -2.296,0.95446 c 0,0 4.9206,5.24958 4.9206,7.63579 0,2.38719 -12.7955,5.25209 -12.7955,5.25209 14.5154,14.30044 5.3708,18.52104 -5.9044,21.00339 6.1251,3.19892 10.4246,6.2843 13.0128,9.05507 l -12.4998,4.73011 12.9817,9.62675 -6.9241,4.12612 6.9241,6.87768 -19.0408,11.00378 19.9072,6.87769 -14.7145,12.3808 14.7145,6.87768 -7.7905,9.62677 17.4407,1.84928 c 0,4.0003 -5.0782,24.23331 -7.6076,29.61602 9.9629,-0.0385 26.5262,0.17151 38.5664,0.17151 0.022,1.48187 0.094,2.55373 0.4738,2.69191 0.6446,0.23443 3.9141,-0.34136 7.2557,-0.92713 l 10.6308,5.63239 c 1.253,4.0133 2.5421,8.3988 3.4394,8.65986 1.0253,0.29827 4.3566,-2.20007 7.0318,-3.99934 6e-4,-3.2e-4 0,3.2e-4 0,0 l 3.8335,-1.15581 c 0.8227,2.44229 0.4713,11.88972 1.9284,12.3137 1.6405,0.47726 8.8584,-10.02198 9.8426,-9.54473 0.9842,0.47724 4.5925,24.34399 6.2327,25.77575 1.6405,1.43171 12.1397,-26.25299 13.1241,-26.73023 0.9841,-0.4782 7.2163,32.45707 8.5286,32.9343 1.3124,0.47727 7.8745,-22.43511 8.8588,-21.95785 0.9843,0.47723 7.2181,13.84481 8.5303,14.7993 1.3124,0.9545 9.8424,-29.59613 11.1548,-29.59613 1.3123,0 12.4666,12.88784 13.4509,15.27407 0.9843,2.38718 1.969,-12.41065 3.2813,-12.41065 1.3124,0 16.4025,8.59276 16.7306,8.11552 0.3282,-0.47725 -2.2965,-9.54724 -1.3122,-9.54724 0.9842,0 16.4045,11.93345 17.0607,9.54724 0.656,-2.38719 28.1681,4.41097 35.7602,10.02445 -5.8876,-12.1678 -14.7642,-39.13988 -13.1239,-42.00429 1.6404,-2.86346 7.547,0.47726 7.8751,-0.95448 0.328,-1.43174 -3.6086,-7.63826 -2.6244,-9.54721 0.9842,-1.90994 12.1381,-9.54717 13.1222,-11.93341 0.9842,-2.38716 -4.9204,-8.59025 -3.6082,-10.02198 1.3123,-1.43268 20.6692,-10.50319 20.9973,-12.89035 0.328,-2.38623 -9.8426,-13.84229 -8.5303,-17.18301 1.3123,-3.34166 4.9218,-4.77137 4.5936,-7.15855 -0.3281,-2.3862 -6.5623,-5.25207 -6.2342,-7.63828 0.328,-2.38622 3.6094,-14.31955 4.5935,-16.22853 0.9844,-1.90898 -6.8895,-0.95445 -6.8895,-2.86342 0,-1.90994 -18.0024,-12.38922 2.2298,-40.65119 -28.9632,6.03378 -18.9619,-1.35304 -29.7884,-5.17099 -10.8267,-3.81892 -6.5615,-27.68717 -8.2018,-29.1189 -1.6405,-1.43269 -13.7797,8.11557 -15.42,4.77485 -1.6404,-3.34166 -2.2975,-9.54722 -3.6099,-9.54722 -1.3121,0 -15.41,10.26256 -17.0504,9.78531 -1.6404,-0.47725 -10.5075,-18.37805 -12.8041,-18.85529 -2.2965,-0.47726 -11.1555,8.11551 -13.124,8.59275 -1.9068,0.46233 -3.5044,-10.7222 -5.094,-10.55389 z"
       id="path5888-3"
       inkscape:connector-curvature="0"
       sodipodi:nodetypes="ccccccccccscccccccccscccccccccccccccscccccccccccccscsssccccccccccccsccccsccccc" />
    <path
       style="color:#000000;display:inline;overflow:visible;visibility:visible;fill:#ffffff;fill-opacity:1;fill-rule:nonzero;stroke:none;stroke-width:0.99999994px;marker:none;enable-background:accumulate"
       d="m 1272.5449,3077.9523 c -78.231,15.2781 -158.5825,23.1124 -234.3525,47.042 l 48.6913,-38.9221 c -31.113,-0.2775 -62.6052,11.89 -93.96922,19.832 l 24.81112,-26.6421 c -73.62433,-0.043 -140.93978,19.5825 -211.30464,29.7017 l 48.37788,-44.8304 c 71.35729,-4.7997 140.74069,-1.8479 214.31916,-15.3676 l -20.5535,27.1733 c 25.7084,-2.3825 51.5171,-5.4463 77.7719,-11.5491 l -30.1046,33.1547 z"
       id="path4032-1"
       inkscape:connector-curvature="0"
       sodipodi:nodetypes="cccccccccccc" />
    <path
       style="display:inline;fill:#ffffff;fill-rule:evenodd;stroke:none;stroke-width:0.95866078px;stroke-linecap:butt;stroke-linejoin:miter;stroke-opacity:1"
       d="m 518.03764,2979.2366 c 47.45441,23.355 88.44603,41.0773 56.26585,-25.083 38.32299,49.4296 53.77977,27.5103 63.09757,-1.3936 29.97418,24.8442 50.67193,46.8027 65.53548,28.9276 5.53998,22.9883 17.42065,13.7115 27.70267,12.5694 3.38641,5.2017 -21.09131,-11.802 25.89867,-29.0181 -5.85003,-33.0161 29.87274,3.8352 57.39717,-11.4276 7.13071,27.9419 3.16074,45.2359 43.56546,5.8228 -14.60266,38.7644 -8.54754,44.2395 10.11166,29.404 -8.53084,15.9636 -13.63315,28.3211 18.77867,1.2247 -11.09619,29.4655 28.10871,9.9952 66.4456,-20.2566 -36.48263,33.5457 -87.27539,71.1845 -46.22216,66.8129 -5.72515,9.2221 -26.14632,17.2571 34.66843,31.8543 -11.3533,6.2577 -46.01455,-2.8874 -17.10083,23.6089 3.87385,3.0977 -9.09489,4.9888 15.6563,13.1458 -14.61089,-0.555 -23.57142,1.4268 -10.11168,13.4765 -26.6703,-0.6517 -16.69144,12.0185 2.88908,28.1785 -50.0161,-31.6245 -66.04535,-37.3865 -41.89121,-4.9004 -48.40512,-28.2604 -65.44372,-24.6432 -59.27522,-1.4092 -20.60499,-24.6694 -44.19888,-28.9832 -63.30952,-0.4832 -20.37612,-29.4078 -34.25857,-26.3948 -76.7593,-4.2335 22.92622,-24.9384 -9.68928,-9.0501 -34.66856,1.2247 13.67914,-31.1535 -21.03656,-10.707 -65.00354,19.6024 24.6213,-34.4018 -3.34271,-21.9748 -44.78025,2.4502 15.65639,-33.7969 -9.84147,-50.1411 -70.7816,-51.4559 29.16775,-12.1912 46.17688,-27.5334 15.88983,-55.1323 34.1421,8.1266 44.32618,0.5779 20.22328,-29.4033 37.23996,24.6085 20.30833,-11.0852 5.77815,-44.106 z"
       id="path4508-9"
       inkscape:connector-curvature="0"
       sodipodi:nodetypes="cccccccccccccccccccccccccccc" />
    <path
       style="color:#000000;display:inline;overflow:visible;visibility:visible;fill:#ffffff;fill-opacity:1;fill-rule:nonzero;stroke:none;stroke-width:1px;marker:none;enable-background:accumulate"
       d="m 2279.1877,625.34512 c -0.091,3.76817 51.831,-6.4041 51.831,-6.4041 0,0 1.5665,29.95657 4.6782,32.0986 11.0733,-0.0391 21.0624,-5.37296 21.0624,-5.37296 l 18.0133,48.73793 -20.0054,-31.72225 c -9.8867,-0.91886 -20.0127,-0.88091 -32.7339,9.5382 l -4.3594,-32.26765 -34.1656,7.80769 z"
       id="path4448"
       inkscape:connector-curvature="0"
       sodipodi:nodetypes="cccccccccc" />
  </g>
  <g
     inkscape:groupmode="layer"
     id="layer1"
     inkscape:label="txt">
    <text
       xml:space="preserve"
       style="font-style:normal;font-variant:normal;font-weight:normal;font-stretch:normal;font-size:15.8906px;line-height:0%;font-family:Lavi;-inkscape-font-specification:Lavi;text-align:center;letter-spacing:0px;word-spacing:0px;text-anchor:middle;fill:#000000;fill-opacity:1;stroke:none;stroke-width:1.17751"
       x="2192.574"
       y="463.70416"
       id="text4246-1-3-2-8"
       transform="scale(0.99789912,1.0021053)"><tspan
         sodipodi:role="line"
         style="font-style:normal;font-variant:normal;font-weight:bold;font-stretch:normal;font-size:46.6667px;line-height:1.25;font-family:Lavi;-inkscape-font-specification:'Lavi Bold';stroke-width:1.17751"
         x="2192.574"
         y="463.70416"
         id="tspan829">Řekla</tspan><tspan
         sodipodi:role="line"
         style="font-style:normal;font-variant:normal;font-weight:bold;font-stretch:normal;font-size:46.6667px;line-height:1.25;font-family:Lavi;-inkscape-font-specification:'Lavi Bold';stroke-width:1.17751"
         x="2192.574"
         y="522.03754"
         id="tspan123712">jsem</tspan><tspan
         sodipodi:role="line"
         style="font-style:normal;font-variant:normal;font-weight:bold;font-stretch:normal;font-size:46.6667px;line-height:1.25;font-family:Lavi;-inkscape-font-specification:'Lavi Bold';stroke-width:1.17751"
         x="2192.574"
         y="580.37091"
         id="tspan123714">DOST!</tspan></text>
    <text
       xml:space="preserve"
       style="font-style:normal;font-variant:normal;font-weight:normal;font-stretch:normal;font-size:15.8906px;line-height:0%;font-family:Lavi;-inkscape-font-specification:Lavi;text-align:center;letter-spacing:0px;word-spacing:0px;text-anchor:middle;fill:#000000;fill-opacity:1;stroke:none;stroke-width:1.17751"
       x="2144.4634"
       y="637.91968"
       id="text4246-1-3-2-8-3"
       transform="scale(0.99789912,1.0021053)"><tspan
         sodipodi:role="line"
         style="font-style:normal;font-variant:normal;font-weight:bold;font-stretch:normal;font-size:46.6667px;line-height:1.25;font-family:Lavi;-inkscape-font-specification:'Lavi Bold';stroke-width:1.17751"
         x="2144.4634"
         y="637.91968"
         id="tspan829-7">To stačí!</tspan></text>
    <text
       xml:space="preserve"
       style="font-style:normal;font-variant:normal;font-weight:normal;font-stretch:normal;line-height:0%;font-family:Lavi;-inkscape-font-specification:Lavi;letter-spacing:0px;word-spacing:0px;fill:#000000;fill-opacity:1;stroke:#ffffff;stroke-width:2.66678;stroke-miterlimit:4;stroke-dasharray:none;stroke-opacity:1;filter:url(#filter4375-4-1-1-1-9-0)"
       x="787.65729"
       y="1584.5073"
       id="text4580-25"
       transform="matrix(0.55718765,-0.37423929,0.21813977,1.0749149,-120.92735,-234.76499)"><tspan
         sodipodi:role="line"
         id="tspan4582-4"
         x="787.65729"
         y="1584.5073"
         style="font-size:70px;line-height:100%;letter-spacing:4.88345px;fill:#ffffff;stroke:#ffffff;stroke-width:2.66678;stroke-miterlimit:4;stroke-dasharray:none;stroke-opacity:1"><tspan
           style="font-size:55.3496px;line-height:100%;letter-spacing:4.88345px;stroke:#ffffff;stroke-width:2.66678;stroke-miterlimit:4;stroke-dasharray:none;stroke-opacity:1"
           id="tspan4439-4">Lusk</tspan><tspan
           style="font-size:80.4001px;line-height:100%;letter-spacing:4.88345px;stroke:#ffffff;stroke-width:2.66678;stroke-miterlimit:4;stroke-dasharray:none;stroke-opacity:1"
           id="tspan4617-9">!</tspan></tspan></text>
    <text
       xml:space="preserve"
       style="font-style:normal;font-variant:normal;font-weight:normal;font-stretch:normal;line-height:0%;font-family:Lavi;-inkscape-font-specification:Lavi;letter-spacing:0px;word-spacing:0px;display:inline;fill:#ffffff;fill-opacity:1;stroke:#000000;stroke-width:0.481485;stroke-miterlimit:4;stroke-dasharray:none;stroke-opacity:1;filter:url(#filter4375-4-1-1-1-9-5-8-3-8)"
       x="787.65729"
       y="1584.5073"
       id="text4580-6-0-8-8"
       transform="matrix(1.5492299,-0.0813593,-0.87667877,1.9075458,1570.733,-1836.1775)"><tspan
         sodipodi:role="line"
         id="tspan4582-1-1-8-2"
         x="787.65729"
         y="1584.5073"
         style="font-style:normal;font-variant:normal;font-weight:bold;font-stretch:normal;font-size:70px;line-height:1.25;font-family:'Noto Sans';-inkscape-font-specification:'Noto Sans Bold';letter-spacing:5.87611px;fill:#ffffff;fill-opacity:1;stroke:#000000;stroke-width:0.481485;stroke-opacity:1"><tspan
           style="font-style:normal;font-variant:normal;font-weight:bold;font-stretch:normal;font-size:93.1495px;font-family:'Noto Sans';-inkscape-font-specification:'Noto Sans Bold';letter-spacing:5.87611px;fill:#ffffff;fill-opacity:1;stroke:#000000;stroke-width:0.481485;stroke-opacity:1"
           id="tspan4315-8-97-3">PUUUF</tspan><tspan
           style="font-style:normal;font-variant:normal;font-weight:bold;font-stretch:normal;font-size:114.732px;font-family:'Noto Sans';-inkscape-font-specification:'Noto Sans Bold';letter-spacing:5.87611px;fill:#ffffff;fill-opacity:1;stroke:#000000;stroke-width:0.481485;stroke-opacity:1"
           id="tspan4313-2-76-0">!</tspan></tspan></text>
    <text
       xml:space="preserve"
       style="font-style:normal;font-variant:normal;font-weight:normal;font-stretch:normal;line-height:0%;font-family:Lavi;-inkscape-font-specification:Lavi;letter-spacing:0px;word-spacing:0px;fill:#000000;fill-opacity:1;stroke:#ffffff;stroke-width:4.21926;stroke-miterlimit:4;stroke-dasharray:none;stroke-opacity:1;filter:url(#filter4375-4-1-1-1-9-0-5)"
       x="787.65729"
       y="1584.5073"
       id="text4580-25-2"
       transform="matrix(0.37191843,0.11061463,-0.38324889,0.61702867,2371.8774,1301.4149)"><tspan
         sodipodi:role="line"
         id="tspan4582-4-7"
         x="787.65729"
         y="1584.5073"
         style="font-style:normal;font-variant:normal;font-weight:bold;font-stretch:normal;font-size:80.4001px;line-height:100%;font-family:'Noto Sans';-inkscape-font-specification:'Noto Sans Bold';letter-spacing:4.88345px;fill:#ffffff;stroke:#ffffff;stroke-width:4.21926;stroke-miterlimit:4;stroke-dasharray:none;stroke-opacity:1">TSZZZ!</tspan></text>
    <text
       xml:space="preserve"
       style="font-style:normal;font-variant:normal;font-weight:normal;font-stretch:normal;font-size:15.8906px;line-height:0%;font-family:Lavi;-inkscape-font-specification:Lavi;text-align:center;letter-spacing:0px;word-spacing:0px;text-anchor:middle;fill:#000000;fill-opacity:1;stroke:none;stroke-width:1.17751"
       x="685.59564"
       y="2895.5073"
       id="text4246-1-3-2-8-3-3"
       transform="scale(0.99789912,1.0021053)"><tspan
         sodipodi:role="line"
         style="font-style:normal;font-variant:normal;font-weight:bold;font-stretch:normal;font-size:46.6667px;line-height:1.25;font-family:Lavi;-inkscape-font-specification:'Lavi Bold';stroke-width:1.17751"
         x="685.59564"
         y="2895.5073"
         id="tspan829-7-6">SEM!</tspan></text>
    <text
       xml:space="preserve"
       style="font-style:normal;font-variant:normal;font-weight:normal;font-stretch:normal;font-size:15.8906px;line-height:0%;font-family:Lavi;-inkscape-font-specification:Lavi;text-align:center;letter-spacing:0px;word-spacing:0px;text-anchor:middle;fill:#000000;fill-opacity:1;stroke:none;stroke-width:1.17751"
       x="719.39069"
       y="2985.6943"
       id="text4246-1-3-2-8-3-3-7"
       transform="scale(0.99789912,1.0021053)"><tspan
         sodipodi:role="line"
         style="font-style:normal;font-variant:normal;font-weight:bold;font-stretch:normal;font-size:46.6667px;line-height:1.25;font-family:Lavi;-inkscape-font-specification:'Lavi Bold';stroke-width:1.17751"
         x="719.39069"
         y="2985.6943"
         id="tspan829-7-6-5">Obě!</tspan></text>
    <text
       xml:space="preserve"
       style="font-style:normal;font-variant:normal;font-weight:normal;font-stretch:normal;font-size:15.8906px;line-height:0%;font-family:Lavi;-inkscape-font-specification:Lavi;text-align:center;letter-spacing:0px;word-spacing:0px;text-anchor:middle;fill:#000000;fill-opacity:1;stroke:none;stroke-width:1.17751"
       x="713.04907"
       y="3070.9504"
       id="text4246-1-3-2-8-36-2"
       transform="scale(0.99789912,1.0021053)"><tspan
         sodipodi:role="line"
         style="font-style:normal;font-variant:normal;font-weight:bold;font-stretch:normal;font-size:46.6667px;line-height:1.25;font-family:Lavi;-inkscape-font-specification:'Lavi Bold';stroke-width:1.17751"
         x="713.04907"
         y="3070.9504"
         id="tspan1020-8">Okamžitě!</tspan></text>
    <text
       xml:space="preserve"
       style="font-size:21.3333px;line-height:25px;font-family:sans-serif;letter-spacing:0px;word-spacing:0px;fill:none;stroke:#000000;stroke-width:1px;stroke-linecap:butt;stroke-linejoin:miter;stroke-opacity:1"
       x="2222.3311"
       y="425.22714"
       id="text124890"><tspan
         sodipodi:role="line"
         id="tspan124888"
         x="2222.3311"
         y="425.22714">+</tspan></text>
  </g>
</svg>
